2506.56	2506.56
2896
2597	2455.24
15
0	442	3000
1	326	3000
2	609	3000
3	304	3000
4	210	3000
5	421	3000
6	749	3000
7	411	3000
8	728	3000
9	0	3000
10	157	3000
11	303	3000
12	170	3000
13	509	3000
14	117	3000
44
0	5	90.778960	94.942746
5	0	91.882170	94.942746
0	6	85.235394	97.708373
6	0	81.801674	97.708373
0	7	83.477412	107.847469
7	0	85.706926	107.847469
1	2	43.239310	106.004333
2	1	38.695216	106.004333
1	4	9.724902	104.160274
4	1	7.482388	104.160274
1	5	50.761254	106.004333
5	1	57.352372	106.004333
2	4	47.006622	97.708373
4	2	41.843142	97.708373
2	7	93.804424	94.021178
7	2	93.390710	94.021178
3	4	42.273738	91.255735
4	3	49.215130	91.255735
3	5	73.668840	83.881529
5	3	67.398422	83.881529
5	12	82.633450	84.803282
12	5	83.144802	84.803282
6	9	88.512856	89.412137
9	6	86.276650	89.412137
6	13	89.679342	101.395569
13	6	89.229498	101.395569
7	8	77.162148	100.473078
8	7	80.966792	100.473078
7	14	44.060616	104.160274
14	7	42.082244	104.160274
8	9	57.732766	97.708373
9	8	49.429402	97.708373
8	11	32.430302	82.959776
11	8	43.337116	82.959776
8	14	22.346850	88.490385
14	8	24.311582	88.490385
9	11	34.590922	103.238705
11	9	24.111120	103.238705
10	12	28.499850	97.708373
12	10	28.889268	97.708373
10	13	38.144628	93.099610
13	10	38.248972	93.099610
12	13	42.877718	90.333982
13	12	43.117464	90.333982
840
4	10	12	5	3	10	0	10	1	10	5	10	3	10	4	
3	14	7	2	14	0	7	1	7	5	7	3	7	4	
3	3	5	0	3	0	3	1	3	5	3	3	3	4	
2	8	9	8	0	8	1	8	2	8	3	8	4	
4	14	7	2	4	14	0	14	1	14	5	14	3	14	4	
3	2	7	14	2	0	2	1	2	2	2	5	2	4	
4	9	6	13	12	6	0	6	1	6	5	6	3	6	4	
2	12	5	5	0	5	1	5	2	5	1	5	0	
3	2	7	8	2	0	2	1	2	2	2	5	2	4	
3	5	1	2	5	0	1	1	1	2	1	1	1	0	
5	13	12	5	3	4	13	0	13	1	13	2	13	3	13	4	
3	0	7	2	0	0	0	1	7	2	7	1	7	0	
4	4	3	5	12	4	0	4	1	4	5	4	3	4	4	
2	6	13	6	0	6	1	6	2	6	3	6	4	
3	8	7	0	8	0	8	1	8	2	8	5	8	4	
3	1	2	7	1	0	1	1	1	2	1	5	2	4	
3	8	9	6	8	0	8	1	8	2	8	5	8	4	
5	3	4	2	7	14	3	0	3	1	3	2	3	5	4	4	
2	8	7	8	0	8	1	8	5	8	3	8	4	
2	10	12	10	0	10	1	10	2	10	3	10	4	
4	3	5	0	7	5	0	5	1	5	2	5	3	5	4	
4	7	0	6	13	7	0	7	1	7	5	7	3	7	4	
4	14	7	2	1	14	0	14	1	14	5	14	3	14	4	
5	11	8	7	0	5	11	0	11	1	8	2	8	1	8	0	
2	1	2	1	0	1	1	1	2	1	3	2	4	
4	4	3	5	12	4	0	4	1	4	2	4	1	4	0	
3	7	2	1	2	0	2	1	2	5	2	3	2	4	
3	2	1	5	2	0	2	1	2	5	2	3	2	4	
2	9	6	6	0	6	1	6	5	6	3	6	4	
5	1	2	7	8	11	1	0	2	1	2	2	2	5	2	4	
4	11	8	7	0	11	0	11	1	11	2	8	1	8	0	
6	14	7	0	6	13	10	14	0	14	1	7	2	7	3	7	4	
2	4	1	4	0	1	1	1	2	1	1	1	0	
4	12	5	0	7	5	0	5	1	5	2	5	3	5	4	
2	5	0	5	0	0	1	0	2	0	3	0	4	
4	0	5	3	4	0	0	0	1	0	2	0	5	0	4	
2	11	9	11	0	11	1	11	2	11	1	11	0	
4	10	13	6	9	13	0	13	1	13	2	13	5	13	4	
2	9	8	8	0	8	1	8	5	8	3	8	4	
5	11	9	6	13	12	11	0	11	1	11	2	11	5	11	4	
3	7	0	6	7	0	7	1	7	2	7	5	7	4	
2	14	7	14	0	14	1	14	2	14	5	14	4	
4	13	6	9	11	6	0	6	1	6	5	6	3	6	4	
4	2	7	8	11	2	0	2	1	2	5	2	3	2	4	
3	6	13	10	6	0	6	1	6	5	6	3	6	4	
3	13	12	5	13	0	13	1	13	5	13	3	13	4	
3	0	5	1	0	0	0	1	0	2	0	3	0	4	
5	3	5	0	6	9	3	0	3	1	3	2	3	1	3	0	
4	3	5	12	10	3	0	3	1	3	2	3	5	3	4	
3	1	5	0	1	0	1	1	1	5	1	3	1	4	
3	7	0	5	7	0	7	1	7	2	7	3	7	4	
5	5	0	6	9	11	5	0	5	1	5	5	5	3	5	4	
3	0	7	8	0	0	0	1	0	2	0	5	0	4	
3	0	7	14	0	0	0	1	0	2	0	5	0	4	
2	3	4	3	0	3	1	3	2	3	1	3	0	
4	11	8	7	2	8	0	8	1	8	2	8	3	8	4	
2	14	8	8	0	8	1	8	2	8	1	8	0	
2	4	3	4	0	4	1	4	2	4	3	4	4	
2	2	4	2	0	2	1	2	2	2	3	2	4	
3	10	13	6	10	0	13	1	13	2	13	1	13	0	
3	13	6	0	13	0	13	1	6	2	6	5	6	4	
4	0	6	13	10	0	0	6	1	6	2	6	5	6	4	
4	6	0	5	1	6	0	6	1	6	2	6	5	6	4	
3	9	8	7	8	0	8	1	8	5	8	3	8	4	
5	8	9	6	13	10	8	0	8	1	8	2	8	3	8	4	
5	12	5	0	7	8	5	0	5	1	5	5	5	3	5	4	
4	14	7	0	5	14	0	7	1	7	2	7	1	7	0	
3	5	0	7	5	0	0	1	0	5	0	3	0	4	
3	12	13	6	13	0	13	1	13	5	13	3	13	4	
2	6	0	6	0	6	1	6	2	6	5	6	4	
2	5	1	5	0	5	1	5	5	5	3	5	4	
2	10	13	13	0	13	1	13	2	13	5	13	4	
4	13	12	5	3	13	0	13	1	13	2	13	3	13	4	
2	11	8	11	0	8	1	8	2	8	5	8	4	
4	6	0	7	2	6	0	6	1	6	2	6	3	6	4	
4	4	2	7	8	2	0	2	1	2	5	2	3	2	4	
4	9	6	13	10	6	0	6	1	6	2	6	1	6	0	
2	13	12	13	0	13	1	13	2	13	5	13	4	
2	10	13	13	0	13	1	13	2	13	3	13	4	
4	3	5	0	6	3	0	3	1	3	2	3	3	3	4	
5	7	0	6	13	10	7	0	0	1	0	2	0	1	0	0	
5	9	6	0	5	3	6	0	6	1	6	2	6	1	6	0	
3	12	5	3	12	0	12	1	12	2	12	5	12	4	
2	5	12	5	0	5	1	5	2	5	5	5	4	
3	7	8	9	8	0	8	1	8	5	8	3	8	4	
4	11	9	6	13	11	0	11	1	11	5	11	3	11	4	
3	0	6	13	0	0	6	1	6	5	6	3	6	4	
5	8	9	6	13	12	8	0	8	1	8	2	8	1	8	0	
3	14	8	11	8	0	8	1	8	2	8	3	8	4	
2	4	2	2	0	2	1	2	5	2	3	2	4	
3	12	5	0	5	0	5	1	5	2	5	3	5	4	
2	2	7	7	0	7	1	7	2	7	1	7	0	
5	14	7	0	6	13	14	0	14	1	7	2	7	5	7	4	
4	13	12	5	1	13	0	13	1	13	2	13	1	13	0	
2	6	0	0	0	0	1	0	2	0	1	0	0	
5	14	7	0	5	3	7	0	7	1	7	5	7	3	7	4	
3	14	7	2	14	0	14	1	14	2	14	5	14	4	
2	8	9	8	0	8	1	8	2	8	1	8	0	
3	6	13	12	6	0	6	1	6	2	6	5	6	4	
3	2	7	14	7	0	7	1	7	2	7	1	7	0	
4	10	12	5	1	10	0	10	1	10	2	10	5	10	4	
4	3	5	12	10	3	0	3	1	3	5	3	3	3	4	
2	9	8	8	0	8	1	8	2	8	3	8	4	
2	3	5	3	0	3	1	3	2	3	5	3	4	
3	5	1	2	5	0	5	1	5	2	5	5	5	4	
5	13	12	5	3	4	13	0	13	1	13	2	13	1	13	0	
3	0	7	2	0	0	0	1	0	2	0	3	0	4	
2	6	13	13	0	13	1	13	2	13	1	13	0	
3	8	7	0	7	0	7	1	7	2	7	1	7	0	
3	11	9	6	11	0	11	1	11	2	11	5	11	4	
3	1	2	7	1	0	1	1	1	2	2	1	2	0	
3	7	2	4	7	0	2	1	2	2	2	3	2	4	
3	3	4	2	3	0	3	1	3	2	3	5	3	4	
5	10	12	5	1	2	10	0	10	1	10	5	10	3	10	4	
3	3	5	1	3	0	3	1	3	5	3	3	3	4	
2	10	12	10	0	10	1	10	5	10	3	10	4	
3	13	6	9	13	0	6	1	6	5	6	3	6	4	
4	7	0	6	13	7	0	7	1	7	2	7	5	7	4	
5	11	8	7	0	5	11	0	8	1	8	2	8	3	8	4	
2	1	2	1	0	1	1	1	2	1	1	1	0	
4	4	3	5	12	4	0	4	1	4	2	4	3	4	4	
4	12	5	1	2	5	0	5	1	5	2	5	1	5	0	
3	2	1	5	2	0	2	1	2	2	2	3	2	4	
3	5	12	13	12	0	12	1	12	2	12	1	12	0	
4	5	0	7	14	0	0	0	1	0	5	0	3	0	4	
5	11	9	6	13	10	11	0	11	1	11	2	11	5	11	4	
3	13	6	9	6	0	6	1	6	2	6	5	6	4	
5	1	2	7	8	11	1	0	1	1	1	2	1	1	1	0	
2	8	11	11	0	11	1	11	2	11	3	11	4	
2	4	1	4	0	4	1	4	2	4	5	4	4	
3	14	8	9	14	0	8	1	8	2	8	5	8	4	
4	12	5	0	7	5	0	5	1	5	2	5	1	5	0	
2	5	0	5	0	0	1	0	2	0	1	0	0	
5	13	12	5	1	2	12	0	12	1	12	2	12	3	12	4	
4	0	5	3	4	0	0	0	1	0	2	0	1	0	0	
3	7	8	11	7	0	7	1	8	5	8	3	8	4	
4	6	0	5	3	6	0	6	1	6	2	6	3	6	4	
2	11	9	11	0	11	1	11	2	11	3	11	4	
3	10	12	5	10	0	10	1	10	2	10	5	10	4	
3	7	0	6	7	0	7	1	7	5	7	3	7	4	
5	12	5	0	7	14	5	0	5	1	5	2	5	1	5	0	
2	14	7	7	0	7	1	7	5	7	3	7	4	
4	13	6	9	11	13	0	13	1	6	2	6	5	6	4	
3	6	13	10	6	0	6	1	6	2	6	5	6	4	
3	13	12	5	13	0	13	1	13	2	13	5	13	4	
3	0	5	1	0	0	0	1	0	2	0	1	0	0	
5	3	5	0	6	9	3	0	3	1	3	2	3	3	3	4	
3	11	8	7	11	0	11	1	11	2	11	1	11	0	
3	1	5	0	1	0	1	1	1	2	1	3	1	4	
4	4	2	7	14	2	0	2	1	2	2	2	1	2	0	
5	5	0	6	9	11	0	0	0	1	0	2	0	5	0	4	
5	13	6	0	7	14	13	0	13	1	6	2	6	3	6	4	
3	0	7	8	7	0	7	1	7	2	7	1	7	0	
2	3	4	3	0	3	1	3	2	3	5	3	4	
4	11	8	7	2	11	0	11	1	11	2	11	1	11	0	
2	14	8	8	0	8	1	8	2	8	3	8	4	
5	2	1	5	12	10	2	0	2	1	2	5	2	3	2	4	
2	4	3	4	0	4	1	4	2	4	1	4	0	
3	12	5	1	5	0	5	1	5	2	5	3	5	4	
2	2	4	2	0	2	1	2	5	2	3	2	4	
4	5	0	7	14	0	0	0	1	0	2	0	3	0	4	
3	10	13	6	10	0	13	1	13	2	13	3	13	4	
3	13	6	0	13	0	13	1	6	5	6	3	6	4	
4	6	0	5	1	6	0	6	1	6	5	6	3	6	4	
4	8	7	2	4	8	0	8	1	8	5	8	3	8	4	
4	14	7	0	5	7	0	7	1	7	2	7	5	7	4	
5	8	9	6	13	10	8	0	8	1	8	5	8	3	8	4	
5	12	13	6	9	8	12	0	12	1	12	2	12	5	13	4	
3	5	0	7	0	0	0	1	0	2	0	5	0	4	
3	12	13	6	13	0	13	1	13	2	13	5	13	4	
2	5	1	5	0	5	1	5	2	5	5	5	4	
5	10	13	6	9	8	13	0	13	1	13	2	13	1	13	0	
3	0	5	3	0	0	0	1	0	2	0	3	0	4	
6	3	5	0	7	8	11	3	0	3	1	3	2	3	1	3	0	
4	4	2	7	8	4	0	2	1	2	2	2	5	2	4	
2	12	13	13	0	13	1	13	2	13	3	13	4	
2	7	8	8	0	8	1	8	5	8	3	8	4	
2	2	1	2	0	2	1	2	2	2	5	2	4	
4	9	6	13	10	6	0	6	1	6	2	6	5	6	4	
2	13	12	13	0	13	1	13	5	13	3	13	4	
2	10	13	13	0	13	1	13	2	13	1	13	0	
4	3	5	0	6	3	0	5	1	5	2	5	1	5	0	
4	9	6	13	12	6	0	6	1	6	2	6	5	6	4	
5	11	8	7	2	4	8	0	8	1	8	2	8	3	8	4	
2	8	11	11	0	11	1	11	5	11	3	11	4	
5	4	1	5	12	13	4	0	4	1	1	2	1	3	1	4	
5	9	6	0	5	3	6	0	6	1	6	2	6	3	6	4	
3	12	5	3	12	0	12	1	12	5	12	3	12	4	
2	5	12	5	0	5	1	5	5	5	3	5	4	
5	10	12	5	3	4	10	0	10	1	10	2	10	1	10	0	
4	1	5	12	13	1	0	1	1	1	2	1	5	1	4	
4	11	9	6	13	11	0	11	1	11	2	11	5	11	4	
5	8	9	6	13	12	8	0	8	1	8	2	8	3	8	4	
3	14	8	11	8	0	8	1	8	2	8	1	8	0	
5	2	7	0	6	13	2	0	2	1	7	2	7	5	7	4	
2	4	2	2	0	2	1	2	2	2	5	2	4	
3	9	6	13	6	0	6	1	6	2	6	1	6	0	
2	2	7	2	0	2	1	2	2	2	5	2	4	
4	13	12	5	1	13	0	13	1	13	2	13	3	13	4	
2	6	0	6	0	6	1	6	2	6	3	6	4	
2	11	8	8	0	8	1	8	2	8	3	8	4	
3	14	7	2	7	0	7	1	7	2	7	1	7	0	
4	6	0	7	2	6	0	6	1	6	5	6	3	6	4	
2	1	4	1	0	1	1	1	2	1	5	1	4	
3	7	2	1	7	0	7	1	2	2	2	1	2	0	
3	2	7	14	2	0	2	1	2	2	2	3	2	4	
2	9	8	8	0	8	1	8	2	8	1	8	0	
3	0	5	12	5	0	5	1	5	5	5	3	5	4	
3	5	1	2	5	0	5	1	5	5	5	3	5	4	
5	10	13	6	9	11	10	0	13	1	13	2	13	3	13	4	
3	0	7	2	0	0	0	1	0	5	0	3	0	4	
5	3	4	2	7	8	3	0	3	1	4	2	4	3	4	4	
3	8	7	0	8	0	8	1	8	2	8	3	8	4	
3	11	9	6	11	0	11	1	11	5	11	3	11	4	
3	3	5	12	3	0	3	1	3	5	3	3	3	4	
3	1	2	7	1	0	1	1	1	2	1	3	2	4	
3	7	2	4	2	0	2	1	2	2	2	1	2	0	
5	9	6	0	5	1	6	0	6	1	6	2	6	1	6	0	
3	2	7	0	7	0	7	1	7	2	7	1	7	0	
2	12	5	5	0	5	1	5	5	5	3	5	4	
5	10	12	5	1	2	10	0	10	1	10	2	10	5	10	4	
2	9	8	8	0	8	1	8	2	8	5	8	4	
2	10	12	10	0	10	1	10	2	10	5	10	4	
4	1	2	7	8	2	0	2	1	2	2	2	5	2	4	
4	3	5	0	7	3	0	3	1	3	2	3	5	3	4	
4	7	0	6	13	7	0	7	1	0	2	0	1	0	0	
2	8	14	8	0	8	1	8	2	8	1	8	0	
3	14	8	9	14	0	8	1	8	2	8	3	8	4	
5	1	2	7	8	9	2	0	2	1	2	2	2	5	2	4	
4	12	5	1	2	12	0	12	1	12	2	12	3	12	4	
3	2	1	5	1	0	1	1	1	2	1	1	1	0	
3	5	12	13	5	0	5	1	5	2	5	3	12	4	
5	10	13	6	0	7	13	0	13	1	13	2	13	3	13	4	
2	0	7	0	0	0	1	0	2	0	5	0	4	
5	11	9	6	13	10	11	0	11	1	11	5	11	3	11	4	
5	1	2	7	8	11	1	0	1	1	1	2	1	3	2	4	
2	8	11	8	0	8	1	8	2	8	1	11	0	
4	2	1	5	12	1	0	1	1	1	2	1	1	1	0	
2	4	1	1	0	1	1	1	5	1	3	1	4	
3	9	8	14	8	0	8	1	8	2	8	3	8	4	
5	9	8	7	2	4	8	0	8	1	8	5	8	3	8	4	
5	13	6	0	7	2	13	0	6	1	6	2	6	1	6	0	
4	0	5	3	4	0	0	0	1	0	2	0	3	0	4	
4	6	0	5	3	6	0	6	1	6	2	6	1	6	0	
3	8	7	2	8	0	8	1	8	2	8	1	8	0	
2	1	5	1	0	1	1	1	2	1	1	1	0	
3	7	0	6	7	0	7	1	7	2	7	3	7	4	
5	12	5	0	7	14	12	0	12	1	12	2	12	3	12	4	
4	13	6	9	11	6	0	6	1	6	2	6	1	6	0	
4	0	6	9	11	0	0	0	1	6	2	6	5	6	4	
3	6	13	10	13	0	13	1	13	2	13	1	13	0	
3	0	5	1	0	0	0	1	0	2	0	5	0	4	
2	7	0	7	0	7	1	7	2	7	5	7	4	
3	11	8	7	11	0	8	1	8	2	8	3	8	4	
3	1	5	0	1	0	1	1	1	2	1	1	1	0	
4	4	2	7	14	2	0	2	1	2	2	2	3	2	4	
4	9	8	7	2	8	0	8	1	8	2	8	3	8	4	
5	9	8	7	2	4	8	0	8	1	8	2	8	5	8	4	
3	2	4	3	2	0	2	1	2	2	2	3	2	4	
5	8	7	2	4	3	8	0	8	1	8	5	8	3	8	4	
5	5	0	6	9	11	5	0	5	1	5	2	5	1	5	0	
5	13	6	0	7	14	13	0	6	1	6	2	6	1	6	0	
3	0	7	8	0	0	0	1	0	2	0	3	0	4	
4	2	1	5	12	2	0	2	1	2	5	2	3	2	4	
5	1	2	7	8	9	2	0	2	1	2	2	2	1	2	0	
3	6	0	7	6	0	6	1	6	5	6	3	6	4	
4	8	9	6	13	8	0	8	1	8	2	8	3	8	4	
2	14	8	14	0	8	1	8	5	8	3	8	4	
5	2	1	5	12	10	2	0	2	1	2	2	2	5	2	4	
3	12	5	1	5	0	5	1	5	2	5	1	5	0	
2	2	4	2	0	2	1	2	2	2	5	2	4	
4	5	0	7	14	5	0	0	1	0	2	0	1	0	0	
3	13	6	0	13	0	6	1	6	2	6	3	6	4	
2	0	6	0	0	0	1	0	2	0	1	0	0	
6	11	8	7	2	4	3	11	0	11	1	11	2	11	5	11	4	
4	6	0	5	1	6	0	6	1	6	2	6	3	6	4	
4	8	7	2	4	8	0	8	1	8	2	8	5	8	4	
2	8	9	8	0	8	1	8	5	8	3	8	4	
5	8	9	6	13	10	8	0	8	1	8	2	8	5	8	4	
5	12	5	0	7	8	12	0	12	1	12	2	12	1	12	0	
3	5	0	7	0	0	0	1	0	2	0	1	0	0	
5	10	13	6	9	8	13	0	13	1	13	2	13	3	13	4	
3	0	5	3	0	0	0	1	0	2	0	1	5	0	
6	3	5	0	6	9	11	5	0	5	1	5	2	5	3	5	4	
4	8	7	2	1	8	0	8	1	8	2	8	3	8	4	
2	12	10	12	0	12	1	12	2	12	5	12	4	
4	1	5	0	6	1	0	1	1	1	2	1	3	1	4	
2	6	9	6	0	6	1	6	5	6	3	6	4	
4	4	2	7	8	2	0	2	1	2	2	2	1	2	0	
2	12	13	13	0	13	1	13	2	13	1	13	0	
2	2	1	2	0	2	1	2	5	2	3	2	4	
4	9	6	13	10	6	0	6	1	6	5	6	3	6	4	
2	13	12	13	0	13	1	13	2	13	3	13	4	
4	0	6	13	10	0	0	0	1	0	2	0	1	0	0	
5	13	6	0	7	2	13	0	13	1	13	5	13	3	6	4	
3	6	13	12	6	0	6	1	6	5	6	3	6	4	
5	11	8	7	2	4	11	0	11	1	11	2	11	1	11	0	
5	4	1	5	12	13	4	0	4	1	1	2	1	1	1	0	
3	12	5	3	5	0	5	1	5	2	5	3	5	4	
2	5	12	5	0	5	1	5	2	5	3	5	4	
5	10	12	5	3	4	10	0	10	1	10	2	10	3	10	4	
4	6	0	5	3	6	0	6	1	6	5	6	3	6	4	
4	11	9	6	13	11	0	11	1	11	2	11	1	11	0	
4	1	5	12	10	1	0	1	1	1	2	1	3	1	4	
2	7	2	7	0	7	1	2	2	2	5	2	4	
3	14	8	11	8	0	8	1	8	2	8	5	8	4	
5	2	7	0	6	13	2	0	2	1	2	5	2	3	2	4	
3	9	6	13	6	0	6	1	6	2	6	3	6	4	
4	13	6	0	7	13	0	6	1	6	5	6	3	6	4	
2	2	7	2	0	2	1	2	5	2	3	2	4	
4	7	0	5	12	7	0	7	1	7	5	7	3	7	4	
4	6	0	7	14	0	0	0	1	0	5	0	3	0	4	
4	8	7	0	5	8	0	8	1	8	5	8	3	8	4	
4	13	12	5	1	13	0	13	1	13	5	13	3	13	4	
2	0	5	0	0	0	1	0	2	0	3	0	4	
4	3	5	12	13	3	0	5	1	5	2	5	1	5	0	
2	11	8	11	0	11	1	11	2	11	1	11	0	
3	14	7	2	14	0	14	1	14	2	14	3	14	4	
2	1	4	1	0	1	1	1	5	1	3	1	4	
3	7	2	1	7	0	7	1	2	2	2	3	2	4	
2	7	0	7	0	7	1	7	5	7	3	7	4	
3	0	5	12	5	0	5	1	5	2	5	5	5	4	
3	7	8	11	7	0	7	1	8	2	8	5	8	4	
5	12	5	0	7	14	12	0	12	1	12	2	12	5	12	4	
5	10	13	6	9	11	13	0	13	1	13	2	13	1	13	0	
3	0	7	2	0	0	0	1	0	2	0	5	0	4	
5	3	5	0	7	8	3	0	3	1	3	2	3	1	3	0	
2	7	14	7	0	7	1	7	2	7	5	7	4	
3	11	9	6	11	0	11	1	11	2	11	3	11	4	
5	14	7	0	5	12	14	0	14	1	14	2	14	1	14	0	
3	7	2	4	7	0	2	1	2	2	2	5	2	4	
5	9	6	0	5	1	6	0	6	1	6	2	6	3	6	4	
2	13	6	6	0	6	1	6	5	6	3	6	4	
3	2	7	0	2	0	2	1	2	2	2	3	2	4	
4	4	3	5	12	4	0	4	1	4	2	4	5	4	4	
5	10	12	5	1	2	10	0	10	1	10	2	10	1	10	0	
3	6	9	8	6	0	6	1	6	5	6	3	6	4	
3	0	6	9	0	0	0	1	6	2	6	3	6	4	
3	3	4	1	4	0	4	1	4	2	4	1	4	0	
3	6	0	5	6	0	6	1	6	2	6	5	6	4	
3	7	0	5	7	0	7	1	7	5	7	3	7	4	
4	7	0	6	13	7	0	7	1	7	2	7	3	7	4	
2	8	14	8	0	8	1	8	2	8	3	8	4	
4	12	5	3	4	5	0	5	1	5	5	5	3	5	4	
3	14	8	9	8	0	8	1	8	2	8	1	8	0	
2	5	3	5	0	5	1	5	5	5	3	5	4	
4	12	5	1	2	12	0	12	1	12	5	12	3	12	4	
3	5	12	13	5	0	5	1	5	5	5	3	12	4	
5	10	13	6	0	7	13	0	13	1	13	2	13	1	13	0	
2	0	7	0	0	0	1	0	5	0	3	0	4	
5	11	9	6	13	10	11	0	11	1	11	2	11	3	11	4	
3	14	7	0	7	0	7	1	7	2	7	1	7	0	
4	7	0	5	3	7	0	7	1	0	2	0	1	0	0	
4	2	1	5	12	2	0	2	1	2	2	2	3	2	4	
4	8	7	2	1	8	0	8	1	8	5	8	3	8	4	
3	9	8	14	8	0	8	1	8	2	8	1	8	0	
4	13	6	9	8	6	0	6	1	6	2	6	5	6	4	
2	5	0	5	0	5	1	5	5	5	3	5	4	
2	6	9	6	0	6	1	6	2	6	5	6	4	
4	10	13	6	9	13	0	13	1	13	2	13	3	13	4	
4	3	5	12	10	3	0	3	1	3	2	3	3	3	4	
3	8	7	2	8	0	8	1	8	2	8	3	8	4	
2	1	5	1	0	1	1	1	2	1	3	1	4	
3	7	0	6	7	0	0	1	0	2	0	1	0	0	
3	9	8	7	8	0	8	1	8	2	8	1	8	0	
4	1	5	0	6	1	0	1	1	1	5	1	3	1	4	
4	5	0	7	8	5	0	5	1	5	2	5	5	5	4	
4	13	6	9	11	13	0	13	1	6	2	6	3	6	4	
4	0	6	9	11	6	0	6	1	6	5	6	3	6	4	
3	6	13	10	6	0	6	1	6	2	6	3	13	4	
5	11	8	7	2	1	11	0	8	1	8	5	8	3	8	4	
3	6	9	8	6	0	6	1	6	2	6	5	6	4	
4	4	3	5	0	4	0	4	1	4	5	4	3	4	4	
2	13	10	13	0	13	1	13	5	13	3	13	4	
3	11	8	7	11	0	8	1	8	5	8	3	8	4	
4	4	2	7	14	2	0	2	1	2	5	2	3	2	4	
4	9	8	7	2	8	0	8	1	8	2	8	1	8	0	
3	2	4	3	2	0	2	1	2	2	2	1	4	0	
5	5	0	6	9	11	0	0	0	1	0	2	0	3	0	4	
3	10	12	5	10	0	10	1	10	2	10	3	10	4	
5	6	0	5	3	4	0	0	0	1	0	2	0	1	0	0	
5	1	2	7	8	9	1	0	1	1	1	2	1	3	2	4	
3	6	9	11	6	0	6	1	6	5	6	3	6	4	
4	8	9	6	13	8	0	8	1	8	2	8	1	8	0	
5	12	13	6	9	11	12	0	12	1	12	2	12	5	13	4	
2	14	8	8	0	8	1	8	2	8	5	8	4	
5	2	1	5	12	10	1	0	1	1	1	2	1	1	1	0	
3	5	1	4	5	0	5	1	5	2	5	5	5	4	
4	9	6	13	12	6	0	6	1	6	2	6	3	6	4	
4	1	2	7	8	2	0	2	1	2	5	2	3	2	4	
4	5	0	7	14	5	0	5	1	5	2	5	5	5	4	
3	13	6	0	13	0	13	1	6	2	6	1	6	0	
2	0	6	0	0	0	1	6	2	6	3	6	4	
4	6	0	5	1	0	0	0	1	0	2	0	1	0	0	
4	8	7	2	4	7	0	7	1	7	2	7	1	7	0	
5	14	7	2	4	3	14	0	7	1	7	2	7	3	7	4	
2	7	0	7	0	7	1	7	2	7	3	7	4	
5	12	5	0	7	8	5	0	5	1	5	2	5	3	5	4	
4	1	5	12	13	5	0	5	1	5	5	5	3	5	4	
3	5	0	7	0	0	0	1	0	2	0	3	0	4	
3	13	6	9	6	0	6	1	6	2	6	1	6	0	
3	6	9	8	6	0	6	1	6	2	6	1	6	0	
4	3	5	12	13	3	0	3	1	3	2	3	5	5	4	
6	3	4	2	7	8	11	3	0	3	1	4	5	4	3	4	4	
4	8	7	2	1	8	0	8	1	8	2	8	1	8	0	
2	1	2	2	0	2	1	2	5	2	3	2	4	
4	1	5	0	6	1	0	1	1	1	2	1	1	1	0	
4	4	2	7	8	4	0	2	1	2	2	2	3	2	4	
3	9	6	0	6	0	6	1	6	2	6	3	6	4	
2	2	1	2	0	2	1	2	2	2	3	2	4	
4	5	0	6	9	5	0	0	1	0	2	0	1	0	0	
2	13	12	13	0	13	1	13	2	13	1	13	0	
4	0	6	13	10	6	0	6	1	6	2	6	3	6	4	
5	13	6	9	8	14	6	0	6	1	6	5	6	3	6	4	
3	11	8	14	8	0	8	1	8	2	8	5	8	4	
4	7	0	5	12	7	0	0	1	0	2	0	3	0	4	
5	11	8	7	2	4	8	0	8	1	8	2	8	5	8	4	
5	4	3	5	12	13	4	0	3	1	3	2	3	5	3	4	
3	12	5	3	5	0	5	1	5	2	5	1	5	0	
2	5	12	5	0	5	1	5	2	5	1	5	0	
5	10	12	5	3	4	10	0	10	1	10	5	10	3	10	4	
4	7	0	5	12	7	0	0	1	0	2	0	5	0	4	
3	6	0	7	6	0	6	1	6	2	6	3	6	4	
4	11	9	6	13	11	0	11	1	11	2	11	3	11	4	
4	1	5	12	10	1	0	1	1	1	2	1	1	1	0	
2	7	2	2	0	2	1	2	5	2	3	2	4	
2	12	10	10	0	10	1	10	2	10	1	10	0	
3	14	8	11	14	0	8	1	8	5	8	3	8	4	
5	2	7	0	6	13	7	0	7	1	7	2	7	3	7	4	
3	9	6	13	6	0	6	1	6	5	6	3	6	4	
4	13	6	0	7	13	0	6	1	6	2	6	5	6	4	
4	6	9	8	14	6	0	6	1	6	2	6	5	6	4	
4	13	12	5	1	13	0	13	1	13	2	13	5	13	4	
2	0	5	0	0	0	1	0	2	0	1	0	0	
4	3	5	12	13	3	0	3	1	3	2	3	3	3	4	
5	8	7	2	4	3	8	0	8	1	8	2	8	3	8	4	
5	1	2	7	8	9	2	0	2	1	2	5	2	3	2	4	
2	1	4	1	0	1	1	1	2	1	3	1	4	
5	4	1	5	12	10	4	0	4	1	1	2	1	1	1	0	
2	13	10	13	0	13	1	13	2	13	3	13	4	
3	0	5	12	0	0	0	1	0	2	0	1	0	0	
3	6	9	11	6	0	6	1	6	2	6	3	6	4	
4	1	2	7	14	2	0	2	1	2	5	2	3	2	4	
5	10	13	6	9	11	10	0	13	1	13	2	13	5	13	4	
5	3	5	0	7	8	5	0	5	1	5	2	5	5	5	4	
2	7	14	7	0	7	1	7	5	7	3	7	4	
3	11	9	6	11	0	11	1	11	2	11	1	11	0	
5	14	7	0	5	12	14	0	14	1	14	2	14	3	14	4	
4	2	7	0	6	2	0	2	1	2	5	2	3	2	4	
3	7	2	4	2	0	2	1	2	5	2	3	2	4	
5	9	6	0	5	1	6	0	6	1	6	5	6	3	6	4	
3	2	7	0	2	0	2	1	2	5	2	3	2	4	
3	5	12	10	5	0	5	1	5	2	5	3	5	4	
5	10	12	5	1	2	10	0	10	1	10	2	10	3	10	4	
3	0	6	9	0	0	0	1	0	2	0	1	0	0	
3	3	5	1	3	0	3	1	3	2	3	3	3	4	
3	6	0	5	6	0	6	1	6	5	6	3	6	4	
4	1	2	7	8	1	0	1	1	1	2	1	3	2	4	
5	4	3	5	0	6	4	0	4	1	4	2	4	1	4	0	
2	8	14	8	0	8	1	8	5	8	3	8	4	
4	12	5	3	4	12	0	12	1	12	2	12	5	12	4	
3	5	1	4	5	0	5	1	5	5	5	3	5	4	
2	5	3	5	0	5	1	5	2	5	5	5	4	
4	12	5	1	2	12	0	12	1	12	2	12	5	12	4	
3	5	12	13	5	0	5	1	5	2	5	5	5	4	
5	10	13	6	0	7	13	0	13	1	13	2	13	5	13	4	
3	12	5	1	12	0	12	1	12	5	12	3	12	4	
2	0	7	0	0	0	1	0	2	0	3	0	4	
5	11	9	6	13	10	11	0	11	1	11	2	11	1	11	0	
3	14	7	0	14	0	14	1	14	2	14	3	14	4	
4	7	0	5	3	7	0	7	1	7	2	7	3	7	4	
4	12	13	6	9	13	0	13	1	13	2	13	3	13	4	
3	9	6	0	6	0	6	1	6	2	6	5	6	4	
3	5	0	6	5	0	5	1	5	2	5	3	5	4	
3	9	8	14	8	0	8	1	8	2	8	5	8	4	
4	13	6	9	8	6	0	6	1	6	5	6	3	6	4	
3	6	0	7	6	0	6	1	6	2	6	5	6	4	
4	10	13	6	9	13	0	13	1	13	2	13	1	13	0	
3	1	5	3	1	0	1	1	1	5	1	3	1	4	
4	3	5	12	10	3	0	3	1	3	2	3	1	3	0	
3	8	7	2	8	0	8	1	8	5	8	3	8	4	
2	1	5	1	0	1	1	1	5	1	3	1	4	
5	4	2	7	8	9	4	0	2	1	2	2	2	3	2	4	
3	9	8	7	8	0	8	1	8	2	8	3	8	4	
2	9	11	11	0	11	1	11	5	11	3	11	4	
4	1	5	12	10	1	0	1	1	1	5	1	3	1	4	
4	5	0	7	8	5	0	5	1	5	5	5	3	5	4	
4	10	13	6	0	13	0	13	1	13	2	13	1	13	0	
4	0	6	9	11	6	0	6	1	6	2	6	3	6	4	
2	8	9	8	0	8	1	8	2	8	5	8	4	
5	11	8	7	2	1	11	0	8	1	8	2	8	5	8	4	
4	4	3	5	0	4	0	4	1	4	2	4	5	4	4	
2	10	13	13	0	13	1	13	5	13	3	13	4	
3	11	8	7	11	0	11	1	11	2	11	5	11	4	
4	2	7	8	9	2	0	2	1	2	2	2	5	2	4	
4	4	2	7	14	2	0	2	1	2	2	2	5	2	4	
4	9	8	7	2	8	0	8	1	8	2	8	5	8	4	
3	2	4	3	2	0	2	1	2	2	2	5	2	4	
3	10	12	5	10	0	10	1	10	2	10	1	10	0	
2	12	10	12	0	12	1	12	5	12	3	12	4	
5	6	0	5	3	4	6	0	6	1	6	2	6	3	0	4	
5	11	9	6	13	12	11	0	11	1	11	2	11	3	11	4	
5	4	2	7	8	11	2	0	2	1	2	2	2	5	2	4	
4	14	8	9	6	8	0	8	1	8	2	8	1	8	0	
3	4	3	5	4	0	4	1	4	2	4	3	4	4	
4	8	9	6	13	8	0	8	1	8	2	8	5	8	4	
5	12	13	6	9	11	13	0	13	1	13	5	13	3	13	4	
5	2	1	5	12	10	2	0	1	1	1	2	1	3	1	4	
5	13	6	0	7	2	13	0	6	1	6	2	6	5	6	4	
4	9	6	13	12	6	0	6	1	6	2	6	1	6	0	
5	3	5	0	6	9	3	0	3	1	3	2	3	5	3	4	
2	0	6	6	0	6	1	6	5	6	3	6	4	
3	3	5	12	3	0	3	1	3	2	3	3	3	4	
4	8	7	2	4	8	0	8	1	8	2	8	3	8	4	
5	14	7	0	5	3	7	0	7	1	7	2	7	1	7	0	
3	7	2	1	7	0	2	1	2	2	2	5	2	4	
2	7	0	0	0	0	1	0	2	0	1	0	0	
4	9	6	0	5	6	0	6	1	6	2	6	1	6	0	
5	4	2	7	8	11	4	0	2	1	2	5	2	3	2	4	
4	6	0	5	3	6	0	6	1	6	2	6	5	6	4	
3	13	6	9	6	0	6	1	6	2	6	3	6	4	
3	6	9	8	6	0	6	1	6	2	6	3	6	4	
5	10	13	6	9	8	13	0	13	1	13	2	13	5	13	4	
3	1	5	12	1	0	1	1	1	2	1	5	1	4	
6	3	4	2	7	8	11	4	0	4	1	4	2	4	5	4	4	
3	7	8	9	7	0	7	1	7	2	7	1	7	0	
5	14	8	9	6	13	8	0	8	1	8	2	8	3	8	4	
3	9	6	0	6	0	6	1	6	2	6	1	6	0	
4	8	7	0	5	8	0	8	1	8	2	8	5	8	4	
3	0	5	3	0	0	0	1	0	5	0	3	0	4	
2	2	1	1	0	1	1	1	2	1	1	1	0	
2	8	11	11	0	11	1	11	2	11	5	11	4	
4	5	0	6	9	5	0	5	1	5	2	5	3	5	4	
4	10	12	5	3	10	0	10	1	10	2	10	3	10	4	
4	0	6	13	10	6	0	6	1	6	5	6	3	6	4	
3	3	5	0	3	0	3	1	3	2	3	3	3	4	
3	11	8	14	11	0	11	1	11	5	11	3	11	4	
4	7	0	5	12	7	0	7	1	7	2	7	1	7	0	
5	11	8	7	2	4	11	0	11	1	11	5	11	3	11	4	
3	2	7	8	2	0	2	1	7	2	7	1	7	0	
6	10	13	6	9	8	14	10	0	13	1	13	2	13	5	13	4	
5	12	5	0	7	14	12	0	12	1	12	5	12	3	12	4	
5	10	12	5	3	4	10	0	12	1	12	2	12	5	12	4	
3	5	0	6	0	0	0	1	0	5	0	3	0	4	
3	6	0	7	0	0	0	1	0	2	0	1	0	0	
3	8	9	6	8	0	8	1	8	2	8	1	8	0	
4	14	7	2	1	14	0	14	1	14	2	14	3	14	4	
2	13	6	6	0	6	1	6	2	6	5	6	4	
4	12	13	6	9	13	0	13	1	13	5	13	3	13	4	
2	7	2	7	0	7	1	2	2	2	3	2	4	
2	12	10	12	0	12	1	12	2	12	3	12	4	
5	2	1	5	12	13	2	0	2	1	1	2	1	1	1	0	
4	14	7	2	1	14	0	14	1	14	2	14	5	14	4	
3	9	6	13	6	0	6	1	6	2	6	5	6	4	
4	13	6	0	7	13	0	13	1	13	2	13	1	13	0	
4	6	0	7	14	0	0	0	1	0	2	0	1	0	0	
2	0	5	0	0	0	1	0	2	0	5	0	4	
5	8	7	2	4	3	7	0	7	1	7	2	7	1	7	0	
2	1	4	1	0	1	1	1	2	1	1	1	0	
5	4	3	5	12	10	4	0	4	1	4	2	4	3	4	4	
2	9	6	6	0	6	1	6	2	6	3	6	4	
6	14	8	9	6	13	10	14	0	8	1	8	5	8	3	8	4	
2	13	10	13	0	13	1	13	2	13	1	13	0	
3	0	5	12	0	0	5	1	5	2	5	3	5	4	
3	6	9	11	6	0	6	1	6	2	6	1	6	0	
5	10	13	6	9	11	13	0	13	1	13	5	13	3	13	4	
4	1	5	12	13	1	0	1	1	1	2	1	1	1	0	
5	3	4	2	7	8	3	0	3	1	4	5	4	3	4	4	
2	7	14	7	0	7	1	7	2	7	3	7	4	
4	8	7	2	1	8	0	8	1	8	2	8	5	8	4	
5	14	7	0	5	12	14	0	14	1	14	5	14	3	14	4	
4	2	7	0	6	2	0	2	1	2	2	2	5	2	4	
5	9	6	0	5	1	6	0	6	1	6	2	6	5	6	4	
3	2	7	0	2	0	2	1	2	2	2	5	2	4	
3	5	12	10	5	0	5	1	5	2	5	1	5	0	
3	0	6	9	0	0	6	1	6	2	6	5	6	4	
3	6	0	5	6	0	6	1	6	2	6	3	6	4	
4	1	2	7	8	1	0	1	1	1	2	1	1	1	0	
5	4	3	5	0	6	4	0	4	1	4	2	4	3	4	4	
2	8	14	8	0	8	1	8	2	8	5	8	4	
4	12	5	3	4	5	0	5	1	5	2	5	1	5	0	
4	2	7	8	11	2	0	2	1	2	2	2	3	2	4	
2	5	3	5	0	3	1	3	2	3	1	3	0	
5	10	13	6	0	7	10	0	10	1	10	5	10	3	13	4	
2	13	10	13	0	13	1	13	2	13	5	13	4	
2	0	7	0	0	0	1	7	2	7	1	7	0	
4	8	7	0	5	8	0	8	1	8	2	8	3	8	4	
3	3	5	1	3	0	3	1	3	2	3	5	3	4	
3	14	7	0	14	0	14	1	14	5	14	3	14	4	
4	7	2	4	3	7	0	7	1	7	5	7	3	2	4	
4	12	13	6	9	13	0	13	1	13	2	13	1	13	0	
4	2	1	5	12	2	0	2	1	2	2	2	5	2	4	
3	5	0	6	5	0	0	1	0	2	0	1	0	0	
3	9	8	14	8	0	8	1	8	5	8	3	8	4	
4	13	6	9	8	6	0	6	1	6	2	6	3	6	4	
3	0	7	14	7	0	7	1	7	2	7	1	7	0	
2	4	3	4	0	4	1	4	5	4	3	4	4	
2	6	9	6	0	6	1	6	2	6	3	6	4	
3	6	9	11	6	0	6	1	6	2	6	5	6	4	
3	1	5	3	1	0	1	1	1	2	1	5	1	4	
3	8	7	2	8	0	8	1	8	2	8	5	8	4	
2	1	5	1	0	1	1	1	2	1	5	1	4	
5	4	2	7	8	9	4	0	2	1	2	2	2	1	2	0	
4	5	0	7	8	5	0	5	1	5	2	5	3	5	4	
4	10	13	6	0	13	0	13	1	13	2	13	3	13	4	
4	0	6	9	11	0	0	0	1	0	2	0	1	0	0	
5	11	8	7	2	1	11	0	11	1	11	2	11	1	11	0	
4	1	2	7	14	1	0	1	1	1	2	1	3	2	4	
6	14	8	9	6	13	10	14	0	8	1	8	2	8	5	8	4	
4	4	3	5	0	4	0	4	1	4	2	4	1	4	0	
4	2	7	8	9	2	0	2	1	2	5	2	3	2	4	
4	9	8	7	2	8	0	8	1	8	5	8	3	8	4	
4	13	12	5	3	13	0	13	1	13	5	13	3	13	4	
3	2	4	3	2	0	2	1	2	5	2	3	2	4	
2	6	0	6	0	6	1	6	5	6	3	6	4	
2	1	2	2	0	2	1	2	2	2	5	2	4	
5	6	0	5	3	4	0	0	0	1	0	5	0	3	0	4	
5	11	9	6	13	12	11	0	11	1	11	2	11	1	11	0	
4	14	8	9	6	14	0	14	1	14	2	14	3	14	4	
3	4	1	5	4	0	4	1	1	2	1	1	1	0	
4	8	9	6	13	8	0	8	1	8	5	8	3	8	4	
5	12	13	6	9	11	13	0	13	1	13	2	13	3	13	4	
3	5	1	4	5	0	5	1	5	2	5	3	5	4	
5	13	6	0	7	14	13	0	6	1	6	2	6	5	6	4	
2	0	6	6	0	6	1	6	2	6	5	6	4	
3	3	5	12	3	0	3	1	3	2	3	1	3	0	
5	7	0	6	13	10	7	0	7	1	7	2	7	5	7	4	
5	14	7	2	4	3	7	0	7	1	7	2	7	5	7	4	
6	11	8	7	2	4	3	11	0	11	1	11	5	11	3	11	4	
5	4	2	7	8	11	4	0	2	1	2	2	2	3	2	4	
4	9	6	0	5	6	0	6	1	6	2	6	3	6	4	
3	4	2	7	2	0	2	1	2	5	2	3	2	4	
6	10	13	6	9	8	14	13	0	13	1	13	2	13	1	13	0	
3	0	6	13	0	0	6	1	6	2	6	3	6	4	
2	3	5	3	0	3	1	3	2	3	1	3	0	
3	1	5	12	1	0	1	1	1	5	1	3	1	4	
3	7	8	9	7	0	7	1	8	2	8	3	8	4	
3	12	5	0	5	0	5	1	5	5	5	3	5	4	
5	14	8	9	6	13	8	0	8	1	8	2	8	1	8	0	
4	5	0	6	9	0	0	0	1	0	5	0	3	0	4	
4	10	12	5	3	10	0	10	1	10	2	10	1	10	0	
4	14	8	9	6	14	0	8	1	8	2	8	5	8	4	
3	3	5	0	3	0	3	1	3	2	3	1	3	0	
5	4	3	5	12	13	3	0	3	1	3	5	3	3	3	4	
3	11	8	14	11	0	11	1	11	2	11	3	11	4	
4	14	7	2	4	7	0	7	1	7	2	7	1	7	0	
3	4	2	7	2	0	2	1	2	2	2	3	2	4	
3	2	7	8	2	0	2	1	2	2	2	3	2	4	
4	1	2	7	14	1	0	2	1	2	2	2	5	2	4	
5	13	12	5	3	4	13	0	13	1	13	2	13	5	13	4	
2	6	13	6	0	6	1	6	2	6	5	6	4	
5	3	4	2	7	14	3	0	3	1	3	2	3	3	4	4	
3	8	9	6	8	0	8	1	8	2	8	3	8	4	
4	14	7	2	1	7	0	7	1	7	2	7	1	7	0	
2	7	2	2	0	2	1	2	2	2	1	2	0	
2	9	11	11	0	11	1	11	2	11	1	11	0	
4	13	6	0	7	13	0	6	1	6	2	6	3	6	4	
4	6	0	7	14	0	0	0	1	0	2	0	3	0	4	
5	11	8	7	0	5	11	0	8	1	8	5	8	3	8	4	
2	0	5	0	0	0	1	0	5	0	3	0	4	
3	7	8	11	7	0	7	1	7	2	7	1	7	0	
5	4	3	5	12	10	4	0	4	1	4	5	4	3	4	4	
2	9	6	6	0	6	1	6	2	6	1	6	0	
3	12	5	1	12	0	12	1	12	2	12	5	12	4	
4	11	8	7	0	11	0	8	1	8	5	8	3	8	4	
4	10	12	5	1	10	0	10	1	10	2	10	3	10	4	
4	3	5	12	13	3	0	3	1	3	5	3	3	5	4	
3	3	4	2	3	0	3	1	3	2	3	3	3	4	
4	1	5	12	13	1	0	5	1	5	2	5	3	5	4	
2	7	14	7	0	7	1	7	2	7	1	7	0	
4	12	5	0	7	5	0	5	1	5	2	5	5	5	4	
5	14	7	0	5	12	14	0	14	1	14	2	14	5	14	4	
4	2	7	0	6	2	0	7	1	7	2	7	1	7	0	
2	5	0	5	0	5	1	5	2	5	5	5	4	
5	3	5	0	7	14	5	0	5	1	5	5	5	3	5	4	
3	5	12	10	5	0	5	1	5	2	5	5	5	4	
2	11	9	11	0	11	1	11	5	11	3	11	4	
3	0	6	9	0	0	0	1	6	5	6	3	6	4	
3	6	0	5	0	0	0	1	0	2	0	1	0	0	
2	14	7	14	0	7	1	7	2	7	3	7	4	
5	4	3	5	0	6	4	0	4	1	4	5	4	3	4	4	
4	1	5	12	10	1	0	1	1	1	2	1	5	1	4	
4	12	5	3	4	5	0	5	1	5	2	5	3	5	4	
4	2	7	8	11	2	0	7	1	7	2	7	1	7	0	
2	5	3	5	0	5	1	5	2	5	3	5	4	
3	13	12	5	13	0	13	1	13	2	13	1	13	0	
3	6	13	12	13	0	13	1	13	2	13	1	13	0	
4	14	7	2	4	14	0	7	1	7	2	7	5	7	4	
4	8	7	0	5	7	0	7	1	7	2	7	1	7	0	
3	14	7	0	7	0	7	1	7	2	7	5	7	4	
4	7	2	4	3	7	0	7	1	7	2	7	5	2	4	
5	9	8	7	2	4	8	0	8	1	8	2	8	3	8	4	
2	9	11	11	0	11	1	11	2	11	5	11	4	
3	5	0	6	5	0	0	1	0	2	0	5	0	4	
4	13	6	9	8	13	0	13	1	13	2	13	1	13	0	
3	0	7	14	0	0	0	1	0	2	0	3	0	4	
2	6	9	6	0	6	1	6	2	6	1	6	0	
4	11	8	7	2	11	0	11	1	11	2	11	5	11	4	
3	1	5	3	1	0	1	1	1	2	1	1	1	0	
2	7	8	7	0	7	1	8	2	8	3	8	4	
4	10	13	6	9	13	0	13	1	13	5	13	3	13	4	
2	12	5	12	0	12	1	12	2	12	5	12	4	
5	11	9	6	13	12	11	0	11	1	11	5	11	3	11	4	
5	4	2	7	8	9	2	0	2	1	2	2	2	5	2	4	
5	3	5	0	6	9	3	0	3	1	3	5	3	3	3	4	
3	10	13	6	13	0	13	1	13	5	13	3	13	4	
4	5	0	7	8	5	0	0	1	0	2	0	1	0	0	
4	10	13	6	0	13	0	13	1	13	5	13	3	13	4	
5	11	8	7	2	1	11	0	11	1	11	2	11	3	11	4	
4	1	2	7	14	1	0	1	1	1	2	1	1	1	0	
4	4	3	5	0	4	0	4	1	4	2	4	3	4	4	
3	12	13	6	13	0	13	1	13	2	13	1	13	0	
4	2	7	8	9	2	0	2	1	2	2	2	3	2	4	
2	5	1	1	0	1	1	1	2	1	1	1	0	
4	13	12	5	3	13	0	13	1	13	2	13	5	13	4	
4	6	0	7	2	6	0	6	1	6	2	6	5	6	4	
5	6	0	5	3	4	6	0	0	1	0	2	0	5	0	4	
2	8	7	8	0	8	1	8	2	8	3	8	4	
3	7	0	5	7	0	7	1	7	2	7	5	7	4	
3	4	3	5	4	0	4	1	4	2	4	5	4	4	
5	12	13	6	9	11	13	0	13	1	13	2	13	1	13	0	
3	5	1	4	5	0	5	1	5	2	5	1	5	0	
6	10	13	6	9	8	14	13	0	13	1	13	5	13	3	13	4	
2	13	6	6	0	6	1	6	2	6	3	6	4	
3	0	5	1	0	0	0	1	0	5	0	3	0	4	
4	3	5	0	6	3	0	3	1	3	2	3	5	3	4	
3	3	5	12	3	0	3	1	3	2	3	5	3	4	
5	7	0	6	13	10	7	0	7	1	7	5	7	3	7	4	
5	9	6	0	5	3	6	0	6	1	6	5	6	3	6	4	
3	9	8	7	8	0	8	1	8	2	8	5	8	4	
5	4	2	7	8	11	4	0	2	1	2	2	2	1	2	0	
4	9	6	0	5	6	0	6	1	6	5	6	3	6	4	
6	10	13	6	9	8	14	13	0	13	1	13	2	13	3	13	4	
3	0	6	13	0	0	0	1	0	2	0	1	0	0	
2	3	5	3	0	3	1	3	2	3	3	3	4	
4	12	13	6	9	13	0	13	1	13	2	13	5	13	4	
6	11	8	7	2	4	3	11	0	11	1	11	2	11	1	11	0	
2	11	8	11	0	11	1	11	5	11	3	11	4	
3	1	5	12	1	0	1	1	1	2	1	3	1	4	
2	3	5	3	0	3	1	3	5	3	3	3	4	
2	4	2	4	0	2	1	2	2	2	1	2	0	
3	12	5	0	5	0	5	1	5	2	5	5	5	4	
5	10	13	6	9	8	10	0	13	1	13	5	13	3	13	4	
4	5	0	6	9	5	0	0	1	0	2	0	5	0	4	
4	10	12	5	3	10	0	10	1	10	2	10	5	10	4	
3	3	5	0	3	0	3	1	3	2	3	5	3	4	
3	11	8	14	11	0	11	1	11	2	11	1	11	0	
4	14	7	2	4	7	0	7	1	7	2	7	3	7	4	
3	2	7	14	2	0	2	1	2	5	2	3	2	4	
3	4	2	7	4	0	2	1	2	2	2	1	2	0	
2	12	5	12	0	12	1	12	2	12	3	12	4	
3	2	7	8	2	0	2	1	2	5	2	3	2	4	
3	5	1	2	5	0	1	1	1	2	1	3	1	4	
5	13	12	5	3	4	13	0	13	1	13	5	13	3	13	4	
2	6	13	6	0	6	1	6	5	6	3	13	4	
3	8	7	0	8	0	8	1	8	5	8	3	8	4	
3	7	8	9	7	0	8	1	8	2	8	5	8	4	
3	1	2	7	2	0	2	1	2	5	2	3	2	4	
5	3	4	2	7	14	3	0	4	1	4	2	4	1	4	0	
3	8	9	6	8	0	8	1	8	5	8	3	8	4	
2	9	11	11	0	11	1	11	2	11	3	11	4	
2	10	12	10	0	10	1	10	2	10	1	10	0	
4	3	5	0	7	3	0	3	1	3	2	3	1	3	0	
5	14	8	9	6	13	14	0	14	1	14	5	14	3	14	4	
5	11	8	7	0	5	11	0	11	1	8	2	8	5	8	4	
3	7	8	11	7	0	8	1	8	2	8	3	8	4	
3	2	1	5	2	0	2	1	2	2	2	5	2	4	
5	4	3	5	12	10	4	0	4	1	4	2	4	5	4	4	
2	9	6	6	0	6	1	6	2	6	5	6	4	
4	10	12	5	1	10	0	12	1	12	5	12	3	12	4	
2	12	13	13	0	13	1	13	2	13	5	13	4	
4	10	12	5	1	10	0	10	1	10	2	10	1	10	0	
5	1	2	7	8	11	1	0	2	1	2	5	2	3	2	4	
3	3	4	2	3	0	3	1	3	2	3	1	3	0	
4	11	8	7	0	11	0	8	1	8	2	8	3	8	4	
6	14	8	9	6	13	10	8	0	8	1	8	2	8	1	8	0	
2	4	1	4	0	1	1	1	2	1	3	1	4	
4	12	5	0	7	5	0	5	1	5	5	5	3	5	4	
4	2	7	0	6	2	0	2	1	2	2	2	3	2	4	
2	4	3	4	0	4	1	4	2	4	5	4	4	
3	3	4	2	3	0	3	1	3	5	3	3	3	4	
4	0	5	3	4	0	0	0	1	0	5	0	3	0	4	
3	5	12	10	5	0	5	1	5	5	5	3	5	4	
2	11	9	11	0	11	1	11	2	11	5	11	4	
4	11	8	7	0	11	0	8	1	8	2	8	5	8	4	
2	14	7	14	0	7	1	7	2	7	1	7	0	
5	4	3	5	0	6	4	0	4	1	4	2	4	5	4	4	
4	3	5	0	7	5	0	5	1	5	5	5	3	5	4	
4	2	7	8	11	2	0	2	1	2	2	2	5	2	4	
3	13	12	5	13	0	13	1	12	2	12	3	12	4	
3	9	6	0	6	0	6	1	6	5	6	3	6	4	
3	6	13	12	6	0	6	1	6	2	6	3	6	4	
3	1	5	0	1	0	1	1	1	2	1	5	1	4	
3	7	0	5	7	0	0	1	0	2	0	1	0	0	
2	12	13	13	0	13	1	13	5	13	3	13	4	
5	9	8	7	2	4	8	0	8	1	8	2	8	1	8	0	
3	0	7	8	0	0	0	1	0	5	0	3	0	4	
3	14	8	9	8	0	8	1	8	5	8	3	8	4	
3	0	7	14	0	0	0	1	0	5	0	3	0	4	
2	3	4	3	0	3	1	3	2	3	3	3	4	
2	8	7	8	0	8	1	8	2	8	5	8	4	
4	11	8	7	2	11	0	11	1	11	5	11	3	11	4	
3	1	5	3	1	0	1	1	1	2	1	3	1	4	
2	7	8	7	0	8	1	8	2	8	1	8	0	
3	10	12	5	10	0	10	1	10	5	10	3	10	4	
2	2	4	2	0	2	1	2	2	2	1	2	0	
5	4	2	7	8	9	4	0	2	1	2	5	2	3	2	4	
3	10	13	6	13	0	13	1	13	2	13	5	13	4	
4	10	13	6	0	13	0	13	1	13	2	13	5	13	4	
4	1	5	0	6	1	0	1	1	1	2	1	5	1	4	
5	8	9	6	13	12	8	0	8	1	8	2	8	5	8	4	
5	8	9	6	13	12	8	0	8	1	8	5	8	3	8	4	
5	8	9	6	13	10	8	0	8	1	8	2	8	1	8	0	
4	14	7	0	5	7	0	7	1	7	2	7	3	7	4	
3	4	2	7	2	0	2	1	2	2	2	5	2	4	
3	12	13	6	13	0	13	1	13	2	13	3	13	4	
4	2	7	8	9	2	0	7	1	7	2	7	1	7	0	
2	5	1	1	0	1	1	1	2	1	3	1	4	
4	13	12	5	3	13	0	13	1	13	2	13	1	13	0	
3	0	5	3	0	0	0	1	0	2	0	5	0	4	
4	6	0	7	2	0	0	0	1	0	2	0	1	0	0	
2	8	7	8	0	8	1	8	2	7	1	7	0	
3	4	3	5	4	0	4	1	4	5	4	3	4	4	
4	9	6	13	10	6	0	6	1	6	2	6	3	6	4	
4	14	8	9	6	8	0	8	1	8	5	8	3	8	4	
2	13	6	13	0	13	1	13	2	13	1	13	0	
2	7	8	7	0	8	1	8	2	8	5	8	4	
2	3	4	3	0	3	1	3	5	3	3	3	4	
4	3	5	0	6	3	0	3	1	3	5	3	3	3	4	
5	8	7	0	5	3	8	0	7	1	7	2	7	5	7	4	
5	7	0	6	13	10	7	0	0	1	0	2	0	3	0	4	
5	9	6	0	5	3	6	0	6	1	6	2	6	5	6	4	
4	14	7	0	5	14	0	7	1	7	5	7	3	7	4	
4	9	6	0	5	6	0	6	1	6	2	6	5	6	4	
3	0	6	13	0	0	6	1	6	2	6	5	6	4	
6	11	8	7	2	4	3	11	0	11	1	11	2	11	3	11	4	
3	1	5	12	1	0	1	1	1	2	1	1	1	0	
2	4	2	2	0	2	1	2	2	2	3	2	4	
3	12	5	0	5	0	5	1	5	2	5	1	5	0	
2	2	7	2	0	2	1	2	2	2	3	2	4	
