2515.98	2525.68
4773
21672.5	21785.9
15
0	0	3000
1	0	3000
2	486	3000
3	0	3000
4	355	3000
5	1072	3000
6	1059	3000
7	1018	3000
8	815	3000
9	0	3000
10	0	3000
11	0	3000
12	651	3000
13	0	3000
14	0	3000
44
0	5	91.242232	94.942746
5	0	94.557988	94.942746
0	6	76.369296	97.708373
6	0	79.873912	97.708373
0	7	95.898110	107.847469
7	0	88.976742	107.847469
1	2	41.503160	106.004333
2	1	39.002438	106.004333
1	4	20.435054	104.160274
4	1	12.399686	104.160274
1	5	51.131114	106.004333
5	1	61.471714	106.004333
2	4	45.673600	97.708373
4	2	42.051980	97.708373
2	7	93.714990	94.021178
7	2	93.802788	94.021178
3	4	32.593142	91.255735
4	3	43.785528	91.255735
3	5	68.542704	83.881529
5	3	58.021292	83.881529
5	12	82.070922	84.803282
12	5	84.293308	84.803282
6	9	81.644462	89.412137
9	6	88.057626	89.412137
6	13	90.241870	101.395569
13	6	88.080992	101.395569
7	8	82.508956	100.473078
8	7	81.843742	100.473078
7	14	45.582202	104.160274
14	7	39.424318	104.160274
8	9	64.406470	97.708373
9	8	55.044754	97.708373
8	11	44.905098	82.959776
11	8	48.220894	82.959776
8	14	20.825264	88.490385
14	8	26.969508	88.490385
9	11	22.116126	103.238705
11	9	19.227342	103.238705
10	12	36.659200	97.708373
12	10	33.584612	97.708373
10	13	29.985278	93.099610
13	10	33.553628	93.099610
12	13	48.450684	90.333982
13	12	46.937458	90.333982
840
4	10	12	5	3	12	0	12	1	12	5	12	3	12	4	
3	14	7	2	7	0	7	1	7	5	7	3	7	4	
3	3	5	0	5	0	5	1	5	5	5	3	5	4	
2	8	9	8	0	8	1	8	2	8	3	8	4	
4	14	7	2	4	7	0	7	1	2	5	2	3	2	4	
3	2	7	14	2	0	2	1	2	2	2	5	2	4	
4	9	6	13	12	6	0	6	1	6	5	6	3	6	4	
2	12	5	12	0	12	1	12	2	12	1	12	0	
3	2	7	8	2	0	2	1	2	2	2	5	2	4	
3	5	1	2	2	0	2	1	2	2	2	1	2	0	
5	13	12	5	3	4	5	0	5	1	5	2	5	3	5	4	
3	0	7	2	7	0	7	1	7	2	7	1	7	0	
4	4	3	5	12	4	0	4	1	4	5	4	3	4	4	
2	6	13	6	0	6	1	6	2	6	3	6	4	
3	8	7	0	8	0	8	1	8	2	8	5	8	4	
3	1	2	7	7	0	7	1	7	2	7	5	7	4	
3	8	9	6	8	0	8	1	8	2	8	5	8	4	
5	3	5	0	7	14	5	0	5	1	5	2	5	5	5	4	
2	8	7	8	0	8	1	8	5	8	3	8	4	
2	10	12	12	0	12	1	12	2	12	3	12	4	
4	3	5	0	7	5	0	5	1	5	2	5	3	5	4	
4	7	0	6	13	7	0	7	1	7	5	7	3	7	4	
4	14	7	2	1	7	0	7	1	7	5	7	3	7	4	
5	11	8	7	0	5	8	0	8	1	8	2	8	1	8	0	
2	1	2	2	0	2	1	2	2	2	3	2	4	
4	4	1	5	12	5	0	5	1	5	2	5	1	5	0	
3	7	2	1	7	0	7	1	7	5	7	3	7	4	
3	2	1	5	2	0	2	1	2	5	2	3	2	4	
2	9	6	6	0	6	1	6	5	6	3	6	4	
5	1	2	7	8	11	7	0	7	1	7	2	7	5	7	4	
4	11	8	7	0	8	0	8	1	8	2	8	1	8	0	
6	14	8	9	6	13	10	8	0	8	1	8	2	8	3	8	4	
2	4	1	4	0	4	1	4	2	4	1	4	0	
4	12	5	0	7	12	0	12	1	12	2	12	3	12	4	
2	5	0	5	0	5	1	5	2	5	3	5	4	
4	0	5	3	4	5	0	5	1	5	2	5	5	5	4	
3	11	8	9	8	0	8	1	8	2	8	1	8	0	
4	10	13	6	9	6	0	6	1	6	2	6	5	6	4	
2	9	8	8	0	8	1	8	5	8	3	8	4	
5	11	9	6	13	12	6	0	6	1	6	2	6	5	6	4	
3	7	0	6	7	0	7	1	7	2	7	5	7	4	
2	14	7	7	0	7	1	7	2	7	5	7	4	
4	13	6	9	11	6	0	6	1	6	5	6	3	6	4	
4	2	7	8	11	7	0	7	1	7	5	7	3	7	4	
3	6	13	10	6	0	6	1	6	5	6	3	6	4	
3	13	12	5	5	0	5	1	5	5	5	3	5	4	
3	0	5	1	5	0	5	1	5	2	5	3	5	4	
5	3	5	0	6	9	5	0	5	1	5	2	5	1	5	0	
4	3	5	12	10	12	0	12	1	12	2	12	5	12	4	
3	1	5	0	5	0	5	1	5	5	5	3	5	4	
3	7	0	5	5	0	5	1	5	2	5	3	5	4	
5	5	0	6	9	11	5	0	5	1	5	5	5	3	5	4	
3	0	7	8	7	0	7	1	7	2	7	5	7	4	
3	0	7	14	7	0	7	1	7	2	7	5	7	4	
2	3	4	4	0	4	1	4	2	4	1	4	0	
4	11	8	7	2	7	0	7	1	7	2	7	3	7	4	
2	14	8	8	0	8	1	8	2	8	1	8	0	
2	4	3	4	0	4	1	4	2	4	3	4	4	
2	2	4	2	0	2	1	2	2	2	3	2	4	
3	10	13	6	6	0	6	1	6	2	6	1	6	0	
3	13	6	0	6	0	6	1	6	2	6	5	6	4	
4	0	6	13	10	6	0	6	1	6	2	6	5	6	4	
4	6	0	5	1	5	0	5	1	5	2	5	5	5	4	
3	9	8	7	7	0	7	1	7	5	7	3	7	4	
5	8	9	6	13	10	8	0	8	1	8	2	8	3	8	4	
5	12	5	0	7	8	5	0	5	1	5	5	5	3	5	4	
4	14	7	0	5	7	0	7	1	7	2	7	1	7	0	
3	5	0	7	5	0	5	1	5	5	5	3	5	4	
3	12	13	6	12	0	12	1	12	5	12	3	12	4	
2	6	0	6	0	6	1	6	2	6	5	6	4	
2	5	1	5	0	5	1	5	5	5	3	5	4	
3	10	12	13	12	0	12	1	12	2	12	5	12	4	
4	13	12	5	3	5	0	5	1	5	2	5	3	5	4	
2	11	8	8	0	8	1	8	2	8	5	8	4	
4	6	0	7	2	7	0	7	1	7	2	7	3	7	4	
4	4	2	7	8	2	0	2	1	2	5	2	3	2	4	
4	9	6	13	10	6	0	6	1	6	2	6	1	6	0	
2	13	12	12	0	12	1	12	2	12	5	12	4	
3	10	12	13	12	0	12	1	12	2	12	3	12	4	
4	3	5	0	6	5	0	5	1	5	2	5	3	5	4	
5	7	0	6	13	10	7	0	7	1	7	2	7	1	7	0	
5	9	6	0	5	3	6	0	6	1	6	2	6	1	6	0	
3	12	5	3	12	0	12	1	12	2	12	5	12	4	
2	5	12	5	0	5	1	5	2	5	5	5	4	
3	7	8	9	7	0	7	1	7	5	7	3	7	4	
4	11	9	6	13	6	0	6	1	6	5	6	3	6	4	
3	0	6	13	6	0	6	1	6	5	6	3	6	4	
5	8	9	6	13	12	8	0	8	1	8	2	8	1	8	0	
3	14	8	11	8	0	8	1	8	2	8	3	8	4	
2	4	2	2	0	2	1	2	5	2	3	2	4	
3	12	5	0	12	0	12	1	12	2	12	3	12	4	
2	2	7	7	0	7	1	7	2	7	1	7	0	
5	14	8	9	6	13	8	0	8	1	8	2	8	5	8	4	
4	13	12	5	1	12	0	12	1	12	2	12	1	12	0	
2	6	0	6	0	6	1	6	2	6	1	6	0	
5	14	7	2	4	3	7	0	7	1	7	5	7	3	7	4	
3	14	7	2	2	0	2	1	2	2	2	5	2	4	
2	8	9	8	0	8	1	8	2	8	1	8	0	
3	6	13	12	6	0	6	1	6	2	6	5	6	4	
3	2	7	14	2	0	2	1	2	2	2	1	2	0	
4	10	12	5	1	12	0	12	1	12	2	12	5	12	4	
4	3	5	12	10	5	0	5	1	5	5	5	3	5	4	
2	9	8	8	0	8	1	8	2	8	3	8	4	
2	3	5	5	0	5	1	5	2	5	5	5	4	
3	5	1	2	5	0	5	1	5	2	5	5	5	4	
5	13	12	5	1	4	12	0	12	1	12	2	12	1	12	0	
3	0	7	2	7	0	7	1	7	2	7	3	7	4	
2	6	13	6	0	6	1	6	2	6	1	6	0	
3	8	7	0	8	0	8	1	8	2	8	1	8	0	
3	11	9	6	6	0	6	1	6	2	6	5	6	4	
3	1	2	7	2	0	2	1	2	2	2	1	2	0	
3	7	2	4	7	0	7	1	7	2	7	3	7	4	
3	3	4	2	4	0	4	1	4	2	4	5	4	4	
5	10	12	5	1	2	12	0	12	1	12	5	5	3	5	4	
3	3	4	1	4	0	4	1	4	5	4	3	4	4	
2	10	12	12	0	12	1	12	5	12	3	12	4	
3	13	6	9	6	0	6	1	6	5	6	3	6	4	
4	7	0	6	13	7	0	7	1	7	2	7	5	7	4	
5	11	8	7	0	5	8	0	8	1	8	2	8	3	8	4	
2	1	2	2	0	2	1	2	2	2	1	2	0	
4	4	3	5	12	4	0	4	1	4	2	4	3	4	4	
4	12	5	1	2	12	0	12	1	12	2	12	1	12	0	
3	2	1	5	2	0	2	1	2	2	2	3	2	4	
3	5	12	13	5	0	5	1	5	2	5	1	5	0	
4	5	0	7	14	5	0	5	1	5	5	5	3	5	4	
5	11	9	6	13	10	6	0	6	1	6	2	6	5	6	4	
3	13	6	9	6	0	6	1	6	2	6	5	6	4	
5	1	2	7	8	11	7	0	7	1	7	2	7	1	7	0	
2	8	11	8	0	8	1	8	2	8	3	8	4	
2	4	1	4	0	4	1	4	2	4	5	4	4	
3	14	8	9	8	0	8	1	8	2	8	5	8	4	
4	12	5	0	7	12	0	12	1	12	2	12	1	12	0	
2	5	0	5	0	5	1	5	2	5	1	5	0	
5	13	6	0	7	2	6	0	6	1	6	2	6	3	6	4	
4	0	5	3	4	5	0	5	1	5	2	5	1	5	0	
3	7	8	11	7	0	7	1	7	5	7	3	7	4	
4	6	0	5	3	6	0	6	1	6	2	6	3	6	4	
3	11	8	9	8	0	8	1	8	2	8	3	8	4	
3	10	12	5	5	0	5	1	5	2	5	5	5	4	
3	7	0	6	7	0	7	1	7	5	7	3	7	4	
5	12	5	0	7	14	12	0	12	1	12	2	12	1	12	0	
2	14	7	7	0	7	1	7	5	7	3	7	4	
4	13	6	9	11	6	0	6	1	6	2	6	5	6	4	
3	6	13	10	6	0	6	1	6	2	6	5	6	4	
3	13	12	5	12	0	12	1	12	2	12	5	12	4	
3	0	5	1	5	0	5	1	5	2	5	1	5	0	
5	3	5	0	6	9	5	0	5	1	5	2	5	3	5	4	
3	11	8	7	7	0	7	1	7	2	7	1	7	0	
3	1	5	0	5	0	5	1	5	2	5	3	5	4	
4	4	2	7	14	4	0	4	1	4	2	4	1	4	0	
5	5	0	7	8	11	7	0	7	1	7	2	7	5	7	4	
5	13	6	9	8	14	6	0	6	1	6	2	6	3	6	4	
3	0	7	8	7	0	7	1	7	2	7	1	7	0	
2	3	4	4	0	4	1	4	2	4	5	4	4	
4	11	8	7	2	7	0	7	1	7	2	7	1	7	0	
2	14	8	8	0	8	1	8	2	8	3	8	4	
5	2	1	5	12	10	2	0	2	1	2	5	2	3	2	4	
2	4	3	4	0	4	1	4	2	4	1	4	0	
3	12	5	1	12	0	12	1	12	2	12	3	12	4	
2	2	4	2	0	2	1	2	5	2	3	2	4	
4	5	0	7	14	5	0	5	1	5	2	5	3	5	4	
3	10	13	6	6	0	6	1	6	2	6	3	6	4	
3	13	6	0	6	0	6	1	6	5	6	3	6	4	
4	6	0	5	1	6	0	6	1	6	5	6	3	6	4	
4	8	7	2	4	8	0	8	1	8	5	8	3	8	4	
4	14	7	0	5	7	0	7	1	7	2	7	5	7	4	
5	8	9	6	13	10	8	0	8	1	8	5	8	3	8	4	
5	12	13	6	9	8	12	0	12	1	12	2	12	5	12	4	
3	5	0	7	5	0	5	1	5	2	5	5	5	4	
3	12	13	6	6	0	6	1	6	2	6	5	6	4	
2	5	1	5	0	5	1	5	2	5	5	5	4	
5	10	13	6	9	8	6	0	6	1	6	2	6	1	6	0	
3	0	5	3	5	0	5	1	5	2	5	3	5	4	
6	3	5	0	6	9	11	5	0	5	1	5	2	5	1	5	0	
4	4	2	7	8	7	0	7	1	7	2	7	5	7	4	
2	12	13	12	0	12	1	12	2	12	3	12	4	
2	7	8	7	0	7	1	7	5	7	3	7	4	
2	2	1	2	0	2	1	2	2	2	5	2	4	
4	9	6	13	10	6	0	6	1	6	2	6	5	6	4	
2	13	12	12	0	12	1	12	5	12	3	12	4	
3	10	12	13	12	0	12	1	12	2	12	1	12	0	
4	3	5	0	6	5	0	5	1	5	2	5	1	5	0	
4	9	6	13	12	6	0	6	1	6	2	6	5	6	4	
5	11	8	7	2	4	8	0	8	1	8	2	8	3	8	4	
2	8	11	8	0	8	1	8	5	8	3	8	4	
5	4	3	5	12	13	4	0	4	1	4	2	4	3	4	4	
5	9	6	0	5	3	6	0	6	1	6	2	6	3	6	4	
3	12	5	3	12	0	12	1	12	5	12	3	12	4	
2	5	12	5	0	5	1	5	5	5	3	5	4	
5	10	12	5	1	4	12	0	12	1	12	2	5	1	5	0	
4	1	5	12	13	12	0	12	1	12	2	12	5	12	4	
4	11	9	6	13	6	0	6	1	6	2	6	5	6	4	
5	8	9	6	13	12	8	0	8	1	8	2	8	3	8	4	
3	14	8	11	8	0	8	1	8	2	8	1	8	0	
5	2	7	0	6	13	7	0	7	1	7	2	7	5	7	4	
2	4	2	2	0	2	1	2	2	2	5	2	4	
3	9	6	13	6	0	6	1	6	2	6	1	6	0	
2	2	7	2	0	2	1	2	2	2	5	2	4	
4	13	12	5	1	12	0	12	1	12	2	12	3	12	4	
2	6	0	6	0	6	1	6	2	6	3	6	4	
2	11	8	8	0	8	1	8	2	8	3	8	4	
3	14	7	2	7	0	7	1	7	2	7	1	7	0	
4	6	0	7	2	6	0	6	1	6	5	6	3	6	4	
2	1	4	4	0	4	1	4	2	4	5	4	4	
3	7	2	1	7	0	7	1	7	2	7	1	7	0	
3	2	7	14	2	0	2	1	2	2	2	3	2	4	
2	9	8	8	0	8	1	8	2	8	1	8	0	
3	0	5	12	5	0	5	1	5	5	5	3	5	4	
3	5	1	2	5	0	5	1	5	5	5	3	5	4	
5	10	13	6	9	11	6	0	6	1	6	2	6	3	6	4	
3	0	7	2	7	0	7	1	7	5	7	3	2	4	
5	3	4	2	7	8	4	0	4	1	4	2	4	3	4	4	
3	8	7	0	8	0	8	1	8	2	8	3	8	4	
3	11	9	6	6	0	6	1	6	5	6	3	6	4	
3	3	5	12	5	0	5	1	5	5	5	3	5	4	
3	1	2	7	2	0	2	1	2	2	2	3	2	4	
3	7	2	4	7	0	7	1	7	2	7	1	7	0	
5	9	6	0	5	1	6	0	6	1	6	2	6	1	6	0	
3	2	7	0	2	0	2	1	2	2	2	1	2	0	
2	12	5	12	0	12	1	12	5	12	3	12	4	
5	10	12	5	1	2	5	0	5	1	5	2	5	5	5	4	
2	9	8	8	0	8	1	8	2	8	5	8	4	
2	10	12	12	0	12	1	12	2	12	5	12	4	
4	1	2	7	8	2	0	2	1	2	2	2	5	2	4	
4	3	5	0	7	5	0	5	1	5	2	5	5	5	4	
4	7	0	6	13	7	0	7	1	7	2	7	1	7	0	
2	8	14	8	0	8	1	8	2	8	1	8	0	
3	14	8	9	8	0	8	1	8	2	8	3	8	4	
5	1	2	7	8	9	2	0	2	1	2	2	2	5	2	4	
4	12	5	1	2	5	0	5	1	5	2	5	3	5	4	
3	2	1	5	2	0	2	1	2	2	2	1	2	0	
3	5	12	13	5	0	5	1	5	2	5	3	5	4	
5	10	12	5	0	7	12	0	12	1	12	2	12	3	12	4	
2	0	7	7	0	7	1	7	2	7	5	7	4	
5	11	9	6	13	10	6	0	6	1	6	5	6	3	6	4	
5	1	2	7	8	11	2	0	7	1	7	2	7	3	7	4	
2	8	11	8	0	8	1	8	2	8	1	8	0	
4	2	1	5	12	2	0	2	1	2	2	2	1	2	0	
2	4	1	4	0	4	1	4	5	4	3	4	4	
3	9	8	14	8	0	8	1	8	2	8	3	8	4	
5	9	8	7	2	4	8	0	8	1	8	5	8	3	8	4	
5	13	6	0	7	2	6	0	6	1	6	2	6	1	6	0	
4	0	5	3	4	5	0	5	1	5	2	5	3	5	4	
4	6	0	5	3	5	0	5	1	5	2	5	1	5	0	
3	8	7	2	8	0	8	1	8	2	8	1	8	0	
2	1	5	5	0	5	1	5	2	5	1	5	0	
3	7	0	6	6	0	6	1	6	2	6	3	6	4	
5	12	5	0	7	14	12	0	12	1	5	2	5	3	5	4	
4	13	6	9	11	6	0	6	1	6	2	6	1	6	0	
4	0	7	8	11	7	0	7	1	7	2	7	5	7	4	
3	6	13	10	6	0	6	1	6	2	6	1	6	0	
3	0	5	1	5	0	5	1	5	2	5	5	5	4	
2	7	0	7	0	7	1	7	2	7	5	7	4	
3	11	8	7	8	0	8	1	8	2	8	3	8	4	
3	1	5	0	5	0	5	1	5	2	5	1	5	0	
4	4	2	7	14	2	0	2	1	2	2	2	3	2	4	
4	9	8	7	2	8	0	8	1	8	2	8	3	8	4	
5	9	8	7	2	4	7	0	7	1	7	2	7	5	7	4	
3	2	4	3	2	0	2	1	2	2	2	3	2	4	
5	8	7	2	4	3	8	0	8	1	8	5	8	3	8	4	
5	5	0	6	9	11	5	0	5	1	5	2	5	1	5	0	
5	13	6	9	8	14	6	0	6	1	6	2	6	1	6	0	
3	0	7	8	7	0	7	1	7	2	7	3	7	4	
4	2	1	5	12	2	0	2	1	2	5	2	3	2	4	
5	1	2	7	8	9	2	0	2	1	2	2	2	1	2	0	
3	6	0	7	6	0	6	1	6	5	6	3	6	4	
4	8	9	6	13	8	0	8	1	8	2	8	3	8	4	
2	14	8	8	0	8	1	8	5	8	3	8	4	
5	2	1	5	12	10	2	0	2	1	2	2	2	5	2	4	
3	12	5	1	12	0	12	1	12	2	12	1	12	0	
2	2	4	2	0	2	1	2	2	2	5	2	4	
4	5	0	7	14	5	0	5	1	5	2	5	1	5	0	
3	13	6	0	6	0	6	1	6	2	6	3	6	4	
2	0	6	6	0	6	1	6	2	6	1	6	0	
6	11	8	7	2	4	3	8	0	8	1	8	2	8	5	8	4	
4	6	0	5	1	6	0	6	1	6	2	6	3	6	4	
4	8	7	2	4	8	0	8	1	8	2	8	5	8	4	
2	8	9	8	0	8	1	8	5	8	3	8	4	
5	8	9	6	13	10	8	0	8	1	8	2	8	5	8	4	
5	12	13	6	9	8	12	0	12	1	12	2	12	1	12	0	
3	5	0	7	5	0	5	1	5	2	5	1	5	0	
5	10	13	6	9	8	6	0	6	1	6	2	6	3	6	4	
3	0	5	3	5	0	5	1	5	2	5	1	5	0	
6	3	5	0	6	9	11	5	0	5	1	5	2	5	3	5	4	
4	8	7	2	1	8	0	8	1	8	2	8	3	8	4	
2	12	10	12	0	12	1	12	2	12	5	12	4	
4	1	5	0	6	5	0	5	1	5	2	5	3	5	4	
2	6	9	6	0	6	1	6	5	6	3	6	4	
4	4	2	7	8	2	0	7	1	7	2	7	1	7	0	
2	12	13	12	0	12	1	12	2	12	1	12	0	
2	2	1	2	0	2	1	2	5	2	3	2	4	
4	9	6	13	10	6	0	6	1	6	5	6	3	6	4	
2	13	12	12	0	12	1	12	2	12	3	12	4	
4	0	6	13	10	6	0	6	1	6	2	6	1	6	0	
5	13	12	5	1	2	12	0	12	1	12	5	12	3	12	4	
3	6	13	12	6	0	6	1	6	5	6	3	6	4	
5	11	8	7	2	4	7	0	7	1	7	2	7	1	7	0	
5	4	3	5	12	13	4	0	4	1	4	2	4	1	4	0	
3	12	5	3	12	0	12	1	12	2	12	3	12	4	
2	5	12	5	0	5	1	12	2	12	3	12	4	
5	10	12	5	1	4	5	0	5	1	5	2	5	3	5	4	
4	6	0	5	3	6	0	6	1	6	5	6	3	6	4	
4	11	9	6	13	6	0	6	1	6	2	6	1	6	0	
4	1	5	12	10	12	0	12	1	12	2	12	3	12	4	
2	7	2	7	0	7	1	7	2	7	5	7	4	
3	14	8	11	8	0	8	1	8	2	8	5	8	4	
5	2	7	0	6	13	7	0	7	1	7	5	7	3	7	4	
3	9	6	13	6	0	6	1	6	2	6	3	6	4	
4	13	6	0	7	6	0	6	1	6	5	6	3	6	4	
2	2	7	2	0	2	1	2	5	2	3	2	4	
4	7	0	5	12	7	0	7	1	7	5	7	3	7	4	
4	6	9	8	14	6	0	6	1	6	5	6	3	6	4	
4	8	7	0	5	8	0	8	1	8	5	8	3	8	4	
4	13	12	5	1	5	0	5	1	5	5	5	3	5	4	
2	0	5	5	0	5	1	5	2	5	3	5	4	
4	3	5	12	13	5	0	5	1	5	2	5	1	5	0	
2	11	8	8	0	8	1	8	2	8	1	8	0	
3	14	7	2	2	0	2	1	2	2	2	3	2	4	
2	1	4	4	0	4	1	4	5	4	3	4	4	
3	7	2	1	7	0	7	1	7	2	7	3	7	4	
2	7	0	7	0	7	1	7	5	7	3	7	4	
3	0	5	12	5	0	5	1	5	2	5	5	5	4	
3	7	8	11	7	0	7	1	7	2	7	5	7	4	
5	12	5	0	7	14	12	0	12	1	12	2	12	5	12	4	
5	10	13	6	9	11	6	0	6	1	6	2	6	1	6	0	
3	0	7	2	7	0	2	1	2	2	2	5	2	4	
5	3	5	0	7	8	5	0	5	1	5	2	5	1	5	0	
2	7	14	7	0	7	1	7	2	7	5	7	4	
3	11	9	6	6	0	6	1	6	2	6	3	6	4	
5	14	7	0	5	12	7	0	7	1	7	2	7	1	7	0	
3	7	2	4	7	0	7	1	7	2	7	5	7	4	
5	9	8	7	2	1	8	0	8	1	8	2	8	3	8	4	
2	13	6	6	0	6	1	6	5	6	3	6	4	
3	2	7	0	2	0	2	1	2	2	2	3	2	4	
4	4	3	5	12	4	0	4	1	4	2	4	5	4	4	
5	10	12	5	1	2	5	0	5	1	5	2	5	1	5	0	
3	6	9	8	6	0	6	1	6	5	6	3	6	4	
3	0	6	9	6	0	6	1	6	2	6	3	6	4	
3	3	4	1	4	0	4	1	4	2	4	1	4	0	
3	6	0	5	6	0	6	1	6	2	6	5	6	4	
3	7	0	5	7	0	7	1	7	5	7	3	7	4	
4	7	0	6	13	7	0	7	1	7	2	7	3	7	4	
2	8	14	8	0	8	1	8	2	8	3	8	4	
4	12	5	3	4	5	0	5	1	5	5	5	3	5	4	
3	14	8	9	8	0	8	1	8	2	8	1	8	0	
2	5	3	5	0	5	1	5	5	5	3	5	4	
4	12	5	1	2	5	0	5	1	5	5	5	3	5	4	
3	5	12	13	12	0	12	1	12	5	12	3	12	4	
5	10	12	5	0	7	12	0	12	1	12	2	12	1	12	0	
2	0	7	7	0	7	1	7	5	7	3	7	4	
5	11	9	6	13	10	6	0	6	1	6	2	6	3	6	4	
3	14	7	0	7	0	7	1	7	2	7	1	7	0	
4	7	0	5	3	7	0	7	1	7	2	7	1	7	0	
4	2	1	5	12	2	0	2	1	2	2	2	3	2	4	
4	8	7	2	1	8	0	8	1	8	5	8	3	8	4	
3	9	8	14	8	0	8	1	8	2	8	1	8	0	
4	13	6	9	8	6	0	6	1	6	2	6	5	6	4	
2	5	0	5	0	5	1	5	5	5	3	5	4	
2	6	9	6	0	6	1	6	2	6	5	6	4	
4	10	13	6	9	6	0	6	1	6	2	6	3	6	4	
4	3	5	12	10	12	0	12	1	12	2	12	3	12	4	
3	8	7	2	8	0	8	1	8	2	8	3	8	4	
2	1	5	5	0	5	1	5	2	5	3	5	4	
3	7	0	6	7	0	7	1	7	2	7	1	7	0	
3	9	8	7	8	0	8	1	8	2	8	1	8	0	
4	1	5	0	6	5	0	5	1	5	5	5	3	5	4	
4	5	0	7	8	5	0	5	1	5	2	5	5	5	4	
4	13	6	9	11	6	0	6	1	6	2	6	3	6	4	
4	0	7	8	11	7	0	7	1	7	5	7	3	7	4	
3	6	13	10	6	0	6	1	6	2	6	3	6	4	
5	11	8	7	2	1	7	0	7	1	7	5	7	3	7	4	
3	6	9	8	8	0	8	1	8	2	8	5	8	4	
4	4	3	5	0	4	0	4	1	4	5	4	3	4	4	
3	13	12	10	12	0	12	1	12	5	12	3	12	4	
3	11	8	7	7	0	7	1	7	5	7	3	7	4	
4	4	2	7	14	4	0	4	1	4	5	4	3	4	4	
4	9	8	7	2	8	0	7	1	7	2	7	1	7	0	
3	2	4	3	2	0	2	1	2	2	2	1	2	0	
5	5	0	6	9	11	5	0	5	1	5	2	5	3	5	4	
3	10	12	5	5	0	5	1	5	2	5	3	5	4	
5	6	0	5	1	4	5	0	5	1	5	2	5	1	5	0	
5	1	5	0	6	9	5	0	5	1	5	2	5	3	5	4	
3	6	9	11	6	0	6	1	6	5	6	3	6	4	
4	8	9	6	13	8	0	8	1	8	2	8	1	8	0	
5	12	13	6	9	11	12	0	12	1	12	2	12	5	12	4	
2	14	8	8	0	8	1	8	2	8	5	8	4	
5	2	1	5	12	10	2	0	2	1	2	2	2	1	2	0	
3	5	1	4	5	0	5	1	5	2	5	5	5	4	
4	9	6	13	12	6	0	6	1	6	2	6	3	6	4	
4	1	2	7	8	2	0	7	1	7	5	7	3	7	4	
4	5	0	7	14	5	0	5	1	5	2	5	5	5	4	
3	13	6	0	6	0	6	1	6	2	6	1	6	0	
2	0	6	6	0	6	1	6	2	6	3	6	4	
4	6	0	5	1	6	0	6	1	6	2	6	1	6	0	
4	8	7	2	4	8	0	8	1	8	2	8	1	8	0	
5	14	7	2	4	3	7	0	7	1	7	2	7	3	7	4	
2	7	0	7	0	7	1	7	2	7	3	7	4	
5	12	13	6	9	8	12	0	12	1	12	2	12	3	12	4	
4	1	5	12	13	12	0	12	1	12	5	12	3	12	4	
3	5	0	7	5	0	5	1	5	2	5	3	5	4	
3	13	6	9	6	0	6	1	6	2	6	1	6	0	
3	6	9	8	6	0	6	1	6	2	6	1	6	0	
4	3	5	12	13	5	0	5	1	5	2	5	5	5	4	
6	3	5	0	6	9	11	5	0	5	1	5	5	5	3	5	4	
4	8	7	2	1	8	0	8	1	8	2	8	1	8	0	
2	1	2	2	0	2	1	2	5	2	3	2	4	
4	1	5	0	6	5	0	5	1	5	2	5	1	5	0	
4	4	2	7	8	2	0	7	1	7	2	7	3	7	4	
3	9	6	0	6	0	6	1	6	2	6	3	6	4	
2	2	1	2	0	2	1	2	2	2	3	2	4	
4	5	0	6	9	5	0	5	1	5	2	5	1	5	0	
2	13	12	12	0	12	1	12	2	12	1	12	0	
4	0	6	13	10	6	0	6	1	6	2	6	3	6	4	
5	13	6	9	8	14	6	0	6	1	6	5	6	3	6	4	
3	11	8	14	8	0	8	1	8	2	8	5	8	4	
4	7	0	5	12	7	0	7	1	7	2	7	3	7	4	
5	11	8	7	2	4	8	0	8	1	8	2	8	5	8	4	
5	4	3	5	12	13	4	0	4	1	4	2	4	5	4	4	
3	12	5	3	12	0	12	1	12	2	12	1	12	0	
2	5	12	5	0	5	1	5	2	5	1	5	0	
5	10	12	5	3	4	5	0	5	1	5	5	5	3	5	4	
4	7	0	5	12	7	0	7	1	7	2	7	5	7	4	
3	6	0	7	6	0	6	1	6	2	6	3	6	4	
4	11	9	6	13	6	0	6	1	6	2	6	3	6	4	
4	1	5	12	10	5	0	5	1	5	2	5	1	5	0	
2	7	2	7	0	7	1	7	5	7	3	7	4	
2	12	10	12	0	12	1	12	2	12	1	12	0	
3	14	8	11	8	0	8	1	8	5	8	3	8	4	
5	2	7	0	6	13	7	0	7	1	7	2	7	3	7	4	
3	9	6	13	6	0	6	1	6	5	6	3	6	4	
4	13	6	0	7	6	0	6	1	6	2	6	5	6	4	
4	6	0	7	14	6	0	6	1	6	2	6	5	6	4	
4	13	12	5	1	12	0	12	1	12	2	12	5	12	4	
2	0	5	5	0	5	1	5	2	5	1	5	0	
4	3	5	12	13	12	0	12	1	12	2	12	3	12	4	
5	8	7	0	5	3	8	0	8	1	7	2	7	3	7	4	
5	1	2	7	8	9	7	0	7	1	7	5	7	3	7	4	
2	1	4	4	0	4	1	4	2	4	3	4	4	
5	4	3	5	12	10	4	0	4	1	4	2	4	1	4	0	
3	13	12	10	12	0	12	1	12	2	12	3	12	4	
3	0	5	12	5	0	12	1	12	2	12	1	12	0	
3	6	9	11	6	0	6	1	6	2	6	3	6	4	
4	1	2	7	14	2	0	2	1	7	5	7	3	7	4	
5	10	13	6	9	11	6	0	6	1	6	2	6	5	6	4	
5	3	5	0	7	8	5	0	5	1	5	2	5	5	5	4	
2	7	14	7	0	7	1	7	5	7	3	7	4	
3	11	9	6	6	0	6	1	6	2	6	1	6	0	
5	14	7	0	5	12	7	0	7	1	7	2	7	3	7	4	
4	2	7	0	6	2	0	2	1	2	5	2	3	2	4	
3	7	2	4	2	0	2	1	4	5	4	3	4	4	
5	9	8	7	2	1	8	0	8	1	8	5	8	3	8	4	
3	2	7	0	2	0	2	1	2	5	2	3	2	4	
3	5	12	10	12	0	12	1	12	2	12	3	12	4	
5	10	12	5	1	2	12	0	12	1	12	2	12	3	12	4	
3	0	6	9	6	0	6	1	6	2	6	1	6	0	
3	3	5	1	5	0	5	1	5	2	5	3	5	4	
3	6	0	5	6	0	5	1	5	5	5	3	5	4	
4	1	2	7	8	7	0	7	1	7	2	7	3	7	4	
5	4	3	5	0	6	4	0	4	1	4	2	4	1	4	0	
2	8	14	8	0	8	1	8	5	8	3	8	4	
4	12	5	3	4	12	0	12	1	12	2	12	5	12	4	
3	5	1	4	5	0	5	1	5	5	5	3	5	4	
2	5	3	5	0	5	1	5	2	5	5	5	4	
4	12	5	1	2	12	0	12	1	12	2	12	5	12	4	
3	5	12	13	5	0	5	1	5	2	5	5	5	4	
5	10	13	6	0	7	6	0	6	1	6	2	6	5	6	4	
3	12	5	1	12	0	12	1	12	5	12	3	12	4	
2	0	7	7	0	7	1	7	2	7	3	7	4	
5	11	9	6	13	10	6	0	6	1	6	2	6	1	6	0	
3	14	7	0	7	0	7	1	7	2	7	3	7	4	
4	7	0	5	3	7	0	7	1	7	2	7	3	7	4	
4	12	13	6	9	6	0	6	1	6	2	6	3	6	4	
3	9	6	0	6	0	6	1	6	2	6	5	6	4	
3	5	0	6	5	0	5	1	5	2	5	3	5	4	
3	9	8	14	8	0	8	1	8	2	8	5	8	4	
4	13	6	9	8	6	0	6	1	6	5	6	3	6	4	
3	6	0	7	6	0	6	1	6	2	6	5	6	4	
4	10	13	6	9	6	0	6	1	6	2	6	1	6	0	
3	1	5	3	5	0	5	1	5	5	5	3	5	4	
4	3	5	12	10	5	0	5	1	5	2	5	1	5	0	
3	8	7	2	8	0	8	1	8	5	8	3	8	4	
2	1	5	5	0	5	1	5	5	5	3	5	4	
5	4	2	7	8	9	2	0	2	1	2	2	2	3	2	4	
3	9	8	7	8	0	7	1	7	2	7	3	7	4	
3	9	8	11	8	0	8	1	8	5	8	3	8	4	
4	1	5	12	10	12	0	12	1	12	5	12	3	12	4	
4	5	0	7	8	5	0	5	1	5	5	5	3	5	4	
4	10	12	5	0	12	0	12	1	12	2	12	1	12	0	
4	0	7	8	11	7	0	7	1	7	2	7	3	7	4	
2	8	9	8	0	8	1	8	2	8	5	8	4	
5	11	8	7	2	1	7	0	7	1	7	2	7	5	7	4	
4	4	2	7	0	2	0	2	1	2	2	2	5	2	4	
3	10	12	13	12	0	12	1	12	5	12	3	12	4	
3	11	8	7	7	0	7	1	7	2	7	5	7	4	
4	2	7	8	9	2	0	2	1	2	2	2	5	2	4	
4	4	2	7	14	7	0	7	1	7	2	7	5	7	4	
4	9	8	7	2	8	0	7	1	7	2	7	5	7	4	
3	2	4	3	2	0	2	1	2	2	2	5	2	4	
3	10	12	5	12	0	12	1	12	2	12	1	12	0	
2	12	10	12	0	12	1	12	5	12	3	12	4	
5	6	0	5	3	4	5	0	5	1	5	2	5	3	5	4	
5	11	9	6	13	12	6	0	6	1	6	2	6	3	6	4	
5	4	2	7	8	11	4	0	4	1	4	2	4	5	4	4	
4	14	8	9	6	8	0	8	1	8	2	8	1	8	0	
3	4	3	5	4	0	4	1	4	2	4	3	4	4	
4	8	9	6	13	8	0	8	1	8	2	8	5	8	4	
5	12	13	6	9	11	12	0	12	1	12	5	12	3	12	4	
5	2	1	5	12	10	2	0	2	1	2	2	2	3	2	4	
5	13	6	0	7	2	6	0	6	1	6	2	6	5	6	4	
4	9	6	13	12	6	0	6	1	6	2	6	1	6	0	
5	3	5	0	6	9	5	0	5	1	5	2	5	5	5	4	
2	0	6	6	0	6	1	6	5	6	3	6	4	
3	3	5	12	5	0	5	1	5	2	5	3	5	4	
4	8	7	2	4	8	0	8	1	8	2	8	3	8	4	
5	14	7	2	4	3	7	0	7	1	7	2	7	1	7	0	
3	7	2	1	7	0	7	1	7	2	7	5	7	4	
2	7	0	7	0	7	1	7	2	7	1	7	0	
4	9	6	0	5	6	0	6	1	6	2	6	1	6	0	
5	4	2	7	8	11	7	0	7	1	7	5	7	3	7	4	
4	6	0	5	3	6	0	6	1	6	2	6	5	6	4	
3	13	6	9	6	0	6	1	6	2	6	3	6	4	
3	6	9	8	6	0	6	1	6	2	6	3	6	4	
5	10	13	6	9	8	6	0	6	1	6	2	6	5	6	4	
3	1	5	12	5	0	5	1	5	2	5	5	5	4	
6	3	4	2	7	8	11	4	0	4	1	4	2	4	5	4	4	
3	7	8	9	8	0	8	1	8	2	8	1	8	0	
5	14	7	0	6	13	7	0	7	1	7	2	7	3	7	4	
3	9	6	0	6	0	6	1	6	2	6	1	6	0	
4	8	7	0	5	8	0	8	1	8	2	8	5	8	4	
3	0	5	3	5	0	5	1	5	5	5	3	5	4	
2	2	1	2	0	2	1	2	2	2	1	2	0	
2	8	11	8	0	8	1	8	2	8	5	8	4	
4	5	0	6	9	5	0	5	1	5	2	5	3	5	4	
4	10	12	5	3	5	0	5	1	5	2	5	3	5	4	
4	0	5	12	10	5	0	5	1	5	5	5	3	5	4	
3	3	5	0	5	0	5	1	5	2	5	3	5	4	
3	11	8	14	8	0	8	1	8	5	8	3	8	4	
4	7	0	5	12	7	0	7	1	7	2	7	1	7	0	
5	11	8	7	2	4	8	0	8	1	8	5	8	3	8	4	
3	2	7	8	7	0	7	1	7	2	7	1	7	0	
6	10	13	6	0	7	14	6	0	6	1	6	2	6	5	6	4	
5	12	5	0	7	14	12	0	12	1	12	5	12	3	12	4	
5	10	12	5	1	4	5	0	5	1	5	2	5	5	5	4	
3	5	0	6	5	0	5	1	5	5	5	3	5	4	
3	6	0	7	6	0	6	1	6	2	6	1	6	0	
3	8	9	6	8	0	8	1	8	2	8	1	8	0	
4	14	7	2	1	7	0	2	1	2	2	2	3	2	4	
2	13	6	6	0	6	1	6	2	6	5	6	4	
4	12	13	6	9	12	0	12	1	12	5	12	3	12	4	
2	7	2	7	0	7	1	7	2	7	3	7	4	
2	12	10	12	0	12	1	12	2	12	3	12	4	
5	2	7	0	6	13	7	0	7	1	7	2	7	1	7	0	
4	14	7	2	1	7	0	7	1	2	2	2	5	2	4	
3	9	6	13	6	0	6	1	6	2	6	5	6	4	
4	13	6	0	7	6	0	6	1	6	2	6	1	6	0	
4	6	0	7	14	6	0	6	1	6	2	6	1	6	0	
2	0	5	5	0	5	1	5	2	5	5	5	4	
5	8	7	0	5	3	8	0	8	1	7	2	7	1	7	0	
2	1	4	4	0	4	1	4	2	4	1	4	0	
5	4	3	5	12	10	4	0	4	1	5	2	5	3	5	4	
2	9	6	6	0	6	1	6	2	6	3	6	4	
6	14	7	0	6	13	10	7	0	7	1	7	5	7	3	7	4	
3	13	12	10	12	0	12	1	12	2	12	1	12	0	
3	0	5	12	5	0	5	1	5	2	5	3	5	4	
3	6	9	11	6	0	6	1	6	2	6	1	6	0	
5	10	13	6	9	11	6	0	6	1	6	5	6	3	6	4	
4	1	5	12	13	5	0	5	1	5	2	5	1	5	0	
5	3	5	0	7	8	5	0	5	1	5	5	5	3	5	4	
2	7	14	7	0	7	1	7	2	7	3	7	4	
4	8	7	2	1	8	0	8	1	8	2	8	5	8	4	
5	14	7	0	5	12	7	0	7	1	7	5	7	3	7	4	
4	2	7	0	6	2	0	2	1	2	2	2	5	2	4	
5	9	6	0	5	1	6	0	6	1	6	2	6	5	6	4	
3	2	7	0	2	0	2	1	2	2	2	5	2	4	
3	5	12	10	5	0	5	1	5	2	5	1	5	0	
3	0	6	9	6	0	6	1	6	2	6	5	6	4	
3	6	0	5	6	0	6	1	6	2	6	3	6	4	
4	1	2	7	8	2	0	7	1	7	2	7	1	7	0	
5	4	2	7	0	6	2	0	2	1	2	2	2	3	2	4	
2	8	14	8	0	8	1	8	2	8	5	8	4	
4	12	5	3	4	12	0	12	1	12	2	12	1	12	0	
4	2	7	8	11	2	0	2	1	7	2	7	3	7	4	
2	5	3	5	0	5	1	5	2	5	1	5	0	
5	10	12	5	0	7	12	0	12	1	12	5	12	3	12	4	
3	13	12	10	12	0	12	1	12	2	12	5	12	4	
2	0	7	7	0	7	1	7	2	7	1	7	0	
4	8	7	0	5	8	0	8	1	8	2	8	3	8	4	
3	3	4	1	4	0	4	1	4	2	4	5	4	4	
3	14	7	0	7	0	7	1	7	5	7	3	7	4	
4	7	0	5	3	7	0	7	1	7	5	7	3	7	4	
4	12	13	6	9	12	0	12	1	12	2	12	1	12	0	
4	2	1	5	12	2	0	2	1	2	2	2	5	2	4	
3	5	0	6	5	0	5	1	5	2	5	1	5	0	
3	9	8	14	8	0	8	1	8	5	8	3	8	4	
4	13	6	9	8	6	0	6	1	6	2	6	3	6	4	
3	0	7	14	7	0	7	1	7	2	7	1	7	0	
2	4	3	4	0	4	1	4	5	4	3	4	4	
2	6	9	6	0	6	1	6	2	6	3	6	4	
3	6	9	11	6	0	6	1	6	2	6	5	6	4	
3	1	5	3	5	0	5	1	5	2	5	5	5	4	
3	8	7	2	8	0	8	1	8	2	8	5	8	4	
2	1	5	5	0	5	1	5	2	5	5	5	4	
5	4	2	7	8	9	4	0	4	1	4	2	4	1	4	0	
4	5	0	7	8	5	0	5	1	5	2	5	3	5	4	
4	10	12	5	0	12	0	12	1	12	2	12	3	12	4	
4	0	7	8	11	7	0	7	1	7	2	7	1	8	0	
5	11	8	7	2	1	8	0	8	1	8	2	8	1	8	0	
4	1	2	7	14	2	0	2	1	2	2	2	3	2	4	
6	14	8	9	6	13	10	8	0	8	1	8	2	8	5	8	4	
4	4	3	5	0	4	0	4	1	4	2	4	1	4	0	
4	2	7	8	9	2	0	2	1	2	5	2	3	2	4	
4	9	8	7	2	8	0	8	1	8	5	8	3	8	4	
4	13	12	5	3	5	0	5	1	5	5	5	3	5	4	
3	2	4	3	2	0	2	1	2	5	2	3	2	4	
2	6	0	6	0	6	1	6	5	6	3	6	4	
2	1	2	2	0	2	1	2	2	2	5	2	4	
5	6	0	5	3	4	5	0	5	1	5	5	5	3	5	4	
5	11	9	6	13	12	6	0	6	1	6	2	6	1	6	0	
4	14	8	9	6	8	0	8	1	8	2	8	3	8	4	
3	4	3	5	4	0	4	1	4	2	4	1	4	0	
4	8	9	6	13	8	0	8	1	8	5	8	3	8	4	
5	12	13	6	9	11	12	0	12	1	12	2	12	3	12	4	
3	5	1	4	5	0	5	1	5	2	5	3	5	4	
5	13	6	9	8	14	6	0	6	1	6	2	6	5	6	4	
2	0	6	6	0	6	1	6	2	6	5	6	4	
3	3	5	12	5	0	5	1	5	2	5	1	5	0	
5	7	0	6	13	10	7	0	7	1	7	2	7	5	7	4	
5	14	7	2	4	3	2	0	2	1	2	2	2	5	2	4	
6	11	8	7	2	4	3	8	0	8	1	8	5	8	3	8	4	
5	4	2	7	8	11	2	0	7	1	7	2	7	3	7	4	
4	9	6	0	5	6	0	6	1	6	2	6	3	6	4	
3	4	2	7	4	0	4	1	4	5	4	3	4	4	
6	10	12	5	0	7	14	12	0	12	1	12	2	12	1	12	0	
3	0	6	13	6	0	6	1	6	2	6	3	6	4	
2	3	5	5	0	5	1	5	2	5	1	5	0	
3	1	5	12	12	0	12	1	12	5	12	3	12	4	
3	7	8	9	7	0	7	1	7	2	7	3	7	4	
3	12	5	0	12	0	12	1	12	5	12	3	12	4	
5	14	7	0	6	13	7	0	7	1	7	2	7	1	7	0	
4	5	0	6	9	5	0	5	1	5	5	5	3	5	4	
4	10	12	5	3	12	0	12	1	12	2	12	1	12	0	
4	14	8	9	6	8	0	8	1	8	2	8	5	8	4	
3	3	5	0	5	0	5	1	5	2	5	1	5	0	
5	4	3	5	12	13	4	0	4	1	4	5	4	3	4	4	
3	11	8	14	8	0	8	1	8	2	8	3	8	4	
4	14	7	2	4	7	0	7	1	7	2	7	1	7	0	
3	4	2	7	2	0	7	1	7	2	7	3	7	4	
3	2	7	8	2	0	2	1	2	2	2	3	2	4	
4	1	2	7	14	2	0	7	1	7	2	7	5	7	4	
5	13	12	5	1	4	12	0	12	1	12	2	5	5	5	4	
2	6	13	6	0	6	1	6	2	6	5	6	4	
5	3	5	0	7	14	5	0	5	1	5	2	5	3	5	4	
3	8	9	6	8	0	8	1	8	2	8	3	8	4	
4	14	7	2	1	7	0	7	1	7	2	7	1	7	0	
2	7	2	7	0	7	1	7	2	7	1	7	0	
3	9	8	11	8	0	8	1	8	2	8	1	8	0	
4	13	6	0	7	6	0	6	1	6	2	6	3	6	4	
4	6	9	8	14	6	0	6	1	6	2	6	3	6	4	
5	11	8	7	0	5	8	0	8	1	8	5	8	3	8	4	
2	0	5	5	0	5	1	5	5	5	3	5	4	
3	7	8	11	7	0	7	1	7	2	7	1	7	0	
5	4	3	5	12	10	4	0	4	1	4	5	4	3	4	4	
2	9	6	6	0	6	1	6	2	6	1	6	0	
3	12	5	1	12	0	12	1	12	2	12	5	12	4	
4	11	8	7	0	8	0	8	1	8	5	8	3	8	4	
4	10	12	5	1	5	0	5	1	5	2	5	3	5	4	
4	3	5	12	13	5	0	5	1	5	5	5	3	5	4	
3	3	4	2	4	0	4	1	4	2	4	3	4	4	
4	1	5	12	13	5	0	5	1	5	2	5	3	5	4	
2	7	14	7	0	7	1	7	2	7	1	7	0	
4	12	5	0	7	12	0	12	1	12	2	12	5	12	4	
5	14	7	0	5	12	7	0	7	1	7	2	7	5	7	4	
4	2	7	0	6	7	0	7	1	7	2	7	1	7	0	
2	5	0	5	0	5	1	5	2	5	5	5	4	
5	3	4	2	7	14	4	0	4	1	4	5	4	3	4	4	
3	5	12	10	5	0	5	1	5	2	5	5	5	4	
3	11	8	9	8	0	8	1	8	5	8	3	8	4	
3	0	6	9	6	0	6	1	6	5	6	3	6	4	
3	6	0	5	6	0	5	1	5	2	5	1	5	0	
2	14	7	7	0	7	1	7	2	7	3	7	4	
5	4	3	5	0	6	4	0	4	1	4	5	4	3	4	4	
4	1	5	12	10	5	0	5	1	5	2	5	5	5	4	
4	12	5	3	4	12	0	12	1	12	2	12	3	12	4	
4	2	7	8	11	7	0	7	1	7	2	7	1	7	0	
2	5	3	5	0	5	1	5	2	5	3	5	4	
3	13	12	5	12	0	12	1	12	2	12	1	12	0	
3	6	13	12	6	0	6	1	6	2	6	1	6	0	
4	14	7	2	4	7	0	7	1	7	2	7	5	7	4	
4	8	7	0	5	8	0	8	1	8	2	8	1	8	0	
3	14	7	0	7	0	7	1	7	2	7	5	7	4	
4	7	0	5	3	7	0	7	1	7	2	7	5	7	4	
5	9	8	7	2	4	7	0	7	1	7	2	7	3	7	4	
3	9	8	11	8	0	8	1	8	2	8	5	8	4	
3	5	0	6	5	0	5	1	5	2	5	5	5	4	
4	13	6	9	8	6	0	6	1	6	2	6	1	6	0	
3	0	7	14	7	0	7	1	7	2	7	3	7	4	
2	6	9	6	0	6	1	6	2	6	1	6	0	
4	11	8	7	2	7	0	7	1	7	2	7	5	7	4	
3	1	4	3	4	0	4	1	4	2	4	1	4	0	
2	7	8	7	0	7	1	7	2	7	3	7	4	
4	10	13	6	9	6	0	6	1	6	5	6	3	6	4	
2	12	5	12	0	12	1	12	2	12	5	12	4	
5	11	9	6	13	12	6	0	6	1	6	5	6	3	6	4	
5	4	2	7	8	9	7	0	7	1	7	2	7	5	7	4	
5	3	5	0	6	9	5	0	5	1	5	5	5	3	5	4	
3	10	13	6	6	0	6	1	6	5	6	3	6	4	
4	5	0	7	8	5	0	5	1	5	2	5	1	5	0	
4	10	12	5	0	12	0	12	1	12	5	12	3	12	4	
5	11	8	7	2	1	7	0	7	1	7	2	7	3	7	4	
4	1	2	7	14	2	0	2	1	2	2	2	1	2	0	
4	4	3	5	0	4	0	4	1	4	2	4	3	4	4	
3	12	13	6	12	0	12	1	12	2	12	1	12	0	
4	2	7	8	9	2	0	2	1	2	2	2	3	2	4	
2	5	1	5	0	5	1	5	2	5	1	5	0	
4	13	12	5	3	12	0	12	1	12	2	12	5	12	4	
4	6	0	7	2	7	0	7	1	7	2	7	5	7	4	
5	6	0	5	3	4	5	0	5	1	5	2	5	5	5	4	
2	8	7	8	0	8	1	8	2	8	3	8	4	
3	7	0	5	7	0	7	1	7	2	7	5	7	4	
3	4	3	5	4	0	4	1	4	2	4	5	4	4	
5	12	13	6	9	11	12	0	12	1	12	2	12	1	12	0	
3	5	1	4	5	0	5	1	5	2	5	1	5	0	
6	10	13	6	9	8	14	6	0	6	1	6	5	6	3	6	4	
2	13	6	6	0	6	1	6	2	6	3	6	4	
3	0	5	1	5	0	5	1	5	5	5	3	5	4	
4	3	5	0	6	5	0	5	1	5	2	5	5	5	4	
3	3	5	12	5	0	5	1	5	2	5	5	5	4	
5	7	0	6	13	10	7	0	7	1	7	5	7	3	7	4	
5	9	6	0	5	3	6	0	6	1	6	5	6	3	6	4	
3	9	8	7	8	0	7	1	7	2	7	5	7	4	
5	4	2	7	8	11	4	0	4	1	4	2	4	1	4	0	
4	9	6	0	5	6	0	6	1	6	5	6	3	6	4	
6	10	13	6	9	8	14	6	0	6	1	6	2	6	3	6	4	
3	0	6	13	6	0	6	1	6	2	6	1	6	0	
2	3	5	5	0	5	1	5	2	5	3	5	4	
4	12	13	6	9	12	0	12	1	12	2	12	5	12	4	
6	11	8	7	0	5	3	8	0	8	1	8	2	8	1	8	0	
2	11	8	8	0	8	1	8	5	8	3	8	4	
3	1	5	12	5	0	5	1	5	2	5	3	5	4	
2	3	5	5	0	5	1	5	5	5	3	5	4	
2	4	2	4	0	4	1	4	2	4	1	4	0	
3	12	5	0	12	0	12	1	12	2	12	5	12	4	
5	10	13	6	9	8	6	0	6	1	6	5	6	3	6	4	
4	5	0	6	9	5	0	5	1	5	2	5	5	5	4	
4	10	12	5	3	5	0	5	1	5	2	5	5	5	4	
3	3	5	0	5	0	5	1	5	2	5	5	5	4	
3	11	8	14	8	0	8	1	8	2	8	1	8	0	
4	14	7	2	4	7	0	7	1	7	2	7	3	7	4	
3	2	7	14	2	0	2	1	2	5	2	3	2	4	
3	4	2	7	7	0	7	1	7	2	7	1	7	0	
2	12	5	12	0	12	1	12	2	12	3	12	4	
3	2	7	8	2	0	2	1	2	5	2	3	2	4	
3	5	1	2	5	0	5	1	5	2	5	3	5	4	
5	13	12	5	3	4	5	0	5	1	5	5	5	3	5	4	
2	6	13	6	0	6	1	6	5	6	3	6	4	
3	8	7	0	7	0	7	1	7	5	7	3	7	4	
3	7	8	9	7	0	7	1	7	2	7	5	7	4	
3	1	2	7	7	0	7	1	7	5	7	3	7	4	
5	3	4	2	7	14	4	0	4	1	4	2	4	1	4	0	
3	8	9	6	8	0	8	1	8	5	8	3	8	4	
3	9	8	11	8	0	8	1	8	2	8	3	8	4	
2	10	12	12	0	12	1	12	2	12	1	12	0	
4	3	5	0	7	5	0	5	1	5	2	5	1	5	0	
5	14	8	9	6	13	8	0	8	1	8	5	8	3	8	4	
5	11	8	7	0	5	8	0	8	1	8	2	8	5	8	4	
3	7	8	11	7	0	7	1	7	2	7	3	7	4	
3	2	1	5	2	0	2	1	2	2	2	5	2	4	
5	4	1	5	12	10	5	0	5	1	5	2	5	5	5	4	
2	9	6	6	0	6	1	6	2	6	5	6	4	
4	10	12	5	1	5	0	5	1	5	5	5	3	5	4	
2	12	13	12	0	12	1	12	2	12	5	12	4	
4	10	12	5	1	12	0	12	1	12	2	12	1	12	0	
5	1	2	7	8	11	2	0	7	1	7	5	7	3	7	4	
3	3	4	2	4	0	4	1	4	2	4	1	4	0	
4	11	8	7	0	8	0	8	1	8	2	8	3	8	4	
6	14	8	9	6	13	10	8	0	8	1	8	2	8	1	8	0	
2	4	1	4	0	4	1	4	2	4	3	4	4	
4	12	5	0	7	5	0	5	1	5	5	5	3	5	4	
4	2	7	0	6	7	0	7	1	7	2	7	3	7	4	
2	4	3	4	0	4	1	4	2	4	5	4	4	
3	3	4	2	2	0	2	1	2	5	2	3	2	4	
4	0	5	3	4	5	0	5	1	5	5	5	3	5	4	
3	5	12	10	12	0	12	1	12	5	12	3	12	4	
3	11	8	9	8	0	8	1	8	2	8	5	8	4	
4	11	8	7	0	8	0	8	1	8	2	8	5	8	4	
2	14	7	7	0	7	1	7	2	7	1	7	0	
5	4	3	5	0	6	4	0	4	1	4	2	4	5	4	4	
4	3	4	2	7	4	0	4	1	4	5	4	3	4	4	
4	2	7	8	11	7	0	7	1	7	2	7	5	7	4	
3	13	12	5	12	0	12	1	12	2	12	3	12	4	
3	9	6	0	6	0	6	1	6	5	6	3	6	4	
3	6	13	12	6	0	6	1	6	2	6	3	6	4	
3	1	5	0	5	0	5	1	5	2	5	5	5	4	
3	7	0	5	7	0	7	1	7	2	7	1	7	0	
2	12	13	12	0	12	1	12	5	12	3	12	4	
5	9	8	7	2	4	7	0	7	1	7	2	7	1	7	0	
3	0	7	8	8	0	8	1	8	5	8	3	8	4	
3	14	8	9	8	0	8	1	8	5	8	3	8	4	
3	0	7	14	7	0	7	1	7	5	7	3	7	4	
2	3	4	4	0	4	1	4	2	4	3	4	4	
2	8	7	8	0	8	1	8	2	8	5	8	4	
4	11	8	7	2	7	0	7	1	7	5	7	3	7	4	
3	1	4	3	4	0	4	1	4	2	4	3	4	4	
2	7	8	8	0	8	1	8	2	8	1	8	0	
3	10	12	5	12	0	12	1	12	5	12	3	12	4	
2	2	4	2	0	2	1	2	2	2	1	2	0	
5	4	2	7	8	9	4	0	4	1	4	5	4	3	4	4	
3	10	13	6	6	0	6	1	6	2	6	5	6	4	
4	10	13	6	0	6	0	6	1	6	2	6	5	6	4	
4	1	5	0	6	5	0	5	1	5	2	5	5	5	4	
5	8	9	6	13	12	8	0	8	1	8	2	8	5	8	4	
5	8	9	6	13	12	8	0	8	1	8	5	8	3	8	4	
5	8	9	6	13	10	8	0	8	1	8	2	8	1	8	0	
4	14	7	0	5	7	0	7	1	7	2	7	3	7	4	
3	4	2	7	7	0	7	1	7	2	7	5	7	4	
3	12	13	6	12	0	12	1	12	2	12	3	12	4	
4	2	7	8	9	7	0	7	1	7	2	7	1	7	0	
2	5	1	5	0	5	1	5	2	5	3	5	4	
4	13	12	5	3	12	0	12	1	12	2	12	1	12	0	
3	0	5	3	5	0	5	1	5	2	5	5	5	4	
4	6	0	7	2	6	0	6	1	6	2	6	1	6	0	
2	8	7	8	0	8	1	8	2	8	1	8	0	
3	4	1	5	5	0	5	1	5	5	5	3	5	4	
4	9	6	13	10	6	0	6	1	6	2	6	3	6	4	
4	14	7	0	6	7	0	7	1	7	5	7	3	7	4	
2	13	6	6	0	6	1	6	2	6	1	6	0	
2	7	8	7	0	7	1	7	2	7	5	7	4	
2	3	4	4	0	4	1	4	5	4	3	4	4	
4	3	5	0	6	5	0	5	1	5	5	5	3	5	4	
5	8	7	2	4	3	8	0	8	1	8	2	8	5	8	4	
5	7	0	6	13	10	7	0	7	1	7	2	7	3	7	4	
5	9	6	0	5	3	6	0	6	1	6	2	6	5	6	4	
4	14	7	0	5	7	0	7	1	7	5	7	3	7	4	
4	9	6	0	5	6	0	6	1	6	2	6	5	6	4	
3	0	6	13	6	0	6	1	6	2	6	5	6	4	
6	11	8	7	2	4	3	8	0	8	1	8	2	8	3	8	4	
3	1	5	12	5	0	5	1	5	2	5	1	5	0	
2	4	2	4	0	4	1	4	2	4	3	4	4	
3	12	5	0	12	0	12	1	12	2	12	1	12	0	
2	2	7	2	0	2	1	2	2	2	3	2	4	
