2646.14	2654.79
9678
136830	136978
15
0	0	3000
1	0	3000
2	0	3000
3	0	3000
4	0	3000
5	1860	3000
6	0	3000
7	1853	3000
8	0	3000
9	897	3000
10	0	3000
11	0	3000
12	0	3000
13	846	3000
14	0	3000
44
0	5	94.829906	94.942746
5	0	94.942122	94.942746
0	6	89.014434	97.708373
6	0	90.219510	97.708373
0	7	107.058382	107.847469
7	0	105.640094	107.847469
1	2	46.859730	106.004333
2	1	43.428980	106.004333
1	4	14.489324	104.160274
4	1	33.421288	104.160274
1	5	105.798578	106.004333
5	1	90.101874	106.004333
2	4	37.366812	97.708373
4	2	32.831766	97.708373
2	7	93.838832	94.021178
7	2	93.910028	94.021178
3	4	23.647842	91.255735
4	3	8.786322	91.255735
3	5	65.972656	83.881529
5	3	81.505150	83.881529
5	12	83.202950	84.803282
12	5	82.238398	84.803282
6	9	84.248542	89.412137
9	6	85.175228	89.412137
6	13	90.534442	101.395569
13	6	91.560502	101.395569
7	8	87.295494	100.473078
8	7	77.708380	100.473078
7	14	49.744778	104.160274
14	7	57.995272	104.160274
8	9	52.138700	97.708373
9	8	59.511822	97.708373
8	11	33.675828	82.959776
11	8	25.743264	82.959776
8	14	16.662688	88.490385
14	8	8.398554	88.490385
9	11	33.345396	103.238705
11	9	41.704972	103.238705
10	12	23.719436	97.708373
12	10	24.221726	97.708373
10	13	42.925042	93.099610
13	10	42.916514	93.099610
12	13	53.788422	90.333982
13	12	52.665136	90.333982
840
4	10	12	5	3	5	0	5	1	5	5	5	3	5	4	
3	14	7	2	7	0	7	1	7	5	7	3	7	4	
3	3	5	0	5	0	5	1	5	5	5	3	5	4	
2	8	9	9	0	9	1	9	2	9	3	9	4	
4	14	7	2	4	7	0	7	1	7	5	7	3	7	4	
3	2	7	14	7	0	7	1	7	2	7	5	7	4	
4	9	6	13	12	13	0	13	1	13	5	13	3	13	4	
2	12	5	5	0	5	1	5	2	5	1	5	0	
3	2	7	8	7	0	7	1	7	2	7	5	7	4	
3	5	1	2	5	0	5	1	5	2	5	1	5	0	
5	13	12	5	3	4	13	0	13	1	13	2	5	3	5	4	
3	0	7	2	7	0	7	1	7	2	7	1	7	0	
4	4	1	5	12	5	0	5	1	5	5	5	3	5	4	
2	6	13	13	0	13	1	13	2	13	3	13	4	
3	8	7	0	7	0	7	1	7	2	7	5	7	4	
3	1	2	7	7	0	7	1	7	2	7	5	7	4	
3	8	9	6	9	0	9	1	9	2	9	5	9	4	
5	3	5	0	7	14	5	0	5	1	5	2	5	5	5	4	
2	8	7	7	0	7	1	7	5	7	3	7	4	
3	10	13	12	13	0	13	1	13	2	13	3	13	4	
4	3	5	0	7	5	0	5	1	5	2	5	3	5	4	
4	7	0	6	13	7	0	7	1	7	5	7	3	7	4	
4	14	7	2	1	7	0	7	1	7	5	7	3	7	4	
5	11	8	7	0	5	7	0	7	1	7	2	7	1	7	0	
4	1	5	1	2	5	0	5	1	5	2	5	3	5	4	
4	4	1	5	12	5	0	5	1	5	2	5	1	5	0	
3	7	2	1	7	0	7	1	7	5	7	3	7	4	
3	2	1	5	5	0	5	1	5	5	5	3	5	4	
2	9	6	9	0	9	1	9	5	9	3	9	4	
5	1	2	7	8	11	7	0	7	1	7	2	7	5	7	4	
4	11	9	6	0	9	0	9	1	9	2	9	1	9	0	
6	14	7	0	6	13	10	7	0	7	1	7	2	7	3	7	4	
4	4	1	5	1	5	0	5	1	5	2	5	1	5	0	
4	12	5	0	7	5	0	5	1	5	2	5	3	5	4	
2	5	0	5	0	5	1	5	2	5	3	5	4	
4	0	5	3	4	5	0	5	1	5	2	5	5	5	4	
2	11	9	9	0	9	1	9	2	9	1	9	0	
4	10	13	6	9	9	0	9	1	9	2	9	5	9	4	
2	9	8	9	0	9	1	9	5	9	3	9	4	
5	11	9	6	13	12	13	0	13	1	13	2	13	5	13	4	
3	7	0	6	7	0	7	1	7	2	7	5	7	4	
2	14	7	7	0	7	1	7	2	7	5	7	4	
4	13	6	9	11	13	0	13	1	13	5	13	3	13	4	
4	2	7	8	11	7	0	7	1	7	5	7	3	7	4	
3	6	13	10	13	0	13	1	13	5	13	3	13	4	
3	13	12	5	13	0	13	1	13	5	13	3	13	4	
3	0	5	1	5	0	5	1	5	2	5	3	5	4	
5	3	5	0	6	9	5	0	5	1	5	2	5	1	5	0	
4	3	5	12	10	5	0	5	1	5	2	5	5	5	4	
3	1	5	0	5	0	5	1	5	5	5	3	5	4	
3	7	0	5	7	0	7	1	7	2	7	3	7	4	
5	5	0	6	9	11	5	0	5	1	5	5	5	3	5	4	
3	0	7	8	7	0	7	1	7	2	7	5	7	4	
3	0	7	14	7	0	7	1	7	2	7	5	7	4	
4	3	5	1	4	5	0	5	1	5	2	5	1	5	0	
4	11	8	7	2	7	0	7	1	7	2	7	3	7	4	
3	14	7	8	7	0	7	1	7	2	7	1	7	0	
4	4	1	5	3	5	0	5	1	5	2	5	3	5	4	
4	2	7	2	4	7	0	7	1	7	2	7	3	7	4	
3	10	13	6	13	0	13	1	13	2	13	1	13	0	
3	13	6	0	13	0	13	1	13	2	13	5	13	4	
4	0	6	13	10	13	0	13	1	13	2	13	5	13	4	
4	6	0	5	1	5	0	5	1	5	2	5	5	5	4	
3	9	8	7	7	0	7	1	7	5	7	3	7	4	
5	8	9	6	13	10	9	0	9	1	9	2	9	3	9	4	
5	12	13	6	9	8	9	0	9	1	9	5	9	3	9	4	
4	14	7	0	5	7	0	7	1	7	2	7	1	7	0	
3	5	0	7	7	0	7	1	7	5	7	3	7	4	
3	12	13	6	13	0	13	1	13	5	13	3	13	4	
4	6	0	7	0	7	0	7	1	7	2	7	5	7	4	
2	5	1	5	0	5	1	5	5	5	3	5	4	
2	10	13	13	0	13	1	13	2	13	5	13	4	
4	13	12	5	3	13	0	13	1	13	2	13	3	13	4	
3	11	9	8	9	0	9	1	9	2	9	5	9	4	
4	6	0	7	2	7	0	7	1	7	2	7	3	7	4	
4	4	2	7	8	7	0	7	1	7	5	7	3	7	4	
4	9	6	13	10	9	0	9	1	9	2	9	1	9	0	
2	13	12	13	0	13	1	13	2	13	5	13	4	
2	10	13	13	0	13	1	13	2	13	3	13	4	
4	3	5	0	6	5	0	5	1	5	2	5	3	5	4	
5	7	0	6	13	10	7	0	7	1	7	2	7	1	7	0	
5	9	6	0	5	3	9	0	9	1	9	2	9	1	9	0	
3	12	5	3	5	0	5	1	5	2	5	5	5	4	
2	5	12	5	0	5	1	5	2	5	5	5	4	
3	7	8	9	7	0	7	1	7	5	7	3	7	4	
4	11	9	6	13	13	0	13	1	13	5	13	3	13	4	
3	0	6	13	13	0	13	1	13	5	13	3	13	4	
5	8	9	6	13	12	9	0	9	1	9	2	9	1	9	0	
4	14	7	8	11	7	0	7	1	7	2	7	3	7	4	
5	4	1	5	1	2	5	0	5	1	5	5	5	3	5	4	
3	12	5	0	5	0	5	1	5	2	5	3	5	4	
2	2	7	7	0	7	1	7	2	7	1	7	0	
5	14	7	0	6	13	7	0	7	1	7	2	7	5	7	4	
4	13	12	5	1	13	0	13	1	13	2	13	1	13	0	
4	6	0	7	0	7	0	7	1	7	2	7	1	7	0	
5	14	7	2	4	3	7	0	7	1	7	5	7	3	7	4	
3	14	7	2	7	0	7	1	7	2	7	5	7	4	
2	8	9	9	0	9	1	9	2	9	1	9	0	
3	6	13	12	13	0	13	1	13	2	13	5	13	4	
3	2	7	14	7	0	7	1	7	2	7	1	7	0	
4	10	12	5	1	5	0	5	1	5	2	5	5	5	4	
4	3	5	12	10	5	0	5	1	5	5	5	3	5	4	
2	9	8	9	0	9	1	9	2	9	3	9	4	
2	3	5	5	0	5	1	5	2	5	5	5	4	
3	5	1	2	5	0	5	1	5	2	5	5	5	4	
5	13	12	5	3	4	13	0	13	1	13	2	13	1	13	0	
3	0	7	2	7	0	7	1	7	2	7	3	7	4	
2	6	13	13	0	13	1	13	2	13	1	13	0	
3	8	7	0	7	0	7	1	7	2	7	1	7	0	
3	11	9	6	9	0	9	1	9	2	9	5	9	4	
4	1	5	0	7	5	0	5	1	5	2	5	1	5	0	
3	7	2	4	7	0	7	1	7	2	7	3	7	4	
4	3	5	1	2	5	0	5	1	5	2	5	5	5	4	
5	10	12	5	1	2	5	0	5	1	5	5	5	3	5	4	
3	3	5	1	5	0	5	1	5	5	5	3	5	4	
3	10	13	12	13	0	13	1	13	5	13	3	13	4	
3	13	6	9	13	0	9	1	9	5	9	3	9	4	
4	7	0	6	13	13	0	13	1	13	2	13	5	13	4	
5	11	8	7	0	5	7	0	7	1	7	2	7	3	7	4	
4	1	5	1	2	5	0	5	1	5	2	5	1	5	0	
4	4	1	5	12	5	0	5	1	5	2	5	3	5	4	
4	12	5	1	2	5	0	5	1	5	2	5	1	5	0	
3	2	1	5	5	0	5	1	5	2	5	3	5	4	
3	5	12	13	5	0	5	1	5	2	5	1	5	0	
4	5	0	7	14	5	0	5	1	5	5	5	3	5	4	
5	11	9	6	13	10	13	0	13	1	13	2	13	5	13	4	
3	13	6	9	9	0	9	1	9	2	9	5	9	4	
5	1	2	7	8	11	7	0	7	1	7	2	7	1	7	0	
3	8	9	11	9	0	9	1	9	2	9	3	9	4	
4	4	1	5	1	5	0	5	1	5	2	5	5	5	4	
3	14	8	9	9	0	9	1	9	2	9	5	9	4	
4	12	5	0	7	5	0	5	1	5	2	5	1	5	0	
2	5	0	5	0	5	1	5	2	5	1	5	0	
5	13	12	5	1	2	13	0	13	1	13	2	13	3	13	4	
4	0	5	3	4	5	0	5	1	5	2	5	1	5	0	
3	7	8	11	7	0	7	1	7	5	7	3	7	4	
4	6	0	5	3	5	0	5	1	5	2	5	3	5	4	
2	11	9	9	0	9	1	9	2	9	3	9	4	
3	10	12	5	5	0	5	1	5	2	5	5	5	4	
3	7	0	6	7	0	7	1	7	5	7	3	7	4	
5	12	5	0	7	14	5	0	5	1	5	2	5	1	5	0	
2	14	7	7	0	7	1	7	5	7	3	7	4	
4	13	6	9	11	13	0	13	1	13	2	13	5	13	4	
3	6	13	10	13	0	13	1	13	2	13	5	13	4	
3	13	12	5	13	0	13	1	13	2	13	5	13	4	
3	0	5	1	5	0	5	1	5	2	5	1	5	0	
5	3	5	0	6	9	5	0	5	1	5	2	5	3	5	4	
3	11	8	7	7	0	7	1	7	2	7	1	7	0	
3	1	5	0	5	0	5	1	5	2	5	3	5	4	
4	4	2	7	14	7	0	7	1	7	2	7	1	7	0	
5	5	0	7	8	11	5	0	5	1	5	2	5	5	5	4	
5	13	6	9	8	14	9	0	9	1	9	2	9	3	9	4	
3	0	7	8	7	0	7	1	7	2	7	1	7	0	
4	3	5	3	4	5	0	5	1	5	2	5	5	5	4	
4	11	8	7	2	7	0	7	1	7	2	7	1	7	0	
3	14	7	8	7	0	7	1	7	2	7	3	7	4	
5	2	1	5	12	10	5	0	5	1	5	5	5	3	5	4	
4	4	1	5	3	5	0	5	1	5	2	5	1	5	0	
3	12	5	1	5	0	5	1	5	2	5	3	5	4	
4	2	7	2	4	7	0	7	1	7	5	7	3	7	4	
4	5	0	7	14	7	0	7	1	7	2	7	3	7	4	
3	10	13	6	13	0	13	1	13	2	13	3	13	4	
3	13	6	0	13	0	13	1	13	5	13	3	13	4	
4	6	0	5	1	5	0	5	1	5	5	5	3	5	4	
4	8	7	2	4	7	0	7	1	7	5	7	3	7	4	
4	14	7	0	5	5	0	5	1	5	2	5	5	5	4	
5	8	9	6	13	10	9	0	9	1	9	5	9	3	9	4	
5	12	13	6	9	8	9	0	9	1	9	2	9	5	9	4	
3	5	0	7	5	0	5	1	5	2	5	5	5	4	
3	12	13	6	13	0	13	1	13	2	13	5	13	4	
2	5	1	5	0	5	1	5	2	5	5	5	4	
5	10	13	6	9	8	9	0	9	1	9	2	9	1	9	0	
3	0	5	3	5	0	5	1	5	2	5	3	5	4	
6	3	5	0	6	9	11	5	0	5	1	5	2	5	1	5	0	
4	4	2	7	8	7	0	7	1	7	2	7	5	7	4	
2	12	13	13	0	13	1	13	2	13	3	13	4	
2	7	8	7	0	7	1	7	5	7	3	7	4	
4	2	1	5	1	5	0	5	1	5	2	5	5	5	4	
4	9	6	13	10	13	0	13	1	13	2	13	5	13	4	
2	13	12	13	0	13	1	13	5	13	3	13	4	
2	10	13	13	0	13	1	13	2	13	1	13	0	
4	3	5	0	6	5	0	5	1	5	2	5	1	5	0	
4	9	6	13	12	9	0	9	1	9	2	9	5	9	4	
5	11	8	7	2	4	7	0	7	1	7	2	7	3	7	4	
3	8	9	11	9	0	9	1	9	5	9	3	9	4	
5	4	1	5	12	13	5	0	5	1	5	2	5	3	5	4	
5	9	6	0	5	3	9	0	5	1	5	2	5	3	5	4	
3	12	5	3	5	0	5	1	5	5	5	3	5	4	
2	5	12	5	0	5	1	5	5	5	3	5	4	
5	10	12	5	3	4	5	0	5	1	5	2	5	1	5	0	
4	1	5	12	13	5	0	5	1	5	2	5	5	5	4	
4	11	9	6	13	13	0	13	1	13	2	13	5	13	4	
5	8	9	6	13	12	9	0	9	1	9	2	9	3	9	4	
4	14	7	8	11	7	0	7	1	7	2	7	1	7	0	
5	2	7	0	6	13	7	0	7	1	7	2	7	5	7	4	
4	4	2	7	2	7	0	7	1	7	2	7	5	7	4	
3	9	6	13	13	0	13	1	13	2	13	1	13	0	
2	2	7	7	0	7	1	7	2	7	5	7	4	
4	13	12	5	1	13	0	13	1	13	2	13	3	13	4	
4	6	0	7	0	7	0	7	1	7	2	7	3	7	4	
3	11	9	8	9	0	9	1	9	2	9	3	9	4	
3	14	7	2	7	0	7	1	7	2	7	1	7	0	
4	6	0	7	2	7	0	7	1	7	5	7	3	7	4	
4	1	5	1	4	5	0	5	1	5	2	5	5	5	4	
3	7	2	1	7	0	7	1	7	2	7	1	7	0	
3	2	7	14	7	0	7	1	7	2	7	3	7	4	
2	9	8	9	0	9	1	9	2	9	1	9	0	
3	0	5	12	5	0	5	1	5	5	5	3	5	4	
3	5	1	2	5	0	5	1	5	5	5	3	5	4	
5	10	13	6	9	11	13	0	13	1	13	2	13	3	13	4	
3	0	7	2	7	0	7	1	7	5	7	3	7	4	
5	3	5	0	7	8	5	0	5	1	5	2	5	3	5	4	
3	8	7	0	7	0	7	1	7	2	7	3	7	4	
3	11	9	6	9	0	9	1	9	5	9	3	9	4	
3	3	5	12	5	0	5	1	5	5	5	3	5	4	
3	1	2	7	7	0	7	1	7	2	7	3	7	4	
3	7	2	4	7	0	7	1	7	2	7	1	7	0	
5	9	6	0	5	1	9	0	9	1	9	2	9	1	9	0	
3	2	7	0	7	0	7	1	7	2	7	1	7	0	
2	12	5	5	0	5	1	5	5	5	3	5	4	
5	10	12	5	1	2	5	0	5	1	5	2	5	5	5	4	
2	9	8	9	0	9	1	9	2	9	5	9	4	
3	10	13	12	13	0	13	1	13	2	13	5	13	4	
4	1	2	7	8	7	0	7	1	7	2	7	5	7	4	
4	3	5	0	7	5	0	5	1	5	2	5	5	5	4	
4	7	0	6	13	7	0	7	1	7	2	7	1	7	0	
3	8	7	14	7	0	7	1	7	2	7	1	7	0	
3	14	8	9	9	0	9	1	9	2	9	3	9	4	
5	1	5	0	6	9	5	0	5	1	5	2	5	5	5	4	
4	12	5	1	2	5	0	5	1	5	2	5	3	5	4	
3	2	1	5	5	0	5	1	5	2	5	1	5	0	
3	5	12	13	5	0	5	1	5	2	5	3	5	4	
5	10	13	6	0	7	13	0	13	1	13	2	13	3	13	4	
2	0	7	7	0	7	1	7	2	7	5	7	4	
5	11	9	6	13	10	9	0	9	1	9	5	9	3	9	4	
5	1	2	7	8	11	7	0	7	1	7	2	7	3	7	4	
3	8	9	11	9	0	9	1	9	2	9	1	9	0	
4	2	1	5	12	5	0	5	1	5	2	5	1	5	0	
4	4	1	5	1	5	0	5	1	5	5	5	3	5	4	
3	9	8	14	9	0	9	1	9	2	9	3	9	4	
5	9	8	7	2	4	7	0	7	1	7	5	7	3	7	4	
5	13	12	5	1	2	13	0	13	1	13	2	13	1	13	0	
4	0	5	3	4	5	0	5	1	5	2	5	3	5	4	
4	6	0	5	3	5	0	5	1	5	2	5	1	5	0	
3	8	7	2	7	0	7	1	7	2	7	1	7	0	
2	1	5	5	0	5	1	5	2	5	1	5	0	
3	7	0	6	7	0	7	1	7	2	7	3	7	4	
6	12	13	6	0	7	14	13	0	13	1	13	2	13	3	13	4	
4	13	6	9	11	13	0	13	1	13	2	13	1	13	0	
4	0	7	8	11	7	0	7	1	7	2	7	5	7	4	
3	6	13	10	13	0	13	1	13	2	13	1	13	0	
3	0	5	1	5	0	5	1	5	2	5	5	5	4	
2	7	0	7	0	7	1	7	2	7	5	7	4	
3	11	8	7	7	0	7	1	7	2	7	3	7	4	
3	1	5	0	5	0	5	1	5	2	5	1	5	0	
4	4	2	7	14	7	0	7	1	7	2	7	3	7	4	
4	9	8	7	2	7	0	7	1	7	2	7	3	7	4	
5	9	8	7	2	4	9	0	9	1	9	2	9	5	9	4	
4	2	1	5	3	5	0	5	1	5	2	5	3	5	4	
5	8	7	2	4	3	7	0	7	1	7	5	7	3	7	4	
5	5	0	7	8	11	7	0	7	1	7	2	7	1	7	0	
5	13	6	9	8	14	13	0	13	1	13	2	13	1	13	0	
3	0	7	8	7	0	7	1	7	2	7	3	7	4	
4	2	1	5	12	5	0	5	1	5	5	5	3	5	4	
5	1	5	0	6	9	5	0	5	1	5	2	5	1	5	0	
3	6	0	7	7	0	7	1	7	5	7	3	7	4	
4	8	9	6	13	9	0	9	1	9	2	9	3	9	4	
3	14	7	8	7	0	7	1	7	5	7	3	7	4	
5	2	1	5	12	10	5	0	5	1	5	2	5	5	5	4	
3	12	5	1	5	0	5	1	5	2	5	1	5	0	
4	2	7	2	4	7	0	7	1	7	2	7	5	7	4	
4	5	0	7	14	5	0	5	1	5	2	5	1	5	0	
3	13	6	0	13	0	13	1	13	2	13	3	13	4	
4	0	7	0	6	7	0	7	1	7	2	7	1	7	0	
6	11	8	7	2	4	3	7	0	7	1	7	2	7	5	7	4	
5	6	13	12	5	1	13	0	13	1	13	2	13	3	13	4	
4	8	7	2	4	7	0	7	1	7	2	7	5	7	4	
2	8	9	9	0	9	1	9	5	9	3	9	4	
5	8	9	6	13	10	9	0	9	1	9	2	9	5	9	4	
5	12	13	6	9	8	13	0	13	1	13	2	13	1	13	0	
3	5	0	7	5	0	5	1	5	2	5	1	5	0	
5	10	13	6	9	8	13	0	13	1	13	2	13	3	13	4	
3	0	5	3	5	0	5	1	5	2	5	1	5	0	
6	3	5	0	6	9	11	5	0	5	1	5	2	5	3	5	4	
4	8	7	2	1	7	0	7	1	7	2	7	3	7	4	
3	12	13	10	13	0	13	1	13	2	13	5	13	4	
4	1	5	0	6	5	0	5	1	5	2	5	3	5	4	
2	6	9	9	0	9	1	9	5	9	3	9	4	
4	4	2	7	8	7	0	7	1	7	2	7	1	7	0	
2	12	13	13	0	13	1	13	2	13	1	13	0	
4	2	1	5	1	5	0	5	1	5	5	5	3	5	4	
4	9	6	13	10	9	0	9	1	9	5	9	3	9	4	
2	13	12	13	0	13	1	13	2	13	3	13	4	
4	0	6	13	10	13	0	13	1	13	2	13	1	13	0	
5	13	12	5	1	2	13	0	5	1	5	5	5	3	5	4	
3	6	13	12	13	0	13	1	13	5	13	3	13	4	
5	11	8	7	2	4	7	0	7	1	7	2	7	1	7	0	
5	4	1	5	12	13	5	0	5	1	5	2	5	1	5	0	
3	12	5	3	5	0	5	1	5	2	5	3	5	4	
2	5	12	5	0	5	1	5	2	5	3	5	4	
5	10	12	5	1	4	5	0	5	1	5	2	5	3	5	4	
4	6	0	5	3	5	0	5	1	5	5	5	3	5	4	
4	11	9	6	13	13	0	13	1	13	2	13	1	13	0	
4	1	5	12	10	5	0	5	1	5	2	5	3	5	4	
2	7	2	7	0	7	1	7	2	7	5	7	4	
4	14	8	9	11	9	0	9	1	9	2	9	5	9	4	
5	2	1	5	12	13	5	0	5	1	5	5	5	3	5	4	
3	9	6	13	9	0	9	1	9	2	9	3	9	4	
4	13	6	0	7	13	0	13	1	13	5	13	3	13	4	
2	2	7	7	0	7	1	7	5	7	3	7	4	
4	7	0	5	12	7	0	7	1	7	5	7	3	7	4	
4	6	0	7	14	7	0	7	1	7	5	7	3	7	4	
4	8	7	0	5	7	0	7	1	7	5	7	3	7	4	
4	13	12	5	1	13	0	13	1	13	5	13	3	13	4	
2	0	5	5	0	5	1	5	2	5	3	5	4	
4	3	5	12	13	5	0	5	1	5	2	5	1	5	0	
3	11	9	8	9	0	9	1	9	2	9	1	9	0	
3	14	7	2	7	0	7	1	7	2	7	3	7	4	
4	1	5	1	4	5	0	5	1	5	5	5	3	5	4	
3	7	2	1	7	0	7	1	7	2	7	3	7	4	
2	7	0	7	0	7	1	7	5	7	3	7	4	
3	0	5	12	5	0	5	1	5	2	5	5	5	4	
3	7	8	11	7	0	7	1	7	2	7	5	7	4	
5	12	5	0	7	14	7	0	7	1	7	2	7	5	7	4	
5	10	13	6	9	11	13	0	9	1	9	2	9	1	9	0	
3	0	7	2	7	0	7	1	7	2	7	5	7	4	
5	3	5	0	7	8	5	0	5	1	5	2	5	1	5	0	
2	7	14	7	0	7	1	7	2	7	5	7	4	
3	11	9	6	9	0	9	1	9	2	9	3	9	4	
5	14	7	0	5	12	5	0	5	1	5	2	5	1	5	0	
3	7	2	4	7	0	7	1	7	2	7	5	7	4	
5	9	6	0	5	1	9	0	9	1	9	2	9	3	9	4	
2	13	6	13	0	13	1	13	5	13	3	13	4	
3	2	7	0	7	0	7	1	7	2	7	3	7	4	
4	4	1	5	12	5	0	5	1	5	2	5	5	5	4	
5	10	12	5	1	2	5	0	5	1	5	2	5	1	5	0	
3	6	9	8	9	0	9	1	9	5	9	3	9	4	
3	0	6	9	9	0	9	1	9	2	9	3	9	4	
3	3	5	1	5	0	5	1	5	2	5	1	5	0	
3	6	0	5	5	0	5	1	5	2	5	5	5	4	
3	7	0	5	7	0	7	1	7	5	7	3	7	4	
4	7	0	6	13	7	0	7	1	7	2	7	3	7	4	
3	8	7	14	7	0	7	1	7	2	7	3	7	4	
4	12	5	3	4	5	0	5	1	5	5	5	3	5	4	
3	14	8	9	9	0	9	1	9	2	9	1	9	0	
2	5	3	5	0	5	1	5	5	5	3	5	4	
4	12	5	1	2	5	0	5	1	5	5	5	3	5	4	
3	5	12	13	5	0	5	1	5	5	5	3	5	4	
5	10	13	6	0	7	13	0	13	1	13	2	13	1	13	0	
2	0	7	7	0	7	1	7	5	7	3	7	4	
5	11	9	6	13	10	13	0	13	1	13	2	13	3	13	4	
3	14	7	0	7	0	7	1	7	2	7	1	7	0	
4	7	0	5	3	7	0	7	1	7	2	7	1	7	0	
4	2	1	5	12	5	0	5	1	5	2	5	3	5	4	
4	8	7	2	1	7	0	7	1	7	5	7	3	7	4	
3	9	8	14	9	0	9	1	9	2	9	1	9	0	
4	13	6	9	8	9	0	9	1	9	2	9	5	9	4	
2	5	0	5	0	5	1	5	5	5	3	5	4	
2	6	9	9	0	9	1	9	2	9	5	9	4	
4	10	13	6	9	13	0	13	1	13	2	13	3	13	4	
4	3	5	12	10	5	0	5	1	5	2	5	3	5	4	
3	8	7	2	7	0	7	1	7	2	7	3	7	4	
2	1	5	5	0	5	1	5	2	5	3	5	4	
3	7	0	6	7	0	7	1	7	2	7	1	7	0	
3	9	8	7	7	0	7	1	7	2	7	1	7	0	
4	1	5	0	6	5	0	5	1	5	5	5	3	5	4	
4	5	0	7	8	7	0	7	1	7	2	7	5	7	4	
4	13	6	9	11	13	0	9	1	9	2	9	3	9	4	
4	0	7	8	11	7	0	7	1	7	5	7	3	7	4	
3	6	13	10	13	0	13	1	13	2	13	3	13	4	
5	11	8	7	2	1	7	0	7	1	7	5	7	3	7	4	
3	6	9	8	9	0	9	1	9	2	9	5	9	4	
4	4	1	5	0	5	0	5	1	5	5	5	3	5	4	
2	13	10	13	0	13	1	13	5	13	3	13	4	
3	11	8	7	7	0	7	1	7	5	7	3	7	4	
4	4	2	7	14	7	0	7	1	7	5	7	3	7	4	
4	9	8	7	2	9	0	9	1	9	2	9	1	9	0	
4	2	1	5	3	5	0	5	1	5	2	5	1	5	0	
5	5	0	7	8	11	7	0	7	1	7	2	7	3	7	4	
3	10	12	5	5	0	5	1	5	2	5	3	5	4	
5	6	0	5	3	4	5	0	5	1	5	2	5	1	5	0	
5	1	2	7	8	9	7	0	7	1	7	2	7	3	7	4	
3	6	9	11	9	0	9	1	9	5	9	3	9	4	
4	8	9	6	13	9	0	9	1	9	2	9	1	9	0	
5	12	13	6	9	11	9	0	9	1	9	2	9	5	9	4	
3	14	7	8	7	0	7	1	7	2	7	5	7	4	
5	2	1	5	12	10	5	0	5	1	5	2	5	1	5	0	
3	5	1	4	5	0	5	1	5	2	5	5	5	4	
4	9	6	13	12	9	0	9	1	9	2	9	3	9	4	
4	1	2	7	8	7	0	7	1	7	5	7	3	7	4	
4	5	0	7	14	5	0	5	1	5	2	5	5	5	4	
3	13	6	0	13	0	13	1	13	2	13	1	13	0	
4	0	7	0	6	7	0	7	1	7	2	7	3	7	4	
4	6	0	5	1	5	0	5	1	5	2	5	1	5	0	
4	8	7	2	4	7	0	7	1	7	2	7	1	7	0	
5	14	7	2	4	3	7	0	7	1	7	2	7	3	7	4	
2	7	0	7	0	7	1	7	2	7	3	7	4	
5	12	13	6	9	8	13	0	13	1	13	2	13	3	13	4	
4	1	5	12	13	13	0	13	1	13	5	13	3	13	4	
3	5	0	7	5	0	5	1	5	2	5	3	5	4	
3	13	6	9	9	0	9	1	9	2	9	1	9	0	
3	6	9	8	9	0	9	1	9	2	9	1	9	0	
4	3	5	12	13	5	0	5	1	5	2	5	5	5	4	
6	3	5	0	6	9	11	5	0	5	1	5	5	5	3	5	4	
4	8	7	2	1	7	0	7	1	7	2	7	1	7	0	
4	1	5	1	2	5	0	5	1	5	5	5	3	5	4	
4	1	5	0	6	5	0	5	1	5	2	5	1	5	0	
4	4	2	7	8	7	0	7	1	7	2	7	3	7	4	
3	9	6	0	9	0	9	1	9	2	9	3	9	4	
4	2	1	5	1	5	0	5	1	5	2	5	3	5	4	
4	5	0	6	9	5	0	5	1	5	2	5	1	5	0	
2	13	12	13	0	13	1	13	2	13	1	13	0	
4	0	6	13	10	13	0	13	1	13	2	13	3	13	4	
5	13	6	9	8	14	13	0	13	1	13	5	13	3	13	4	
4	11	9	8	14	9	0	9	1	9	2	9	5	9	4	
4	7	0	5	12	7	0	7	1	7	2	7	3	7	4	
5	11	8	7	2	4	7	0	7	1	7	2	7	5	7	4	
5	4	1	5	12	13	5	0	5	1	5	2	5	5	5	4	
3	12	5	3	5	0	5	1	5	2	5	1	5	0	
2	5	12	5	0	5	1	5	2	5	1	5	0	
5	10	12	5	1	4	5	0	5	1	5	5	5	3	5	4	
4	7	0	5	12	7	0	7	1	7	2	7	5	7	4	
3	6	0	7	7	0	7	1	7	2	7	3	7	4	
4	11	9	6	13	9	0	9	1	9	2	9	3	9	4	
4	1	5	12	10	5	0	5	1	5	2	5	1	5	0	
2	7	2	7	0	7	1	7	5	7	3	7	4	
3	12	13	10	13	0	13	1	13	2	13	1	13	0	
4	14	7	8	11	7	0	7	1	7	5	7	3	7	4	
5	2	7	0	6	13	7	0	7	1	7	2	7	3	7	4	
3	9	6	13	9	0	9	1	9	5	9	3	9	4	
4	13	6	0	7	13	0	13	1	13	2	13	5	13	4	
4	6	0	7	14	7	0	7	1	7	2	7	5	7	4	
4	13	12	5	1	13	0	13	1	13	2	13	5	13	4	
2	0	5	5	0	5	1	5	2	5	1	5	0	
4	3	5	12	13	5	0	5	1	5	2	5	3	5	4	
5	8	7	0	5	3	7	0	7	1	7	2	5	3	5	4	
5	1	2	7	8	9	7	0	7	1	7	5	7	3	7	4	
4	1	5	1	4	5	0	5	1	5	2	5	3	5	4	
5	4	1	5	12	10	5	0	5	1	5	2	5	1	5	0	
2	13	10	13	0	13	1	13	2	13	3	13	4	
3	0	5	12	5	0	5	1	5	2	5	1	5	0	
3	6	9	11	9	0	9	1	9	2	9	3	9	4	
4	1	2	7	14	7	0	7	1	7	5	7	3	7	4	
5	10	13	6	9	11	13	0	13	1	13	2	13	5	13	4	
5	3	5	0	7	8	5	0	5	1	5	2	5	5	5	4	
2	7	14	7	0	7	1	7	5	7	3	7	4	
3	11	9	6	9	0	9	1	9	2	9	1	9	0	
5	14	7	0	5	12	7	0	7	1	7	2	7	3	7	4	
4	2	7	0	6	7	0	7	1	7	5	7	3	7	4	
3	7	2	4	7	0	7	1	7	5	7	3	7	4	
5	9	6	0	5	1	9	0	9	1	9	5	9	3	9	4	
3	2	7	0	7	0	7	1	7	5	7	3	7	4	
3	5	12	10	5	0	5	1	5	2	5	3	5	4	
5	10	12	5	1	2	5	0	5	1	5	2	5	3	5	4	
3	0	6	9	9	0	9	1	9	2	9	1	9	0	
3	3	5	1	5	0	5	1	5	2	5	3	5	4	
3	6	0	5	5	0	5	1	5	5	5	3	5	4	
4	1	2	7	8	7	0	7	1	7	2	7	3	7	4	
5	4	1	5	0	6	5	0	5	1	5	2	5	1	5	0	
3	8	7	14	7	0	7	1	7	5	7	3	7	4	
4	12	5	3	4	5	0	5	1	5	2	5	5	5	4	
3	5	1	4	5	0	5	1	5	5	5	3	5	4	
2	5	3	5	0	5	1	5	2	5	5	5	4	
4	12	5	1	2	5	0	5	1	5	2	5	5	5	4	
3	5	12	13	5	0	5	1	5	2	5	5	5	4	
5	10	13	6	0	7	7	0	7	1	7	2	7	5	7	4	
3	12	5	1	5	0	5	1	5	5	5	3	5	4	
2	0	7	7	0	7	1	7	2	7	3	7	4	
5	11	9	6	13	10	9	0	9	1	9	2	9	1	9	0	
3	14	7	0	7	0	7	1	7	2	7	3	7	4	
4	7	0	5	3	7	0	7	1	7	2	7	3	7	4	
4	12	13	6	9	9	0	9	1	9	2	9	3	9	4	
3	9	6	0	9	0	9	1	9	2	9	5	9	4	
3	5	0	6	5	0	5	1	5	2	5	3	5	4	
3	9	8	14	9	0	9	1	9	2	9	5	9	4	
4	13	6	9	8	13	0	13	1	9	5	9	3	9	4	
3	6	0	7	7	0	7	1	7	2	7	5	7	4	
4	10	13	6	9	13	0	13	1	13	2	13	1	13	0	
3	1	5	3	5	0	5	1	5	5	5	3	5	4	
4	3	5	12	10	5	0	5	1	5	2	5	1	5	0	
3	8	7	2	7	0	7	1	7	5	7	3	7	4	
2	1	5	5	0	5	1	5	5	5	3	5	4	
5	4	2	7	8	9	7	0	7	1	7	2	7	3	7	4	
3	9	8	7	9	0	9	1	9	2	9	3	9	4	
2	9	11	9	0	9	1	9	5	9	3	9	4	
4	1	5	12	10	5	0	5	1	5	5	5	3	5	4	
4	5	0	7	8	5	0	5	1	5	5	5	3	5	4	
4	10	13	6	0	13	0	13	1	13	2	13	1	13	0	
4	0	7	8	11	7	0	7	1	7	2	7	3	7	4	
2	8	9	9	0	9	1	9	2	9	5	9	4	
5	11	8	7	2	1	7	0	7	1	7	2	7	5	7	4	
4	4	1	5	0	5	0	5	1	5	2	5	5	5	4	
2	10	13	13	0	13	1	13	5	13	3	13	4	
3	11	8	7	7	0	7	1	7	2	7	5	7	4	
4	2	7	8	9	7	0	7	1	7	2	7	5	7	4	
4	4	2	7	14	7	0	7	1	7	2	7	5	7	4	
4	9	8	7	2	7	0	7	1	7	2	7	5	7	4	
4	2	1	5	3	5	0	5	1	5	2	5	5	5	4	
3	10	12	5	5	0	5	1	5	2	5	1	5	0	
3	12	13	10	13	0	13	1	13	5	13	3	13	4	
5	6	0	5	3	4	5	0	5	1	5	2	5	3	5	4	
5	11	9	6	13	12	13	0	13	1	13	2	13	3	13	4	
5	4	2	7	8	11	7	0	7	1	7	2	7	5	7	4	
4	14	7	0	6	7	0	7	1	7	2	7	1	7	0	
3	4	1	5	5	0	5	1	5	2	5	3	5	4	
4	8	9	6	13	9	0	9	1	9	2	9	5	9	4	
5	12	13	6	9	11	13	0	13	1	13	5	13	3	13	4	
5	2	1	5	12	10	5	0	5	1	5	2	5	3	5	4	
5	13	12	5	1	2	13	0	13	1	13	2	13	5	13	4	
4	9	6	13	12	9	0	9	1	9	2	9	1	9	0	
5	3	5	0	6	9	5	0	5	1	5	2	5	5	5	4	
4	0	7	0	6	7	0	7	1	7	5	7	3	7	4	
3	3	5	12	5	0	5	1	5	2	5	3	5	4	
4	8	7	2	4	7	0	7	1	7	2	7	3	7	4	
5	14	7	2	4	3	7	0	7	1	7	2	7	1	7	0	
3	7	2	1	7	0	7	1	7	2	7	5	7	4	
2	7	0	7	0	7	1	7	2	7	1	7	0	
4	9	6	0	5	5	0	5	1	5	2	5	1	5	0	
5	4	2	7	8	11	7	0	7	1	7	5	7	3	7	4	
4	6	0	5	3	5	0	5	1	5	2	5	5	5	4	
3	13	6	9	13	0	13	1	13	2	13	3	13	4	
3	6	9	8	9	0	9	1	9	2	9	3	9	4	
5	10	13	6	9	8	13	0	13	1	13	2	13	5	13	4	
3	1	5	12	5	0	5	1	5	2	5	5	5	4	
6	3	5	0	7	8	11	5	0	5	1	5	2	5	5	5	4	
3	7	8	9	7	0	7	1	7	2	7	1	7	0	
5	14	7	0	6	13	7	0	7	1	7	2	7	3	7	4	
3	9	6	0	9	0	9	1	9	2	9	1	9	0	
4	8	7	0	5	7	0	7	1	7	2	7	5	7	4	
3	0	5	3	5	0	5	1	5	5	5	3	5	4	
4	2	1	5	1	5	0	5	1	5	2	5	1	5	0	
3	8	9	11	9	0	9	1	9	2	9	5	9	4	
4	5	0	6	9	5	0	5	1	5	2	5	3	5	4	
4	10	12	5	3	5	0	5	1	5	2	5	3	5	4	
4	0	6	13	10	13	0	13	1	13	5	13	3	13	4	
3	3	5	0	5	0	5	1	5	2	5	3	5	4	
4	11	9	8	14	9	0	9	1	9	5	9	3	9	4	
4	7	0	5	12	7	0	7	1	7	2	7	1	7	0	
5	11	8	7	2	4	7	0	7	1	7	5	7	3	7	4	
3	2	7	8	7	0	7	1	7	2	7	1	7	0	
6	10	13	6	9	8	14	13	0	13	1	13	2	13	5	13	4	
5	12	5	0	7	14	5	0	5	1	5	5	5	3	5	4	
5	10	12	5	3	4	5	0	5	1	5	2	5	5	5	4	
3	5	0	6	5	0	5	1	5	5	5	3	5	4	
3	6	0	7	7	0	7	1	7	2	7	1	7	0	
3	8	9	6	9	0	9	1	9	2	9	1	9	0	
4	14	7	2	1	7	0	7	1	7	2	7	3	7	4	
2	13	6	13	0	13	1	13	2	13	5	13	4	
4	12	13	6	9	9	0	9	1	9	5	9	3	9	4	
2	7	2	7	0	7	1	7	2	7	3	7	4	
3	12	13	10	13	0	13	1	13	2	13	3	13	4	
5	2	1	5	12	13	5	0	5	1	5	2	5	1	5	0	
4	14	7	2	1	7	0	7	1	7	2	7	5	7	4	
3	9	6	13	9	0	9	1	9	2	9	5	9	4	
4	13	6	0	7	13	0	13	1	13	2	13	1	13	0	
4	6	9	8	14	9	0	9	1	9	2	9	1	9	0	
2	0	5	5	0	5	1	5	2	5	5	5	4	
5	8	7	2	4	3	7	0	7	1	7	2	7	1	7	0	
4	1	5	1	4	5	0	5	1	5	2	5	1	5	0	
5	4	1	5	12	10	5	0	5	1	5	2	5	3	5	4	
2	9	6	9	0	9	1	9	2	9	3	9	4	
6	14	7	0	6	13	10	7	0	7	1	7	5	7	3	7	4	
2	13	10	13	0	13	1	13	2	13	1	13	0	
3	0	5	12	5	0	5	1	5	2	5	3	5	4	
3	6	9	11	9	0	9	1	9	2	9	1	9	0	
5	10	13	6	9	11	13	0	13	1	13	5	13	3	13	4	
4	1	5	12	13	13	0	13	1	13	2	13	1	13	0	
5	3	5	0	7	8	5	0	5	1	5	5	5	3	5	4	
2	7	14	7	0	7	1	7	2	7	3	7	4	
4	8	7	2	1	7	0	7	1	7	2	7	5	7	4	
5	14	7	0	5	12	7	0	7	1	7	5	7	3	7	4	
4	2	7	0	6	7	0	7	1	7	2	7	5	7	4	
5	9	6	0	5	1	9	0	9	1	9	2	9	5	9	4	
3	2	7	0	7	0	7	1	7	2	7	5	7	4	
3	5	12	10	5	0	5	1	5	2	5	1	5	0	
3	0	6	9	9	0	9	1	9	2	9	5	9	4	
3	6	0	5	5	0	5	1	5	2	5	3	5	4	
4	1	2	7	8	7	0	7	1	7	2	7	1	7	0	
5	4	2	7	0	6	7	0	7	1	7	2	7	3	7	4	
3	8	7	14	7	0	7	1	7	2	7	5	7	4	
4	12	5	3	4	5	0	5	1	5	2	5	1	5	0	
4	2	7	8	11	7	0	7	1	7	2	7	3	7	4	
2	5	3	5	0	5	1	5	2	5	1	5	0	
5	10	13	6	0	7	7	0	7	1	7	5	7	3	7	4	
2	13	10	13	0	13	1	13	2	13	5	13	4	
2	0	7	7	0	7	1	7	2	7	1	7	0	
4	8	7	0	5	7	0	7	1	7	2	7	3	7	4	
3	3	5	1	5	0	5	1	5	2	5	5	5	4	
3	14	7	0	7	0	7	1	7	5	7	3	7	4	
4	7	0	5	3	7	0	7	1	7	5	7	3	7	4	
4	12	13	6	9	13	0	13	1	13	2	13	1	13	0	
4	2	1	5	12	5	0	5	1	5	2	5	5	5	4	
4	5	12	13	6	5	0	5	1	5	2	5	1	5	0	
3	9	8	14	9	0	9	1	9	5	9	3	9	4	
4	13	6	9	8	13	0	13	1	13	2	13	3	13	4	
3	0	7	14	7	0	7	1	7	2	7	1	7	0	
4	4	1	5	3	5	0	5	1	5	5	5	3	5	4	
2	6	9	9	0	9	1	9	2	9	3	9	4	
3	6	9	11	9	0	9	1	9	2	9	5	9	4	
3	1	5	3	5	0	5	1	5	2	5	5	5	4	
3	8	7	2	7	0	7	1	7	2	7	5	7	4	
2	1	5	5	0	5	1	5	2	5	5	5	4	
5	4	2	7	8	9	7	0	7	1	7	2	7	1	7	0	
4	5	0	7	8	5	0	7	1	7	2	7	3	7	4	
4	10	13	6	0	13	0	13	1	13	2	13	3	13	4	
4	0	7	8	11	7	0	7	1	7	2	7	1	7	0	
5	11	8	7	2	1	7	0	7	1	7	2	7	1	7	0	
4	1	2	7	14	7	0	7	1	7	2	7	3	7	4	
6	14	7	0	6	13	10	7	0	7	1	7	2	7	5	7	4	
4	4	1	5	0	5	0	5	1	5	2	5	1	5	0	
4	2	7	8	9	7	0	7	1	7	5	7	3	7	4	
4	9	8	7	2	7	0	7	1	7	5	7	3	7	4	
4	13	12	5	3	13	0	13	1	13	5	13	3	13	4	
4	2	1	5	3	5	0	5	1	5	5	5	3	5	4	
4	6	0	7	0	7	0	7	1	7	5	7	3	7	4	
4	1	5	1	2	5	0	5	1	5	2	5	5	5	4	
5	6	0	5	3	4	5	0	5	1	5	5	5	3	5	4	
5	11	9	6	13	12	9	0	9	1	9	2	9	1	9	0	
4	14	7	0	6	7	0	7	1	7	2	7	3	7	4	
3	4	1	5	5	0	5	1	5	2	5	1	5	0	
4	8	9	6	13	9	0	9	1	9	5	9	3	9	4	
5	12	13	6	9	11	13	0	13	1	13	2	13	3	13	4	
3	5	1	4	5	0	5	1	5	2	5	3	5	4	
5	13	6	0	7	14	13	0	13	1	13	2	13	5	13	4	
4	0	7	0	6	7	0	7	1	7	2	7	5	7	4	
3	3	5	12	5	0	5	1	5	2	5	1	5	0	
5	7	0	6	13	10	7	0	7	1	7	2	7	5	7	4	
5	14	7	0	5	3	7	0	7	1	7	2	7	5	7	4	
6	11	8	7	2	4	3	7	0	7	1	7	5	7	3	7	4	
5	4	2	7	8	11	7	0	7	1	7	2	7	3	7	4	
4	9	6	0	5	5	0	5	1	5	2	5	3	5	4	
3	4	2	7	7	0	7	1	7	5	7	3	7	4	
6	10	13	6	9	8	14	13	0	13	1	13	2	13	1	13	0	
3	0	6	13	13	0	13	1	13	2	13	3	13	4	
2	3	5	5	0	5	1	5	2	5	1	5	0	
3	1	5	12	5	0	5	1	5	5	5	3	5	4	
3	7	8	9	7	0	7	1	7	2	7	3	7	4	
3	12	5	0	5	0	5	1	5	5	5	3	5	4	
5	14	7	0	6	13	7	0	7	1	7	2	7	1	7	0	
4	5	0	6	9	5	0	5	1	5	5	5	3	5	4	
4	10	12	5	3	5	0	5	1	5	2	5	1	5	0	
4	14	7	0	6	7	0	7	1	7	2	7	5	7	4	
3	3	5	0	5	0	5	1	5	2	5	1	5	0	
5	4	1	5	12	13	5	0	5	1	5	5	5	3	5	4	
4	11	9	8	14	9	0	9	1	9	2	9	3	9	4	
4	14	7	2	4	7	0	7	1	7	2	7	1	7	0	
3	4	2	7	7	0	7	1	7	2	7	3	7	4	
3	2	7	8	7	0	7	1	7	2	7	3	7	4	
4	1	2	7	14	7	0	7	1	7	2	7	5	7	4	
5	13	12	5	3	4	5	0	5	1	5	2	5	5	5	4	
2	6	13	13	0	13	1	13	2	13	5	13	4	
5	3	5	0	7	14	5	0	5	1	5	2	5	3	5	4	
3	8	9	6	9	0	9	1	9	2	9	3	9	4	
4	14	7	2	1	7	0	7	1	7	2	7	1	7	0	
2	7	2	7	0	7	1	7	2	7	1	7	0	
2	9	11	9	0	9	1	9	2	9	1	9	0	
4	13	6	0	7	13	0	13	1	13	2	13	3	13	4	
4	6	9	8	14	9	0	9	1	9	2	9	3	9	4	
5	11	9	6	0	5	9	0	9	1	9	5	9	3	9	4	
2	0	5	5	0	5	1	5	5	5	3	5	4	
3	7	8	11	7	0	7	1	7	2	7	1	7	0	
5	4	1	5	12	10	5	0	5	1	5	5	5	3	5	4	
2	9	6	9	0	9	1	9	2	9	1	9	0	
3	12	5	1	5	0	5	1	5	2	5	5	5	4	
4	11	9	6	0	9	0	9	1	9	5	9	3	9	4	
4	10	12	5	1	5	0	5	1	5	2	5	3	5	4	
4	3	5	12	13	13	0	13	1	13	5	13	3	13	4	
4	3	5	1	2	5	0	5	1	5	2	5	3	5	4	
4	1	5	12	13	5	0	5	1	5	2	5	3	5	4	
2	7	14	7	0	7	1	7	2	7	1	7	0	
4	12	5	0	7	5	0	5	1	5	2	5	5	5	4	
5	14	7	0	5	12	7	0	7	1	7	2	7	5	7	4	
4	2	7	0	6	7	0	7	1	7	2	7	1	7	0	
2	5	0	5	0	5	1	5	2	5	5	5	4	
5	3	5	0	7	14	5	0	5	1	5	5	7	3	7	4	
3	5	12	10	5	0	5	1	5	2	5	5	5	4	
2	11	9	9	0	9	1	9	5	9	3	9	4	
3	0	6	9	9	0	9	1	9	5	9	3	9	4	
3	6	0	5	5	0	5	1	5	2	5	1	5	0	
2	14	7	7	0	7	1	7	2	7	3	7	4	
5	4	1	5	0	6	5	0	5	1	5	5	5	3	5	4	
4	1	5	12	10	5	0	5	1	5	2	5	5	5	4	
4	12	5	3	4	5	0	5	1	5	2	5	3	5	4	
4	2	7	8	11	7	0	7	1	7	2	7	1	7	0	
2	5	3	5	0	5	1	5	2	5	3	5	4	
3	13	12	5	13	0	13	1	13	2	13	1	13	0	
3	6	13	12	13	0	13	1	13	2	13	1	13	0	
4	14	7	2	4	7	0	7	1	7	2	7	5	7	4	
4	8	7	0	5	7	0	7	1	7	2	7	1	7	0	
3	14	7	0	7	0	7	1	7	2	7	5	7	4	
4	7	0	5	3	7	0	7	1	7	2	7	5	7	4	
5	9	8	7	2	4	9	0	9	1	9	2	9	3	9	4	
2	9	11	9	0	9	1	9	2	9	5	9	4	
3	5	0	6	5	0	5	1	5	2	5	5	5	4	
4	13	6	9	8	9	0	9	1	9	2	9	1	9	0	
3	0	7	14	7	0	7	1	7	2	7	3	7	4	
2	6	9	9	0	9	1	9	2	9	1	9	0	
4	11	8	7	2	7	0	7	1	7	2	7	5	7	4	
3	1	5	3	5	0	5	1	5	2	5	1	5	0	
2	7	8	7	0	7	1	7	2	7	3	7	4	
4	10	13	6	9	13	0	13	1	13	5	13	3	13	4	
2	12	5	5	0	5	1	5	2	5	5	5	4	
5	11	9	6	13	12	13	0	13	1	13	5	13	3	13	4	
5	4	2	7	8	9	7	0	7	1	7	2	7	5	7	4	
5	3	5	0	6	9	5	0	5	1	5	5	5	3	5	4	
3	10	13	6	13	0	13	1	13	5	13	3	13	4	
4	5	0	7	8	5	0	7	1	7	2	7	1	7	0	
4	10	13	6	0	13	0	13	1	13	5	13	3	13	4	
5	11	8	7	2	1	7	0	7	1	7	2	7	3	7	4	
5	1	5	0	7	14	5	0	5	1	5	2	5	1	5	0	
4	4	1	5	0	5	0	5	1	5	2	5	3	5	4	
3	12	13	6	13	0	13	1	13	2	13	1	13	0	
4	2	7	8	9	7	0	7	1	7	2	7	3	7	4	
2	5	1	5	0	5	1	5	2	5	1	5	0	
4	13	12	5	3	13	0	13	1	13	2	13	5	13	4	
4	6	0	7	2	7	0	7	1	7	2	7	5	7	4	
5	6	0	5	1	4	5	0	5	1	5	2	5	5	5	4	
2	8	7	7	0	7	1	7	2	7	3	7	4	
3	7	0	5	7	0	7	1	7	2	7	5	7	4	
3	4	1	5	5	0	5	1	5	2	5	5	5	4	
5	12	13	6	9	11	9	0	9	1	9	2	9	1	9	0	
3	5	1	4	5	0	5	1	5	2	5	1	5	0	
6	10	13	6	0	7	14	7	0	7	1	7	5	7	3	7	4	
2	13	6	13	0	13	1	13	2	13	3	13	4	
3	0	5	1	5	0	5	1	5	5	5	3	5	4	
4	3	5	0	6	5	0	5	1	5	2	5	5	5	4	
3	3	5	12	5	0	5	1	5	2	5	5	5	4	
5	7	0	6	13	10	7	0	7	1	7	5	7	3	7	4	
5	9	6	0	5	3	9	0	9	1	9	5	9	3	9	4	
3	9	8	7	9	0	9	1	9	2	9	5	9	4	
5	4	2	7	8	11	7	0	7	1	7	2	7	1	7	0	
4	9	6	0	5	9	0	9	1	9	5	9	3	9	4	
6	10	13	6	9	8	14	13	0	13	1	13	2	13	3	13	4	
3	0	6	13	13	0	13	1	13	2	13	1	13	0	
2	3	5	5	0	5	1	5	2	5	3	5	4	
4	12	13	6	9	9	0	9	1	9	2	9	5	9	4	
6	11	9	6	0	5	3	9	0	9	1	9	2	9	1	9	0	
3	11	9	8	9	0	9	1	9	5	9	3	9	4	
3	1	5	12	5	0	5	1	5	2	5	3	5	4	
2	3	5	5	0	5	1	5	5	5	3	5	4	
4	4	2	7	2	7	0	7	1	7	2	7	1	7	0	
4	12	13	6	0	13	0	13	1	13	2	13	5	13	4	
5	10	13	6	9	8	9	0	9	1	9	5	9	3	9	4	
4	5	0	6	9	5	0	5	1	5	2	5	5	5	4	
4	10	12	5	3	5	0	5	1	5	2	5	5	5	4	
3	3	5	0	5	0	5	1	5	2	5	5	5	4	
4	11	8	7	14	7	0	7	1	7	2	7	1	7	0	
4	14	7	2	4	7	0	7	1	7	2	7	3	7	4	
3	2	7	14	7	0	7	1	7	5	7	3	7	4	
3	4	2	7	7	0	7	1	7	2	7	1	7	0	
2	12	5	5	0	5	1	5	2	5	3	5	4	
3	2	7	8	7	0	7	1	7	5	7	3	7	4	
3	5	1	2	5	0	5	1	5	2	5	3	5	4	
5	13	12	5	3	4	5	0	5	1	5	5	5	3	5	4	
2	6	13	13	0	13	1	13	5	13	3	13	4	
3	8	7	0	7	0	7	1	7	5	7	3	7	4	
3	7	8	9	7	0	7	1	7	2	7	5	7	4	
3	1	2	7	7	0	7	1	7	5	7	3	7	4	
5	3	5	0	7	14	5	0	5	1	5	2	5	1	5	0	
3	8	9	6	9	0	9	1	9	5	9	3	9	4	
2	9	11	9	0	9	1	9	2	9	3	9	4	
3	10	13	12	13	0	13	1	13	2	13	1	13	0	
4	3	5	0	7	5	0	5	1	5	2	5	1	5	0	
5	14	7	0	6	13	7	0	7	1	7	5	7	3	7	4	
5	11	9	6	0	5	9	0	9	1	9	2	9	5	9	4	
3	7	8	11	7	0	7	1	7	2	7	3	7	4	
3	2	1	5	5	0	5	1	5	2	5	5	5	4	
5	4	1	5	12	10	5	0	5	1	5	2	5	5	5	4	
2	9	6	9	0	9	1	9	2	9	5	9	4	
4	10	12	5	1	5	0	5	1	5	5	5	3	5	4	
2	12	13	13	0	13	1	13	2	13	5	13	4	
4	10	12	5	1	5	0	5	1	5	2	5	1	5	0	
5	1	2	7	8	11	7	0	7	1	7	5	7	3	7	4	
4	3	5	1	2	5	0	5	1	5	2	5	1	5	0	
4	11	8	7	0	7	0	7	1	7	2	7	3	7	4	
6	14	8	9	6	13	10	9	0	9	1	9	2	9	1	9	0	
4	4	1	5	1	5	0	5	1	5	2	5	3	5	4	
4	12	5	0	7	5	0	5	1	5	5	5	3	5	4	
4	2	7	0	6	7	0	7	1	7	2	7	3	7	4	
4	4	1	5	3	5	0	5	1	5	2	5	5	5	4	
4	3	5	1	2	5	0	5	1	5	5	5	3	5	4	
4	0	5	3	4	5	0	5	1	5	5	5	3	5	4	
3	5	12	10	5	0	5	1	5	5	5	3	5	4	
2	11	9	9	0	9	1	9	2	9	5	9	4	
4	11	9	6	0	9	0	9	1	9	2	9	5	9	4	
2	14	7	7	0	7	1	7	2	7	1	7	0	
5	4	2	7	0	6	7	0	7	1	7	2	7	5	7	4	
4	3	5	0	7	5	0	5	1	5	5	5	3	5	4	
4	2	7	8	11	7	0	7	1	7	2	7	5	7	4	
3	13	12	5	13	0	13	1	13	2	13	3	13	4	
3	9	6	0	9	0	9	1	9	5	9	3	9	4	
3	6	13	12	13	0	13	1	13	2	13	3	13	4	
3	1	5	0	5	0	5	1	5	2	5	5	5	4	
3	7	0	5	7	0	7	1	7	2	7	1	7	0	
2	12	13	13	0	13	1	13	5	13	3	13	4	
5	9	8	7	2	4	7	0	7	1	7	2	7	1	7	0	
3	0	7	8	7	0	7	1	7	5	7	3	7	4	
3	14	8	9	9	0	9	1	9	5	9	3	9	4	
3	0	7	14	7	0	7	1	7	5	7	3	7	4	
4	3	5	3	4	5	0	5	1	5	2	5	3	5	4	
2	8	7	7	0	7	1	7	2	7	5	7	4	
4	11	8	7	2	7	0	7	1	7	5	7	3	7	4	
3	1	5	3	5	0	5	1	5	2	5	3	5	4	
2	7	8	7	0	7	1	7	2	7	1	7	0	
3	10	12	5	5	0	5	1	5	5	5	3	5	4	
4	2	7	2	4	7	0	7	1	7	2	7	1	7	0	
5	4	2	7	8	9	7	0	7	1	7	5	7	3	7	4	
3	10	13	6	13	0	13	1	13	2	13	5	13	4	
4	10	13	6	0	13	0	13	1	13	2	13	5	13	4	
4	1	5	0	6	5	0	5	1	5	2	5	5	5	4	
5	8	9	6	13	12	9	0	9	1	9	2	9	5	9	4	
5	8	9	6	13	12	9	0	9	1	9	5	9	3	9	4	
5	8	9	6	13	10	9	0	9	1	9	2	9	1	9	0	
4	14	7	0	5	7	0	7	1	7	2	7	3	7	4	
3	4	2	7	7	0	7	1	7	2	7	5	7	4	
3	12	13	6	13	0	13	1	13	2	13	3	13	4	
4	2	7	8	9	7	0	7	1	7	2	7	1	7	0	
2	5	1	5	0	5	1	5	2	5	3	5	4	
4	13	12	5	3	13	0	13	1	13	2	13	1	13	0	
3	0	5	3	5	0	5	1	5	2	5	5	5	4	
4	6	0	7	2	7	0	7	1	7	2	7	1	7	0	
2	8	7	7	0	7	1	7	2	7	1	7	0	
3	4	1	5	5	0	5	1	5	5	5	3	5	4	
4	9	6	13	10	9	0	9	1	9	2	9	3	9	4	
4	14	8	9	6	9	0	9	1	9	5	9	3	9	4	
2	13	6	13	0	13	1	13	2	13	1	13	0	
2	7	8	7	0	7	1	7	2	7	5	7	4	
4	3	5	3	4	5	0	5	1	5	5	5	3	5	4	
4	3	5	0	6	5	0	5	1	5	5	5	3	5	4	
5	8	7	2	4	3	7	0	7	1	7	2	7	5	7	4	
5	7	0	6	13	10	13	0	13	1	13	2	13	3	13	4	
5	9	6	0	5	3	9	0	9	1	9	2	9	5	9	4	
4	14	7	0	5	7	0	7	1	7	5	7	3	5	4	
4	9	6	0	5	9	0	9	1	9	2	9	5	9	4	
3	0	6	13	13	0	13	1	13	2	13	5	13	4	
6	11	9	6	0	5	3	9	0	9	1	9	2	9	3	9	4	
3	1	5	12	5	0	5	1	5	2	5	1	5	0	
4	4	2	7	2	7	0	7	1	7	2	7	3	7	4	
3	12	5	0	5	0	5	1	5	2	5	1	5	0	
2	2	7	7	0	7	1	7	2	7	3	7	4	
