2.50656e+09	2.50656e+09
1184
10267.7	9684.19
15
0	364	3000
1	364	3000
2	364	3000
3	362	3000
4	362	3000
5	364	3000
6	364	3000
7	364	3000
8	364	3000
9	364	3000
10	364	3000
11	364	3000
12	364	3000
13	364	3000
14	364	3000
44
0	5	92369984.000000	94942746.144113
5	0	92519740.000000	94942746.144113
0	6	90197108.000000	97708373.358844
6	0	88674898.000000	97708373.358844
0	7	88981444.000000	107847468.994968
7	0	90252902.000000	107847468.994968
1	2	38567894.000000	106004332.512303
2	1	38125488.000000	106004332.512303
1	4	9724902.000000	104160273.538905
4	1	4387588.000000	104160273.538905
1	5	51453462.000000	106004332.512303
5	1	57037692.000000	106004332.512303
2	4	46270098.000000	97708373.358844
4	2	43576496.000000	97708373.358844
2	7	92312690.000000	94021177.902780
7	2	93530786.000000	94021177.902780
3	4	40115124.000000	91255735.186196
4	3	47681438.000000	91255735.186196
3	5	75030286.000000	83881528.772217
5	3	68134946.000000	83881528.772217
5	12	82918222.000000	84803281.511696
12	5	80844310.000000	84803281.511696
6	9	89276934.000000	89412137.458165
9	6	86366974.000000	89412137.458165
6	13	89394570.000000	101395568.814907
13	6	91529990.000000	101395568.814907
7	8	78382872.000000	100473078.082842
8	7	72985366.000000	100473078.082842
7	14	42075814.000000	104160273.538905
14	7	49973346.000000	104160273.538905
8	9	46046848.000000	97708373.358844
9	8	52838096.000000	97708373.358844
8	11	38869734.000000	82959776.032737
11	8	35355690.000000	82959776.032737
8	14	24331652.000000	88490384.718686
14	8	16420480.000000	88490384.718686
9	11	28151490.000000	103238705.297572
11	9	32092546.000000	103238705.297572
10	12	28499850.000000	97708373.358844
12	10	29743768.000000	97708373.358844
10	13	38144628.000000	93099609.661448
13	10	37394472.000000	93099609.661448
12	13	43731882.000000	90333982.446717
13	12	42240864.000000	90333982.446717
840
4	10	12	5	3	10	0	10	1	10	5	10	3	10	4	
3	14	7	2	14	0	14	1	14	5	14	3	14	4	
3	3	5	0	3	0	3	1	3	5	3	3	3	4	
2	8	9	8	0	8	1	8	2	8	3	8	4	
4	14	7	2	4	14	0	14	1	14	5	14	3	14	4	
3	2	7	14	2	0	2	1	2	2	2	5	2	4	
4	9	6	13	12	9	0	9	1	9	5	9	3	9	4	
2	12	5	12	0	12	1	12	2	12	1	12	0	
3	2	7	8	2	0	2	1	2	2	2	5	2	4	
3	5	1	2	5	0	5	1	5	2	5	1	5	0	
5	13	12	5	3	4	13	0	13	1	13	2	13	3	13	4	
3	0	7	2	0	0	0	1	0	2	0	1	0	0	
4	4	3	5	12	4	0	4	1	4	5	4	3	4	4	
2	6	13	6	0	6	1	6	2	6	3	6	4	
3	8	7	0	8	0	8	1	8	2	8	5	8	4	
3	1	2	7	1	0	1	1	1	2	1	5	1	4	
3	8	9	6	8	0	8	1	8	2	8	5	8	4	
5	3	4	2	7	14	3	0	3	1	3	2	3	5	3	4	
2	8	7	8	0	8	1	8	5	8	3	8	4	
2	10	12	10	0	10	1	10	2	10	3	10	4	
4	3	5	0	7	3	0	3	1	3	2	3	3	3	4	
4	7	0	6	13	7	0	7	1	7	5	7	3	7	4	
4	14	7	2	1	14	0	14	1	14	5	14	3	14	4	
5	11	9	6	0	5	11	0	11	1	11	2	11	1	11	0	
2	1	2	1	0	1	1	1	2	1	3	1	4	
4	4	3	5	12	4	0	4	1	4	2	4	1	4	0	
3	7	2	1	7	0	7	1	7	5	7	3	7	4	
3	2	1	5	2	0	2	1	2	5	2	3	2	4	
2	9	6	9	0	9	1	9	5	9	3	9	4	
5	1	2	7	8	11	1	0	1	1	1	2	1	5	1	4	
4	11	8	7	0	11	0	11	1	11	2	11	1	11	0	
6	14	7	0	5	12	10	14	0	14	1	14	2	14	3	14	4	
2	4	1	4	0	4	1	4	2	4	1	4	0	
4	12	5	0	7	12	0	12	1	12	2	12	3	12	4	
2	5	0	5	0	5	1	5	2	5	3	5	4	
4	0	5	3	4	0	0	0	1	0	2	0	5	0	4	
2	11	9	11	0	11	1	11	2	11	1	11	0	
4	10	13	6	9	10	0	10	1	10	2	10	5	10	4	
2	9	8	9	0	9	1	9	5	9	3	9	4	
5	11	9	6	13	12	11	0	11	1	11	2	11	5	11	4	
3	7	0	6	7	0	7	1	7	2	7	5	7	4	
2	14	7	14	0	14	1	14	2	14	5	14	4	
4	13	6	9	11	13	0	13	1	13	5	13	3	13	4	
4	2	7	8	11	2	0	2	1	2	5	2	3	2	4	
3	6	13	10	6	0	6	1	6	5	6	3	6	4	
3	13	12	5	13	0	13	1	13	5	13	3	13	4	
3	0	5	1	0	0	0	1	0	2	0	3	0	4	
5	3	5	0	6	9	3	0	3	1	3	2	3	1	3	0	
4	3	5	12	10	3	0	3	1	3	2	3	5	3	4	
3	1	5	0	1	0	1	1	1	5	1	3	1	4	
3	7	0	5	7	0	7	1	7	2	7	3	7	4	
5	5	0	6	9	11	5	0	5	1	5	5	5	3	5	4	
3	0	7	8	0	0	0	1	0	2	0	5	0	4	
3	0	7	14	0	0	0	1	0	2	0	5	0	4	
2	3	4	3	0	3	1	3	2	3	1	3	0	
4	11	8	7	2	11	0	11	1	11	2	11	3	11	4	
2	14	8	14	0	14	1	14	2	14	1	14	0	
2	4	3	4	0	4	1	4	2	4	3	4	4	
2	2	4	2	0	2	1	2	2	2	3	2	4	
3	10	13	6	10	0	10	1	10	2	10	1	10	0	
3	13	6	0	13	0	13	1	13	2	13	5	13	4	
4	0	6	13	10	0	0	0	1	0	2	0	5	0	4	
4	6	0	5	1	6	0	6	1	6	2	6	5	6	4	
3	9	8	7	9	0	9	1	9	5	9	3	9	4	
5	8	9	6	13	10	8	0	8	1	8	2	8	3	8	4	
5	12	5	0	7	8	12	0	12	1	12	5	12	3	12	4	
4	14	7	0	5	14	0	14	1	14	2	14	1	14	0	
3	5	0	7	5	0	5	1	5	5	5	3	5	4	
3	12	13	6	12	0	12	1	12	5	12	3	12	4	
2	6	0	6	0	6	1	6	2	6	5	6	4	
2	5	1	5	0	5	1	5	5	5	3	5	4	
2	10	13	10	0	10	1	10	2	10	5	10	4	
4	13	12	5	3	13	0	13	1	13	2	13	3	13	4	
2	11	8	11	0	11	1	11	2	11	5	11	4	
4	6	0	7	2	6	0	6	1	6	2	6	3	6	4	
4	4	2	7	8	4	0	4	1	4	5	4	3	4	4	
4	9	6	13	10	9	0	9	1	9	2	9	1	9	0	
2	13	12	13	0	13	1	13	2	13	5	13	4	
2	10	13	10	0	10	1	10	2	10	3	10	4	
4	3	5	0	6	3	0	3	1	3	2	3	3	3	4	
5	7	0	6	13	10	7	0	7	1	7	2	7	1	7	0	
5	9	6	0	5	3	9	0	9	1	9	2	9	1	9	0	
3	12	5	3	12	0	12	1	12	2	12	5	12	4	
2	5	12	5	0	5	1	5	2	5	5	5	4	
3	7	8	9	7	0	7	1	7	5	7	3	7	4	
4	11	9	6	13	11	0	11	1	11	5	11	3	11	4	
3	0	6	13	0	0	0	1	0	5	0	3	0	4	
5	8	9	6	13	12	8	0	8	1	8	2	8	1	8	0	
3	14	8	11	14	0	14	1	14	2	14	3	14	4	
2	4	2	4	0	4	1	4	5	4	3	4	4	
3	12	5	0	12	0	12	1	12	2	12	3	12	4	
2	2	7	2	0	2	1	2	2	2	1	2	0	
5	14	7	0	6	13	14	0	14	1	14	2	14	5	14	4	
4	13	12	5	1	13	0	13	1	13	2	13	1	13	0	
2	6	0	6	0	6	1	6	2	6	1	6	0	
5	14	7	0	5	3	14	0	14	1	14	5	14	3	14	4	
3	14	7	2	14	0	14	1	14	2	14	5	14	4	
2	8	9	8	0	8	1	8	2	8	1	8	0	
3	6	13	12	6	0	6	1	6	2	6	5	6	4	
3	2	7	14	2	0	2	1	2	2	2	1	2	0	
4	10	12	5	1	10	0	10	1	10	2	10	5	10	4	
4	3	5	12	10	3	0	3	1	3	5	3	3	3	4	
2	9	8	9	0	9	1	9	2	9	3	9	4	
2	3	5	3	0	3	1	3	2	3	5	3	4	
3	5	1	2	5	0	5	1	5	2	5	5	5	4	
5	13	12	5	3	4	13	0	13	1	13	2	13	1	13	0	
3	0	7	2	0	0	0	1	0	2	0	3	0	4	
2	6	13	6	0	6	1	6	2	6	1	6	0	
3	8	7	0	8	0	8	1	8	2	8	1	8	0	
3	11	9	6	11	0	11	1	11	2	11	5	11	4	
3	1	2	7	1	0	1	1	1	2	1	1	1	0	
3	7	2	4	7	0	7	1	7	2	7	3	7	4	
3	3	4	2	3	0	3	1	3	2	3	5	3	4	
5	10	12	5	1	2	10	0	10	1	10	5	10	3	10	4	
3	3	5	1	3	0	3	1	3	5	3	3	3	4	
2	10	12	10	0	10	1	10	5	10	3	10	4	
3	13	6	9	13	0	13	1	13	5	13	3	13	4	
4	7	0	6	13	7	0	7	1	7	2	7	5	7	4	
5	11	8	7	0	5	11	0	11	1	11	2	11	3	11	4	
2	1	2	1	0	1	1	1	2	1	1	1	0	
4	4	3	5	12	4	0	4	1	4	2	4	3	4	4	
4	12	5	1	2	12	0	12	1	12	2	12	1	12	0	
3	2	1	5	2	0	2	1	2	2	2	3	2	4	
3	5	12	13	5	0	5	1	5	2	5	1	5	0	
4	5	0	7	14	5	0	5	1	5	5	5	3	5	4	
5	11	9	6	13	10	11	0	11	1	11	2	11	5	11	4	
3	13	6	9	13	0	13	1	13	2	13	5	13	4	
5	1	2	7	8	11	1	0	1	1	1	2	1	1	1	0	
2	8	11	8	0	8	1	8	2	8	3	8	4	
2	4	1	4	0	4	1	4	2	4	5	4	4	
3	14	8	9	14	0	14	1	14	2	14	5	14	4	
4	12	5	0	7	12	0	12	1	12	2	12	1	12	0	
2	5	0	5	0	5	1	5	2	5	1	5	0	
5	13	6	0	7	2	13	0	13	1	13	2	13	3	13	4	
4	0	5	3	4	0	0	0	1	0	2	0	1	0	0	
3	7	8	11	7	0	7	1	7	5	7	3	7	4	
4	6	0	5	3	6	0	6	1	6	2	6	3	6	4	
2	11	9	11	0	11	1	11	2	11	3	11	4	
3	10	12	5	10	0	10	1	10	2	10	5	10	4	
3	7	0	6	7	0	7	1	7	5	7	3	7	4	
5	12	5	0	7	14	12	0	12	1	12	2	12	1	12	0	
2	14	7	14	0	14	1	14	5	14	3	14	4	
4	13	6	9	11	13	0	13	1	13	2	13	5	13	4	
3	6	13	10	6	0	6	1	6	2	6	5	6	4	
3	13	12	5	13	0	13	1	13	2	13	5	13	4	
3	0	5	1	0	0	0	1	0	2	0	1	0	0	
5	3	5	0	6	9	3	0	3	1	3	2	3	3	3	4	
3	11	8	7	11	0	11	1	11	2	11	1	11	0	
3	1	5	0	1	0	1	1	1	2	1	3	1	4	
4	4	2	7	14	4	0	4	1	4	2	4	1	4	0	
5	5	0	7	8	11	5	0	5	1	5	2	5	5	5	4	
5	13	6	0	7	14	13	0	13	1	13	2	13	3	13	4	
3	0	7	8	0	0	0	1	0	2	0	1	0	0	
2	3	4	3	0	3	1	3	2	3	5	3	4	
4	11	8	7	2	11	0	11	1	11	2	11	1	11	0	
2	14	8	14	0	14	1	14	2	14	3	14	4	
5	2	1	5	12	10	2	0	2	1	2	5	2	3	2	4	
2	4	3	4	0	4	1	4	2	4	1	4	0	
3	12	5	1	12	0	12	1	12	2	12	3	12	4	
2	2	4	2	0	2	1	2	5	2	3	2	4	
4	5	0	7	14	5	0	5	1	5	2	5	3	5	4	
3	10	13	6	10	0	10	1	10	2	10	3	10	4	
3	13	6	0	13	0	13	1	13	5	13	3	13	4	
4	6	0	5	1	6	0	6	1	6	5	6	3	6	4	
4	8	7	2	4	8	0	8	1	8	5	8	3	8	4	
4	14	7	0	5	14	0	14	1	14	2	14	5	14	4	
5	8	9	6	13	10	8	0	8	1	8	5	8	3	8	4	
5	12	13	6	9	8	12	0	12	1	12	2	12	5	12	4	
3	5	0	7	5	0	5	1	5	2	5	5	5	4	
3	12	13	6	12	0	12	1	12	2	12	5	12	4	
2	5	1	5	0	5	1	5	2	5	5	5	4	
5	10	13	6	9	8	10	0	10	1	10	2	10	1	10	0	
3	0	5	3	0	0	0	1	0	2	0	3	0	4	
6	3	5	0	7	8	11	3	0	3	1	3	2	3	1	3	0	
4	4	2	7	8	4	0	4	1	4	2	4	5	4	4	
2	12	13	12	0	12	1	12	2	12	3	12	4	
2	7	8	7	0	7	1	7	5	7	3	7	4	
2	2	1	2	0	2	1	2	2	2	5	2	4	
4	9	6	13	10	9	0	9	1	9	2	9	5	9	4	
2	13	12	13	0	13	1	13	5	13	3	13	4	
2	10	13	10	0	10	1	10	2	10	1	10	0	
4	3	5	0	6	3	0	3	1	3	2	3	1	3	0	
4	9	6	13	12	9	0	9	1	9	2	9	5	9	4	
5	11	8	7	2	4	11	0	11	1	11	2	11	3	11	4	
2	8	11	8	0	8	1	8	5	8	3	8	4	
5	4	3	5	12	13	4	0	4	1	4	2	4	3	4	4	
5	9	6	0	5	3	9	0	9	1	9	2	9	3	9	4	
3	12	5	3	12	0	12	1	12	5	12	3	12	4	
2	5	12	5	0	5	1	5	5	5	3	5	4	
5	10	12	5	3	4	10	0	10	1	10	2	10	1	10	0	
4	1	5	12	13	1	0	1	1	1	2	1	5	1	4	
4	11	9	6	13	11	0	11	1	11	2	11	5	11	4	
5	8	9	6	13	12	8	0	8	1	8	2	8	3	8	4	
3	14	8	11	14	0	14	1	14	2	14	1	14	0	
5	2	7	0	6	13	2	0	2	1	2	2	2	5	2	4	
2	4	2	4	0	4	1	4	2	4	5	4	4	
3	9	6	13	9	0	9	1	9	2	9	1	9	0	
2	2	7	2	0	2	1	2	2	2	5	2	4	
4	13	12	5	1	13	0	13	1	13	2	13	3	13	4	
2	6	0	6	0	6	1	6	2	6	3	6	4	
2	11	8	11	0	11	1	11	2	11	3	11	4	
3	14	7	2	14	0	14	1	14	2	14	1	14	0	
4	6	0	7	2	6	0	6	1	6	5	6	3	6	4	
2	1	4	1	0	1	1	1	2	1	5	1	4	
3	7	2	1	7	0	7	1	7	2	7	1	7	0	
3	2	7	14	2	0	2	1	2	2	2	3	2	4	
2	9	8	9	0	9	1	9	2	9	1	9	0	
3	0	5	12	0	0	0	1	0	5	0	3	0	4	
3	5	1	2	5	0	5	1	5	5	5	3	5	4	
5	10	13	6	9	11	10	0	10	1	10	2	10	3	10	4	
3	0	7	2	0	0	0	1	0	5	0	3	0	4	
5	3	5	0	7	8	3	0	3	1	3	2	3	3	3	4	
3	8	7	0	8	0	8	1	8	2	8	3	8	4	
3	11	9	6	11	0	11	1	11	5	11	3	11	4	
3	3	5	12	3	0	3	1	3	5	3	3	3	4	
3	1	2	7	1	0	1	1	1	2	1	3	1	4	
3	7	2	4	7	0	7	1	7	2	7	1	7	0	
5	9	6	0	5	1	9	0	9	1	9	2	9	1	9	0	
3	2	7	0	2	0	2	1	2	2	2	1	2	0	
2	12	5	12	0	12	1	12	5	12	3	12	4	
5	10	12	5	1	2	10	0	10	1	10	2	10	5	10	4	
2	9	8	9	0	9	1	9	2	9	5	9	4	
2	10	12	10	0	10	1	10	2	10	5	10	4	
4	1	2	7	8	1	0	1	1	1	2	1	5	1	4	
4	3	5	0	7	3	0	3	1	3	2	3	5	3	4	
4	7	0	6	13	7	0	7	1	7	2	7	1	7	0	
2	8	14	8	0	8	1	8	2	8	1	8	0	
3	14	8	9	14	0	14	1	14	2	14	3	14	4	
5	1	5	0	6	9	1	0	1	1	1	2	1	5	1	4	
4	12	5	1	2	12	0	12	1	12	2	12	3	12	4	
3	2	1	5	2	0	2	1	2	2	2	1	2	0	
3	5	12	13	5	0	5	1	5	2	5	3	5	4	
5	10	13	6	0	7	10	0	10	1	10	2	10	3	10	4	
2	0	7	0	0	0	1	0	2	0	5	0	4	
5	11	9	6	13	10	11	0	11	1	11	5	11	3	11	4	
5	1	2	7	8	11	1	0	1	1	1	2	1	3	1	4	
2	8	11	8	0	8	1	8	2	8	1	8	0	
4	2	1	5	12	2	0	2	1	2	2	2	1	2	0	
2	4	1	4	0	4	1	4	5	4	3	4	4	
3	9	8	14	9	0	9	1	9	2	9	3	9	4	
5	9	8	7	2	4	9	0	9	1	9	5	9	3	9	4	
5	13	6	0	7	2	13	0	13	1	13	2	13	1	13	0	
4	0	5	3	4	0	0	0	1	0	2	0	3	0	4	
4	6	0	5	3	6	0	6	1	6	2	6	1	6	0	
3	8	7	2	8	0	8	1	8	2	8	1	8	0	
2	1	5	1	0	1	1	1	2	1	1	1	0	
3	7	0	6	7	0	7	1	7	2	7	3	7	4	
5	12	5	0	7	14	12	0	12	1	12	2	12	3	12	4	
4	13	6	9	11	13	0	13	1	13	2	13	1	13	0	
4	0	6	9	11	0	0	0	1	0	2	0	5	0	4	
3	6	13	10	6	0	6	1	6	2	6	1	6	0	
3	0	5	1	0	0	0	1	0	2	0	5	0	4	
2	7	0	7	0	7	1	7	2	7	5	7	4	
3	11	8	7	11	0	11	1	11	2	11	3	11	4	
3	1	5	0	1	0	1	1	1	2	1	1	1	0	
4	4	2	7	14	4	0	4	1	4	2	4	3	4	4	
4	9	8	7	2	9	0	9	1	9	2	9	3	9	4	
5	9	8	7	2	4	9	0	9	1	9	2	9	5	9	4	
3	2	4	3	2	0	2	1	2	2	2	3	2	4	
5	8	7	2	4	3	8	0	8	1	8	5	8	3	8	4	
5	5	0	7	8	11	5	0	5	1	5	2	5	1	5	0	
5	13	6	9	8	14	13	0	13	1	13	2	13	1	13	0	
3	0	7	8	0	0	0	1	0	2	0	3	0	4	
4	2	1	5	12	2	0	2	1	2	5	2	3	2	4	
5	1	5	0	6	9	1	0	1	1	1	2	1	1	1	0	
3	6	0	7	6	0	6	1	6	5	6	3	6	4	
4	8	9	6	13	8	0	8	1	8	2	8	3	8	4	
2	14	8	14	0	14	1	14	5	14	3	14	4	
5	2	1	5	12	10	2	0	2	1	2	2	2	5	2	4	
3	12	5	1	12	0	12	1	12	2	12	1	12	0	
2	2	4	2	0	2	1	2	2	2	5	2	4	
4	5	0	7	14	5	0	5	1	5	2	5	1	5	0	
3	13	6	0	13	0	13	1	13	2	13	3	13	4	
2	0	6	0	0	0	1	0	2	0	1	0	0	
6	11	8	7	2	4	3	11	0	11	1	11	2	11	5	11	4	
4	6	0	5	1	6	0	6	1	6	2	6	3	6	4	
4	8	7	2	4	8	0	8	1	8	2	8	5	8	4	
2	8	9	8	0	8	1	8	5	8	3	8	4	
5	8	9	6	13	10	8	0	8	1	8	2	8	5	8	4	
5	12	13	6	9	8	12	0	12	1	12	2	12	1	12	0	
3	5	0	7	5	0	5	1	5	2	5	1	5	0	
5	10	13	6	9	8	10	0	10	1	10	2	10	3	10	4	
3	0	5	3	0	0	0	1	0	2	0	1	0	0	
6	3	5	0	7	8	11	3	0	3	1	3	2	3	3	3	4	
4	8	7	2	1	8	0	8	1	8	2	8	3	8	4	
2	12	10	12	0	12	1	12	2	12	5	12	4	
4	1	5	0	6	1	0	1	1	1	2	1	3	1	4	
2	6	9	6	0	6	1	6	5	6	3	6	4	
4	4	2	7	8	4	0	4	1	4	2	4	1	4	0	
2	12	13	12	0	12	1	12	2	12	1	12	0	
2	2	1	2	0	2	1	2	5	2	3	2	4	
4	9	6	13	10	9	0	9	1	9	5	9	3	9	4	
2	13	12	13	0	13	1	13	2	13	3	13	4	
4	0	6	13	10	0	0	0	1	0	2	0	1	0	0	
5	13	6	0	7	2	13	0	13	1	13	5	13	3	13	4	
3	6	13	12	6	0	6	1	6	5	6	3	6	4	
5	11	8	7	2	4	11	0	11	1	11	2	11	1	11	0	
5	4	3	5	12	13	4	0	4	1	4	2	4	1	4	0	
3	12	5	3	12	0	12	1	12	2	12	3	12	4	
2	5	12	5	0	5	1	5	2	5	3	5	4	
5	10	12	5	3	4	10	0	10	1	10	2	10	3	10	4	
4	6	0	5	3	6	0	6	1	6	5	6	3	6	4	
4	11	9	6	13	11	0	11	1	11	2	11	1	11	0	
4	1	5	12	10	1	0	1	1	1	2	1	3	1	4	
2	7	2	7	0	7	1	7	2	7	5	7	4	
3	14	8	11	14	0	14	1	14	2	14	5	14	4	
5	2	7	0	6	13	2	0	2	1	2	5	2	3	2	4	
3	9	6	13	9	0	9	1	9	2	9	3	9	4	
4	13	6	0	7	13	0	13	1	13	5	13	3	13	4	
2	2	7	2	0	2	1	2	5	2	3	2	4	
4	7	0	5	12	7	0	7	1	7	5	7	3	7	4	
4	6	0	7	14	6	0	6	1	6	5	6	3	6	4	
4	8	7	0	5	8	0	8	1	8	5	8	3	8	4	
4	13	12	5	1	13	0	13	1	13	5	13	3	13	4	
2	0	5	0	0	0	1	0	2	0	3	0	4	
4	3	5	12	13	3	0	3	1	3	2	3	1	3	0	
2	11	8	11	0	11	1	11	2	11	1	11	0	
3	14	7	2	14	0	14	1	14	2	14	3	14	4	
2	1	4	1	0	1	1	1	5	1	3	1	4	
3	7	2	1	7	0	7	1	7	2	7	3	7	4	
2	7	0	7	0	7	1	7	5	7	3	7	4	
3	0	5	12	0	0	0	1	0	2	0	5	0	4	
3	7	8	11	7	0	7	1	7	2	7	5	7	4	
5	12	5	0	7	14	12	0	12	1	12	2	12	5	12	4	
5	10	13	6	9	11	10	0	10	1	10	2	10	1	10	0	
3	0	7	2	0	0	0	1	0	2	0	5	0	4	
5	3	5	0	7	8	3	0	3	1	3	2	3	1	3	0	
2	7	14	7	0	7	1	7	2	7	5	7	4	
3	11	9	6	11	0	11	1	11	2	11	3	11	4	
5	14	7	0	5	12	14	0	14	1	14	2	14	1	14	0	
3	7	2	4	7	0	7	1	7	2	7	5	7	4	
5	9	6	0	5	1	9	0	9	1	9	2	9	3	9	4	
2	13	6	13	0	13	1	13	5	13	3	13	4	
3	2	7	0	2	0	2	1	2	2	2	3	2	4	
4	4	3	5	12	4	0	4	1	4	2	4	5	4	4	
5	10	12	5	1	2	10	0	10	1	10	2	10	1	10	0	
3	6	9	8	6	0	6	1	6	5	6	3	6	4	
3	0	6	9	0	0	0	1	0	2	0	3	0	4	
3	3	5	1	3	0	3	1	3	2	3	1	3	0	
3	6	0	5	6	0	6	1	6	2	6	5	6	4	
3	7	0	5	7	0	7	1	7	5	7	3	7	4	
4	7	0	6	13	7	0	7	1	7	2	7	3	7	4	
2	8	14	8	0	8	1	8	2	8	3	8	4	
4	12	5	3	4	12	0	12	1	12	5	12	3	12	4	
3	14	8	9	14	0	14	1	14	2	14	1	14	0	
2	5	3	5	0	5	1	5	5	5	3	5	4	
4	12	5	1	2	12	0	12	1	12	5	12	3	12	4	
3	5	12	13	5	0	5	1	5	5	5	3	5	4	
5	10	13	6	0	7	10	0	10	1	10	2	10	1	10	0	
2	0	7	0	0	0	1	0	5	0	3	0	4	
5	11	9	6	13	10	11	0	11	1	11	2	11	3	11	4	
3	14	7	0	14	0	14	1	14	2	14	1	14	0	
4	7	0	5	3	7	0	7	1	7	2	7	1	7	0	
4	2	1	5	12	2	0	2	1	2	2	2	3	2	4	
4	8	7	2	1	8	0	8	1	8	5	8	3	8	4	
3	9	8	14	9	0	9	1	9	2	9	1	9	0	
4	13	6	9	8	13	0	13	1	13	2	13	5	13	4	
2	5	0	5	0	5	1	5	5	5	3	5	4	
2	6	9	6	0	6	1	6	2	6	5	6	4	
4	10	13	6	9	10	0	10	1	10	2	10	3	10	4	
4	3	5	12	10	3	0	3	1	3	2	3	3	3	4	
3	8	7	2	8	0	8	1	8	2	8	3	8	4	
2	1	5	1	0	1	1	1	2	1	3	1	4	
3	7	0	6	7	0	7	1	7	2	7	1	7	0	
3	9	8	7	9	0	9	1	9	2	9	1	9	0	
4	1	5	0	6	1	0	1	1	1	5	1	3	1	4	
4	5	0	7	8	5	0	5	1	5	2	5	5	5	4	
4	13	6	9	11	13	0	13	1	13	2	13	3	13	4	
4	0	6	9	11	0	0	0	1	0	5	0	3	0	4	
3	6	13	10	6	0	6	1	6	2	6	3	6	4	
5	11	8	7	2	1	11	0	11	1	11	5	11	3	11	4	
3	6	9	8	6	0	6	1	6	2	6	5	6	4	
4	4	3	5	0	4	0	4	1	4	5	4	3	4	4	
2	13	10	13	0	13	1	13	5	13	3	13	4	
3	11	8	7	11	0	11	1	11	5	11	3	11	4	
4	4	2	7	14	4	0	4	1	4	5	4	3	4	4	
4	9	8	7	2	9	0	9	1	9	2	9	1	9	0	
3	2	4	3	2	0	2	1	2	2	2	1	2	0	
5	5	0	7	8	11	5	0	5	1	5	2	5	3	5	4	
3	10	12	5	10	0	10	1	10	2	10	3	10	4	
5	6	0	5	3	4	6	0	6	1	6	2	6	1	6	0	
5	1	2	7	8	9	1	0	1	1	1	2	1	3	1	4	
3	6	9	11	6	0	6	1	6	5	6	3	6	4	
4	8	9	6	13	8	0	8	1	8	2	8	1	8	0	
5	12	13	6	9	11	12	0	12	1	12	2	12	5	12	4	
2	14	8	14	0	14	1	14	2	14	5	14	4	
5	2	1	5	12	10	2	0	2	1	2	2	2	1	2	0	
3	5	1	4	5	0	5	1	5	2	5	5	5	4	
4	9	6	13	12	9	0	9	1	9	2	9	3	9	4	
4	1	2	7	8	1	0	1	1	1	5	1	3	1	4	
4	5	0	7	14	5	0	5	1	5	2	5	5	5	4	
3	13	6	0	13	0	13	1	13	2	13	1	13	0	
2	0	6	0	0	0	1	0	2	0	3	0	4	
4	6	0	5	1	6	0	6	1	6	2	6	1	6	0	
4	8	7	2	4	8	0	8	1	8	2	8	1	8	0	
5	14	7	0	5	3	14	0	14	1	14	2	14	3	14	4	
2	7	0	7	0	7	1	7	2	7	3	7	4	
5	12	13	6	9	8	12	0	12	1	12	2	12	3	12	4	
4	1	5	12	13	1	0	1	1	1	5	1	3	1	4	
3	5	0	7	5	0	5	1	5	2	5	3	5	4	
3	13	6	9	13	0	13	1	13	2	13	1	13	0	
3	6	9	8	6	0	6	1	6	2	6	1	6	0	
4	3	5	12	13	3	0	3	1	3	2	3	5	3	4	
6	3	5	0	7	8	11	3	0	3	1	3	5	3	3	3	4	
4	8	7	2	1	8	0	8	1	8	2	8	1	8	0	
2	1	2	1	0	1	1	1	5	1	3	1	4	
4	1	5	0	6	1	0	1	1	1	2	1	1	1	0	
4	4	2	7	8	4	0	4	1	4	2	4	3	4	4	
3	9	6	0	9	0	9	1	9	2	9	3	9	4	
2	2	1	2	0	2	1	2	2	2	3	2	4	
4	5	0	6	9	5	0	5	1	5	2	5	1	5	0	
2	13	12	13	0	13	1	13	2	13	1	13	0	
4	0	6	13	10	0	0	0	1	0	2	0	3	0	4	
5	13	6	0	7	14	13	0	13	1	13	5	13	3	13	4	
3	11	8	14	11	0	11	1	11	2	11	5	11	4	
4	7	0	5	12	7	0	7	1	7	2	7	3	7	4	
5	11	8	7	2	4	11	0	11	1	11	2	11	5	11	4	
5	4	3	5	12	13	4	0	4	1	4	2	4	5	4	4	
3	12	5	3	12	0	12	1	12	2	12	1	12	0	
2	5	12	5	0	5	1	5	2	5	1	5	0	
5	10	12	5	3	4	10	0	10	1	10	5	10	3	10	4	
4	7	0	5	12	7	0	7	1	7	2	7	5	7	4	
3	6	0	7	6	0	6	1	6	2	6	3	6	4	
4	11	9	6	13	11	0	11	1	11	2	11	3	11	4	
4	1	5	12	10	1	0	1	1	1	2	1	1	1	0	
2	7	2	7	0	7	1	7	5	7	3	7	4	
2	12	10	12	0	12	1	12	2	12	1	12	0	
3	14	8	11	14	0	14	1	14	5	14	3	14	4	
5	2	7	0	6	13	2	0	2	1	2	2	2	3	2	4	
3	9	6	13	9	0	9	1	9	5	9	3	9	4	
4	13	6	0	7	13	0	13	1	13	2	13	5	13	4	
4	6	9	8	14	6	0	6	1	6	2	6	5	6	4	
4	13	12	5	1	13	0	13	1	13	2	13	5	13	4	
2	0	5	0	0	0	1	0	2	0	1	0	0	
4	3	5	12	13	3	0	3	1	3	2	3	3	3	4	
5	8	7	2	4	3	8	0	8	1	8	2	8	3	8	4	
5	1	2	7	8	9	1	0	1	1	1	5	1	3	1	4	
2	1	4	1	0	1	1	1	2	1	3	1	4	
5	4	3	5	12	10	4	0	4	1	4	2	4	1	4	0	
2	13	10	13	0	13	1	13	2	13	3	13	4	
3	0	5	12	0	0	0	1	0	2	0	1	0	0	
3	6	9	11	6	0	6	1	6	2	6	3	6	4	
4	1	2	7	14	1	0	1	1	1	5	1	3	1	4	
5	10	13	6	9	11	10	0	10	1	10	2	10	5	10	4	
5	3	4	2	7	8	3	0	3	1	3	2	3	5	3	4	
2	7	14	7	0	7	1	7	5	7	3	7	4	
3	11	9	6	11	0	11	1	11	2	11	1	11	0	
5	14	7	0	5	12	14	0	14	1	14	2	14	3	14	4	
4	2	7	0	6	2	0	2	1	2	5	2	3	2	4	
3	7	2	4	7	0	7	1	7	5	7	3	7	4	
5	9	6	0	5	1	9	0	9	1	9	5	9	3	9	4	
3	2	7	0	2	0	2	1	2	5	2	3	2	4	
3	5	12	10	5	0	5	1	5	2	5	3	5	4	
5	10	12	5	1	2	10	0	10	1	10	2	10	3	10	4	
3	0	6	9	0	0	0	1	0	2	0	1	0	0	
3	3	5	1	3	0	3	1	3	2	3	3	3	4	
3	6	0	5	6	0	6	1	6	5	6	3	6	4	
4	1	2	7	8	1	0	1	1	1	2	1	3	1	4	
5	4	3	5	0	6	4	0	4	1	4	2	4	1	4	0	
2	8	14	8	0	8	1	8	5	8	3	8	4	
4	12	5	3	4	12	0	12	1	12	2	12	5	12	4	
3	5	1	4	5	0	5	1	5	5	5	3	5	4	
2	5	3	5	0	5	1	5	2	5	5	5	4	
4	12	5	1	2	12	0	12	1	12	2	12	5	12	4	
3	5	12	13	5	0	5	1	5	2	5	5	5	4	
5	10	13	6	0	7	10	0	10	1	10	2	10	5	10	4	
3	12	5	1	12	0	12	1	12	5	12	3	12	4	
2	0	7	0	0	0	1	0	2	0	3	0	4	
5	11	9	6	13	10	11	0	11	1	11	2	11	1	11	0	
3	14	7	0	14	0	14	1	14	2	14	3	14	4	
4	7	0	5	3	7	0	7	1	7	2	7	3	7	4	
4	12	13	6	9	12	0	12	1	12	2	12	3	12	4	
3	9	6	0	9	0	9	1	9	2	9	5	9	4	
3	5	0	6	5	0	5	1	5	2	5	3	5	4	
3	9	8	14	9	0	9	1	9	2	9	5	9	4	
4	13	6	9	8	13	0	13	1	13	5	13	3	13	4	
3	6	0	7	6	0	6	1	6	2	6	5	6	4	
4	10	13	6	9	10	0	10	1	10	2	10	1	10	0	
3	1	5	3	1	0	1	1	1	5	1	3	1	4	
4	3	5	12	10	3	0	3	1	3	2	3	1	3	0	
3	8	7	2	8	0	8	1	8	5	8	3	8	4	
2	1	5	1	0	1	1	1	5	1	3	1	4	
5	4	2	7	8	9	4	0	4	1	4	2	4	3	4	4	
3	9	8	7	9	0	9	1	9	2	9	3	9	4	
2	9	11	9	0	9	1	9	5	9	3	9	4	
4	1	5	12	10	1	0	1	1	1	5	1	3	1	4	
4	5	0	7	8	5	0	5	1	5	5	5	3	5	4	
4	10	13	6	0	10	0	10	1	10	2	10	1	10	0	
4	0	7	8	11	0	0	0	1	0	2	0	3	0	4	
2	8	9	8	0	8	1	8	2	8	5	8	4	
5	11	8	7	2	1	11	0	11	1	11	2	11	5	11	4	
4	4	3	5	0	4	0	4	1	4	2	4	5	4	4	
2	10	13	10	0	10	1	10	5	10	3	10	4	
3	11	8	7	11	0	11	1	11	2	11	5	11	4	
4	2	7	8	9	2	0	2	1	2	2	2	5	2	4	
4	4	2	7	14	4	0	4	1	4	2	4	5	4	4	
4	9	8	7	2	9	0	9	1	9	2	9	5	9	4	
3	2	4	3	2	0	2	1	2	2	2	5	2	4	
3	10	12	5	10	0	10	1	10	2	10	1	10	0	
2	12	10	12	0	12	1	12	5	12	3	12	4	
5	6	0	5	3	4	6	0	6	1	6	2	6	3	6	4	
5	11	9	6	13	12	11	0	11	1	11	2	11	3	11	4	
5	4	2	7	8	11	4	0	4	1	4	2	4	5	4	4	
4	14	8	9	6	14	0	14	1	14	2	14	1	14	0	
3	4	3	5	4	0	4	1	4	2	4	3	4	4	
4	8	9	6	13	8	0	8	1	8	2	8	5	8	4	
5	12	13	6	9	11	12	0	12	1	12	5	12	3	12	4	
5	2	1	5	12	10	2	0	2	1	2	2	2	3	2	4	
5	13	6	0	7	2	13	0	13	1	13	2	13	5	13	4	
4	9	6	13	12	9	0	9	1	9	2	9	1	9	0	
5	3	5	0	6	9	3	0	3	1	3	2	3	5	3	4	
2	0	6	0	0	0	1	0	5	0	3	0	4	
3	3	5	12	3	0	3	1	3	2	3	3	3	4	
4	8	7	2	4	8	0	8	1	8	2	8	3	8	4	
5	14	7	0	5	3	14	0	14	1	14	2	14	1	14	0	
3	7	2	1	7	0	7	1	7	2	7	5	7	4	
2	7	0	7	0	7	1	7	2	7	1	7	0	
4	9	6	0	5	9	0	9	1	9	2	9	1	9	0	
5	4	2	7	8	11	4	0	4	1	4	5	4	3	4	4	
4	6	0	5	3	6	0	6	1	6	2	6	5	6	4	
3	13	6	9	13	0	13	1	13	2	13	3	13	4	
3	6	9	8	6	0	6	1	6	2	6	3	6	4	
5	10	13	6	9	8	10	0	10	1	10	2	10	5	10	4	
3	1	5	12	1	0	1	1	1	2	1	5	1	4	
6	3	4	2	7	8	11	3	0	3	1	3	2	3	5	3	4	
3	7	8	9	7	0	7	1	7	2	7	1	7	0	
5	14	8	9	6	13	14	0	14	1	14	2	14	3	14	4	
3	9	6	0	9	0	9	1	9	2	9	1	9	0	
4	8	7	0	5	8	0	8	1	8	2	8	5	8	4	
3	0	5	3	0	0	0	1	0	5	0	3	0	4	
2	2	1	2	0	2	1	2	2	2	1	2	0	
2	8	11	8	0	8	1	8	2	8	5	8	4	
4	5	0	6	9	5	0	5	1	5	2	5	3	5	4	
4	10	12	5	3	10	0	10	1	10	2	10	3	10	4	
4	0	6	13	10	0	0	0	1	0	5	0	3	0	4	
3	3	5	0	3	0	3	1	3	2	3	3	3	4	
3	11	8	14	11	0	11	1	11	5	11	3	11	4	
4	7	0	5	12	7	0	7	1	7	2	7	1	7	0	
5	11	8	7	2	4	11	0	11	1	11	5	11	3	11	4	
3	2	7	8	2	0	2	1	2	2	2	1	2	0	
6	10	13	6	0	7	14	10	0	10	1	10	2	10	5	10	4	
5	12	5	0	7	14	12	0	12	1	12	5	12	3	12	4	
5	10	12	5	3	4	10	0	10	1	10	2	10	5	10	4	
3	5	0	6	5	0	5	1	5	5	5	3	5	4	
3	6	0	7	6	0	6	1	6	2	6	1	6	0	
3	8	9	6	8	0	8	1	8	2	8	1	8	0	
4	14	7	2	1	14	0	14	1	14	2	14	3	14	4	
2	13	6	13	0	13	1	13	2	13	5	13	4	
4	12	13	6	9	12	0	12	1	12	5	12	3	12	4	
2	7	2	7	0	7	1	7	2	7	3	7	4	
2	12	10	12	0	12	1	12	2	12	3	12	4	
5	2	7	0	6	13	2	0	2	1	2	2	2	1	2	0	
4	14	7	2	1	14	0	14	1	14	2	14	5	14	4	
3	9	6	13	9	0	9	1	9	2	9	5	9	4	
4	13	6	0	7	13	0	13	1	13	2	13	1	13	0	
4	6	9	8	14	6	0	6	1	6	2	6	1	6	0	
2	0	5	0	0	0	1	0	2	0	5	0	4	
5	8	7	2	4	3	8	0	8	1	8	2	8	1	8	0	
2	1	4	1	0	1	1	1	2	1	1	1	0	
5	4	3	5	12	10	4	0	4	1	4	2	4	3	4	4	
2	9	6	9	0	9	1	9	2	9	3	9	4	
6	14	7	0	6	13	10	14	0	14	1	14	5	14	3	14	4	
2	13	10	13	0	13	1	13	2	13	1	13	0	
3	0	5	12	0	0	0	1	0	2	0	3	0	4	
3	6	9	11	6	0	6	1	6	2	6	1	6	0	
5	10	13	6	9	11	10	0	10	1	10	5	10	3	10	4	
4	1	5	12	13	1	0	1	1	1	2	1	1	1	0	
5	3	5	0	7	8	3	0	3	1	3	5	3	3	3	4	
2	7	14	7	0	7	1	7	2	7	3	7	4	
4	8	7	2	1	8	0	8	1	8	2	8	5	8	4	
5	14	7	0	5	12	14	0	14	1	14	5	14	3	14	4	
4	2	7	0	6	2	0	2	1	2	2	2	5	2	4	
5	9	6	0	5	1	9	0	9	1	9	2	9	5	9	4	
3	2	7	0	2	0	2	1	2	2	2	5	2	4	
3	5	12	10	5	0	5	1	5	2	5	1	5	0	
3	0	6	9	0	0	0	1	0	2	0	5	0	4	
3	6	0	5	6	0	6	1	6	2	6	3	6	4	
4	1	2	7	8	1	0	1	1	1	2	1	1	1	0	
5	4	3	5	0	6	4	0	4	1	4	2	4	3	4	4	
2	8	14	8	0	8	1	8	2	8	5	8	4	
4	12	5	3	4	12	0	12	1	12	2	12	1	12	0	
4	2	7	8	11	2	0	2	1	2	2	2	3	2	4	
2	5	3	5	0	5	1	5	2	5	1	5	0	
5	10	13	6	0	7	10	0	10	1	10	5	10	3	10	4	
2	13	10	13	0	13	1	13	2	13	5	13	4	
2	0	7	0	0	0	1	0	2	0	1	0	0	
4	8	7	0	5	8	0	8	1	8	2	8	3	8	4	
3	3	5	1	3	0	3	1	3	2	3	5	3	4	
3	14	7	0	14	0	14	1	14	5	14	3	14	4	
4	7	0	5	3	7	0	7	1	7	5	7	3	7	4	
4	12	13	6	9	12	0	12	1	12	2	12	1	12	0	
4	2	1	5	12	2	0	2	1	2	2	2	5	2	4	
3	5	0	6	5	0	5	1	5	2	5	1	5	0	
3	9	8	14	9	0	9	1	9	5	9	3	9	4	
4	13	6	9	8	13	0	13	1	13	2	13	3	13	4	
3	0	7	14	0	0	0	1	0	2	0	1	0	0	
2	4	3	4	0	4	1	4	5	4	3	4	4	
2	6	9	6	0	6	1	6	2	6	3	6	4	
3	6	9	11	6	0	6	1	6	2	6	5	6	4	
3	1	5	3	1	0	1	1	1	2	1	5	1	4	
3	8	7	2	8	0	8	1	8	2	8	5	8	4	
2	1	5	1	0	1	1	1	2	1	5	1	4	
5	4	2	7	8	9	4	0	4	1	4	2	4	1	4	0	
4	5	0	7	8	5	0	5	1	5	2	5	3	5	4	
4	10	13	6	0	10	0	10	1	10	2	10	3	10	4	
4	0	6	9	11	0	0	0	1	0	2	0	1	0	0	
5	11	8	7	2	1	11	0	11	1	11	2	11	1	11	0	
4	1	2	7	14	1	0	1	1	1	2	1	3	1	4	
6	14	7	0	6	13	10	14	0	14	1	14	2	14	5	14	4	
4	4	3	5	0	4	0	4	1	4	2	4	1	4	0	
4	2	7	8	9	2	0	2	1	2	5	2	3	2	4	
4	9	8	7	2	9	0	9	1	9	5	9	3	9	4	
4	13	12	5	3	13	0	13	1	13	5	13	3	13	4	
3	2	4	3	2	0	2	1	2	5	2	3	2	4	
2	6	0	6	0	6	1	6	5	6	3	6	4	
2	1	2	1	0	1	1	1	2	1	5	1	4	
5	6	0	5	3	4	6	0	6	1	6	5	6	3	6	4	
5	11	9	6	13	12	11	0	11	1	11	2	11	1	11	0	
4	14	8	9	6	14	0	14	1	14	2	14	3	14	4	
3	4	3	5	4	0	4	1	4	2	4	1	4	0	
4	8	9	6	13	8	0	8	1	8	5	8	3	8	4	
5	12	13	6	9	11	12	0	12	1	12	2	12	3	12	4	
3	5	1	4	5	0	5	1	5	2	5	3	5	4	
5	13	6	9	8	14	13	0	13	1	13	2	13	5	13	4	
2	0	6	0	0	0	1	0	2	0	5	0	4	
3	3	5	12	3	0	3	1	3	2	3	1	3	0	
5	7	0	6	13	10	7	0	7	1	7	2	7	5	7	4	
5	14	7	0	5	3	14	0	14	1	14	2	14	5	14	4	
6	11	8	7	2	4	3	11	0	11	1	11	5	11	3	11	4	
5	4	2	7	8	11	4	0	4	1	4	2	4	3	4	4	
4	9	6	0	5	9	0	9	1	9	2	9	3	9	4	
3	4	2	7	4	0	4	1	4	5	4	3	4	4	
6	10	13	6	9	8	14	10	0	10	1	10	2	10	1	10	0	
3	0	6	13	0	0	0	1	0	2	0	3	0	4	
2	3	5	3	0	3	1	3	2	3	1	3	0	
3	1	5	12	1	0	1	1	1	5	1	3	1	4	
3	7	8	9	7	0	7	1	7	2	7	3	7	4	
3	12	5	0	12	0	12	1	12	5	12	3	12	4	
5	14	7	0	6	13	14	0	14	1	14	2	14	1	14	0	
4	5	0	6	9	5	0	5	1	5	5	5	3	5	4	
4	10	12	5	3	10	0	10	1	10	2	10	1	10	0	
4	14	7	0	6	14	0	14	1	14	2	14	5	14	4	
3	3	5	0	3	0	3	1	3	2	3	1	3	0	
5	4	3	5	12	13	4	0	4	1	4	5	4	3	4	4	
3	11	8	14	11	0	11	1	11	2	11	3	11	4	
4	14	7	2	4	14	0	14	1	14	2	14	1	14	0	
3	4	2	7	4	0	4	1	4	2	4	3	4	4	
3	2	7	8	2	0	2	1	2	2	2	3	2	4	
4	1	2	7	14	1	0	1	1	1	2	1	5	1	4	
5	13	12	5	3	4	13	0	13	1	13	2	13	5	13	4	
2	6	13	6	0	6	1	6	2	6	5	6	4	
5	3	4	2	7	14	3	0	3	1	3	2	3	3	3	4	
3	8	9	6	8	0	8	1	8	2	8	3	8	4	
4	14	7	2	1	14	0	14	1	14	2	14	1	14	0	
2	7	2	7	0	7	1	7	2	7	1	7	0	
2	9	11	9	0	9	1	9	2	9	1	9	0	
4	13	6	0	7	13	0	13	1	13	2	13	3	13	4	
4	6	9	8	14	6	0	6	1	6	2	6	3	6	4	
5	11	9	6	0	5	11	0	11	1	11	5	11	3	11	4	
2	0	5	0	0	0	1	0	5	0	3	0	4	
3	7	8	11	7	0	7	1	7	2	7	1	7	0	
5	4	3	5	12	10	4	0	4	1	4	5	4	3	4	4	
2	9	6	9	0	9	1	9	2	9	1	9	0	
3	12	5	1	12	0	12	1	12	2	12	5	12	4	
4	11	8	7	0	11	0	11	1	11	5	11	3	11	4	
4	10	12	5	1	10	0	10	1	10	2	10	3	10	4	
4	3	5	12	13	3	0	3	1	3	5	3	3	3	4	
3	3	4	2	3	0	3	1	3	2	3	3	3	4	
4	1	5	12	13	1	0	1	1	1	2	1	3	1	4	
2	7	14	7	0	7	1	7	2	7	1	7	0	
4	12	5	0	7	12	0	12	1	12	2	12	5	12	4	
5	14	7	0	5	12	14	0	14	1	14	2	14	5	14	4	
4	2	7	0	6	2	0	2	1	2	2	2	1	2	0	
2	5	0	5	0	5	1	5	2	5	5	5	4	
5	3	5	0	7	14	3	0	3	1	3	5	3	3	3	4	
3	5	12	10	5	0	5	1	5	2	5	5	5	4	
2	11	9	11	0	11	1	11	5	11	3	11	4	
3	0	6	9	0	0	0	1	0	5	0	3	0	4	
3	6	0	5	6	0	6	1	6	2	6	1	6	0	
2	14	7	14	0	14	1	14	2	14	3	14	4	
5	4	3	5	0	6	4	0	4	1	4	5	4	3	4	4	
4	1	5	12	10	1	0	1	1	1	2	1	5	1	4	
4	12	5	3	4	12	0	12	1	12	2	12	3	12	4	
4	2	7	8	11	2	0	2	1	2	2	2	1	2	0	
2	5	3	5	0	5	1	5	2	5	3	5	4	
3	13	12	5	13	0	13	1	13	2	13	1	13	0	
3	6	13	12	6	0	6	1	6	2	6	1	6	0	
4	14	7	2	4	14	0	14	1	14	2	14	5	14	4	
4	8	7	0	5	8	0	8	1	8	2	8	1	8	0	
3	14	7	0	14	0	14	1	14	2	14	5	14	4	
4	7	0	5	3	7	0	7	1	7	2	7	5	7	4	
5	9	8	7	2	4	9	0	9	1	9	2	9	3	9	4	
2	9	11	9	0	9	1	9	2	9	5	9	4	
3	5	0	6	5	0	5	1	5	2	5	5	5	4	
4	13	6	9	8	13	0	13	1	13	2	13	1	13	0	
3	0	7	14	0	0	0	1	0	2	0	3	0	4	
2	6	9	6	0	6	1	6	2	6	1	6	0	
4	11	8	7	2	11	0	11	1	11	2	11	5	11	4	
3	1	5	3	1	0	1	1	1	2	1	1	1	0	
2	7	8	7	0	7	1	7	2	7	3	7	4	
4	10	13	6	9	10	0	10	1	10	5	10	3	10	4	
2	12	5	12	0	12	1	12	2	12	5	12	4	
5	11	9	6	13	12	11	0	11	1	11	5	11	3	11	4	
5	4	2	7	8	9	4	0	4	1	4	2	4	5	4	4	
5	3	5	0	6	9	3	0	3	1	3	5	3	3	3	4	
3	10	13	6	10	0	10	1	10	5	10	3	10	4	
4	5	0	7	8	5	0	5	1	5	2	5	1	5	0	
4	10	13	6	0	10	0	10	1	10	5	10	3	10	4	
5	11	8	7	2	1	11	0	11	1	11	2	11	3	11	4	
4	1	2	7	14	1	0	1	1	1	2	1	1	1	0	
4	4	3	5	0	4	0	4	1	4	2	4	3	4	4	
3	12	13	6	12	0	12	1	12	2	12	1	12	0	
4	2	7	8	9	2	0	2	1	2	2	2	3	2	4	
2	5	1	5	0	5	1	5	2	5	1	5	0	
4	13	12	5	3	13	0	13	1	13	2	13	5	13	4	
4	6	0	7	2	6	0	6	1	6	2	6	5	6	4	
5	6	0	7	2	4	6	0	6	1	6	2	6	5	6	4	
2	8	7	8	0	8	1	8	2	8	3	8	4	
3	7	0	5	7	0	7	1	7	2	7	5	7	4	
3	4	3	5	4	0	4	1	4	2	4	5	4	4	
5	12	13	6	9	11	12	0	12	1	12	2	12	1	12	0	
3	5	1	4	5	0	5	1	5	2	5	1	5	0	
6	10	13	6	0	7	14	10	0	10	1	10	5	10	3	10	4	
2	13	6	13	0	13	1	13	2	13	3	13	4	
3	0	5	1	0	0	0	1	0	5	0	3	0	4	
4	3	5	0	6	3	0	3	1	3	2	3	5	3	4	
3	3	5	12	3	0	3	1	3	2	3	5	3	4	
5	7	0	6	13	10	7	0	7	1	7	5	7	3	7	4	
5	9	6	0	5	3	9	0	9	1	9	5	9	3	9	4	
3	9	8	7	9	0	9	1	9	2	9	5	9	4	
5	4	2	7	8	11	4	0	4	1	4	2	4	1	4	0	
4	9	6	0	5	9	0	9	1	9	5	9	3	9	4	
6	10	13	6	9	8	14	10	0	10	1	10	2	10	3	10	4	
3	0	6	13	0	0	0	1	0	2	0	1	0	0	
2	3	5	3	0	3	1	3	2	3	3	3	4	
4	12	13	6	9	12	0	12	1	12	2	12	5	12	4	
6	11	8	7	2	4	3	11	0	11	1	11	2	11	1	11	0	
2	11	8	11	0	11	1	11	5	11	3	11	4	
3	1	5	12	1	0	1	1	1	2	1	3	1	4	
2	3	5	3	0	3	1	3	5	3	3	3	4	
2	4	2	4	0	4	1	4	2	4	1	4	0	
3	12	5	0	12	0	12	1	12	2	12	5	12	4	
5	10	13	6	9	8	10	0	10	1	10	5	10	3	10	4	
4	5	0	6	9	5	0	5	1	5	2	5	5	5	4	
4	10	12	5	3	10	0	10	1	10	2	10	5	10	4	
3	3	5	0	3	0	3	1	3	2	3	5	3	4	
3	11	8	14	11	0	11	1	11	2	11	1	11	0	
4	14	7	2	4	14	0	14	1	14	2	14	3	14	4	
3	2	7	14	2	0	2	1	2	5	2	3	2	4	
3	4	2	7	4	0	4	1	4	2	4	1	4	0	
2	12	5	12	0	12	1	12	2	12	3	12	4	
3	2	7	8	2	0	2	1	2	5	2	3	2	4	
3	5	1	2	5	0	5	1	5	2	5	3	5	4	
5	13	12	5	3	4	13	0	13	1	13	5	13	3	13	4	
2	6	13	6	0	6	1	6	5	6	3	6	4	
3	8	7	0	8	0	8	1	8	5	8	3	8	4	
3	7	8	9	7	0	7	1	7	2	7	5	7	4	
3	1	2	7	1	0	1	1	1	5	1	3	1	4	
5	3	5	0	7	14	3	0	3	1	3	2	3	1	3	0	
3	8	9	6	8	0	8	1	8	5	8	3	8	4	
2	9	11	9	0	9	1	9	2	9	3	9	4	
2	10	12	10	0	10	1	10	2	10	1	10	0	
4	3	5	0	7	3	0	3	1	3	2	3	1	3	0	
5	14	7	0	6	13	14	0	14	1	14	5	14	3	14	4	
5	11	9	6	0	5	11	0	11	1	11	2	11	5	11	4	
3	7	8	11	7	0	7	1	7	2	7	3	7	4	
3	2	1	5	2	0	2	1	2	2	2	5	2	4	
5	4	3	5	12	10	4	0	4	1	4	2	4	5	4	4	
2	9	6	9	0	9	1	9	2	9	5	9	4	
4	10	12	5	1	10	0	10	1	10	5	10	3	10	4	
2	12	13	12	0	12	1	12	2	12	5	12	4	
4	10	12	5	1	10	0	10	1	10	2	10	1	10	0	
5	1	2	7	8	11	1	0	1	1	1	5	1	3	1	4	
3	3	4	2	3	0	3	1	3	2	3	1	3	0	
4	11	9	6	0	11	0	11	1	11	2	11	3	11	4	
6	14	7	0	6	13	10	14	0	14	1	14	2	14	1	14	0	
2	4	1	4	0	4	1	4	2	4	3	4	4	
4	12	5	0	7	12	0	12	1	12	5	12	3	12	4	
4	2	7	0	6	2	0	2	1	2	2	2	3	2	4	
2	4	3	4	0	4	1	4	2	4	5	4	4	
3	3	4	2	3	0	3	1	3	5	3	3	3	4	
4	0	5	3	4	0	0	0	1	0	5	0	3	0	4	
3	5	12	10	5	0	5	1	5	5	5	3	5	4	
2	11	9	11	0	11	1	11	2	11	5	11	4	
4	11	9	6	0	11	0	11	1	11	2	11	5	11	4	
2	14	7	14	0	14	1	14	2	14	1	14	0	
5	4	3	5	0	6	4	0	4	1	4	2	4	5	4	4	
4	3	5	0	7	3	0	3	1	3	5	3	3	3	4	
4	2	7	8	11	2	0	2	1	2	2	2	5	2	4	
3	13	12	5	13	0	13	1	13	2	13	3	13	4	
3	9	6	0	9	0	9	1	9	5	9	3	9	4	
3	6	13	12	6	0	6	1	6	2	6	3	6	4	
3	1	5	0	1	0	1	1	1	2	1	5	1	4	
3	7	0	5	7	0	7	1	7	2	7	1	7	0	
2	12	13	12	0	12	1	12	5	12	3	12	4	
5	9	8	7	2	4	9	0	9	1	9	2	9	1	9	0	
3	0	7	8	0	0	0	1	0	5	0	3	0	4	
3	14	8	9	14	0	14	1	14	5	14	3	14	4	
3	0	7	14	0	0	0	1	0	5	0	3	0	4	
2	3	4	3	0	3	1	3	2	3	3	3	4	
2	8	7	8	0	8	1	8	2	8	5	8	4	
4	11	8	7	2	11	0	11	1	11	5	11	3	11	4	
3	1	5	3	1	0	1	1	1	2	1	3	1	4	
2	7	8	7	0	7	1	7	2	7	1	7	0	
3	10	12	5	10	0	10	1	10	5	10	3	10	4	
2	2	4	2	0	2	1	2	2	2	1	2	0	
5	4	2	7	8	9	4	0	4	1	4	5	4	3	4	4	
3	10	13	6	10	0	10	1	10	2	10	5	10	4	
4	10	13	6	0	10	0	10	1	10	2	10	5	10	4	
4	1	5	0	6	1	0	1	1	1	2	1	5	1	4	
5	8	9	6	13	12	8	0	8	1	8	2	8	5	8	4	
5	8	9	6	13	12	8	0	8	1	8	5	8	3	8	4	
5	8	9	6	13	10	8	0	8	1	8	2	8	1	8	0	
4	14	7	0	5	14	0	14	1	14	2	14	3	14	4	
3	4	2	7	4	0	4	1	4	2	4	5	4	4	
3	12	13	6	12	0	12	1	12	2	12	3	12	4	
4	2	7	8	9	2	0	2	1	2	2	2	1	2	0	
2	5	1	5	0	5	1	5	2	5	3	5	4	
4	13	12	5	3	13	0	13	1	13	2	13	1	13	0	
3	0	5	3	0	0	0	1	0	2	0	5	0	4	
4	6	0	7	2	6	0	6	1	6	2	6	1	6	0	
2	8	7	8	0	8	1	8	2	8	1	8	0	
3	4	3	5	4	0	4	1	4	5	4	3	4	4	
4	9	6	13	10	9	0	9	1	9	2	9	3	9	4	
4	14	7	0	6	14	0	14	1	14	5	14	3	14	4	
2	13	6	13	0	13	1	13	2	13	1	13	0	
2	7	8	7	0	7	1	7	2	7	5	7	4	
2	3	4	3	0	3	1	3	5	3	3	3	4	
4	3	5	0	6	3	0	3	1	3	5	3	3	3	4	
5	8	7	2	4	3	8	0	8	1	8	2	8	5	8	4	
5	7	0	6	13	10	7	0	7	1	7	2	7	3	7	4	
5	9	6	0	5	3	9	0	9	1	9	2	9	5	9	4	
4	14	7	0	5	14	0	14	1	14	5	14	3	14	4	
4	9	6	0	5	9	0	9	1	9	2	9	5	9	4	
3	0	6	13	0	0	0	1	0	2	0	5	0	4	
6	11	8	7	2	4	3	11	0	11	1	11	2	11	3	11	4	
3	1	5	12	1	0	1	1	1	2	1	1	1	0	
2	4	2	4	0	4	1	4	2	4	3	4	4	
3	12	5	0	12	0	12	1	12	2	12	1	12	0	
2	2	7	2	0	2	1	2	2	2	3	2	4	
