2506.56	2506.56
3157
3158.47	3039.19
15
0	663	3000
1	379	3000
2	582	3000
3	533	3000
4	0	3000
5	0	3000
6	421	3000
7	747	3000
8	517	3000
9	241	3000
10	0	3000
11	238	3000
12	578	3000
13	557	3000
14	0	3000
44
0	5	94.706196	94.942746
5	0	93.917700	94.942746
0	6	80.370426	97.708373
6	0	87.100536	97.708373
0	7	100.918242	107.847469
7	0	94.875632	107.847469
1	2	41.503160	106.004333
2	1	40.136454	106.004333
1	4	9.881442	104.160274
4	1	7.660292	104.160274
1	5	52.369078	106.004333
5	1	55.761444	106.004333
2	4	43.644732	97.708373
4	2	42.664630	97.708373
2	7	93.757912	94.021178
7	2	92.338208	94.021178
3	4	32.888752	91.255735
4	3	35.625402	91.255735
3	5	72.669448	83.881529
5	3	70.603772	83.881529
5	12	84.640034	84.803282
12	5	84.265670	84.803282
6	9	81.474702	89.412137
9	6	88.516610	89.412137
6	13	87.672758	101.395569
13	6	88.108630	101.395569
7	8	83.216874	100.473078
8	7	78.094600	100.473078
7	14	45.044044	104.160274
14	7	42.714476	104.160274
8	9	55.657442	97.708373
9	8	47.898194	97.708373
8	11	37.364010	82.959776
11	8	38.448594	82.959776
8	14	21.363422	88.490385
14	8	23.679350	88.490385
9	11	29.657214	103.238705
11	9	28.999642	103.238705
10	12	28.499850	97.708373
12	10	30.320760	97.708373
10	13	38.144628	93.099610
13	10	36.817480	93.099610
12	13	40.888700	90.333982
13	12	41.674222	90.333982
840
4	10	12	5	3	12	0	12	1	12	5	12	3	12	4	
3	14	7	2	7	0	7	1	7	5	7	3	7	4	
3	3	5	0	3	0	3	1	3	5	3	3	3	4	
2	8	9	8	0	8	1	8	2	8	3	8	4	
4	14	7	2	4	7	0	7	1	7	5	7	3	7	4	
3	2	7	14	2	0	2	1	7	2	7	5	7	4	
4	9	6	13	12	6	0	6	1	6	5	6	3	6	4	
2	12	5	12	0	12	1	12	2	12	1	12	0	
3	2	7	8	2	0	2	1	7	2	7	5	7	4	
3	5	1	2	1	0	1	1	1	2	1	1	1	0	
5	13	12	5	1	4	12	0	12	1	12	2	12	3	12	4	
3	0	7	2	0	0	0	1	0	2	0	1	0	0	
4	4	3	5	12	3	0	3	1	3	5	3	3	3	4	
2	6	13	6	0	6	1	6	2	13	3	13	4	
3	8	7	0	7	0	7	1	7	2	7	5	7	4	
3	1	2	7	2	0	2	1	2	2	2	5	2	4	
3	8	9	6	8	0	8	1	9	2	9	5	9	4	
5	3	5	0	7	14	3	0	3	1	3	2	3	5	3	4	
2	8	7	8	0	8	1	8	5	8	3	8	4	
2	10	12	12	0	12	1	12	2	12	3	12	4	
4	3	5	0	7	3	0	3	1	3	2	3	3	3	4	
4	7	0	6	13	7	0	7	1	7	5	7	3	7	4	
4	14	7	2	1	7	0	7	1	7	5	7	3	7	4	
5	11	9	6	0	5	11	0	11	1	11	2	11	1	11	0	
2	1	2	1	0	1	1	1	2	1	3	1	4	
4	4	3	5	12	3	0	3	1	3	2	3	1	3	0	
3	7	2	1	2	0	2	1	2	5	2	3	2	4	
3	2	1	5	2	0	2	1	2	5	2	3	2	4	
2	9	6	6	0	6	1	6	5	6	3	6	4	
5	1	2	7	8	11	2	0	2	1	2	2	2	5	2	4	
4	11	8	7	0	11	0	8	1	8	2	8	1	8	0	
6	14	7	0	6	13	10	7	0	7	1	7	2	7	3	7	4	
2	4	1	1	0	1	1	1	2	1	1	1	0	
4	12	5	0	7	12	0	12	1	12	2	12	3	12	4	
2	5	0	0	0	0	1	0	2	0	3	0	4	
4	0	5	3	4	0	0	0	1	0	2	0	5	0	4	
2	11	9	11	0	11	1	11	2	11	1	11	0	
4	10	13	6	9	13	0	13	1	13	2	13	5	13	4	
2	9	8	9	0	8	1	8	5	8	3	8	4	
5	11	9	6	13	12	11	0	11	1	11	2	11	5	11	4	
3	7	0	6	7	0	7	1	7	2	7	5	7	4	
2	14	7	7	0	7	1	7	2	7	5	7	4	
4	13	6	9	11	13	0	6	1	6	5	6	3	6	4	
4	2	7	8	11	2	0	2	1	2	5	2	3	2	4	
3	6	13	10	13	0	13	1	13	5	13	3	13	4	
3	13	12	5	13	0	13	1	13	5	13	3	13	4	
3	0	5	1	0	0	0	1	0	2	0	3	0	4	
5	3	5	0	6	9	3	0	3	1	3	2	3	1	3	0	
4	3	5	12	10	3	0	3	1	3	2	3	5	3	4	
3	1	5	0	1	0	1	1	1	5	1	3	1	4	
3	7	0	5	0	0	0	1	0	2	0	3	0	4	
5	5	0	6	9	11	0	0	0	1	0	5	0	3	0	4	
3	0	7	8	7	0	7	1	7	2	7	5	7	4	
3	0	7	14	0	0	0	1	7	2	7	5	7	4	
2	3	4	3	0	3	1	3	2	3	1	3	0	
4	11	8	7	2	11	0	8	1	8	2	8	3	8	4	
2	14	8	8	0	8	1	8	2	8	1	8	0	
2	4	3	3	0	3	1	3	2	3	3	3	4	
2	2	4	2	0	2	1	2	2	2	3	2	4	
3	10	13	6	13	0	13	1	13	2	13	1	13	0	
3	13	6	0	13	0	13	1	13	2	13	5	13	4	
4	0	6	13	10	6	0	6	1	6	2	6	5	6	4	
4	6	0	5	1	6	0	6	1	6	2	6	5	6	4	
3	9	8	7	8	0	8	1	8	5	8	3	8	4	
5	8	9	6	13	10	8	0	8	1	8	2	8	3	8	4	
5	12	13	6	9	8	12	0	13	1	13	5	6	3	6	4	
4	14	7	0	5	7	0	7	1	7	2	7	1	7	0	
3	5	0	7	0	0	0	1	0	5	0	3	0	4	
3	12	13	6	12	0	12	1	12	5	12	3	12	4	
2	6	0	0	0	0	1	0	2	0	5	0	4	
2	5	1	1	0	1	1	1	5	1	3	1	4	
2	10	13	13	0	13	1	13	2	13	5	13	4	
4	13	12	5	3	12	0	12	1	12	2	12	3	12	4	
2	11	8	11	0	11	1	11	2	11	5	11	4	
4	6	0	7	2	0	0	0	1	0	2	0	3	0	4	
4	4	2	7	8	2	0	2	1	2	5	2	3	2	4	
4	9	6	13	10	6	0	6	1	6	2	6	1	6	0	
2	13	12	13	0	13	1	13	2	13	5	13	4	
2	10	13	13	0	13	1	13	2	13	3	13	4	
4	3	5	0	6	3	0	3	1	3	2	3	3	3	4	
5	7	0	6	13	10	7	0	7	1	7	2	7	1	7	0	
5	9	6	0	5	3	6	0	6	1	6	2	6	1	6	0	
3	12	5	3	12	0	12	1	12	2	12	5	12	4	
2	5	12	12	0	12	1	12	2	12	5	12	4	
3	7	8	9	7	0	8	1	8	5	8	3	8	4	
4	11	9	6	13	11	0	11	1	11	5	11	3	11	4	
3	0	6	13	0	0	0	1	6	5	6	3	6	4	
5	8	7	0	5	12	7	0	7	1	7	2	7	1	7	0	
3	14	8	11	8	0	8	1	8	2	8	3	8	4	
2	4	2	2	0	2	1	2	5	2	3	2	4	
3	12	5	0	12	0	12	1	12	2	12	3	12	4	
2	2	7	7	0	7	1	7	2	7	1	7	0	
5	14	8	9	6	13	8	0	8	1	8	2	8	5	8	4	
4	13	12	5	1	12	0	12	1	12	2	12	1	12	0	
2	6	0	0	0	0	1	0	2	0	1	0	0	
5	14	7	2	4	3	7	0	7	1	7	5	7	3	7	4	
3	14	7	2	7	0	7	1	7	2	7	5	7	4	
2	8	9	9	0	9	1	9	2	9	1	9	0	
3	6	13	12	6	0	6	1	6	2	13	5	13	4	
3	2	7	14	7	0	7	1	7	2	7	1	7	0	
4	10	12	5	1	12	0	12	1	12	2	12	5	12	4	
4	3	5	12	10	3	0	3	1	3	5	3	3	3	4	
2	9	8	9	0	8	1	8	2	8	3	8	4	
2	3	5	3	0	3	1	3	2	3	5	3	4	
3	5	1	2	1	0	1	1	1	2	1	5	1	4	
5	13	12	5	3	4	13	0	13	1	13	2	13	1	13	0	
3	0	7	2	0	0	0	1	0	2	7	3	7	4	
2	6	13	6	0	6	1	6	2	6	1	6	0	
3	8	7	0	7	0	7	1	7	2	7	1	7	0	
3	11	9	6	11	0	9	1	9	2	9	5	9	4	
3	1	2	7	1	0	2	1	2	2	2	1	2	0	
3	7	2	4	2	0	2	1	2	2	2	3	2	4	
3	3	4	2	3	0	3	1	3	2	3	5	3	4	
5	10	12	5	1	2	12	0	12	1	12	5	12	3	12	4	
3	3	5	1	3	0	3	1	3	5	3	3	3	4	
2	10	12	12	0	12	1	12	5	12	3	12	4	
3	13	6	9	13	0	6	1	6	5	6	3	6	4	
4	7	0	6	13	7	0	7	1	7	2	7	5	7	4	
5	11	9	6	0	5	11	0	11	1	11	2	11	3	11	4	
2	1	2	1	0	2	1	2	2	2	1	2	0	
4	4	3	5	12	3	0	3	1	3	2	3	3	3	4	
4	12	5	1	2	12	0	12	1	12	2	12	1	12	0	
3	2	1	5	2	0	2	1	2	2	1	3	1	4	
3	5	12	13	12	0	12	1	12	2	12	1	12	0	
4	5	0	7	14	0	0	0	1	0	5	0	3	0	4	
5	11	9	6	13	10	11	0	11	1	11	2	9	5	9	4	
3	13	6	9	13	0	13	1	13	2	13	5	13	4	
5	1	2	7	8	11	2	0	2	1	2	2	2	1	2	0	
2	8	11	8	0	8	1	8	2	11	3	11	4	
2	4	1	1	0	1	1	1	2	1	5	1	4	
3	14	8	9	8	0	8	1	8	2	8	5	8	4	
4	12	5	0	7	12	0	12	1	12	2	12	1	12	0	
2	5	0	0	0	0	1	0	2	0	1	0	0	
5	13	6	0	7	2	13	0	13	1	13	2	6	3	6	4	
4	0	5	3	4	0	0	0	1	0	2	0	1	0	0	
3	7	8	11	7	0	7	1	7	5	8	3	8	4	
4	6	0	5	3	6	0	6	1	6	2	6	3	6	4	
2	11	9	11	0	11	1	11	2	11	3	11	4	
3	10	12	5	12	0	12	1	12	2	12	5	12	4	
3	7	0	6	0	0	0	1	0	5	0	3	0	4	
5	12	5	0	7	14	12	0	12	1	12	2	12	1	12	0	
2	14	7	7	0	7	1	7	5	7	3	7	4	
4	13	6	9	11	13	0	13	1	13	2	13	5	13	4	
3	6	13	10	13	0	13	1	13	2	13	5	13	4	
3	13	12	5	13	0	13	1	13	2	13	5	13	4	
3	0	5	1	0	0	0	1	0	2	0	1	0	0	
5	3	5	0	6	9	3	0	3	1	3	2	3	3	3	4	
3	11	8	7	11	0	11	1	11	2	11	1	11	0	
3	1	5	0	1	0	1	1	1	2	1	3	1	4	
4	4	2	7	14	2	0	2	1	2	2	2	1	2	0	
5	5	0	6	9	11	0	0	0	1	0	2	0	5	0	4	
5	13	6	9	8	14	13	0	13	1	13	2	13	3	13	4	
3	0	7	8	0	0	0	1	0	2	0	1	0	0	
2	3	4	3	0	3	1	3	2	3	5	3	4	
4	11	8	7	2	11	0	11	1	11	2	11	1	11	0	
2	14	8	8	0	8	1	8	2	8	3	8	4	
5	2	1	5	12	10	2	0	1	1	1	5	1	3	1	4	
2	4	3	3	0	3	1	3	2	3	1	3	0	
3	12	5	1	12	0	12	1	12	2	12	3	12	4	
2	2	4	2	0	2	1	2	5	2	3	2	4	
4	5	0	7	14	0	0	0	1	0	2	0	3	0	4	
3	10	13	6	13	0	13	1	13	2	13	3	13	4	
3	13	6	0	13	0	13	1	13	5	6	3	6	4	
4	6	0	5	1	0	0	0	1	0	5	0	3	0	4	
4	8	7	2	4	8	0	8	1	8	5	7	3	7	4	
4	14	7	0	5	7	0	7	1	7	2	7	5	7	4	
5	8	9	6	13	10	8	0	8	1	8	5	8	3	8	4	
5	12	5	0	7	8	12	0	12	1	12	2	12	5	12	4	
3	5	0	7	0	0	0	1	0	2	0	5	0	4	
3	12	13	6	12	0	12	1	12	2	12	5	12	4	
2	5	1	1	0	1	1	1	2	1	5	1	4	
5	10	13	6	9	8	13	0	13	1	13	2	13	1	13	0	
3	0	5	3	0	0	0	1	0	2	0	3	0	4	
6	3	5	0	7	8	11	3	0	3	1	3	2	3	1	3	0	
4	4	2	7	8	2	0	2	1	2	2	2	5	2	4	
2	12	13	13	0	13	1	13	2	13	3	13	4	
2	7	8	7	0	7	1	7	5	8	3	8	4	
2	2	1	2	0	2	1	2	2	2	5	2	4	
4	9	6	13	10	9	0	6	1	6	2	6	5	6	4	
2	13	12	13	0	13	1	13	5	13	3	13	4	
2	10	13	13	0	13	1	13	2	13	1	13	0	
4	3	5	0	6	3	0	3	1	3	2	3	1	3	0	
4	9	6	13	12	9	0	9	1	9	2	9	5	9	4	
5	11	8	7	2	4	11	0	8	1	8	2	8	3	8	4	
2	8	11	8	0	8	1	11	5	11	3	11	4	
5	4	3	5	12	13	3	0	3	1	3	2	3	3	3	4	
5	9	6	0	5	3	6	0	6	1	6	2	6	3	6	4	
3	12	5	3	12	0	12	1	12	5	12	3	12	4	
2	5	12	12	0	12	1	12	5	12	3	12	4	
5	10	12	5	3	4	12	0	12	1	12	2	12	1	12	0	
4	1	5	12	13	1	0	1	1	1	2	1	5	1	4	
4	11	9	6	13	11	0	11	1	11	2	9	5	9	4	
5	8	9	6	13	12	8	0	8	1	8	2	8	3	8	4	
3	14	8	11	8	0	8	1	8	2	8	1	8	0	
5	2	7	0	6	13	2	0	2	1	2	2	7	5	7	4	
2	4	2	2	0	2	1	2	2	2	5	2	4	
3	9	6	13	6	0	6	1	6	2	6	1	6	0	
2	2	7	2	0	2	1	2	2	7	5	7	4	
4	13	12	5	1	13	0	13	1	13	2	12	3	12	4	
2	6	0	0	0	0	1	0	2	0	3	0	4	
2	11	8	11	0	8	1	8	2	8	3	8	4	
3	14	7	2	7	0	7	1	7	2	7	1	7	0	
4	6	0	7	2	0	0	0	1	0	5	0	3	0	4	
2	1	4	1	0	1	1	1	2	1	5	1	4	
3	7	2	1	7	0	2	1	2	2	2	1	2	0	
3	2	7	14	2	0	2	1	2	2	2	3	2	4	
2	9	8	8	0	8	1	8	2	8	1	8	0	
3	0	5	12	0	0	0	1	0	5	0	3	0	4	
3	5	1	2	1	0	1	1	1	5	1	3	1	4	
5	10	13	6	9	11	13	0	13	1	13	2	13	3	13	4	
3	0	7	2	0	0	0	1	0	5	0	3	0	4	
5	3	5	0	7	8	3	0	3	1	3	2	3	3	3	4	
3	8	7	0	7	0	7	1	7	2	7	3	7	4	
3	11	9	6	11	0	11	1	11	5	11	3	11	4	
3	3	5	12	3	0	3	1	3	5	3	3	3	4	
3	1	2	7	1	0	1	1	1	2	1	3	1	4	
3	7	2	4	2	0	2	1	2	2	2	1	2	0	
5	9	8	7	2	1	9	0	8	1	8	2	8	1	8	0	
3	2	7	0	7	0	7	1	7	2	7	1	7	0	
2	12	5	12	0	12	1	12	5	12	3	12	4	
5	10	12	5	1	2	12	0	12	1	12	2	12	5	12	4	
2	9	8	8	0	8	1	8	2	8	5	8	4	
2	10	12	12	0	12	1	12	2	12	5	12	4	
4	1	2	7	8	2	0	2	1	2	2	2	5	2	4	
4	3	5	0	7	3	0	3	1	3	2	3	5	3	4	
4	7	0	6	13	0	0	0	1	0	2	0	1	0	0	
2	8	14	8	0	8	1	8	2	8	1	8	0	
3	14	8	9	8	0	8	1	8	2	8	3	8	4	
5	1	2	7	8	9	2	0	2	1	2	2	2	5	2	4	
4	12	5	1	2	12	0	12	1	12	2	12	3	12	4	
3	2	1	5	2	0	2	1	2	2	2	1	2	0	
3	5	12	13	12	0	12	1	12	2	12	3	12	4	
5	10	13	6	0	7	13	0	13	1	13	2	13	3	13	4	
2	0	7	0	0	0	1	0	2	7	5	7	4	
5	11	9	6	13	10	11	0	11	1	11	5	11	3	11	4	
5	1	2	7	8	11	2	0	2	1	2	2	2	3	2	4	
2	8	11	8	0	8	1	8	2	8	1	8	0	
4	2	1	5	12	2	0	2	1	2	2	2	1	2	0	
2	4	1	1	0	1	1	1	5	1	3	1	4	
3	9	8	14	8	0	8	1	8	2	8	3	8	4	
5	9	8	7	2	4	9	0	9	1	8	5	8	3	8	4	
5	13	6	0	7	2	13	0	6	1	6	2	6	1	6	0	
4	0	5	3	4	0	0	0	1	0	2	0	3	0	4	
4	6	0	5	3	0	0	0	1	0	2	0	1	0	0	
3	8	7	2	8	0	8	1	8	2	8	1	8	0	
2	1	5	1	0	1	1	1	2	1	1	1	0	
3	7	0	6	7	0	7	1	7	2	7	3	7	4	
5	12	5	0	7	14	12	0	12	1	12	2	12	3	12	4	
4	13	6	9	11	13	0	13	1	13	2	13	1	13	0	
4	0	7	8	11	0	0	0	1	0	2	7	5	7	4	
3	6	13	10	13	0	13	1	13	2	13	1	13	0	
3	0	5	1	0	0	0	1	0	2	0	5	0	4	
2	7	0	0	0	0	1	0	2	0	5	0	4	
3	11	8	7	11	0	8	1	8	2	8	3	8	4	
3	1	5	0	1	0	1	1	1	2	1	1	1	0	
4	4	2	7	14	2	0	2	1	2	2	2	3	2	4	
4	9	8	7	2	9	0	9	1	9	2	8	3	8	4	
5	9	8	7	2	4	9	0	8	1	8	2	8	5	8	4	
3	2	4	3	2	0	2	1	2	2	2	3	2	4	
5	8	7	2	4	3	7	0	7	1	7	5	7	3	7	4	
5	5	0	6	9	11	0	0	0	1	0	2	0	1	0	0	
5	13	6	9	8	14	6	0	6	1	6	2	6	1	6	0	
3	0	7	8	7	0	7	1	7	2	7	3	7	4	
4	2	1	5	12	2	0	2	1	2	5	2	3	2	4	
5	1	2	7	8	9	2	0	2	1	2	2	2	1	2	0	
3	6	0	7	6	0	6	1	6	5	6	3	6	4	
4	8	9	6	13	8	0	8	1	8	2	8	3	8	4	
2	14	8	8	0	8	1	8	5	8	3	8	4	
5	2	1	5	12	10	2	0	2	1	2	2	1	5	1	4	
3	12	5	1	12	0	12	1	12	2	12	1	12	0	
2	2	4	2	0	2	1	2	2	2	5	2	4	
4	5	0	7	14	0	0	0	1	0	2	0	1	0	0	
3	13	6	0	13	0	6	1	6	2	6	3	6	4	
2	0	6	0	0	0	1	0	2	0	1	0	0	
6	11	9	6	0	5	3	9	0	9	1	9	2	9	5	9	4	
4	6	0	5	1	6	0	6	1	6	2	0	3	0	4	
4	8	7	2	4	7	0	7	1	7	2	7	5	7	4	
2	8	9	8	0	8	1	8	5	8	3	8	4	
5	8	9	6	13	10	9	0	9	1	9	2	9	5	9	4	
5	12	13	6	9	8	12	0	13	1	13	2	13	1	13	0	
3	5	0	7	0	0	0	1	0	2	0	1	0	0	
5	10	13	6	9	8	13	0	13	1	13	2	13	3	13	4	
3	0	5	3	0	0	0	1	0	2	0	1	0	0	
6	3	5	0	7	8	11	3	0	3	1	3	2	3	3	3	4	
4	8	7	2	1	8	0	8	1	8	2	7	3	7	4	
2	12	10	12	0	12	1	12	2	12	5	12	4	
4	1	5	0	6	1	0	1	1	1	2	1	3	1	4	
2	6	9	6	0	6	1	6	5	6	3	6	4	
4	4	2	7	8	2	0	2	1	2	2	2	1	2	0	
2	12	13	12	0	13	1	13	2	13	1	13	0	
2	2	1	2	0	2	1	2	5	1	3	1	4	
4	9	6	13	10	6	0	6	1	6	5	6	3	6	4	
2	13	12	13	0	13	1	13	2	13	3	13	4	
4	0	6	13	10	0	0	0	1	0	2	0	1	0	0	
5	13	12	5	1	2	12	0	12	1	12	5	12	3	12	4	
3	6	13	12	13	0	13	1	13	5	13	3	13	4	
5	11	8	7	2	4	11	0	11	1	11	2	11	1	11	0	
5	4	3	5	12	13	3	0	3	1	3	2	3	1	3	0	
3	12	5	3	12	0	12	1	12	2	12	3	12	4	
2	5	12	12	0	12	1	12	2	12	3	12	4	
5	10	12	5	3	4	12	0	12	1	12	2	12	3	12	4	
4	6	0	5	3	6	0	6	1	6	5	6	3	6	4	
4	11	9	6	13	9	0	9	1	9	2	9	1	9	0	
4	1	5	12	10	1	0	1	1	1	2	1	3	1	4	
2	7	2	2	0	2	1	2	2	2	5	2	4	
3	14	8	11	8	0	8	1	8	2	8	5	8	4	
5	2	7	0	6	13	2	0	2	1	2	5	2	3	2	4	
3	9	6	13	9	0	9	1	9	2	6	3	6	4	
4	13	6	0	7	13	0	13	1	13	5	13	3	13	4	
2	2	7	2	0	2	1	2	5	7	3	7	4	
4	7	0	5	12	0	0	0	1	0	5	0	3	0	4	
4	6	0	7	14	0	0	0	1	0	5	0	3	0	4	
4	8	7	0	5	8	0	8	1	7	5	7	3	7	4	
4	13	12	5	1	13	0	13	1	13	5	13	3	13	4	
2	0	5	0	0	0	1	0	2	0	3	0	4	
4	3	5	12	13	3	0	3	1	3	2	3	1	3	0	
2	11	8	11	0	11	1	11	2	11	1	11	0	
3	14	7	2	7	0	7	1	7	2	7	3	7	4	
2	1	4	1	0	1	1	1	5	1	3	1	4	
3	7	2	1	7	0	7	1	7	2	7	3	7	4	
2	7	0	7	0	7	1	7	5	0	3	0	4	
3	0	5	12	0	0	0	1	0	2	0	5	0	4	
3	7	8	11	7	0	7	1	7	2	7	5	7	4	
5	12	5	0	7	14	12	0	12	1	12	2	12	5	12	4	
5	10	13	6	9	11	13	0	13	1	13	2	13	1	13	0	
3	0	7	2	7	0	7	1	7	2	7	5	7	4	
5	3	5	0	7	8	3	0	3	1	3	2	3	1	3	0	
2	7	14	7	0	7	1	7	2	7	5	7	4	
3	11	9	6	11	0	11	1	11	2	11	3	11	4	
5	14	7	0	5	12	7	0	7	1	7	2	7	1	7	0	
3	7	2	4	7	0	7	1	7	2	7	5	7	4	
5	9	8	7	2	1	9	0	9	1	9	2	8	3	8	4	
2	13	6	13	0	13	1	13	5	6	3	6	4	
3	2	7	0	2	0	2	1	2	2	2	3	2	4	
4	4	3	5	12	3	0	3	1	3	2	3	5	3	4	
5	10	12	5	1	2	12	0	12	1	12	2	12	1	12	0	
3	6	9	8	6	0	6	1	6	5	6	3	6	4	
3	0	6	9	0	0	0	1	0	2	0	3	0	4	
3	3	5	1	3	0	3	1	3	2	3	1	3	0	
3	6	0	5	0	0	0	1	0	2	0	5	0	4	
3	7	0	5	7	0	0	1	0	5	0	3	0	4	
4	7	0	6	13	7	0	0	1	0	2	0	3	0	4	
2	8	14	8	0	8	1	8	2	8	3	8	4	
4	12	5	3	4	12	0	12	1	12	5	12	3	12	4	
3	14	8	9	8	0	8	1	8	2	8	1	8	0	
2	5	3	3	0	3	1	3	5	3	3	3	4	
4	12	5	1	2	12	0	12	1	12	5	12	3	12	4	
3	5	12	13	12	0	12	1	12	5	12	3	12	4	
5	10	13	6	0	7	13	0	13	1	13	2	13	1	13	0	
2	0	7	7	0	7	1	7	5	7	3	7	4	
5	11	9	6	13	10	11	0	11	1	11	2	11	3	11	4	
3	14	7	0	7	0	7	1	7	2	7	1	7	0	
4	7	0	5	3	0	0	0	1	0	2	0	1	0	0	
4	2	1	5	12	2	0	2	1	2	2	2	3	2	4	
4	8	7	2	1	8	0	8	1	8	5	8	3	8	4	
3	9	8	14	9	0	9	1	9	2	9	1	9	0	
4	13	6	9	8	13	0	13	1	13	2	6	5	6	4	
2	5	0	0	0	0	1	0	5	0	3	0	4	
2	6	9	6	0	9	1	9	2	9	5	9	4	
4	10	13	6	9	13	0	13	1	13	2	13	3	13	4	
4	3	5	12	10	3	0	3	1	3	2	3	3	3	4	
3	8	7	2	8	0	8	1	8	2	8	3	8	4	
2	1	5	1	0	1	1	1	2	1	3	1	4	
3	7	0	6	7	0	7	1	7	2	7	1	7	0	
3	9	8	7	8	0	8	1	8	2	8	1	8	0	
4	1	5	0	6	1	0	1	1	1	5	1	3	1	4	
4	5	0	7	8	0	0	0	1	0	2	0	5	0	4	
4	13	6	9	11	13	0	13	1	13	2	13	3	13	4	
4	0	6	9	11	0	0	0	1	0	5	0	3	0	4	
3	6	13	10	6	0	6	1	6	2	6	3	6	4	
5	11	8	7	2	1	11	0	11	1	11	5	11	3	11	4	
3	6	9	8	6	0	6	1	6	2	6	5	6	4	
4	4	2	7	0	2	0	2	1	2	5	2	3	2	4	
2	13	10	13	0	13	1	13	5	13	3	13	4	
3	11	8	7	11	0	11	1	8	5	8	3	8	4	
4	4	2	7	14	2	0	2	1	2	5	2	3	2	4	
4	9	8	7	2	8	0	8	1	8	2	8	1	8	0	
3	2	4	3	2	0	2	1	2	2	2	1	2	0	
5	5	0	6	9	11	0	0	0	1	0	2	0	3	0	4	
3	10	12	5	12	0	12	1	12	2	12	3	12	4	
5	6	0	5	3	4	0	0	0	1	0	2	0	1	0	0	
5	1	5	0	6	9	1	0	1	1	1	2	1	3	1	4	
3	6	9	11	6	0	6	1	6	5	6	3	6	4	
4	8	9	6	13	9	0	9	1	9	2	9	1	9	0	
5	12	13	6	9	11	12	0	13	1	13	2	13	5	13	4	
2	14	8	8	0	8	1	8	2	8	5	8	4	
5	2	1	5	12	10	2	0	2	1	2	2	2	1	2	0	
3	5	3	4	3	0	3	1	3	2	3	5	3	4	
4	9	6	13	12	9	0	6	1	6	2	6	3	6	4	
4	1	2	7	8	1	0	1	1	1	5	1	3	1	4	
4	5	0	7	14	0	0	0	1	0	2	0	5	0	4	
3	13	6	0	13	0	13	1	13	2	13	1	13	0	
2	0	6	0	0	0	1	0	2	6	3	6	4	
4	6	0	5	1	0	0	0	1	0	2	0	1	0	0	
4	8	7	2	4	8	0	8	1	8	2	8	1	8	0	
5	14	7	2	4	3	7	0	7	1	7	2	7	3	7	4	
2	7	0	7	0	7	1	7	2	7	3	7	4	
5	12	13	6	9	8	12	0	12	1	12	2	12	3	12	4	
4	1	5	12	13	1	0	1	1	1	5	1	3	1	4	
3	5	0	7	0	0	0	1	0	2	0	3	0	4	
3	13	6	9	13	0	13	1	13	2	13	1	13	0	
3	6	9	8	9	0	9	1	9	2	9	1	9	0	
4	3	5	12	13	3	0	3	1	3	2	3	5	3	4	
6	3	5	0	7	8	11	3	0	3	1	3	5	3	3	3	4	
4	8	7	2	1	7	0	7	1	7	2	7	1	7	0	
2	1	2	1	0	2	1	2	5	2	3	2	4	
4	1	5	0	6	1	0	1	1	1	2	1	1	1	0	
4	4	2	7	8	2	0	2	1	2	2	2	3	2	4	
3	9	6	0	9	0	6	1	6	2	6	3	6	4	
2	2	1	2	0	2	1	2	2	1	3	1	4	
4	5	0	6	9	0	0	0	1	0	2	0	1	0	0	
2	13	12	13	0	13	1	13	2	13	1	13	0	
4	0	6	13	10	0	0	0	1	0	2	6	3	6	4	
5	13	6	9	8	14	6	0	6	1	6	5	6	3	6	4	
3	11	8	14	8	0	8	1	8	2	8	5	8	4	
4	7	0	5	12	7	0	7	1	7	2	7	3	7	4	
5	11	8	7	2	4	11	0	11	1	11	2	11	5	11	4	
5	4	3	5	12	13	3	0	3	1	3	2	3	5	3	4	
3	12	5	3	12	0	12	1	12	2	12	1	12	0	
2	5	12	12	0	12	1	12	2	12	1	12	0	
5	10	12	5	3	4	12	0	12	1	12	5	12	3	12	4	
4	7	0	5	12	7	0	7	1	7	2	7	5	7	4	
3	6	0	7	0	0	0	1	0	2	0	3	0	4	
4	11	9	6	13	11	0	11	1	11	2	11	3	11	4	
4	1	5	12	10	1	0	1	1	1	2	1	1	1	0	
2	7	2	7	0	2	1	2	5	2	3	2	4	
2	12	10	12	0	12	1	12	2	12	1	12	0	
3	14	8	11	8	0	8	1	8	5	8	3	8	4	
5	2	7	0	6	13	2	0	2	1	2	2	2	3	2	4	
3	9	6	13	6	0	6	1	6	5	6	3	6	4	
4	13	6	0	7	13	0	13	1	13	2	6	5	6	4	
4	6	0	7	14	0	0	0	1	0	2	0	5	0	4	
4	13	12	5	1	12	0	12	1	12	2	12	5	12	4	
2	0	5	0	0	0	1	0	2	0	1	0	0	
4	3	5	12	13	3	0	3	1	3	2	3	3	3	4	
5	8	7	2	4	3	7	0	7	1	7	2	7	3	7	4	
5	1	2	7	8	9	2	0	2	1	2	5	2	3	2	4	
2	1	4	1	0	1	1	1	2	1	3	1	4	
5	4	3	5	12	10	3	0	3	1	3	2	3	1	3	0	
2	13	10	13	0	13	1	13	2	13	3	13	4	
3	0	5	12	0	0	0	1	0	2	0	1	0	0	
3	6	9	11	6	0	6	1	6	2	6	3	6	4	
4	1	2	7	14	1	0	1	1	1	5	2	3	2	4	
5	10	13	6	9	11	13	0	13	1	13	2	13	5	13	4	
5	3	5	0	7	8	3	0	3	1	3	2	3	5	3	4	
2	7	14	7	0	7	1	7	5	7	3	7	4	
3	11	9	6	11	0	9	1	9	2	9	1	9	0	
5	14	7	0	5	12	7	0	7	1	7	2	7	3	7	4	
4	2	7	0	6	2	0	7	1	7	5	7	3	7	4	
3	7	2	4	7	0	7	1	7	5	2	3	2	4	
5	9	8	7	2	1	9	0	8	1	8	5	8	3	8	4	
3	2	7	0	2	0	2	1	2	5	7	3	7	4	
3	5	12	10	12	0	12	1	12	2	12	3	12	4	
5	10	12	5	1	2	12	0	12	1	12	2	12	3	12	4	
3	0	6	9	0	0	0	1	0	2	0	1	0	0	
3	3	5	1	3	0	3	1	3	2	3	3	3	4	
3	6	0	5	6	0	6	1	6	5	0	3	0	4	
4	1	2	7	8	2	0	2	1	2	2	2	3	2	4	
5	4	2	7	0	6	2	0	2	1	2	2	2	1	2	0	
2	8	14	8	0	8	1	8	5	8	3	8	4	
4	12	5	3	4	12	0	12	1	12	2	12	5	12	4	
3	5	3	4	3	0	3	1	3	5	3	3	3	4	
2	5	3	3	0	3	1	3	2	3	5	3	4	
4	12	5	1	2	12	0	12	1	12	2	12	5	12	4	
3	5	12	13	12	0	12	1	12	2	12	5	12	4	
5	10	13	6	0	7	13	0	13	1	13	2	13	5	13	4	
3	12	5	1	12	0	12	1	12	5	12	3	12	4	
2	0	7	0	0	0	1	0	2	7	3	7	4	
5	11	9	6	13	10	11	0	11	1	11	2	11	1	11	0	
3	14	7	0	7	0	7	1	7	2	7	3	7	4	
4	7	0	5	3	0	0	0	1	0	2	0	3	0	4	
4	12	13	6	9	12	0	12	1	12	2	12	3	12	4	
3	9	6	0	9	0	9	1	9	2	6	5	6	4	
3	5	0	6	0	0	0	1	0	2	0	3	0	4	
3	9	8	14	8	0	8	1	8	2	8	5	8	4	
4	13	6	9	8	13	0	13	1	13	5	13	3	13	4	
3	6	0	7	0	0	0	1	0	2	0	5	0	4	
4	10	13	6	9	13	0	13	1	13	2	13	1	13	0	
3	1	5	3	1	0	1	1	1	5	1	3	1	4	
4	3	5	12	10	3	0	3	1	3	2	3	1	3	0	
3	8	7	2	8	0	8	1	8	5	7	3	7	4	
2	1	5	1	0	1	1	1	5	1	3	1	4	
5	4	2	7	8	9	2	0	2	1	2	2	2	3	2	4	
3	9	8	7	9	0	9	1	9	2	8	3	8	4	
2	9	11	11	0	11	1	11	5	11	3	11	4	
4	1	5	12	10	1	0	1	1	1	5	1	3	1	4	
4	5	0	7	8	0	0	0	1	0	5	0	3	0	4	
4	10	13	6	0	13	0	13	1	13	2	13	1	13	0	
4	0	6	9	11	0	0	6	1	6	2	6	3	6	4	
2	8	9	9	0	9	1	9	2	9	5	9	4	
5	11	8	7	2	1	11	0	11	1	11	2	8	5	8	4	
4	4	2	7	0	2	0	2	1	2	2	2	5	2	4	
2	10	13	13	0	13	1	13	5	13	3	13	4	
3	11	8	7	11	0	8	1	8	2	8	5	8	4	
4	2	7	8	9	2	0	2	1	2	2	7	5	7	4	
4	4	2	7	14	2	0	2	1	2	2	2	5	2	4	
4	9	8	7	2	9	0	9	1	9	2	8	5	8	4	
3	2	4	3	2	0	2	1	2	2	2	5	2	4	
3	10	12	5	12	0	12	1	12	2	12	1	12	0	
2	12	10	12	0	12	1	12	5	12	3	12	4	
5	6	0	5	1	4	6	0	6	1	6	2	0	3	0	4	
5	11	9	6	13	12	11	0	11	1	11	2	11	3	11	4	
5	4	2	7	8	11	2	0	2	1	2	2	2	5	2	4	
4	14	8	9	6	8	0	8	1	8	2	8	1	8	0	
3	4	3	5	3	0	3	1	3	2	3	3	3	4	
4	8	9	6	13	8	0	8	1	8	2	9	5	9	4	
5	12	13	6	9	11	12	0	13	1	13	5	13	3	13	4	
5	2	1	5	12	10	2	0	2	1	2	2	2	3	2	4	
5	13	6	0	7	2	13	0	13	1	13	2	13	5	13	4	
4	9	6	13	12	9	0	9	1	9	2	9	1	9	0	
5	3	5	0	6	9	3	0	3	1	3	2	3	5	3	4	
2	0	6	0	0	6	1	6	5	6	3	6	4	
3	3	5	12	3	0	3	1	3	2	3	3	3	4	
4	8	7	2	4	7	0	7	1	7	2	7	3	7	4	
5	14	7	2	4	3	7	0	7	1	7	2	7	1	7	0	
3	7	2	1	7	0	2	1	2	2	2	5	2	4	
2	7	0	7	0	7	1	7	2	7	1	7	0	
4	9	6	0	5	6	0	6	1	6	2	6	1	6	0	
5	4	2	7	8	11	2	0	2	1	2	5	2	3	2	4	
4	6	0	5	3	0	0	0	1	0	2	0	5	0	4	
3	13	6	9	13	0	13	1	13	2	13	3	13	4	
3	6	9	8	6	0	6	1	6	2	6	3	6	4	
5	10	13	6	9	8	13	0	13	1	13	2	13	5	13	4	
3	1	5	12	1	0	1	1	1	2	1	5	1	4	
6	3	5	0	7	8	11	3	0	3	1	3	2	3	5	3	4	
3	7	8	9	7	0	8	1	8	2	8	1	8	0	
5	14	8	9	6	13	8	0	8	1	8	2	8	3	8	4	
3	9	6	0	9	0	9	1	9	2	9	1	9	0	
4	8	7	0	5	7	0	7	1	7	2	7	5	7	4	
3	0	5	3	0	0	0	1	0	5	0	3	0	4	
2	2	1	2	0	2	1	2	2	2	1	2	0	
2	8	11	8	0	8	1	8	2	11	5	11	4	
4	5	0	6	9	0	0	0	1	0	2	0	3	0	4	
4	10	12	5	3	12	0	12	1	12	2	12	3	12	4	
4	0	6	13	10	0	0	0	1	0	5	6	3	6	4	
3	3	5	0	3	0	3	1	3	2	3	3	3	4	
3	11	8	14	11	0	11	1	11	5	11	3	11	4	
4	7	0	5	12	7	0	0	1	0	2	0	1	0	0	
5	11	8	7	2	4	11	0	11	1	11	5	11	3	11	4	
3	2	7	8	2	0	2	1	2	2	2	1	2	0	
6	10	13	6	9	8	14	13	0	13	1	13	2	13	5	13	4	
5	12	5	0	7	14	12	0	12	1	12	5	12	3	12	4	
5	10	12	5	3	4	12	0	12	1	12	2	12	5	12	4	
3	5	0	6	0	0	0	1	0	5	0	3	0	4	
3	6	0	7	6	0	6	1	6	2	6	1	6	0	
3	8	9	6	9	0	9	1	9	2	9	1	9	0	
4	14	7	2	1	7	0	7	1	7	2	7	3	7	4	
2	13	6	13	0	13	1	13	2	6	5	6	4	
4	12	13	6	9	13	0	13	1	13	5	13	3	13	4	
2	7	2	7	0	7	1	7	2	7	3	7	4	
2	12	10	12	0	12	1	12	2	12	3	12	4	
5	2	1	5	12	13	2	0	1	1	1	2	1	1	1	0	
4	14	7	2	1	7	0	7	1	7	2	7	5	7	4	
3	9	6	13	9	0	9	1	9	2	6	5	6	4	
4	13	6	0	7	13	0	13	1	13	2	13	1	13	0	
4	6	0	7	14	0	0	0	1	0	2	0	1	0	0	
2	0	5	0	0	0	1	0	2	0	5	0	4	
5	8	7	0	5	3	8	0	7	1	7	2	7	1	7	0	
2	1	4	1	0	1	1	1	2	1	1	1	0	
5	4	3	5	12	10	3	0	3	1	3	2	3	3	3	4	
2	9	6	9	0	9	1	9	2	6	3	6	4	
6	14	7	0	5	12	10	7	0	7	1	7	5	7	3	7	4	
2	13	10	13	0	13	1	13	2	13	1	13	0	
3	0	5	12	0	0	0	1	0	2	0	3	0	4	
3	6	9	11	6	0	6	1	6	2	6	1	6	0	
5	10	13	6	9	11	13	0	13	1	13	5	13	3	13	4	
4	1	5	12	13	1	0	1	1	1	2	1	1	1	0	
5	3	5	0	7	8	3	0	3	1	3	5	3	3	3	4	
2	7	14	7	0	7	1	7	2	7	3	7	4	
4	8	7	2	1	8	0	8	1	8	2	7	5	7	4	
5	14	7	0	5	12	7	0	7	1	7	5	7	3	7	4	
4	2	7	0	6	7	0	7	1	7	2	7	5	7	4	
5	9	6	0	5	1	6	0	6	1	6	2	6	5	6	4	
3	2	7	0	2	0	2	1	2	2	7	5	7	4	
3	5	12	10	12	0	12	1	12	2	12	1	12	0	
3	0	6	9	0	0	0	1	0	2	0	5	0	4	
3	6	0	5	6	0	6	1	6	2	0	3	0	4	
4	1	2	7	8	1	0	2	1	2	2	2	1	2	0	
5	4	2	7	0	6	2	0	2	1	2	2	2	3	2	4	
2	8	14	8	0	8	1	8	2	8	5	8	4	
4	12	5	3	4	12	0	12	1	12	2	12	1	12	0	
4	2	7	8	11	2	0	2	1	2	2	7	3	7	4	
2	5	3	3	0	3	1	3	2	3	1	3	0	
5	10	13	6	0	7	13	0	13	1	13	5	13	3	13	4	
2	13	10	13	0	13	1	13	2	13	5	13	4	
2	0	7	0	0	0	1	0	2	0	1	0	0	
4	8	7	0	5	8	0	8	1	8	2	7	3	7	4	
3	3	5	1	3	0	3	1	3	2	3	5	3	4	
3	14	7	0	7	0	7	1	7	5	7	3	7	4	
4	7	0	5	3	0	0	0	1	0	5	0	3	0	4	
4	12	13	6	9	13	0	13	1	13	2	13	1	13	0	
4	2	1	5	12	2	0	2	1	2	2	1	5	1	4	
3	5	0	6	0	0	0	1	0	2	0	1	0	0	
3	9	8	14	9	0	8	1	8	5	8	3	8	4	
4	13	6	9	8	13	0	13	1	13	2	6	3	6	4	
3	0	7	14	0	0	0	1	0	2	0	1	0	0	
2	4	3	3	0	3	1	3	5	3	3	3	4	
2	6	9	6	0	6	1	6	2	6	3	6	4	
3	6	9	11	6	0	6	1	6	2	6	5	6	4	
3	1	5	3	1	0	1	1	1	2	1	5	1	4	
3	8	7	2	7	0	7	1	7	2	7	5	7	4	
2	1	5	1	0	1	1	1	2	1	5	1	4	
5	4	2	7	8	9	2	0	2	1	2	2	2	1	2	0	
4	5	0	7	8	0	0	0	1	0	2	0	3	0	4	
4	10	13	6	0	13	0	13	1	13	2	13	3	13	4	
4	0	7	8	11	0	0	0	1	0	2	0	1	7	0	
5	11	8	7	2	1	11	0	8	1	8	2	8	1	8	0	
4	1	2	7	14	1	0	2	1	2	2	2	3	2	4	
6	14	7	0	6	13	10	7	0	7	1	7	2	7	5	7	4	
4	4	2	7	0	2	0	2	1	2	2	2	1	2	0	
4	2	7	8	9	7	0	7	1	7	5	7	3	7	4	
4	9	8	7	2	9	0	9	1	8	5	8	3	8	4	
4	13	12	5	3	13	0	13	1	13	5	12	3	12	4	
3	2	4	3	2	0	2	1	2	5	2	3	2	4	
2	6	0	0	0	0	1	0	5	0	3	0	4	
2	1	2	1	0	2	1	2	2	2	5	2	4	
5	6	0	5	3	4	0	0	0	1	0	5	0	3	0	4	
5	11	9	6	13	12	9	0	9	1	9	2	9	1	9	0	
4	14	8	9	6	8	0	8	1	8	2	8	3	8	4	
3	4	3	5	3	0	3	1	3	2	3	1	3	0	
4	8	9	6	13	8	0	8	1	8	5	8	3	8	4	
5	12	13	6	9	11	12	0	13	1	13	2	13	3	13	4	
3	5	3	4	3	0	3	1	3	2	3	3	3	4	
5	13	6	0	7	14	13	0	6	1	6	2	6	5	6	4	
2	0	6	0	0	6	1	6	2	6	5	6	4	
3	3	5	12	3	0	3	1	3	2	3	1	3	0	
5	7	0	6	13	10	0	0	0	1	0	2	0	5	0	4	
5	14	7	2	4	3	7	0	7	1	7	2	7	5	7	4	
6	11	8	7	2	4	3	11	0	11	1	11	5	11	3	11	4	
5	4	2	7	8	11	2	0	2	1	2	2	2	3	2	4	
4	9	6	0	5	9	0	6	1	6	2	6	3	6	4	
3	4	2	7	2	0	2	1	2	5	2	3	2	4	
6	10	13	6	9	8	14	13	0	13	1	13	2	13	1	13	0	
3	0	6	13	0	0	6	1	6	2	6	3	6	4	
2	3	5	3	0	3	1	3	2	3	1	3	0	
3	1	5	12	1	0	1	1	1	5	1	3	1	4	
3	7	8	9	7	0	7	1	7	2	8	3	8	4	
3	12	5	0	12	0	12	1	12	5	12	3	12	4	
5	14	8	9	6	13	8	0	8	1	8	2	8	1	8	0	
4	5	0	6	9	0	0	0	1	0	5	0	3	0	4	
4	10	12	5	3	12	0	12	1	12	2	12	1	12	0	
4	14	8	9	6	8	0	8	1	8	2	8	5	8	4	
3	3	5	0	3	0	3	1	3	2	3	1	3	0	
5	4	3	5	12	13	3	0	3	1	3	5	3	3	3	4	
3	11	8	14	11	0	11	1	11	2	8	3	8	4	
4	14	7	2	4	7	0	7	1	7	2	7	1	7	0	
3	4	2	7	2	0	2	1	2	2	2	3	2	4	
3	2	7	8	2	0	2	1	7	2	7	3	7	4	
4	1	2	7	14	1	0	1	1	1	2	1	5	1	4	
5	13	12	5	3	4	13	0	13	1	13	2	13	5	13	4	
2	6	13	6	0	6	1	6	2	6	5	6	4	
5	3	5	0	7	14	3	0	3	1	3	2	3	3	3	4	
3	8	9	6	8	0	8	1	8	2	8	3	8	4	
4	14	7	2	1	7	0	7	1	7	2	7	1	7	0	
2	7	2	2	0	2	1	2	2	2	1	2	0	
2	9	11	9	0	9	1	9	2	9	1	9	0	
4	13	6	0	7	13	0	13	1	6	2	6	3	6	4	
4	6	9	8	14	6	0	6	1	6	2	6	3	6	4	
5	11	9	6	0	5	11	0	11	1	11	5	11	3	11	4	
2	0	5	0	0	0	1	0	5	0	3	0	4	
3	7	8	11	8	0	8	1	8	2	8	1	8	0	
5	4	3	5	12	10	3	0	3	1	3	5	3	3	3	4	
2	9	6	6	0	6	1	6	2	6	1	6	0	
3	12	5	1	12	0	12	1	12	2	12	5	12	4	
4	11	8	7	0	11	0	8	1	8	5	8	3	8	4	
4	10	12	5	1	12	0	12	1	12	2	12	3	12	4	
4	3	5	12	13	3	0	3	1	3	5	3	3	3	4	
3	3	4	2	3	0	3	1	3	2	3	3	3	4	
4	1	5	12	13	1	0	1	1	1	2	1	3	1	4	
2	7	14	7	0	7	1	7	2	7	1	7	0	
4	12	5	0	7	12	0	12	1	12	2	12	5	12	4	
5	14	7	0	5	12	7	0	7	1	7	2	7	5	7	4	
4	2	7	0	6	2	0	2	1	2	2	2	1	2	0	
2	5	0	0	0	0	1	0	2	0	5	0	4	
5	3	5	0	7	14	3	0	3	1	3	5	3	3	3	4	
3	5	12	10	12	0	12	1	12	2	12	5	12	4	
2	11	9	11	0	11	1	11	5	11	3	11	4	
3	0	6	9	0	0	0	1	0	5	0	3	0	4	
3	6	0	5	0	0	0	1	0	2	0	1	0	0	
2	14	7	7	0	7	1	7	2	7	3	7	4	
5	4	2	7	0	6	2	0	2	1	2	5	2	3	2	4	
4	1	5	12	10	1	0	1	1	1	2	1	5	1	4	
4	12	5	3	4	12	0	12	1	12	2	12	3	12	4	
4	2	7	8	11	2	0	2	1	2	2	2	1	2	0	
2	5	3	3	0	3	1	3	2	3	3	3	4	
3	13	12	5	13	0	13	1	13	2	13	1	13	0	
3	6	13	12	6	0	6	1	6	2	6	1	6	0	
4	14	7	2	4	7	0	7	1	7	2	7	5	7	4	
4	8	7	0	5	7	0	7	1	7	2	7	1	7	0	
3	14	7	0	7	0	7	1	7	2	7	5	7	4	
4	7	0	5	3	7	0	7	1	7	2	7	5	7	4	
5	9	8	7	2	4	9	0	8	1	8	2	8	3	8	4	
2	9	11	9	0	9	1	9	2	9	5	9	4	
3	5	0	6	0	0	0	1	0	2	0	5	0	4	
4	13	6	9	8	13	0	13	1	13	2	13	1	13	0	
3	0	7	14	0	0	0	1	0	2	0	3	0	4	
2	6	9	9	0	9	1	9	2	9	1	9	0	
4	11	8	7	2	11	0	11	1	11	2	11	5	11	4	
3	1	5	3	1	0	1	1	1	2	1	1	1	0	
2	7	8	7	0	7	1	7	2	7	3	7	4	
4	10	13	6	9	13	0	13	1	13	5	13	3	13	4	
2	12	5	12	0	12	1	12	2	12	5	12	4	
5	11	9	6	13	12	11	0	11	1	11	5	11	3	11	4	
5	4	2	7	8	9	2	0	2	1	2	2	2	5	2	4	
5	3	5	0	6	9	3	0	3	1	3	5	3	3	3	4	
3	10	13	6	13	0	13	1	13	5	13	3	13	4	
4	5	0	7	8	0	0	0	1	0	2	0	1	0	0	
4	10	13	6	0	13	0	13	1	13	5	13	3	13	4	
5	11	8	7	2	1	11	0	11	1	11	2	8	3	8	4	
4	1	2	7	14	2	0	2	1	2	2	2	1	2	0	
4	4	2	7	0	2	0	2	1	2	2	2	3	2	4	
3	12	13	6	12	0	12	1	12	2	12	1	12	0	
4	2	7	8	9	2	0	2	1	2	2	7	3	7	4	
2	5	1	1	0	1	1	1	2	1	1	1	0	
4	13	12	5	3	13	0	13	1	13	2	13	5	13	4	
4	6	0	7	2	6	0	6	1	6	2	6	5	6	4	
5	6	0	5	1	4	6	0	6	1	6	2	0	5	0	4	
2	8	7	8	0	8	1	8	2	7	3	7	4	
3	7	0	5	7	0	7	1	7	2	7	5	7	4	
3	4	1	5	1	0	1	1	1	2	1	5	1	4	
5	12	13	6	9	11	13	0	13	1	13	2	13	1	13	0	
3	5	3	4	3	0	3	1	3	2	3	1	3	0	
6	10	13	6	9	8	14	13	0	13	1	13	5	13	3	13	4	
2	13	6	13	0	13	1	6	2	6	3	6	4	
3	0	5	1	0	0	0	1	0	5	0	3	0	4	
4	3	5	0	6	3	0	3	1	3	2	3	5	3	4	
3	3	5	12	3	0	3	1	3	2	3	5	3	4	
5	7	0	6	13	10	7	0	0	1	0	5	0	3	0	4	
5	9	6	0	5	3	9	0	9	1	6	5	6	3	6	4	
3	9	8	7	9	0	8	1	8	2	8	5	8	4	
5	4	2	7	8	11	2	0	2	1	2	2	2	1	2	0	
4	9	6	0	5	6	0	6	1	6	5	6	3	6	4	
6	10	13	6	9	8	14	13	0	13	1	13	2	13	3	13	4	
3	0	6	13	0	0	0	1	0	2	0	1	0	0	
2	3	5	3	0	3	1	3	2	3	3	3	4	
4	12	13	6	9	12	0	12	1	12	2	13	5	13	4	
6	11	8	7	2	4	3	11	0	8	1	8	2	8	1	8	0	
2	11	8	11	0	11	1	11	5	11	3	11	4	
3	1	5	12	1	0	1	1	1	2	1	3	1	4	
2	3	5	3	0	3	1	3	5	3	3	3	4	
2	4	2	2	0	2	1	2	2	2	1	2	0	
3	12	5	0	12	0	12	1	12	2	12	5	12	4	
5	10	13	6	9	8	13	0	13	1	13	5	13	3	13	4	
4	5	0	6	9	0	0	0	1	0	2	0	5	0	4	
4	10	12	5	3	12	0	12	1	12	2	12	5	12	4	
3	3	5	0	3	0	3	1	3	2	3	5	3	4	
3	11	8	14	11	0	8	1	8	2	8	1	8	0	
4	14	7	2	4	7	0	7	1	7	2	7	3	7	4	
3	2	7	14	2	0	2	1	2	5	7	3	7	4	
3	4	2	7	2	0	2	1	2	2	2	1	2	0	
2	12	5	12	0	12	1	12	2	12	3	12	4	
3	2	7	8	2	0	2	1	2	5	7	3	7	4	
3	5	1	2	1	0	1	1	1	2	1	3	1	4	
5	13	12	5	3	4	13	0	13	1	13	5	13	3	13	4	
2	6	13	6	0	6	1	6	5	6	3	6	4	
3	8	7	0	8	0	8	1	8	5	8	3	8	4	
3	7	8	9	7	0	7	1	7	2	7	5	7	4	
3	1	2	7	1	0	2	1	2	5	2	3	2	4	
5	3	5	0	7	14	3	0	3	1	3	2	3	1	3	0	
3	8	9	6	8	0	8	1	8	5	8	3	8	4	
2	9	11	11	0	11	1	11	2	11	3	11	4	
2	10	12	12	0	12	1	12	2	12	1	12	0	
4	3	5	0	7	3	0	3	1	3	2	3	1	3	0	
5	14	8	9	6	13	8	0	8	1	8	5	8	3	8	4	
5	11	8	7	0	5	11	0	11	1	11	2	8	5	8	4	
3	7	8	11	7	0	7	1	8	2	8	3	8	4	
3	2	1	5	2	0	2	1	2	2	1	5	1	4	
5	4	3	5	12	10	3	0	3	1	3	2	3	5	3	4	
2	9	6	9	0	6	1	6	2	6	5	6	4	
4	10	12	5	1	12	0	12	1	12	5	12	3	12	4	
2	12	13	12	0	12	1	12	2	12	5	12	4	
4	10	12	5	1	12	0	12	1	12	2	12	1	12	0	
5	1	2	7	8	11	1	0	1	1	1	5	1	3	1	4	
3	3	4	2	3	0	3	1	3	2	3	1	3	0	
4	11	8	7	0	11	0	8	1	8	2	8	3	8	4	
6	14	7	0	5	12	10	7	0	7	1	7	2	7	1	7	0	
2	4	1	1	0	1	1	1	2	1	3	1	4	
4	12	5	0	7	12	0	12	1	12	5	12	3	12	4	
4	2	7	0	6	2	0	2	1	2	2	2	3	2	4	
2	4	3	3	0	3	1	3	2	3	5	3	4	
3	3	4	2	3	0	3	1	3	5	3	3	3	4	
4	0	7	2	4	0	0	0	1	0	5	7	3	7	4	
3	5	12	10	12	0	12	1	12	5	12	3	12	4	
2	11	9	11	0	11	1	11	2	11	5	11	4	
4	11	8	7	0	11	0	11	1	8	2	8	5	8	4	
2	14	7	7	0	7	1	7	2	7	1	7	0	
5	4	2	7	0	6	2	0	2	1	2	2	2	5	2	4	
4	3	5	0	7	3	0	3	1	3	5	3	3	3	4	
4	2	7	8	11	2	0	2	1	7	2	7	5	7	4	
3	13	12	5	12	0	12	1	12	2	12	3	12	4	
3	9	6	0	6	0	6	1	6	5	6	3	6	4	
3	6	13	12	13	0	13	1	13	2	13	3	13	4	
3	1	5	0	1	0	1	1	1	2	1	5	1	4	
3	7	0	5	0	0	0	1	0	2	0	1	0	0	
2	12	13	12	0	12	1	12	5	12	3	12	4	
5	9	8	7	2	4	9	0	9	1	9	2	9	1	9	0	
3	0	7	8	0	0	0	1	0	5	0	3	0	4	
3	14	8	9	8	0	8	1	8	5	8	3	8	4	
3	0	7	14	0	0	0	1	0	5	0	3	0	4	
2	3	4	3	0	3	1	3	2	3	3	3	4	
2	8	7	8	0	8	1	8	2	7	5	7	4	
4	11	8	7	2	8	0	8	1	8	5	8	3	8	4	
3	1	5	3	1	0	1	1	1	2	1	3	1	4	
2	7	8	8	0	8	1	8	2	8	1	8	0	
3	10	12	5	12	0	12	1	12	5	12	3	12	4	
2	2	4	2	0	2	1	2	2	2	1	2	0	
5	4	2	7	8	9	2	0	2	1	2	5	2	3	2	4	
3	10	13	6	13	0	13	1	13	2	13	5	13	4	
4	10	13	6	0	13	0	13	1	13	2	13	5	13	4	
4	1	5	0	6	1	0	1	1	1	2	1	5	1	4	
5	8	9	6	13	12	9	0	9	1	9	2	9	5	9	4	
5	8	7	0	5	12	8	0	8	1	8	5	7	3	7	4	
5	8	9	6	13	10	8	0	8	1	8	2	8	1	8	0	
4	14	7	0	5	7	0	7	1	7	2	7	3	7	4	
3	4	2	7	2	0	2	1	2	2	2	5	2	4	
3	12	13	6	12	0	12	1	12	2	13	3	13	4	
4	2	7	8	9	2	0	2	1	2	2	2	1	2	0	
2	5	1	1	0	1	1	1	2	1	3	1	4	
4	13	12	5	3	13	0	13	1	13	2	13	1	13	0	
3	0	5	3	0	0	0	1	0	2	0	5	0	4	
4	6	0	7	2	0	0	0	1	0	2	0	1	0	0	
2	8	7	7	0	7	1	7	2	7	1	7	0	
3	4	3	5	3	0	3	1	3	5	3	3	3	4	
4	9	6	13	10	9	0	6	1	6	2	6	3	6	4	
4	14	8	9	6	8	0	8	1	8	5	8	3	8	4	
2	13	6	13	0	13	1	13	2	13	1	13	0	
2	7	8	7	0	7	1	7	2	7	5	7	4	
2	3	4	3	0	3	1	3	5	3	3	3	4	
4	3	5	0	6	3	0	3	1	3	5	3	3	3	4	
5	8	7	2	4	3	7	0	7	1	7	2	7	5	7	4	
5	7	0	5	12	10	0	0	0	1	0	2	0	3	0	4	
5	9	6	0	5	3	9	0	9	1	9	2	9	5	9	4	
4	14	7	0	5	7	0	7	1	7	5	7	3	7	4	
4	9	6	0	5	9	0	9	1	9	2	6	5	6	4	
3	0	6	13	0	0	0	1	0	2	6	5	6	4	
6	11	8	7	2	4	3	11	0	11	1	11	2	11	3	11	4	
3	1	5	12	1	0	1	1	1	2	1	1	1	0	
2	4	2	2	0	2	1	2	2	2	3	2	4	
3	12	5	0	12	0	12	1	12	2	12	1	12	0	
2	2	7	2	0	7	1	7	2	7	3	7	4	
