2573.37	2573.37
6358
45121.6	44688.4
15
0	0	3000
1	0	3000
2	0	3000
3	0	3000
4	617	3000
5	1447	3000
6	0	3000
7	1602	3000
8	0	3000
9	894	3000
10	0	3000
11	0	3000
12	0	3000
13	896	3000
14	0	3000
44
0	5	90.986952	94.942746
5	0	90.831424	94.942746
0	6	84.589836	97.708373
6	0	81.579606	97.708373
0	7	90.323988	107.847469
7	0	93.388750	107.847469
1	2	40.747482	106.004333
2	1	34.002494	106.004333
1	4	18.479140	104.160274
4	1	17.924110	104.160274
1	5	48.454830	106.004333
5	1	55.559358	106.004333
2	4	53.222444	97.708373
4	2	46.982232	97.708373
2	7	93.993756	94.021178
7	2	92.455880	94.021178
3	4	45.824852	91.255735
4	3	52.155492	91.255735
3	5	67.742670	83.881529
5	3	62.083004	83.881529
5	12	84.364542	84.803282
12	5	84.741318	84.803282
6	9	88.952050	89.412137
9	6	87.004758	89.412137
6	13	88.522590	101.395569
13	6	88.207322	101.395569
7	8	93.352218	100.473078
8	7	80.763988	100.473078
7	14	46.663402	104.160274
14	7	60.788990	104.160274
8	9	52.580822	97.708373
9	8	63.164336	97.708373
8	11	36.496712	82.959776
11	8	28.227734	82.959776
8	14	19.744064	88.490385
14	8	5.604836	88.490385
9	11	30.524512	103.238705
11	9	39.220502	103.238705
10	12	23.719436	97.708373
12	10	26.522546	97.708373
10	13	42.925042	93.099610
13	10	40.615694	93.099610
12	13	48.406674	90.333982
13	12	50.925536	90.333982
840
4	10	12	5	3	5	0	5	1	5	5	5	3	5	4	
3	14	7	2	7	0	7	1	7	5	7	3	7	4	
3	3	5	0	5	0	5	1	5	5	5	3	5	4	
2	8	9	9	0	9	1	9	2	9	3	9	4	
4	14	7	2	4	7	0	7	1	7	5	7	3	7	4	
3	2	7	14	7	0	7	1	7	2	7	5	7	4	
4	9	6	13	12	9	0	9	1	9	5	9	3	9	4	
2	12	5	5	0	5	1	5	2	5	1	5	0	
3	2	7	8	7	0	7	1	7	2	7	5	7	4	
3	5	1	2	5	0	5	1	5	2	5	1	5	0	
5	13	12	5	3	4	13	0	13	1	13	2	13	3	13	4	
3	0	7	2	7	0	7	1	7	2	7	1	7	0	
4	4	3	5	12	4	0	4	1	4	5	4	3	4	4	
2	6	13	13	0	13	1	13	2	13	3	13	4	
3	8	7	0	7	0	7	1	7	2	7	5	7	4	
3	1	2	7	7	0	7	1	7	2	7	5	7	4	
3	8	9	6	9	0	9	1	9	2	9	5	9	4	
5	3	5	0	7	14	5	0	5	1	5	2	5	5	5	4	
2	8	7	7	0	7	1	7	5	7	3	7	4	
3	10	13	12	13	0	13	1	13	2	13	3	13	4	
4	3	4	2	7	4	0	4	1	4	2	4	3	4	4	
4	7	0	6	13	7	0	7	1	7	5	7	3	7	4	
4	14	7	2	1	7	0	7	1	7	5	7	3	7	4	
5	11	9	6	0	5	9	0	9	1	9	2	9	1	9	0	
3	1	4	2	4	0	4	1	4	2	4	3	4	4	
4	4	3	5	12	4	0	4	1	4	2	4	1	4	0	
3	7	2	1	7	0	7	1	7	5	7	3	7	4	
3	2	1	5	5	0	5	1	5	5	5	3	5	4	
2	9	6	9	0	9	1	9	5	9	3	9	4	
5	1	2	7	8	11	7	0	7	1	7	2	7	5	7	4	
4	11	9	6	0	9	0	9	1	9	2	9	1	9	0	
6	14	7	0	5	12	10	7	0	7	1	7	2	7	3	7	4	
2	4	1	4	0	4	1	4	2	4	1	4	0	
4	12	5	0	7	5	0	5	1	5	2	5	3	5	4	
2	5	0	5	0	5	1	5	2	5	3	5	4	
4	0	5	3	4	5	0	5	1	5	2	5	5	5	4	
2	11	9	9	0	9	1	9	2	9	1	9	0	
4	10	13	6	9	13	0	13	1	13	2	13	5	13	4	
2	9	8	9	0	9	1	9	5	9	3	9	4	
5	11	9	6	13	12	13	0	13	1	13	2	13	5	13	4	
3	7	0	6	7	0	7	1	7	2	7	5	7	4	
2	14	7	7	0	7	1	7	2	7	5	7	4	
4	13	6	9	11	13	0	13	1	13	5	13	3	13	4	
4	2	7	8	11	7	0	7	1	7	5	7	3	7	4	
3	6	13	10	13	0	13	1	13	5	13	3	13	4	
3	13	12	5	13	0	13	1	13	5	13	3	13	4	
3	0	5	1	5	0	5	1	5	2	5	3	5	4	
5	3	5	0	6	9	5	0	5	1	5	2	5	1	5	0	
4	3	5	12	10	5	0	5	1	5	2	5	5	5	4	
3	1	5	0	5	0	5	1	5	5	5	3	5	4	
3	7	0	5	7	0	7	1	7	2	7	3	7	4	
5	5	0	6	9	11	5	0	5	1	5	5	5	3	5	4	
3	0	7	8	7	0	7	1	7	2	7	5	7	4	
3	0	7	14	7	0	7	1	7	2	7	5	7	4	
2	3	4	4	0	4	1	4	2	4	1	4	0	
4	11	8	7	2	7	0	7	1	7	2	7	3	7	4	
3	14	7	8	7	0	7	1	7	2	7	1	7	0	
2	4	3	4	0	4	1	4	2	4	3	4	4	
2	2	4	4	0	4	1	4	2	4	3	4	4	
3	10	13	6	13	0	13	1	13	2	13	1	13	0	
3	13	6	0	13	0	13	1	13	2	13	5	13	4	
4	0	6	13	10	13	0	13	1	13	2	13	5	13	4	
4	6	0	5	1	5	0	5	1	5	2	5	5	5	4	
3	9	8	7	9	0	9	1	9	5	9	3	9	4	
5	8	9	6	13	10	9	0	9	1	9	2	9	3	9	4	
5	12	13	6	9	8	13	0	13	1	13	5	13	3	13	4	
4	14	7	0	5	7	0	7	1	7	2	7	1	7	0	
3	5	0	7	5	0	5	1	5	5	5	3	5	4	
3	12	13	6	13	0	13	1	13	5	13	3	13	4	
4	6	9	6	0	9	0	9	1	9	2	9	5	9	4	
2	5	1	5	0	5	1	5	5	5	3	5	4	
2	10	13	13	0	13	1	13	2	13	5	13	4	
4	13	12	5	3	13	0	13	1	13	2	13	3	13	4	
3	11	9	8	9	0	9	1	9	2	9	5	9	4	
4	6	0	7	2	7	0	7	1	7	2	7	3	7	4	
4	4	2	7	8	7	0	7	1	7	5	7	3	7	4	
4	9	6	13	10	9	0	9	1	9	2	9	1	9	0	
2	13	12	13	0	13	1	13	2	13	5	13	4	
2	10	13	13	0	13	1	13	2	13	3	13	4	
4	3	5	0	6	5	0	5	1	5	2	5	3	5	4	
5	7	0	6	13	10	7	0	7	1	7	2	7	1	7	0	
5	9	6	0	5	3	9	0	9	1	9	2	9	1	9	0	
3	12	5	3	5	0	5	1	5	2	5	5	5	4	
2	5	12	5	0	5	1	5	2	5	5	5	4	
3	7	8	9	7	0	7	1	7	5	7	3	7	4	
4	11	9	6	13	13	0	13	1	13	5	13	3	13	4	
3	0	6	13	13	0	13	1	13	5	13	3	13	4	
5	8	9	6	13	12	9	0	9	1	9	2	9	1	9	0	
4	14	7	8	11	7	0	7	1	7	2	7	3	7	4	
2	4	2	4	0	4	1	4	5	4	3	4	4	
3	12	5	0	5	0	5	1	5	2	5	3	5	4	
2	2	7	7	0	7	1	7	2	7	1	7	0	
5	14	7	0	6	13	7	0	7	1	7	2	7	5	7	4	
4	13	12	5	1	13	0	13	1	13	2	13	1	13	0	
4	6	13	6	0	13	0	13	1	13	2	13	1	13	0	
5	14	7	0	5	3	5	0	5	1	5	5	5	3	5	4	
3	14	7	2	7	0	7	1	7	2	7	5	7	4	
2	8	9	9	0	9	1	9	2	9	1	9	0	
3	6	13	12	13	0	13	1	13	2	13	5	13	4	
3	2	7	14	7	0	7	1	7	2	7	1	7	0	
4	10	12	5	1	5	0	5	1	5	2	5	5	5	4	
4	3	5	12	10	5	0	5	1	5	5	5	3	5	4	
2	9	8	9	0	9	1	9	2	9	3	9	4	
2	3	5	5	0	5	1	5	2	5	5	5	4	
3	5	1	2	5	0	5	1	5	2	5	5	5	4	
5	13	12	5	3	4	13	0	13	1	13	2	13	1	13	0	
3	0	7	2	7	0	7	1	7	2	7	3	7	4	
2	6	13	13	0	13	1	13	2	13	1	13	0	
3	8	7	0	7	0	7	1	7	2	7	1	7	0	
3	11	9	6	9	0	9	1	9	2	9	5	9	4	
3	1	2	7	7	0	7	1	7	2	7	1	7	0	
3	7	2	4	7	0	7	1	7	2	7	3	7	4	
3	3	4	2	4	0	4	1	4	2	4	5	4	4	
5	10	12	5	1	2	5	0	5	1	5	5	5	3	5	4	
3	3	4	1	4	0	4	1	4	5	4	3	4	4	
3	10	13	12	13	0	13	1	13	5	13	3	13	4	
3	13	6	9	13	0	13	1	13	5	13	3	13	4	
4	7	0	6	13	7	0	7	1	7	2	7	5	7	4	
5	11	9	6	0	5	9	0	9	1	9	2	9	3	9	4	
3	1	4	2	4	0	4	1	4	2	4	1	4	0	
4	4	3	5	12	4	0	4	1	4	2	4	3	4	4	
4	12	5	1	2	5	0	5	1	5	2	5	1	5	0	
3	2	1	5	5	0	5	1	5	2	5	3	5	4	
3	5	12	13	5	0	5	1	5	2	5	1	5	0	
4	5	0	7	14	5	0	5	1	5	5	5	3	5	4	
5	11	9	6	13	10	9	0	9	1	9	2	9	5	9	4	
3	13	6	9	13	0	13	1	13	2	13	5	13	4	
5	1	2	7	8	11	7	0	7	1	7	2	7	1	7	0	
3	8	9	11	9	0	9	1	9	2	9	3	9	4	
2	4	1	4	0	4	1	4	2	4	5	4	4	
3	14	8	9	9	0	9	1	9	2	9	5	9	4	
4	12	5	0	7	5	0	5	1	5	2	5	1	5	0	
2	5	0	5	0	5	1	5	2	5	1	5	0	
5	13	6	0	7	2	13	0	13	1	13	2	13	3	13	4	
4	0	5	3	4	5	0	5	1	5	2	5	1	5	0	
3	7	8	11	7	0	7	1	7	5	7	3	7	4	
4	6	0	5	3	5	0	5	1	5	2	5	3	5	4	
2	11	9	9	0	9	1	9	2	9	3	9	4	
3	10	12	5	5	0	5	1	5	2	5	5	5	4	
3	7	0	6	7	0	7	1	7	5	7	3	7	4	
5	12	5	0	7	14	5	0	5	1	5	2	5	1	5	0	
2	14	7	7	0	7	1	7	5	7	3	7	4	
4	13	6	9	11	13	0	13	1	13	2	13	5	13	4	
3	6	13	10	13	0	13	1	13	2	13	5	13	4	
3	13	12	5	13	0	13	1	13	2	13	5	13	4	
3	0	5	1	5	0	5	1	5	2	5	1	5	0	
5	3	5	0	6	9	5	0	5	1	5	2	5	3	5	4	
3	11	8	7	7	0	7	1	7	2	7	1	7	0	
3	1	5	0	5	0	5	1	5	2	5	3	5	4	
4	4	2	7	14	4	0	4	1	4	2	4	1	4	0	
5	5	0	7	8	11	5	0	5	1	5	2	5	5	5	4	
5	13	6	9	8	14	13	0	13	1	13	2	13	3	13	4	
3	0	7	8	7	0	7	1	7	2	7	1	7	0	
2	3	4	4	0	4	1	4	2	4	5	4	4	
4	11	8	7	2	7	0	7	1	7	2	7	1	7	0	
3	14	7	8	7	0	7	1	7	2	7	3	7	4	
5	2	1	5	12	10	5	0	5	1	5	5	5	3	5	4	
2	4	3	4	0	4	1	4	2	4	1	4	0	
3	12	5	1	5	0	5	1	5	2	5	3	5	4	
2	2	4	4	0	4	1	4	5	4	3	4	4	
4	5	0	7	14	5	0	5	1	5	2	5	3	5	4	
3	10	13	6	13	0	13	1	13	2	13	3	13	4	
3	13	6	0	13	0	13	1	13	5	13	3	13	4	
4	6	0	5	1	5	0	5	1	5	5	5	3	5	4	
4	8	7	2	4	7	0	7	1	7	5	7	3	7	4	
4	14	7	0	5	7	0	7	1	7	2	7	5	7	4	
5	8	9	6	13	10	9	0	9	1	9	5	9	3	9	4	
5	12	13	6	9	8	13	0	13	1	13	2	13	5	13	4	
3	5	0	7	5	0	5	1	5	2	5	5	5	4	
3	12	13	6	13	0	13	1	13	2	13	5	13	4	
2	5	1	5	0	5	1	5	2	5	5	5	4	
5	10	13	6	9	8	13	0	13	1	13	2	13	1	13	0	
3	0	5	3	5	0	5	1	5	2	5	3	5	4	
6	3	4	2	7	8	11	4	0	4	1	4	2	4	1	4	0	
4	4	2	7	8	4	0	4	1	4	2	4	5	4	4	
2	12	13	13	0	13	1	13	2	13	3	13	4	
2	7	8	7	0	7	1	7	5	7	3	7	4	
3	2	4	1	4	0	4	1	4	2	4	5	4	4	
4	9	6	13	10	9	0	9	1	9	2	9	5	9	4	
2	13	12	13	0	13	1	13	5	13	3	13	4	
2	10	13	13	0	13	1	13	2	13	1	13	0	
4	3	5	0	6	5	0	5	1	5	2	5	1	5	0	
4	9	6	13	12	9	0	9	1	9	2	9	5	9	4	
5	11	8	7	2	4	7	0	7	1	7	2	7	3	7	4	
3	8	9	11	9	0	9	1	9	5	9	3	9	4	
5	4	3	5	12	13	4	0	4	1	4	2	4	3	4	4	
5	9	6	0	5	3	9	0	9	1	9	2	9	3	9	4	
3	12	5	3	5	0	5	1	5	5	5	3	5	4	
2	5	12	5	0	5	1	5	5	5	3	5	4	
5	10	12	5	3	4	5	0	5	1	5	2	5	1	5	0	
4	1	5	12	13	5	0	5	1	5	2	5	5	5	4	
4	11	9	6	13	9	0	9	1	9	2	9	5	9	4	
5	8	9	6	13	12	9	0	9	1	9	2	9	3	9	4	
4	14	7	8	11	7	0	7	1	7	2	7	1	7	0	
5	2	7	0	6	13	7	0	7	1	7	2	7	5	7	4	
2	4	2	4	0	4	1	4	2	4	5	4	4	
3	9	6	13	9	0	9	1	9	2	9	1	9	0	
2	2	7	7	0	7	1	7	2	7	5	7	4	
4	13	12	5	1	13	0	13	1	13	2	13	3	13	4	
4	6	9	6	0	9	0	9	1	9	2	9	3	9	4	
3	11	9	8	9	0	9	1	9	2	9	3	9	4	
3	14	7	2	7	0	7	1	7	2	7	1	7	0	
4	6	0	7	2	7	0	7	1	7	5	7	3	7	4	
2	1	4	4	0	4	1	4	2	4	5	4	4	
3	7	2	1	7	0	7	1	7	2	7	1	7	0	
3	2	7	14	7	0	7	1	7	2	7	3	7	4	
2	9	8	9	0	9	1	9	2	9	1	9	0	
3	0	5	12	5	0	5	1	5	5	5	3	5	4	
3	5	1	2	5	0	5	1	5	5	5	3	5	4	
5	10	13	6	9	11	13	0	13	1	13	2	13	3	13	4	
3	0	7	2	7	0	7	1	7	5	7	3	7	4	
5	3	5	0	7	8	5	0	5	1	5	2	5	3	5	4	
3	8	7	0	7	0	7	1	7	2	7	3	7	4	
3	11	9	6	9	0	9	1	9	5	9	3	9	4	
3	3	5	12	5	0	5	1	5	5	5	3	5	4	
3	1	2	7	7	0	7	1	7	2	7	3	7	4	
3	7	2	4	7	0	7	1	7	2	7	1	7	0	
5	9	8	7	2	1	9	0	9	1	9	2	9	1	9	0	
3	2	7	0	7	0	7	1	7	2	7	1	7	0	
2	12	5	5	0	5	1	5	5	5	3	5	4	
5	10	12	5	1	2	5	0	5	1	5	2	5	5	5	4	
2	9	8	9	0	9	1	9	2	9	5	9	4	
3	10	13	12	13	0	13	1	13	2	13	5	13	4	
4	1	2	7	8	7	0	7	1	7	2	7	5	7	4	
4	3	4	2	7	4	0	4	1	4	2	4	5	4	4	
4	7	0	6	13	7	0	7	1	7	2	7	1	7	0	
3	8	7	14	7	0	7	1	7	2	7	1	7	0	
3	14	8	9	9	0	9	1	9	2	9	3	9	4	
5	1	2	7	8	9	7	0	7	1	7	2	7	5	7	4	
4	12	5	1	2	5	0	5	1	5	2	5	3	5	4	
3	2	1	5	5	0	5	1	5	2	5	1	5	0	
3	5	12	13	5	0	5	1	5	2	5	3	5	4	
5	10	13	6	0	7	13	0	13	1	13	2	13	3	13	4	
2	0	7	7	0	7	1	7	2	7	5	7	4	
5	11	9	6	13	10	9	0	9	1	9	5	9	3	9	4	
5	1	2	7	8	11	7	0	7	1	7	2	7	3	7	4	
3	8	9	11	9	0	9	1	9	2	9	1	9	0	
4	2	1	5	12	5	0	5	1	5	2	5	1	5	0	
2	4	1	4	0	4	1	4	5	4	3	4	4	
3	9	8	14	9	0	9	1	9	2	9	3	9	4	
5	9	8	7	2	4	9	0	9	1	9	5	9	3	9	4	
5	13	12	5	1	2	13	0	13	1	13	2	13	1	13	0	
4	0	5	3	4	5	0	5	1	5	2	5	3	5	4	
4	6	0	5	3	5	0	5	1	5	2	5	1	5	0	
3	8	7	2	7	0	7	1	7	2	7	1	7	0	
2	1	5	5	0	5	1	5	2	5	1	5	0	
3	7	0	6	7	0	7	1	7	2	7	3	7	4	
5	12	5	0	7	14	5	0	5	1	5	2	5	3	5	4	
4	13	6	9	11	13	0	13	1	13	2	13	1	13	0	
4	0	7	8	11	7	0	7	1	7	2	7	5	7	4	
3	6	13	10	13	0	13	1	13	2	13	1	13	0	
3	0	5	1	5	0	5	1	5	2	5	5	5	4	
2	7	0	7	0	7	1	7	2	7	5	7	4	
3	11	8	7	7	0	7	1	7	2	7	3	7	4	
3	1	5	0	5	0	5	1	5	2	5	1	5	0	
4	4	2	7	14	4	0	4	1	4	2	4	3	4	4	
4	9	8	7	2	9	0	9	1	9	2	9	3	9	4	
5	9	8	7	2	4	9	0	9	1	9	2	9	5	9	4	
3	2	4	3	4	0	4	1	4	2	4	3	4	4	
5	8	7	2	4	3	7	0	7	1	7	5	7	3	7	4	
5	5	0	7	8	11	5	0	5	1	5	2	5	1	5	0	
5	13	6	9	8	14	13	0	13	1	13	2	13	1	13	0	
3	0	7	8	7	0	7	1	7	2	7	3	7	4	
4	2	1	5	12	5	0	5	1	5	5	5	3	5	4	
5	1	5	0	6	9	5	0	5	1	5	2	5	1	5	0	
3	6	0	7	7	0	7	1	7	5	7	3	7	4	
4	8	9	6	13	9	0	9	1	9	2	9	3	9	4	
3	14	7	8	7	0	7	1	7	5	7	3	7	4	
5	2	1	5	12	10	5	0	5	1	5	2	5	5	5	4	
3	12	5	1	5	0	5	1	5	2	5	1	5	0	
2	2	4	4	0	4	1	4	2	4	5	4	4	
4	5	0	7	14	5	0	5	1	5	2	5	1	5	0	
3	13	6	0	13	0	13	1	13	2	13	3	13	4	
4	0	7	0	6	7	0	7	1	7	2	7	1	7	0	
6	11	8	7	2	4	3	7	0	7	1	7	2	7	5	7	4	
4	6	0	5	1	5	0	5	1	5	2	5	3	5	4	
4	8	7	2	4	7	0	7	1	7	2	7	5	7	4	
2	8	9	9	0	9	1	9	5	9	3	9	4	
5	8	9	6	13	10	9	0	9	1	9	2	9	5	9	4	
5	12	13	6	9	8	13	0	13	1	13	2	13	1	13	0	
3	5	0	7	5	0	5	1	5	2	5	1	5	0	
5	10	13	6	9	8	13	0	13	1	13	2	13	3	13	4	
3	0	5	3	5	0	5	1	5	2	5	1	5	0	
6	3	5	0	6	9	11	5	0	5	1	5	2	5	3	5	4	
4	8	7	2	1	7	0	7	1	7	2	7	3	7	4	
3	12	13	10	13	0	13	1	13	2	13	5	13	4	
4	1	5	0	6	5	0	5	1	5	2	5	3	5	4	
2	6	9	9	0	9	1	9	5	9	3	9	4	
4	4	2	7	8	4	0	4	1	4	2	4	1	4	0	
2	12	13	13	0	13	1	13	2	13	1	13	0	
3	2	4	1	4	0	4	1	4	5	4	3	4	4	
4	9	6	13	10	9	0	9	1	9	5	9	3	9	4	
2	13	12	13	0	13	1	13	2	13	3	13	4	
4	0	5	12	10	5	0	5	1	5	2	5	1	5	0	
5	13	12	5	1	2	13	0	13	1	13	5	13	3	13	4	
3	6	13	12	13	0	13	1	13	5	13	3	13	4	
5	11	8	7	2	4	7	0	7	1	7	2	7	1	7	0	
5	4	3	5	12	13	4	0	4	1	4	2	4	1	4	0	
3	12	5	3	5	0	5	1	5	2	5	3	5	4	
2	5	12	5	0	5	1	5	2	5	3	5	4	
5	10	12	5	3	4	5	0	5	1	5	2	5	3	5	4	
4	6	0	5	3	5	0	5	1	5	5	5	3	5	4	
4	11	9	6	13	9	0	9	1	9	2	9	1	9	0	
4	1	5	12	10	5	0	5	1	5	2	5	3	5	4	
2	7	2	7	0	7	1	7	2	7	5	7	4	
4	14	7	8	11	7	0	7	1	7	2	7	5	7	4	
5	2	7	0	6	13	7	0	7	1	7	5	7	3	7	4	
3	9	6	13	9	0	9	1	9	2	9	3	9	4	
4	13	6	0	7	13	0	13	1	13	5	13	3	13	4	
2	2	7	7	0	7	1	7	5	7	3	7	4	
4	7	0	5	12	7	0	7	1	7	5	7	3	7	4	
4	6	0	7	14	7	0	7	1	7	5	7	3	7	4	
4	8	7	0	5	7	0	7	1	7	5	7	3	7	4	
4	13	12	5	1	13	0	13	1	13	5	13	3	13	4	
2	0	5	5	0	5	1	5	2	5	3	5	4	
4	3	5	12	13	5	0	5	1	5	2	5	1	5	0	
3	11	9	8	9	0	9	1	9	2	9	1	9	0	
3	14	7	2	7	0	7	1	7	2	7	3	7	4	
2	1	4	4	0	4	1	4	5	4	3	4	4	
3	7	2	1	7	0	7	1	7	2	7	3	7	4	
2	7	0	7	0	7	1	7	5	7	3	7	4	
3	0	5	12	5	0	5	1	5	2	5	5	5	4	
3	7	8	11	7	0	7	1	7	2	7	5	7	4	
5	12	5	0	7	14	5	0	5	1	5	2	5	5	5	4	
5	10	13	6	9	11	13	0	13	1	13	2	13	1	13	0	
3	0	7	2	7	0	7	1	7	2	7	5	7	4	
5	3	5	0	7	8	5	0	5	1	5	2	5	1	5	0	
2	7	14	7	0	7	1	7	2	7	5	7	4	
3	11	9	6	9	0	9	1	9	2	9	3	9	4	
5	14	7	0	5	12	7	0	5	1	5	2	5	1	5	0	
3	7	2	4	7	0	7	1	7	2	7	5	7	4	
5	9	6	0	5	1	9	0	9	1	9	2	9	3	9	4	
2	13	6	13	0	13	1	13	5	13	3	13	4	
3	2	7	0	7	0	7	1	7	2	7	3	7	4	
4	4	1	5	12	5	0	5	1	5	2	5	5	5	4	
5	10	12	5	1	2	5	0	5	1	5	2	5	1	5	0	
3	6	9	8	9	0	9	1	9	5	9	3	9	4	
3	0	6	9	9	0	9	1	9	2	9	3	9	4	
3	3	4	1	4	0	4	1	4	2	4	1	4	0	
3	6	0	5	5	0	5	1	5	2	5	5	5	4	
3	7	0	5	7	0	7	1	7	5	7	3	7	4	
4	7	0	6	13	7	0	7	1	7	2	7	3	7	4	
3	8	7	14	7	0	7	1	7	2	7	3	7	4	
4	12	5	3	4	5	0	5	1	5	5	5	3	5	4	
3	14	8	9	9	0	9	1	9	2	9	1	9	0	
2	5	3	5	0	5	1	5	5	5	3	5	4	
4	12	5	1	2	5	0	5	1	5	5	5	3	5	4	
3	5	12	13	5	0	5	1	5	5	5	3	5	4	
5	10	13	6	0	7	13	0	13	1	13	2	13	1	13	0	
2	0	7	7	0	7	1	7	5	7	3	7	4	
5	11	9	6	13	10	9	0	9	1	9	2	9	3	9	4	
3	14	7	0	7	0	7	1	7	2	7	1	7	0	
4	7	0	5	3	7	0	7	1	7	2	7	1	7	0	
4	2	1	5	12	5	0	5	1	5	2	5	3	5	4	
4	8	7	2	1	7	0	7	1	7	5	7	3	7	4	
3	9	8	14	9	0	9	1	9	2	9	1	9	0	
4	13	6	9	8	13	0	13	1	13	2	13	5	13	4	
2	5	0	5	0	5	1	5	5	5	3	5	4	
2	6	9	9	0	9	1	9	2	9	5	9	4	
4	10	13	6	9	13	0	13	1	13	2	13	3	13	4	
4	3	5	12	10	5	0	5	1	5	2	5	3	5	4	
3	8	7	2	7	0	7	1	7	2	7	3	7	4	
2	1	5	5	0	5	1	5	2	5	3	5	4	
3	7	0	6	7	0	7	1	7	2	7	1	7	0	
3	9	8	7	9	0	9	1	9	2	9	1	9	0	
4	1	5	0	6	5	0	5	1	5	5	5	3	5	4	
4	5	0	7	8	5	0	5	1	5	2	5	5	5	4	
4	13	6	9	11	13	0	13	1	13	2	13	3	13	4	
4	0	7	8	11	7	0	7	1	7	5	7	3	7	4	
3	6	13	10	13	0	13	1	13	2	13	3	13	4	
5	11	8	7	2	1	7	0	7	1	7	5	7	3	7	4	
3	6	9	8	9	0	9	1	9	2	9	5	9	4	
4	4	3	5	0	4	0	4	1	4	5	4	3	4	4	
2	13	10	13	0	13	1	13	5	13	3	13	4	
3	11	8	7	7	0	7	1	7	5	7	3	7	4	
4	4	2	7	14	4	0	4	1	4	5	4	3	4	4	
4	9	8	7	2	9	0	9	1	9	2	9	1	9	0	
3	2	4	3	4	0	4	1	4	2	4	1	4	0	
5	5	0	6	9	11	5	0	5	1	5	2	5	3	5	4	
3	10	12	5	5	0	5	1	5	2	5	3	5	4	
5	6	0	5	3	4	5	0	5	1	5	2	5	1	5	0	
5	1	2	7	8	9	7	0	7	1	7	2	7	3	7	4	
3	6	9	11	9	0	9	1	9	5	9	3	9	4	
4	8	9	6	13	9	0	9	1	9	2	9	1	9	0	
5	12	13	6	9	11	13	0	13	1	13	2	13	5	13	4	
3	14	7	8	7	0	7	1	7	2	7	5	7	4	
5	2	1	5	12	10	5	0	5	1	5	2	5	1	5	0	
3	5	1	4	5	0	5	1	5	2	5	5	5	4	
4	9	6	13	12	9	0	9	1	9	2	9	3	9	4	
4	1	2	7	8	7	0	7	1	7	5	7	3	7	4	
4	5	0	7	14	5	0	5	1	5	2	5	5	5	4	
3	13	6	0	13	0	13	1	13	2	13	1	13	0	
4	0	7	0	6	7	0	7	1	7	2	7	3	7	4	
4	6	0	5	1	5	0	5	1	5	2	5	1	5	0	
4	8	7	2	4	7	0	7	1	7	2	7	1	7	0	
5	14	7	2	4	3	7	0	7	1	7	2	7	3	7	4	
2	7	0	7	0	7	1	7	2	7	3	7	4	
5	12	13	6	9	8	13	0	13	1	13	2	13	3	13	4	
4	1	5	12	13	5	0	5	1	5	5	5	3	5	4	
3	5	0	7	5	0	5	1	5	2	5	3	5	4	
3	13	6	9	13	0	13	1	13	2	13	1	13	0	
3	6	9	8	9	0	9	1	9	2	9	1	9	0	
4	3	5	12	13	5	0	5	1	5	2	5	5	5	4	
6	3	4	2	7	8	11	4	0	4	1	4	5	4	3	4	4	
4	8	7	2	1	7	0	7	1	7	2	7	1	7	0	
3	1	4	2	4	0	4	1	4	5	4	3	4	4	
4	1	5	0	6	5	0	5	1	5	2	5	1	5	0	
4	4	2	7	8	4	0	4	1	4	2	4	3	4	4	
3	9	6	0	9	0	9	1	9	2	9	3	9	4	
3	2	4	1	4	0	4	1	4	2	4	3	4	4	
4	5	0	6	9	5	0	5	1	5	2	5	1	5	0	
2	13	12	13	0	13	1	13	2	13	1	13	0	
4	0	5	12	10	5	0	5	1	5	2	5	3	5	4	
5	13	6	9	8	14	13	0	13	1	13	5	13	3	13	4	
4	11	9	8	14	9	0	9	1	9	2	9	5	9	4	
4	7	0	5	12	7	0	7	1	7	2	7	3	7	4	
5	11	8	7	2	4	7	0	7	1	7	2	7	5	7	4	
5	4	3	5	12	13	4	0	4	1	4	2	4	5	4	4	
3	12	5	3	5	0	5	1	5	2	5	1	5	0	
2	5	12	5	0	5	1	5	2	5	1	5	0	
5	10	12	5	3	4	5	0	5	1	5	5	5	3	5	4	
4	7	0	5	12	7	0	7	1	7	2	7	5	7	4	
3	6	0	7	7	0	7	1	7	2	7	3	7	4	
4	11	9	6	13	9	0	9	1	9	2	9	3	9	4	
4	1	5	12	10	5	0	5	1	5	2	5	1	5	0	
2	7	2	7	0	7	1	7	5	7	3	7	4	
3	12	13	10	13	0	13	1	13	2	13	1	13	0	
4	14	7	8	11	7	0	7	1	7	5	7	3	7	4	
5	2	7	0	6	13	7	0	7	1	7	2	7	3	7	4	
3	9	6	13	9	0	9	1	9	5	9	3	9	4	
4	13	6	0	7	13	0	13	1	13	2	13	5	13	4	
4	6	0	7	14	7	0	7	1	7	2	7	5	7	4	
4	13	12	5	1	13	0	13	1	13	2	13	5	13	4	
2	0	5	5	0	5	1	5	2	5	1	5	0	
4	3	5	12	13	5	0	5	1	5	2	13	3	13	4	
5	8	7	2	4	3	7	0	7	1	7	2	7	3	7	4	
5	1	2	7	8	9	7	0	7	1	7	5	7	3	7	4	
2	1	4	4	0	4	1	4	2	4	3	4	4	
5	4	1	5	12	10	5	0	5	1	5	2	5	1	5	0	
2	13	10	13	0	13	1	13	2	13	3	13	4	
3	0	5	12	5	0	5	1	5	2	5	1	5	0	
3	6	9	11	9	0	9	1	9	2	9	3	9	4	
4	1	2	7	14	7	0	7	1	7	5	7	3	7	4	
5	10	13	6	9	11	13	0	13	1	13	2	13	5	13	4	
5	3	5	0	7	8	5	0	5	1	5	2	5	5	5	4	
2	7	14	7	0	7	1	7	5	7	3	7	4	
3	11	9	6	9	0	9	1	9	2	9	1	9	0	
5	14	7	0	5	12	7	0	5	1	5	2	5	3	5	4	
4	2	7	0	6	7	0	7	1	7	5	7	3	7	4	
3	7	2	4	7	0	7	1	7	5	7	3	7	4	
5	9	8	7	2	1	9	0	9	1	9	5	9	3	9	4	
3	2	7	0	7	0	7	1	7	5	7	3	7	4	
3	5	12	10	5	0	5	1	5	2	5	3	5	4	
5	10	12	5	1	2	5	0	5	1	5	2	5	3	5	4	
3	0	6	9	9	0	9	1	9	2	9	1	9	0	
3	3	4	1	4	0	4	1	4	2	4	3	4	4	
3	6	0	5	5	0	5	1	5	5	5	3	5	4	
4	1	2	7	8	7	0	7	1	7	2	7	3	7	4	
5	4	3	5	0	6	4	0	4	1	4	2	4	1	4	0	
3	8	7	14	7	0	7	1	7	5	7	3	7	4	
4	12	5	3	4	5	0	5	1	5	2	5	5	5	4	
3	5	1	4	5	0	5	1	5	5	5	3	5	4	
2	5	3	5	0	5	1	5	2	5	5	5	4	
4	12	5	1	2	5	0	5	1	5	2	5	5	5	4	
3	5	12	13	5	0	5	1	5	2	5	5	5	4	
5	10	13	6	0	7	13	0	13	1	13	2	13	5	13	4	
3	12	5	1	5	0	5	1	5	5	5	3	5	4	
2	0	7	7	0	7	1	7	2	7	3	7	4	
5	11	9	6	13	10	13	0	13	1	13	2	13	1	13	0	
3	14	7	0	7	0	7	1	7	2	7	3	7	4	
4	7	0	5	3	7	0	7	1	7	2	7	3	7	4	
4	12	13	6	9	13	0	13	1	13	2	13	3	13	4	
3	9	6	0	9	0	9	1	9	2	9	5	9	4	
3	5	0	6	5	0	5	1	5	2	5	3	5	4	
3	9	8	14	9	0	9	1	9	2	9	5	9	4	
4	13	6	9	8	13	0	13	1	13	5	13	3	13	4	
3	6	0	7	7	0	7	1	7	2	7	5	7	4	
4	10	13	6	9	13	0	13	1	13	2	13	1	13	0	
3	1	5	3	5	0	5	1	5	5	5	3	5	4	
4	3	5	12	10	5	0	5	1	5	2	5	1	5	0	
3	8	7	2	7	0	7	1	7	5	7	3	7	4	
2	1	5	5	0	5	1	5	5	5	3	5	4	
5	4	2	7	8	9	4	0	4	1	4	2	4	3	4	4	
3	9	8	7	9	0	9	1	9	2	9	3	9	4	
2	9	11	9	0	9	1	9	5	9	3	9	4	
4	1	5	12	10	5	0	5	1	5	5	5	3	5	4	
4	5	0	7	8	5	0	5	1	5	5	5	3	5	4	
4	10	13	6	0	13	0	13	1	13	2	13	1	13	0	
4	0	7	8	11	7	0	7	1	7	2	7	3	7	4	
2	8	9	9	0	9	1	9	2	9	5	9	4	
5	11	8	7	2	1	7	0	7	1	7	2	7	5	7	4	
4	4	3	5	0	4	0	4	1	4	2	4	5	4	4	
2	10	13	13	0	13	1	13	5	13	3	13	4	
3	11	8	7	7	0	7	1	7	2	7	5	7	4	
4	2	7	8	9	7	0	7	1	7	2	7	5	7	4	
4	4	2	7	14	4	0	4	1	4	2	4	5	4	4	
4	9	8	7	2	9	0	9	1	9	2	9	5	9	4	
3	2	4	3	4	0	4	1	4	2	4	5	4	4	
3	10	12	5	5	0	5	1	5	2	5	1	5	0	
3	12	13	10	13	0	13	1	13	5	13	3	13	4	
5	6	0	7	2	4	7	0	7	1	7	2	7	3	7	4	
5	11	9	6	13	12	9	0	9	1	9	2	9	3	9	4	
5	4	2	7	8	11	4	0	4	1	4	2	4	5	4	4	
4	14	7	0	6	7	0	7	1	7	2	7	1	7	0	
3	4	3	5	4	0	4	1	4	2	4	3	4	4	
4	8	9	6	13	9	0	9	1	9	2	9	5	9	4	
5	12	13	6	9	11	13	0	13	1	13	5	13	3	13	4	
5	2	1	5	12	10	5	0	5	1	5	2	5	3	5	4	
5	13	12	5	1	2	13	0	13	1	13	2	13	5	13	4	
4	9	6	13	12	9	0	9	1	9	2	9	1	9	0	
5	3	5	0	6	9	5	0	5	1	5	2	5	5	5	4	
4	0	7	0	6	7	0	7	1	7	5	7	3	7	4	
3	3	5	12	5	0	5	1	5	2	5	3	5	4	
4	8	7	2	4	7	0	7	1	7	2	7	3	7	4	
5	14	7	2	4	3	7	0	7	1	7	2	7	1	7	0	
3	7	2	1	7	0	7	1	7	2	7	5	7	4	
2	7	0	7	0	7	1	7	2	7	1	7	0	
4	9	6	0	5	9	0	9	1	9	2	9	1	9	0	
5	4	2	7	8	11	4	0	4	1	4	5	4	3	4	4	
4	6	0	5	3	5	0	5	1	5	2	5	5	5	4	
3	13	6	9	13	0	13	1	13	2	13	3	13	4	
3	6	9	8	9	0	9	1	9	2	9	3	9	4	
5	10	13	6	9	8	13	0	13	1	13	2	13	5	13	4	
3	1	5	12	5	0	5	1	5	2	5	5	5	4	
6	3	4	2	7	8	11	4	0	4	1	4	2	4	5	4	4	
3	7	8	9	7	0	7	1	7	2	7	1	7	0	
5	14	8	9	6	13	9	0	9	1	9	2	9	3	9	4	
3	9	6	0	9	0	9	1	9	2	9	1	9	0	
4	8	7	0	5	7	0	7	1	7	2	7	5	7	4	
3	0	5	3	5	0	5	1	5	5	5	3	5	4	
3	2	4	1	4	0	4	1	4	2	4	1	4	0	
3	8	9	11	9	0	9	1	9	2	9	5	9	4	
4	5	0	6	9	5	0	5	1	5	2	5	3	5	4	
4	10	12	5	3	5	0	5	1	5	2	5	3	5	4	
4	0	5	12	10	5	0	5	1	5	5	5	3	5	4	
3	3	5	0	5	0	5	1	5	2	5	3	5	4	
4	11	9	8	14	9	0	9	1	9	5	9	3	9	4	
4	7	0	5	12	7	0	7	1	7	2	7	1	7	0	
5	11	8	7	2	4	7	0	7	1	7	5	7	3	7	4	
3	2	7	8	7	0	7	1	7	2	7	1	7	0	
6	10	13	6	9	8	14	13	0	13	1	13	2	13	5	13	4	
5	12	5	0	7	14	5	0	5	1	5	5	5	3	5	4	
5	10	12	5	3	4	5	0	5	1	5	2	5	5	5	4	
3	5	0	6	5	0	5	1	5	5	5	3	5	4	
3	6	0	7	7	0	7	1	7	2	7	1	7	0	
3	8	9	6	9	0	9	1	9	2	9	1	9	0	
4	14	7	2	1	7	0	7	1	7	2	7	3	7	4	
2	13	6	13	0	13	1	13	2	13	5	13	4	
4	12	13	6	9	13	0	13	1	13	5	13	3	13	4	
2	7	2	7	0	7	1	7	2	7	3	7	4	
3	12	13	10	13	0	13	1	13	2	13	3	13	4	
5	2	7	0	6	13	7	0	7	1	7	2	7	1	7	0	
4	14	7	2	1	7	0	7	1	7	2	7	5	7	4	
3	9	6	13	9	0	9	1	9	2	9	5	9	4	
4	13	6	0	7	13	0	13	1	13	2	13	1	13	0	
4	6	9	8	14	9	0	9	1	9	2	9	1	9	0	
2	0	5	5	0	5	1	5	2	5	5	5	4	
5	8	7	2	4	3	7	0	7	1	7	2	7	1	7	0	
2	1	4	4	0	4	1	4	2	4	1	4	0	
5	4	3	5	12	10	4	0	4	1	4	2	4	3	4	4	
2	9	6	9	0	9	1	9	2	9	3	9	4	
6	14	7	0	5	12	10	7	0	7	1	7	5	7	3	7	4	
2	13	10	13	0	13	1	13	2	13	1	13	0	
3	0	5	12	5	0	5	1	5	2	5	3	5	4	
3	6	9	11	9	0	9	1	9	2	9	1	9	0	
5	10	13	6	9	11	13	0	13	1	13	5	13	3	13	4	
4	1	5	12	13	5	0	5	1	5	2	5	1	5	0	
5	3	4	2	7	8	4	0	4	1	4	5	4	3	4	4	
2	7	14	7	0	7	1	7	2	7	3	7	4	
4	8	7	2	1	7	0	7	1	7	2	7	5	7	4	
5	14	7	0	5	12	7	0	7	1	7	5	7	3	7	4	
4	2	7	0	6	7	0	7	1	7	2	7	5	7	4	
5	9	6	0	5	1	9	0	9	1	9	2	9	5	9	4	
3	2	7	0	7	0	7	1	7	2	7	5	7	4	
3	5	12	10	5	0	5	1	5	2	5	1	5	0	
3	0	6	9	9	0	9	1	9	2	9	5	9	4	
3	6	0	5	5	0	5	1	5	2	5	3	5	4	
4	1	2	7	8	7	0	7	1	7	2	7	1	7	0	
5	4	3	5	0	6	4	0	4	1	4	2	4	3	4	4	
3	8	7	14	7	0	7	1	7	2	7	5	7	4	
4	12	5	3	4	5	0	5	1	5	2	5	1	5	0	
4	2	7	8	11	7	0	7	1	7	2	7	3	7	4	
2	5	3	5	0	5	1	5	2	5	1	5	0	
5	10	13	6	0	7	13	0	13	1	13	5	13	3	13	4	
2	13	10	13	0	13	1	13	2	13	5	13	4	
2	0	7	7	0	7	1	7	2	7	1	7	0	
4	8	7	0	5	7	0	7	1	7	2	7	3	7	4	
3	3	4	1	4	0	4	1	4	2	4	5	4	4	
3	14	7	0	7	0	7	1	7	5	7	3	7	4	
4	7	0	5	3	7	0	7	1	7	5	7	3	7	4	
4	12	13	6	9	13	0	13	1	13	2	13	1	13	0	
4	2	1	5	12	5	0	5	1	5	2	5	5	5	4	
3	5	0	6	5	0	5	1	5	2	5	1	5	0	
3	9	8	14	9	0	9	1	9	5	9	3	9	4	
4	13	6	9	8	13	0	13	1	13	2	13	3	13	4	
3	0	7	14	7	0	7	1	7	2	7	1	7	0	
2	4	3	4	0	4	1	4	5	4	3	4	4	
2	6	9	9	0	9	1	9	2	9	3	9	4	
3	6	9	11	9	0	9	1	9	2	9	5	9	4	
3	1	4	3	4	0	4	1	4	2	4	5	4	4	
3	8	7	2	7	0	7	1	7	2	7	5	7	4	
2	1	5	5	0	5	1	5	2	5	5	5	4	
5	4	2	7	8	9	4	0	4	1	4	2	4	1	4	0	
4	5	0	7	8	5	0	5	1	5	2	5	3	5	4	
4	10	13	6	0	13	0	13	1	13	2	13	3	13	4	
4	0	7	8	11	7	0	7	1	7	2	7	1	7	0	
5	11	8	7	2	1	7	0	7	1	7	2	7	1	7	0	
4	1	2	7	14	7	0	7	1	7	2	7	3	7	4	
6	14	7	0	6	13	10	7	0	7	1	7	2	7	5	7	4	
4	4	3	5	0	4	0	4	1	4	2	4	1	4	0	
4	2	7	8	9	7	0	7	1	7	5	7	3	7	4	
4	9	8	7	2	9	0	9	1	9	5	9	3	9	4	
4	13	12	5	3	13	0	13	1	13	5	13	3	13	4	
3	2	4	3	4	0	4	1	4	5	4	3	4	4	
4	6	13	6	0	13	0	13	1	13	5	13	3	13	4	
3	1	4	2	4	0	4	1	4	2	4	5	4	4	
5	6	0	7	2	4	7	0	7	1	7	5	7	3	7	4	
5	11	9	6	13	12	9	0	9	1	9	2	9	1	9	0	
4	14	7	0	6	7	0	7	1	7	2	7	3	7	4	
3	4	3	5	4	0	4	1	4	2	4	1	4	0	
4	8	9	6	13	9	0	9	1	9	5	9	3	9	4	
5	12	13	6	9	11	13	0	13	1	13	2	13	3	13	4	
3	5	1	4	5	0	5	1	5	2	5	3	5	4	
5	13	6	9	8	14	13	0	13	1	13	2	13	5	13	4	
4	0	7	0	6	7	0	7	1	7	2	7	5	7	4	
3	3	5	12	5	0	5	1	5	2	5	1	5	0	
5	7	0	6	13	10	7	0	7	1	7	2	7	5	7	4	
5	14	7	2	4	3	7	0	7	1	7	2	7	5	7	4	
6	11	9	6	0	5	3	9	0	9	1	9	5	9	3	9	4	
5	4	2	7	8	11	4	0	4	1	4	2	4	3	4	4	
4	9	6	0	5	9	0	9	1	9	2	9	3	9	4	
3	4	2	7	4	0	4	1	4	5	4	3	4	4	
6	10	13	6	9	8	14	13	0	13	1	13	2	13	1	13	0	
3	0	6	13	13	0	13	1	13	2	13	3	13	4	
2	3	5	5	0	5	1	5	2	5	1	5	0	
3	1	5	12	5	0	5	1	5	5	5	3	5	4	
3	7	8	9	7	0	7	1	7	2	7	3	7	4	
3	12	5	0	5	0	5	1	5	5	5	3	5	4	
5	14	7	0	6	13	7	0	7	1	7	2	7	1	7	0	
4	5	0	6	9	5	0	5	1	5	5	5	3	5	4	
4	10	12	5	3	5	0	5	1	5	2	5	1	5	0	
4	14	7	0	6	7	0	7	1	7	2	7	5	7	4	
3	3	5	0	5	0	5	1	5	2	5	1	5	0	
5	4	3	5	12	13	4	0	4	1	4	5	4	3	4	4	
4	11	8	7	14	7	0	7	1	7	2	7	3	7	4	
4	14	7	2	4	7	0	7	1	7	2	7	1	7	0	
3	4	2	7	4	0	4	1	4	2	4	3	4	4	
3	2	7	8	7	0	7	1	7	2	7	3	7	4	
4	1	2	7	14	7	0	7	1	7	2	7	5	7	4	
5	13	12	5	3	4	13	0	13	1	13	2	13	5	13	4	
2	6	13	13	0	13	1	13	2	13	5	13	4	
5	3	5	0	7	14	5	0	5	1	5	2	5	3	5	4	
3	8	9	6	9	0	9	1	9	2	9	3	9	4	
4	14	7	2	1	7	0	7	1	7	2	7	1	7	0	
2	7	2	7	0	7	1	7	2	7	1	7	0	
2	9	11	9	0	9	1	9	2	9	1	9	0	
4	13	6	0	7	13	0	13	1	13	2	13	3	13	4	
4	6	9	8	14	9	0	9	1	9	2	9	3	9	4	
5	11	9	6	0	5	9	0	9	1	9	5	9	3	9	4	
2	0	5	5	0	5	1	5	5	5	3	5	4	
3	7	8	11	7	0	7	1	7	2	7	1	7	0	
5	4	3	5	12	10	4	0	4	1	4	5	4	3	4	4	
2	9	6	9	0	9	1	9	2	9	1	9	0	
3	12	5	1	5	0	5	1	5	2	5	5	5	4	
4	11	9	6	0	9	0	9	1	9	5	9	3	9	4	
4	10	12	5	1	5	0	5	1	5	2	5	3	5	4	
4	3	5	12	13	5	0	5	1	5	5	5	3	5	4	
3	3	4	2	4	0	4	1	4	2	4	3	4	4	
4	1	5	12	13	5	0	5	1	5	2	5	3	5	4	
2	7	14	7	0	7	1	7	2	7	1	7	0	
4	12	5	0	7	5	0	5	1	5	2	5	5	5	4	
5	14	7	0	5	12	7	0	7	1	7	2	7	5	7	4	
4	2	7	0	6	7	0	7	1	7	2	7	1	7	0	
2	5	0	5	0	5	1	5	2	5	5	5	4	
5	3	4	2	7	14	4	0	4	1	4	5	4	3	4	4	
3	5	12	10	5	0	5	1	5	2	5	5	5	4	
2	11	9	9	0	9	1	9	5	9	3	9	4	
3	0	6	9	9	0	9	1	9	5	9	3	9	4	
3	6	0	5	5	0	5	1	5	2	5	1	5	0	
2	14	7	7	0	7	1	7	2	7	3	7	4	
5	4	3	5	0	6	4	0	4	1	4	5	4	3	4	4	
4	1	5	12	10	5	0	5	1	5	2	5	5	5	4	
4	12	5	3	4	5	0	5	1	5	2	5	3	5	4	
4	2	7	8	11	7	0	7	1	7	2	7	1	7	0	
2	5	3	5	0	5	1	5	2	5	3	5	4	
3	13	12	5	13	0	13	1	13	2	13	1	13	0	
3	6	13	12	13	0	13	1	13	2	13	1	13	0	
4	14	7	2	4	7	0	7	1	7	2	7	5	7	4	
4	8	7	0	5	7	0	7	1	7	2	7	1	7	0	
3	14	7	0	7	0	7	1	7	2	7	5	7	4	
4	7	0	5	3	7	0	7	1	7	2	7	5	7	4	
5	9	8	7	2	4	9	0	9	1	9	2	9	3	9	4	
2	9	11	9	0	9	1	9	2	9	5	9	4	
3	5	0	6	5	0	5	1	5	2	5	5	5	4	
4	13	6	9	8	13	0	13	1	13	2	13	1	13	0	
3	0	7	14	7	0	7	1	7	2	7	3	7	4	
2	6	9	9	0	9	1	9	2	9	1	9	0	
4	11	8	7	2	7	0	7	1	7	2	7	5	7	4	
3	1	4	3	4	0	4	1	4	2	4	1	4	0	
2	7	8	7	0	7	1	7	2	7	3	7	4	
4	10	13	6	9	13	0	13	1	13	5	13	3	13	4	
2	12	5	5	0	5	1	5	2	5	5	5	4	
5	11	9	6	13	12	9	0	9	1	9	5	9	3	9	4	
5	4	2	7	8	9	4	0	4	1	4	2	4	5	4	4	
5	3	5	0	6	9	9	0	9	1	9	5	9	3	9	4	
3	10	13	6	13	0	13	1	13	5	13	3	13	4	
4	5	0	7	8	5	0	5	1	5	2	5	1	5	0	
4	10	13	6	0	13	0	13	1	13	5	13	3	13	4	
5	11	8	7	2	1	7	0	7	1	7	2	7	3	7	4	
4	1	2	7	14	7	0	7	1	7	2	7	1	7	0	
4	4	3	5	0	4	0	4	1	4	2	4	3	4	4	
3	12	13	6	13	0	13	1	13	2	13	1	13	0	
4	2	7	8	9	7	0	7	1	7	2	7	3	7	4	
2	5	1	5	0	5	1	5	2	5	1	5	0	
4	13	12	5	3	13	0	13	1	13	2	13	5	13	4	
4	6	0	7	2	7	0	7	1	7	2	7	5	7	4	
5	6	0	5	3	4	5	0	5	1	5	2	5	5	5	4	
2	8	7	7	0	7	1	7	2	7	3	7	4	
3	7	0	5	7	0	7	1	7	2	7	5	7	4	
3	4	3	5	4	0	4	1	4	2	4	5	4	4	
5	12	13	6	9	11	13	0	13	1	13	2	13	1	13	0	
3	5	1	4	5	0	5	1	5	2	5	1	5	0	
6	10	13	6	9	8	14	13	0	13	1	13	5	13	3	13	4	
2	13	6	13	0	13	1	13	2	13	3	13	4	
3	0	5	1	5	0	5	1	5	5	5	3	5	4	
4	3	5	0	6	5	0	5	1	5	2	5	5	5	4	
3	3	5	12	5	0	5	1	5	2	5	5	5	4	
5	7	0	5	12	10	7	0	7	1	7	5	5	3	5	4	
5	9	6	0	5	3	9	0	9	1	9	5	9	3	9	4	
3	9	8	7	9	0	9	1	9	2	9	5	9	4	
5	4	2	7	8	11	4	0	4	1	4	2	4	1	4	0	
4	9	6	0	5	9	0	9	1	9	5	9	3	9	4	
6	10	13	6	9	8	14	13	0	13	1	13	2	13	3	13	4	
3	0	6	13	13	0	13	1	13	2	13	1	13	0	
2	3	5	5	0	5	1	5	2	5	3	5	4	
4	12	13	6	9	13	0	13	1	13	2	13	5	9	4	
6	11	8	7	2	4	3	7	0	7	1	7	2	7	1	7	0	
3	11	9	8	9	0	9	1	9	5	9	3	9	4	
3	1	5	12	5	0	5	1	5	2	5	3	5	4	
2	3	5	5	0	5	1	5	5	5	3	5	4	
2	4	2	4	0	4	1	4	2	4	1	4	0	
3	12	5	0	5	0	5	1	5	2	5	5	5	4	
5	10	13	6	9	8	13	0	13	1	13	5	9	3	9	4	
4	5	0	6	9	5	0	5	1	5	2	5	5	5	4	
4	10	12	5	3	5	0	5	1	5	2	5	5	5	4	
3	3	5	0	5	0	5	1	5	2	5	5	5	4	
4	11	9	8	14	9	0	9	1	9	2	9	1	9	0	
4	14	7	2	4	7	0	7	1	7	2	7	3	7	4	
3	2	7	14	7	0	7	1	7	5	7	3	7	4	
3	4	2	7	4	0	4	1	4	2	4	1	4	0	
2	12	5	5	0	5	1	5	2	5	3	5	4	
3	2	7	8	7	0	7	1	7	5	7	3	7	4	
3	5	1	2	5	0	5	1	5	2	5	3	5	4	
5	13	12	5	3	4	13	0	13	1	13	5	13	3	13	4	
2	6	13	13	0	13	1	13	5	13	3	13	4	
3	8	7	0	7	0	7	1	7	5	7	3	7	4	
3	7	8	9	7	0	7	1	7	2	7	5	7	4	
3	1	2	7	7	0	7	1	7	5	7	3	7	4	
5	3	5	0	7	14	5	0	5	1	5	2	5	1	5	0	
3	8	9	6	9	0	9	1	9	5	9	3	9	4	
2	9	11	9	0	9	1	9	2	9	3	9	4	
3	10	13	12	13	0	13	1	13	2	13	1	13	0	
4	3	4	2	7	4	0	4	1	4	2	4	1	4	0	
5	14	7	0	6	13	7	0	7	1	7	5	7	3	7	4	
5	11	8	7	0	5	7	0	7	1	7	2	7	5	7	4	
3	7	8	11	7	0	7	1	7	2	7	3	7	4	
3	2	1	5	5	0	5	1	5	2	5	5	5	4	
5	4	3	5	12	10	4	0	4	1	4	2	4	5	4	4	
2	9	6	9	0	9	1	9	2	9	5	9	4	
4	10	12	5	1	5	0	5	1	5	5	5	3	5	4	
2	12	13	13	0	13	1	13	2	13	5	13	4	
4	10	12	5	1	5	0	5	1	5	2	5	1	5	0	
5	1	2	7	8	11	7	0	7	1	7	5	7	3	7	4	
3	3	4	2	4	0	4	1	4	2	4	1	4	0	
4	11	9	6	0	9	0	9	1	9	2	9	3	9	4	
6	14	7	0	6	13	10	7	0	7	1	7	2	7	1	7	0	
2	4	1	4	0	4	1	4	2	4	3	4	4	
4	12	5	0	7	5	0	7	1	7	5	7	3	7	4	
4	2	7	0	6	7	0	7	1	7	2	7	3	7	4	
2	4	3	4	0	4	1	4	2	4	5	4	4	
3	3	4	2	4	0	4	1	4	5	4	3	4	4	
4	0	5	3	4	5	0	5	1	5	5	5	3	5	4	
3	5	12	10	5	0	5	1	5	5	5	3	5	4	
2	11	9	9	0	9	1	9	2	9	5	9	4	
4	11	9	6	0	9	0	9	1	9	2	9	5	9	4	
2	14	7	7	0	7	1	7	2	7	1	7	0	
5	4	3	5	0	6	4	0	4	1	4	2	4	5	4	4	
4	3	4	2	7	4	0	4	1	4	5	4	3	4	4	
4	2	7	8	11	7	0	7	1	7	2	7	5	7	4	
3	13	12	5	13	0	13	1	13	2	13	3	13	4	
3	9	6	0	9	0	9	1	9	5	9	3	9	4	
3	6	13	12	13	0	13	1	13	2	13	3	13	4	
3	1	5	0	5	0	5	1	5	2	5	5	5	4	
3	7	0	5	7	0	7	1	7	2	7	1	7	0	
2	12	13	13	0	13	1	13	5	13	3	13	4	
5	9	8	7	2	4	9	0	9	1	9	2	9	1	9	0	
3	0	7	8	7	0	7	1	7	5	7	3	7	4	
3	14	8	9	9	0	9	1	9	5	9	3	9	4	
3	0	7	14	7	0	7	1	7	5	7	3	7	4	
2	3	4	4	0	4	1	4	2	4	3	4	4	
2	8	7	7	0	7	1	7	2	7	5	7	4	
4	11	8	7	2	7	0	7	1	7	5	7	3	7	4	
3	1	5	3	5	0	5	1	5	2	5	3	5	4	
2	7	8	7	0	7	1	7	2	7	1	7	0	
3	10	12	5	5	0	5	1	5	5	5	3	5	4	
2	2	4	4	0	4	1	4	2	4	1	4	0	
5	4	2	7	8	9	4	0	4	1	4	5	4	3	4	4	
3	10	13	6	13	0	13	1	13	2	13	5	13	4	
4	10	13	6	0	13	0	13	1	13	2	13	5	13	4	
4	1	5	0	6	5	0	5	1	5	2	5	5	5	4	
5	8	9	6	13	12	9	0	9	1	9	2	9	5	9	4	
5	8	9	6	13	12	9	0	9	1	9	5	9	3	9	4	
5	8	9	6	13	10	9	0	9	1	9	2	9	1	9	0	
4	14	7	0	5	5	0	5	1	5	2	5	3	5	4	
3	4	2	7	4	0	4	1	4	2	4	5	4	4	
3	12	13	6	13	0	13	1	13	2	13	3	13	4	
4	2	7	8	9	7	0	7	1	7	2	7	1	7	0	
2	5	1	5	0	5	1	5	2	5	3	5	4	
4	13	12	5	3	13	0	13	1	13	2	13	1	13	0	
3	0	5	3	5	0	5	1	5	2	5	5	5	4	
4	6	0	7	2	7	0	7	1	7	2	7	1	7	0	
2	8	7	7	0	7	1	7	2	7	1	7	0	
3	4	1	5	5	0	5	1	5	5	5	3	5	4	
4	9	6	13	10	9	0	9	1	9	2	9	3	9	4	
4	14	7	0	6	7	0	7	1	7	5	7	3	7	4	
2	13	6	13	0	13	1	13	2	13	1	13	0	
2	7	8	7	0	7	1	7	2	7	5	7	4	
2	3	4	4	0	4	1	4	5	4	3	4	4	
4	3	5	0	6	5	0	5	1	5	5	5	3	5	4	
5	8	7	2	4	3	7	0	7	1	7	2	7	5	7	4	
5	7	0	6	13	10	7	0	7	1	7	2	7	3	7	4	
5	9	6	0	5	3	9	0	9	1	9	2	9	5	9	4	
4	14	7	0	5	7	0	7	1	7	5	7	3	7	4	
4	9	6	0	5	9	0	9	1	9	2	9	5	9	4	
3	0	6	13	13	0	13	1	13	2	13	5	13	4	
6	11	8	7	2	4	3	7	0	7	1	7	2	7	3	7	4	
3	1	5	12	5	0	5	1	5	2	5	1	5	0	
2	4	2	4	0	4	1	4	2	4	3	4	4	
3	12	5	0	5	0	5	1	5	2	5	1	5	0	
2	2	7	7	0	7	1	7	2	7	3	7	4	
