2535.34	2535.34
4980
24035.5	23476
15
0	0	3000
1	0	3000
2	0	3000
3	0	3000
4	636	3000
5	1141	3000
6	1122	3000
7	1061	3000
8	882	3000
9	0	3000
10	0	3000
11	0	3000
12	614	3000
13	0	3000
14	0	3000
44
0	5	92.085204	94.942746
5	0	94.938638	94.942746
0	6	80.526196	97.708373
6	0	77.087890	97.708373
0	7	91.165934	107.847469
7	0	91.649810	107.847469
1	2	33.615834	106.004333
2	1	33.438206	106.004333
1	4	23.519746	104.160274
4	1	13.893174	104.160274
1	5	47.351210	106.004333
5	1	56.959920	106.004333
2	4	50.951180	97.708373
4	2	49.600820	97.708373
2	7	93.376504	94.021178
7	2	93.516136	94.021178
3	4	40.549366	91.255735
4	3	51.061696	91.255735
3	5	69.155018	83.881529
5	3	59.313662	83.881529
5	12	82.627242	84.803282
12	5	84.335472	84.803282
6	9	86.729124	89.412137
9	6	85.685210	89.412137
6	13	89.685550	101.395569
13	6	88.038828	101.395569
7	8	81.038252	100.473078
8	7	80.973642	100.473078
7	14	41.968244	104.160274
14	7	42.666834	104.160274
8	9	58.237138	97.708373
9	8	57.788612	97.708373
8	11	46.361210	82.959776
11	8	48.220894	82.959776
8	14	24.439222	88.490385
14	8	23.726992	88.490385
9	11	20.660014	103.238705
11	9	19.227342	103.238705
10	12	36.701364	97.708373
12	10	34.140932	97.708373
10	13	29.943114	93.099610
13	10	32.997308	93.099610
12	13	48.450684	90.333982
13	12	46.937458	90.333982
840
4	10	12	5	3	5	0	5	1	5	5	5	3	5	4	
3	14	7	2	7	0	7	1	7	5	7	3	7	4	
3	3	5	0	5	0	5	1	5	5	5	3	5	4	
2	8	9	8	0	8	1	8	2	8	3	8	4	
4	14	7	2	4	7	0	7	1	7	5	7	3	7	4	
3	2	7	14	7	0	7	1	7	2	7	5	7	4	
4	9	6	13	12	6	0	6	1	6	5	6	3	6	4	
2	12	5	12	0	12	1	12	2	12	1	12	0	
3	2	7	8	7	0	7	1	7	2	7	5	8	4	
3	5	1	2	5	0	5	1	5	2	5	1	5	0	
5	13	12	5	1	4	12	0	12	1	12	2	12	3	12	4	
3	0	7	2	7	0	7	1	7	2	7	1	7	0	
4	4	3	5	12	4	0	4	1	4	5	4	3	4	4	
2	6	13	6	0	6	1	6	2	6	3	6	4	
3	8	7	0	8	0	8	1	8	2	8	5	8	4	
3	1	2	7	7	0	7	1	7	2	7	5	7	4	
3	8	9	6	8	0	8	1	8	2	8	5	8	4	
5	3	5	0	7	14	5	0	5	1	5	2	5	5	5	4	
2	8	7	8	0	8	1	8	5	8	3	8	4	
2	10	12	12	0	12	1	12	2	12	3	12	4	
4	3	4	2	7	4	0	4	1	4	2	4	3	4	4	
4	7	0	6	13	7	0	7	1	7	5	7	3	7	4	
4	14	7	2	1	7	0	7	1	7	5	7	3	7	4	
5	11	8	7	0	5	8	0	8	1	8	2	8	1	8	0	
3	1	4	2	4	0	4	1	4	2	4	3	4	4	
4	4	3	5	12	4	0	4	1	4	2	4	1	4	0	
3	7	2	1	7	0	7	1	7	5	7	3	7	4	
3	2	1	5	5	0	5	1	5	5	5	3	5	4	
2	9	6	6	0	6	1	6	5	6	3	6	4	
5	1	2	7	8	11	7	0	7	1	8	2	8	5	8	4	
4	11	8	7	0	8	0	8	1	8	2	8	1	8	0	
6	14	8	9	6	13	10	8	0	8	1	8	2	8	3	8	4	
2	4	1	4	0	4	1	4	2	4	1	4	0	
4	12	5	0	7	12	0	12	1	12	2	12	3	12	4	
2	5	0	5	0	5	1	5	2	5	3	5	4	
4	0	5	3	4	5	0	5	1	5	2	5	5	5	4	
3	11	8	9	8	0	8	1	8	2	8	1	8	0	
4	10	13	6	9	6	0	6	1	6	2	6	5	6	4	
2	9	8	8	0	8	1	8	5	8	3	8	4	
5	11	9	6	13	12	6	0	6	1	6	2	6	5	6	4	
3	7	0	6	7	0	7	1	7	2	7	5	7	4	
2	14	7	7	0	7	1	7	2	7	5	7	4	
4	13	6	9	11	6	0	6	1	6	5	6	3	6	4	
4	2	7	8	11	8	0	8	1	8	5	8	3	8	4	
3	6	13	10	6	0	6	1	6	5	6	3	6	4	
3	13	12	5	5	0	5	1	5	5	5	3	5	4	
3	0	5	1	5	0	5	1	5	2	5	3	5	4	
5	3	5	0	6	9	5	0	5	1	5	2	5	1	5	0	
4	3	5	12	10	12	0	12	1	12	2	12	5	12	4	
3	1	5	0	5	0	5	1	5	5	5	3	5	4	
3	7	0	5	7	0	5	1	5	2	5	3	5	4	
5	5	0	7	8	11	7	0	7	1	7	5	7	3	7	4	
3	0	7	8	7	0	7	1	7	2	7	5	7	4	
3	0	7	14	7	0	7	1	7	2	7	5	7	4	
2	3	4	4	0	4	1	4	2	4	1	4	0	
4	11	8	7	2	8	0	8	1	8	2	8	3	8	4	
2	14	8	8	0	8	1	8	2	8	1	8	0	
2	4	3	4	0	4	1	4	2	4	3	4	4	
2	2	4	4	0	4	1	4	2	4	3	4	4	
3	10	13	6	6	0	6	1	6	2	6	1	6	0	
3	13	6	0	6	0	6	1	6	2	6	5	6	4	
4	0	6	13	10	6	0	6	1	6	2	6	5	6	4	
4	6	0	5	1	6	0	6	1	6	2	6	5	6	4	
3	9	8	7	8	0	8	1	8	5	8	3	8	4	
5	8	9	6	13	10	8	0	8	1	8	2	8	3	8	4	
5	12	5	0	7	8	12	0	12	1	12	5	12	3	12	4	
4	14	7	0	5	7	0	7	1	7	2	7	1	7	0	
3	5	0	7	5	0	5	1	5	5	5	3	5	4	
3	12	13	6	6	0	6	1	6	5	6	3	6	4	
2	6	0	6	0	6	1	6	2	6	5	6	4	
2	5	1	5	0	5	1	5	5	5	3	5	4	
3	10	12	13	12	0	12	1	12	2	12	5	12	4	
4	13	12	5	3	5	0	5	1	5	2	5	3	5	4	
2	11	8	8	0	8	1	8	2	8	5	8	4	
4	6	0	7	2	6	0	6	1	6	2	6	3	6	4	
4	4	2	7	8	4	0	4	1	4	5	4	3	4	4	
4	9	6	13	10	6	0	6	1	6	2	6	1	6	0	
2	13	12	12	0	12	1	12	2	12	5	12	4	
3	10	12	13	12	0	12	1	12	2	12	3	12	4	
4	3	5	0	6	5	0	5	1	5	2	5	3	5	4	
5	7	0	6	13	10	7	0	7	1	7	2	7	1	7	0	
5	9	6	0	5	3	6	0	6	1	6	2	6	1	6	0	
3	12	5	3	12	0	12	1	12	2	12	5	12	4	
2	5	12	5	0	5	1	5	2	5	5	5	4	
3	7	8	9	7	0	7	1	7	5	7	3	7	4	
4	11	9	6	13	6	0	6	1	6	5	6	3	6	4	
3	0	6	13	6	0	6	1	6	5	6	3	6	4	
5	8	9	6	13	12	8	0	8	1	8	2	8	1	8	0	
3	14	8	11	8	0	8	1	8	2	8	3	8	4	
2	4	2	4	0	4	1	4	5	4	3	4	4	
3	12	5	0	12	0	12	1	12	2	12	3	12	4	
2	2	7	7	0	7	1	7	2	7	1	7	0	
5	14	7	0	6	13	7	0	7	1	7	2	7	5	7	4	
4	13	12	5	1	5	0	5	1	5	2	5	1	5	0	
2	6	0	6	0	6	1	6	2	6	1	6	0	
5	14	7	2	4	3	7	0	7	1	7	5	7	3	7	4	
3	14	7	2	7	0	7	1	7	2	7	5	7	4	
2	8	9	8	0	8	1	8	2	8	1	8	0	
3	6	13	12	6	0	6	1	6	2	6	5	6	4	
3	2	7	14	7	0	7	1	7	2	7	1	7	0	
4	10	12	5	1	5	0	5	1	5	2	5	5	5	4	
4	3	5	12	10	5	0	5	1	5	5	5	3	5	4	
2	9	8	8	0	8	1	8	2	8	3	8	4	
2	3	5	5	0	5	1	5	2	5	5	5	4	
3	5	1	2	5	0	5	1	5	2	5	5	5	4	
5	13	12	5	1	4	12	0	12	1	12	2	12	1	12	0	
3	0	7	2	7	0	7	1	7	2	7	3	7	4	
2	6	13	6	0	6	1	6	2	6	1	6	0	
3	8	7	0	7	0	7	1	7	2	7	1	7	0	
3	11	9	6	6	0	6	1	6	2	6	5	6	4	
3	1	2	7	7	0	7	1	7	2	7	1	7	0	
3	7	2	4	7	0	7	1	7	2	7	3	7	4	
3	3	4	2	4	0	4	1	4	2	4	5	4	4	
5	10	12	5	1	2	12	0	12	1	12	5	12	3	12	4	
3	3	4	1	4	0	4	1	4	5	4	3	4	4	
2	10	12	12	0	12	1	12	5	12	3	12	4	
3	13	6	9	6	0	6	1	6	5	6	3	6	4	
4	7	0	6	13	7	0	7	1	7	2	7	5	7	4	
5	11	8	7	0	5	8	0	8	1	8	2	8	3	8	4	
3	1	4	2	4	0	4	1	4	2	4	1	4	0	
4	4	3	5	12	4	0	4	1	4	2	4	3	4	4	
4	12	5	1	2	5	0	5	1	5	2	5	1	5	0	
3	2	1	5	5	0	5	1	5	2	5	3	5	4	
3	5	12	13	5	0	5	1	5	2	5	1	5	0	
4	5	0	7	14	5	0	5	1	5	5	5	3	5	4	
5	11	9	6	13	10	6	0	6	1	6	2	6	5	6	4	
3	13	6	9	6	0	6	1	6	2	6	5	6	4	
5	1	2	7	8	11	7	0	7	1	7	2	7	1	7	0	
2	8	11	8	0	8	1	8	2	8	3	8	4	
2	4	1	4	0	4	1	4	2	4	5	4	4	
3	14	8	9	8	0	8	1	8	2	8	5	8	4	
4	12	5	0	7	12	0	12	1	12	2	12	1	12	0	
2	5	0	5	0	5	1	5	2	5	1	5	0	
5	13	6	0	7	2	6	0	6	1	6	2	6	3	6	4	
4	0	5	3	4	5	0	5	1	5	2	5	1	5	0	
3	7	8	11	7	0	7	1	7	5	7	3	7	4	
4	6	0	5	3	6	0	6	1	6	2	6	3	6	4	
3	11	8	9	8	0	8	1	8	2	8	3	8	4	
3	10	12	5	12	0	12	1	12	2	12	5	12	4	
3	7	0	6	7	0	7	1	7	5	7	3	7	4	
5	12	5	0	7	14	12	0	12	1	12	2	12	1	12	0	
2	14	7	7	0	7	1	7	5	7	3	7	4	
4	13	6	9	11	6	0	6	1	6	2	6	5	6	4	
3	6	13	10	6	0	6	1	6	2	6	5	6	4	
3	13	12	5	5	0	5	1	5	2	5	5	5	4	
3	0	5	1	5	0	5	1	5	2	5	1	5	0	
5	3	5	0	6	9	5	0	5	1	5	2	5	3	5	4	
3	11	8	7	7	0	7	1	7	2	7	1	7	0	
3	1	5	0	5	0	5	1	5	2	5	3	5	4	
4	4	2	7	14	4	0	4	1	4	2	4	1	4	0	
5	5	0	7	8	11	5	0	5	1	5	2	5	5	5	4	
5	13	6	9	8	14	6	0	6	1	6	2	6	3	6	4	
3	0	7	8	7	0	7	1	7	2	7	1	7	0	
2	3	4	4	0	4	1	4	2	4	5	4	4	
4	11	8	7	2	8	0	8	1	8	2	8	1	8	0	
2	14	8	8	0	8	1	8	2	8	3	8	4	
5	2	1	5	12	10	5	0	5	1	5	5	5	3	5	4	
2	4	3	4	0	4	1	4	2	4	1	4	0	
3	12	5	1	12	0	12	1	12	2	12	3	12	4	
2	2	4	4	0	4	1	4	5	4	3	4	4	
4	5	0	7	14	5	0	5	1	5	2	5	3	5	4	
3	10	13	6	6	0	6	1	6	2	6	3	6	4	
3	13	6	0	6	0	6	1	6	5	6	3	6	4	
4	6	0	5	1	6	0	6	1	6	5	6	3	6	4	
4	8	7	2	4	8	0	8	1	8	5	8	3	8	4	
4	14	7	0	5	5	0	5	1	5	2	5	5	5	4	
5	8	9	6	13	10	8	0	8	1	8	5	8	3	8	4	
5	12	13	6	9	8	12	0	12	1	12	2	12	5	12	4	
3	5	0	7	5	0	5	1	5	2	5	5	5	4	
3	12	13	6	12	0	12	1	12	2	12	5	12	4	
2	5	1	5	0	5	1	5	2	5	5	5	4	
5	10	13	6	9	8	6	0	6	1	6	2	6	1	6	0	
3	0	5	3	5	0	5	1	5	2	5	3	5	4	
6	3	4	2	7	8	11	4	0	4	1	4	2	4	1	4	0	
4	4	2	7	8	4	0	4	1	4	2	4	5	4	4	
2	12	13	12	0	12	1	12	2	12	3	12	4	
2	7	8	7	0	7	1	7	5	7	3	7	4	
3	2	4	1	4	0	4	1	4	2	4	5	4	4	
4	9	6	13	10	6	0	6	1	6	2	6	5	6	4	
2	13	12	12	0	12	1	12	5	12	3	12	4	
3	10	12	13	12	0	12	1	12	2	12	1	12	0	
4	3	5	0	6	5	0	5	1	5	2	5	1	5	0	
4	9	6	13	12	6	0	6	1	6	2	6	5	6	4	
5	11	8	7	2	4	8	0	8	1	8	2	8	3	8	4	
2	8	11	8	0	8	1	8	5	8	3	8	4	
5	4	3	5	12	13	4	0	4	1	4	2	4	3	4	4	
5	9	6	0	5	3	6	0	6	1	6	2	6	3	6	4	
3	12	5	3	12	0	12	1	12	5	12	3	12	4	
2	5	12	5	0	5	1	5	5	5	3	5	4	
5	10	12	5	3	4	5	0	5	1	5	2	5	1	5	0	
4	1	5	12	13	12	0	12	1	12	2	12	5	12	4	
4	11	9	6	13	6	0	6	1	6	2	6	5	6	4	
5	8	9	6	13	12	8	0	8	1	8	2	8	3	8	4	
3	14	8	11	8	0	8	1	8	2	8	1	8	0	
5	2	7	0	6	13	7	0	7	1	7	2	7	5	7	4	
2	4	2	4	0	4	1	4	2	4	5	4	4	
3	9	6	13	6	0	6	1	6	2	6	1	6	0	
2	2	7	7	0	7	1	7	2	7	5	7	4	
4	13	12	5	1	12	0	12	1	12	2	12	3	12	4	
2	6	0	6	0	6	1	6	2	6	3	6	4	
2	11	8	8	0	8	1	8	2	8	3	8	4	
3	14	7	2	7	0	7	1	7	2	7	1	7	0	
4	6	0	7	2	6	0	6	1	6	5	6	3	6	4	
2	1	4	4	0	4	1	4	2	4	5	4	4	
3	7	2	1	7	0	7	1	7	2	7	1	7	0	
3	2	7	14	7	0	7	1	7	2	7	3	7	4	
2	9	8	8	0	8	1	8	2	8	1	8	0	
3	0	5	12	12	0	12	1	12	5	12	3	12	4	
3	5	1	2	5	0	5	1	5	5	5	3	5	4	
5	10	13	6	9	11	6	0	6	1	6	2	6	3	6	4	
3	0	7	2	7	0	7	1	7	5	7	3	7	4	
5	3	5	0	7	8	5	0	5	1	5	2	5	3	5	4	
3	8	7	0	8	0	8	1	8	2	8	3	8	4	
3	11	9	6	6	0	6	1	6	5	6	3	6	4	
3	3	5	12	12	0	12	1	12	5	12	3	12	4	
3	1	2	7	7	0	7	1	7	2	7	3	7	4	
3	7	2	4	7	0	7	1	7	2	7	1	7	0	
5	9	6	0	5	1	6	0	6	1	6	2	6	1	6	0	
3	2	7	0	7	0	7	1	7	2	7	1	7	0	
2	12	5	12	0	12	1	12	5	12	3	12	4	
5	10	12	5	1	2	5	0	5	1	5	2	5	5	5	4	
2	9	8	8	0	8	1	8	2	8	5	8	4	
2	10	12	12	0	12	1	12	2	12	5	12	4	
4	1	2	7	8	7	0	7	1	7	2	7	5	7	4	
4	3	5	0	7	5	0	5	1	5	2	5	5	5	4	
4	7	0	6	13	7	0	7	1	7	2	7	1	7	0	
2	8	14	8	0	8	1	8	2	8	1	8	0	
3	14	8	9	8	0	8	1	8	2	8	3	8	4	
5	1	5	0	6	9	5	0	5	1	5	2	5	5	5	4	
4	12	5	1	2	12	0	12	1	12	2	12	3	12	4	
3	2	1	5	5	0	5	1	5	2	5	1	5	0	
3	5	12	13	5	0	5	1	5	2	5	3	5	4	
5	10	13	6	0	7	6	0	6	1	6	2	6	3	6	4	
2	0	7	7	0	7	1	7	2	7	5	7	4	
5	11	9	6	13	10	6	0	6	1	6	5	6	3	6	4	
5	1	2	7	8	11	7	0	7	1	7	2	7	3	7	4	
2	8	11	8	0	8	1	8	2	8	1	8	0	
4	2	1	5	12	5	0	5	1	5	2	5	1	5	0	
2	4	1	4	0	4	1	4	5	4	3	4	4	
3	9	8	14	8	0	8	1	8	2	8	3	8	4	
5	9	8	7	2	4	8	0	8	1	8	5	8	3	8	4	
5	13	6	0	7	2	6	0	6	1	6	2	6	1	6	0	
4	0	5	3	4	5	0	5	1	5	2	5	3	5	4	
4	6	0	5	3	5	0	5	1	5	2	5	1	5	0	
3	8	7	2	8	0	8	1	8	2	8	1	8	0	
2	1	5	5	0	5	1	5	2	5	1	5	0	
3	7	0	6	7	0	7	1	7	2	7	3	7	4	
5	12	5	0	7	14	12	0	12	1	12	2	12	3	12	4	
4	13	6	9	11	6	0	6	1	6	2	6	1	6	0	
4	0	7	8	11	7	0	7	1	7	2	7	5	7	4	
3	6	13	10	6	0	6	1	6	2	6	1	6	0	
3	0	5	1	5	0	5	1	5	2	5	5	5	4	
2	7	0	7	0	7	1	7	2	7	5	7	4	
3	11	8	7	8	0	8	1	8	2	8	3	8	4	
3	1	5	0	5	0	5	1	5	2	5	1	5	0	
4	4	2	7	14	4	0	4	1	4	2	4	3	4	4	
4	9	8	7	2	8	0	8	1	8	2	7	3	7	4	
5	9	8	7	2	4	8	0	8	1	8	2	8	5	8	4	
3	2	4	3	4	0	4	1	4	2	4	3	4	4	
5	8	7	2	4	3	8	0	8	1	8	5	8	3	8	4	
5	5	0	7	8	11	5	0	5	1	5	2	5	1	5	0	
5	13	6	9	8	14	6	0	6	1	6	2	6	1	6	0	
3	0	7	8	7	0	7	1	7	2	7	3	7	4	
4	2	1	5	12	5	0	5	1	5	5	5	3	5	4	
5	1	5	0	6	9	5	0	5	1	5	2	5	1	5	0	
3	6	0	7	6	0	6	1	6	5	6	3	6	4	
4	8	9	6	13	8	0	8	1	8	2	8	3	8	4	
2	14	8	8	0	8	1	8	5	8	3	8	4	
5	2	1	5	12	10	5	0	5	1	5	2	5	5	5	4	
3	12	5	1	5	0	5	1	5	2	5	1	5	0	
2	2	4	4	0	4	1	4	2	4	5	4	4	
4	5	0	7	14	5	0	5	1	5	2	5	1	5	0	
3	13	6	0	6	0	6	1	6	2	6	3	6	4	
2	0	6	6	0	6	1	6	2	6	1	6	0	
6	11	8	7	2	4	3	8	0	8	1	8	2	8	5	8	4	
4	6	0	5	1	6	0	6	1	6	2	6	3	6	4	
4	8	7	2	4	8	0	8	1	8	2	8	5	8	4	
2	8	9	8	0	8	1	8	5	8	3	8	4	
5	8	9	6	13	10	8	0	8	1	8	2	8	5	8	4	
5	12	13	6	9	8	12	0	12	1	12	2	12	1	12	0	
3	5	0	7	5	0	5	1	5	2	5	1	5	0	
5	10	13	6	9	8	6	0	6	1	6	2	6	3	6	4	
3	0	5	3	5	0	5	1	5	2	5	1	5	0	
6	3	4	2	7	8	11	4	0	4	1	4	2	4	3	4	4	
4	8	7	2	1	8	0	8	1	8	2	8	3	8	4	
2	12	10	12	0	12	1	12	2	12	5	12	4	
4	1	5	0	6	5	0	5	1	5	2	5	3	5	4	
2	6	9	6	0	6	1	6	5	6	3	6	4	
4	4	2	7	8	4	0	4	1	4	2	4	1	4	0	
2	12	13	12	0	12	1	12	2	12	1	12	0	
3	2	4	1	4	0	4	1	4	5	4	3	4	4	
4	9	6	13	10	6	0	6	1	6	5	6	3	6	4	
2	13	12	12	0	12	1	12	2	12	3	12	4	
4	0	5	12	10	5	0	5	1	5	2	5	1	5	0	
5	13	12	5	1	2	12	0	12	1	12	5	12	3	12	4	
3	6	13	12	6	0	6	1	6	5	6	3	6	4	
5	11	8	7	2	4	7	0	7	1	7	2	7	1	7	0	
5	4	3	5	12	13	4	0	4	1	4	2	4	1	4	0	
3	12	5	3	12	0	12	1	12	2	12	3	12	4	
2	5	12	5	0	5	1	5	2	5	3	5	4	
5	10	12	5	3	4	5	0	5	1	5	2	5	3	5	4	
4	6	0	5	3	6	0	6	1	6	5	6	3	6	4	
4	11	9	6	13	6	0	6	1	6	2	6	1	6	0	
4	1	5	12	10	5	0	5	1	5	2	5	3	5	4	
2	7	2	7	0	7	1	7	2	7	5	7	4	
3	14	8	11	8	0	8	1	8	2	8	5	8	4	
5	2	7	0	6	13	7	0	7	1	7	5	7	3	7	4	
3	9	6	13	6	0	6	1	6	2	6	3	6	4	
4	13	6	0	7	6	0	6	1	6	5	6	3	6	4	
2	2	7	7	0	7	1	7	5	7	3	7	4	
4	7	0	5	12	7	0	7	1	7	5	7	3	7	4	
4	6	0	7	14	6	0	7	1	7	5	7	3	7	4	
4	8	7	0	5	8	0	8	1	8	5	8	3	8	4	
4	13	12	5	1	5	0	5	1	5	5	5	3	5	4	
2	0	5	5	0	5	1	5	2	5	3	5	4	
4	3	5	12	13	5	0	5	1	5	2	5	1	5	0	
2	11	8	8	0	8	1	8	2	8	1	8	0	
3	14	7	2	7	0	7	1	7	2	7	3	7	4	
2	1	4	4	0	4	1	4	5	4	3	4	4	
3	7	2	1	7	0	7	1	7	2	7	3	7	4	
2	7	0	7	0	7	1	7	5	7	3	7	4	
3	0	5	12	5	0	5	1	5	2	5	5	5	4	
3	7	8	11	7	0	7	1	7	2	7	5	7	4	
5	12	5	0	7	14	12	0	12	1	12	2	12	5	12	4	
5	10	13	6	9	11	6	0	6	1	6	2	6	1	6	0	
3	0	7	2	7	0	7	1	7	2	7	5	7	4	
5	3	4	2	7	8	4	0	4	1	4	2	4	1	4	0	
2	7	14	7	0	7	1	7	2	7	5	7	4	
3	11	9	6	6	0	6	1	6	2	6	3	6	4	
5	14	7	0	5	12	7	0	7	1	7	2	7	1	7	0	
3	7	2	4	7	0	7	1	7	2	7	5	7	4	
5	9	6	0	5	1	6	0	6	1	6	2	6	3	6	4	
2	13	6	6	0	6	1	6	5	6	3	6	4	
3	2	7	0	7	0	7	1	7	2	7	3	7	4	
4	4	3	5	12	4	0	4	1	4	2	4	5	4	4	
5	10	12	5	1	2	12	0	12	1	12	2	12	1	12	0	
3	6	9	8	6	0	6	1	6	5	6	3	6	4	
3	0	6	9	6	0	6	1	6	2	6	3	6	4	
3	3	4	1	4	0	4	1	4	2	4	1	4	0	
3	6	0	5	6	0	6	1	6	2	6	5	6	4	
3	7	0	5	7	0	7	1	7	5	7	3	7	4	
4	7	0	6	13	7	0	7	1	7	2	7	3	7	4	
2	8	14	8	0	8	1	8	2	8	3	8	4	
4	12	5	3	4	5	0	5	1	5	5	5	3	5	4	
3	14	8	9	8	0	8	1	8	2	8	1	8	0	
2	5	3	5	0	5	1	5	5	5	3	5	4	
4	12	5	1	2	12	0	12	1	12	5	12	3	12	4	
3	5	12	13	5	0	5	1	5	5	5	3	5	4	
5	10	13	6	0	7	6	0	6	1	6	2	6	1	6	0	
2	0	7	7	0	7	1	7	5	7	3	7	4	
5	11	9	6	13	10	6	0	6	1	6	2	6	3	6	4	
3	14	7	0	7	0	7	1	7	2	7	1	7	0	
4	7	0	5	3	7	0	7	1	7	2	7	1	7	0	
4	2	1	5	12	5	0	5	1	5	2	5	3	5	4	
4	8	7	2	1	8	0	8	1	8	5	8	3	8	4	
3	9	8	14	8	0	8	1	8	2	8	1	8	0	
4	13	6	9	8	6	0	6	1	6	2	6	5	6	4	
2	5	0	5	0	5	1	5	5	5	3	5	4	
2	6	9	6	0	6	1	6	2	6	5	6	4	
4	10	13	6	9	6	0	6	1	6	2	6	3	6	4	
4	3	5	12	10	12	0	12	1	12	2	12	3	12	4	
3	8	7	2	8	0	8	1	8	2	8	3	8	4	
2	1	5	5	0	5	1	5	2	5	3	5	4	
3	7	0	6	7	0	7	1	7	2	7	1	7	0	
3	9	8	7	8	0	8	1	8	2	8	1	8	0	
4	1	5	0	6	5	0	5	1	5	5	5	3	5	4	
4	5	0	7	8	5	0	5	1	5	2	5	5	5	4	
4	13	6	9	11	6	0	6	1	6	2	6	3	6	4	
4	0	6	9	11	6	0	6	1	6	5	6	3	6	4	
3	6	13	10	6	0	6	1	6	2	6	3	6	4	
5	11	8	7	2	1	8	0	8	1	8	5	8	3	8	4	
3	6	9	8	6	0	6	1	6	2	6	5	6	4	
4	4	2	7	0	4	0	4	1	4	5	4	3	4	4	
3	13	12	10	12	0	12	1	12	5	12	3	12	4	
3	11	8	7	8	0	7	1	7	5	7	3	7	4	
4	4	2	7	14	4	0	4	1	4	5	4	3	4	4	
4	9	8	7	2	8	0	8	1	8	2	8	1	8	0	
3	2	4	3	4	0	4	1	4	2	4	1	4	0	
5	5	0	6	9	11	5	0	5	1	5	2	5	3	5	4	
3	10	12	5	12	0	12	1	12	2	12	3	12	4	
5	6	0	5	3	4	5	0	5	1	5	2	5	1	5	0	
5	1	2	7	8	9	7	0	7	1	7	2	7	3	7	4	
3	6	9	11	6	0	6	1	6	5	6	3	6	4	
4	8	9	6	13	8	0	8	1	8	2	8	1	8	0	
5	12	13	6	9	11	6	0	6	1	6	2	6	5	6	4	
2	14	8	8	0	8	1	8	2	8	5	8	4	
5	2	1	5	12	10	5	0	5	1	5	2	5	1	5	0	
3	5	1	4	5	0	5	1	5	2	5	5	5	4	
4	9	6	13	12	6	0	6	1	6	2	6	3	6	4	
4	1	2	7	8	7	0	7	1	7	5	7	3	7	4	
4	5	0	7	14	5	0	5	1	5	2	5	5	5	4	
3	13	6	0	6	0	6	1	6	2	6	1	6	0	
2	0	6	6	0	6	1	6	2	6	3	6	4	
4	6	0	5	1	5	0	5	1	5	2	5	1	5	0	
4	8	7	2	4	8	0	8	1	8	2	8	1	8	0	
5	14	7	2	4	3	7	0	7	1	7	2	7	3	7	4	
2	7	0	7	0	7	1	7	2	7	3	7	4	
5	12	13	6	9	8	12	0	12	1	12	2	6	3	6	4	
4	1	5	12	13	12	0	12	1	12	5	12	3	12	4	
3	5	0	7	5	0	5	1	5	2	5	3	5	4	
3	13	6	9	6	0	6	1	6	2	6	1	6	0	
3	6	9	8	6	0	6	1	6	2	6	1	6	0	
4	3	5	12	13	5	0	5	1	5	2	5	5	5	4	
6	3	4	2	7	8	11	4	0	4	1	4	5	4	3	4	4	
4	8	7	2	1	7	0	7	1	7	2	7	1	7	0	
3	1	4	2	4	0	4	1	4	5	4	3	4	4	
4	1	5	0	6	5	0	5	1	5	2	5	1	5	0	
4	4	2	7	8	4	0	4	1	4	2	4	3	4	4	
3	9	6	0	6	0	6	1	6	2	6	3	6	4	
3	2	4	1	4	0	4	1	4	2	4	3	4	4	
4	5	0	6	9	5	0	5	1	5	2	5	1	5	0	
2	13	12	12	0	12	1	12	2	12	1	12	0	
4	0	6	13	10	6	0	6	1	6	2	6	3	6	4	
5	13	6	9	8	14	6	0	6	1	6	5	6	3	6	4	
3	11	8	14	8	0	8	1	8	2	8	5	8	4	
4	7	0	5	12	7	0	7	1	7	2	7	3	7	4	
5	11	8	7	2	4	7	0	7	1	7	2	7	5	7	4	
5	4	3	5	12	13	4	0	4	1	4	2	4	5	4	4	
3	12	5	3	5	0	5	1	5	2	5	1	5	0	
2	5	12	5	0	5	1	5	2	5	1	5	0	
5	10	12	5	3	4	12	0	12	1	12	5	12	3	12	4	
4	7	0	5	12	7	0	7	1	7	2	7	5	7	4	
3	6	0	7	6	0	6	1	6	2	6	3	6	4	
4	11	9	6	13	6	0	6	1	6	2	6	3	6	4	
4	1	5	12	10	12	0	12	1	12	2	12	1	12	0	
2	7	2	7	0	7	1	7	5	7	3	7	4	
2	12	10	12	0	12	1	12	2	12	1	12	0	
3	14	8	11	8	0	8	1	8	5	8	3	8	4	
5	2	7	0	6	13	7	0	7	1	7	2	7	3	7	4	
3	9	6	13	6	0	6	1	6	5	6	3	6	4	
4	13	6	0	7	6	0	6	1	6	2	6	5	6	4	
4	6	0	7	14	6	0	6	1	6	2	6	5	6	4	
4	13	12	5	1	5	0	5	1	5	2	5	5	5	4	
2	0	5	5	0	5	1	5	2	5	1	5	0	
4	3	5	12	13	5	0	5	1	5	2	12	3	12	4	
5	8	7	2	4	3	8	0	8	1	8	2	8	3	8	4	
5	1	2	7	8	9	7	0	7	1	7	5	7	3	7	4	
2	1	4	4	0	4	1	4	2	4	3	4	4	
5	4	3	5	12	10	4	0	4	1	4	2	4	1	4	0	
3	13	12	10	12	0	12	1	12	2	12	3	12	4	
3	0	5	12	12	0	12	1	12	2	12	1	12	0	
3	6	9	11	6	0	6	1	6	2	6	3	6	4	
4	1	2	7	14	7	0	7	1	7	5	7	3	7	4	
5	10	13	6	9	11	6	0	6	1	6	2	6	5	6	4	
5	3	5	0	7	8	5	0	5	1	5	2	5	5	5	4	
2	7	14	7	0	7	1	7	5	7	3	7	4	
3	11	9	6	6	0	6	1	6	2	6	1	6	0	
5	14	7	0	5	12	5	0	5	1	5	2	5	3	5	4	
4	2	7	0	6	7	0	7	1	7	5	7	3	7	4	
3	7	2	4	7	0	7	1	7	5	7	3	7	4	
5	9	8	7	2	1	8	0	8	1	8	5	8	3	8	4	
3	2	7	0	7	0	7	1	7	5	7	3	7	4	
3	5	12	10	5	0	5	1	5	2	5	3	5	4	
5	10	12	5	1	2	12	0	12	1	12	2	12	3	12	4	
3	0	6	9	6	0	6	1	6	2	6	1	6	0	
3	3	4	1	4	0	4	1	4	2	4	3	4	4	
3	6	0	5	6	0	6	1	6	5	6	3	6	4	
4	1	2	7	8	7	0	7	1	7	2	7	3	7	4	
5	4	3	5	0	6	4	0	4	1	4	2	4	1	4	0	
2	8	14	8	0	8	1	8	5	8	3	8	4	
4	12	5	3	4	5	0	5	1	5	2	5	5	5	4	
3	5	1	4	5	0	5	1	5	5	5	3	5	4	
2	5	3	5	0	5	1	5	2	5	5	5	4	
4	12	5	1	2	5	0	5	1	5	2	5	5	5	4	
3	5	12	13	5	0	5	1	5	2	5	5	5	4	
5	10	13	6	0	7	6	0	6	1	6	2	6	5	6	4	
3	12	5	1	12	0	12	1	12	5	12	3	12	4	
2	0	7	7	0	7	1	7	2	7	3	7	4	
5	11	9	6	13	10	6	0	6	1	6	2	6	1	6	0	
3	14	7	0	7	0	7	1	7	2	7	3	7	4	
4	7	0	5	3	5	0	5	1	5	2	5	3	5	4	
4	12	13	6	9	12	0	12	1	12	2	12	3	12	4	
3	9	6	0	6	0	6	1	6	2	6	5	6	4	
3	5	0	6	5	0	5	1	5	2	5	3	5	4	
3	9	8	14	8	0	8	1	8	2	8	5	8	4	
4	13	6	9	8	6	0	6	1	6	5	6	3	6	4	
3	6	0	7	6	0	6	1	6	2	6	5	6	4	
4	10	13	6	9	6	0	6	1	6	2	6	1	6	0	
3	1	4	3	4	0	4	1	4	5	4	3	4	4	
4	3	5	12	10	12	0	12	1	12	2	12	1	12	0	
3	8	7	2	8	0	8	1	8	5	8	3	8	4	
2	1	5	5	0	5	1	5	5	5	3	5	4	
5	4	2	7	8	9	4	0	4	1	4	2	4	3	4	4	
3	9	8	7	8	0	8	1	8	2	8	3	8	4	
3	9	8	11	8	0	8	1	8	5	8	3	8	4	
4	1	5	12	10	5	0	5	1	5	5	12	3	12	4	
4	5	0	7	8	5	0	7	1	7	5	7	3	7	4	
4	10	13	6	0	6	0	6	1	6	2	6	1	6	0	
4	0	7	8	11	7	0	7	1	7	2	7	3	7	4	
2	8	9	8	0	8	1	8	2	8	5	8	4	
5	11	8	7	2	1	8	0	8	1	8	2	8	5	8	4	
4	4	2	7	0	7	0	7	1	7	2	7	5	7	4	
3	10	12	13	12	0	12	1	12	5	12	3	12	4	
3	11	8	7	7	0	7	1	7	2	7	5	7	4	
4	2	7	8	9	7	0	7	1	7	2	7	5	7	4	
4	4	2	7	14	4	0	4	1	4	2	4	5	4	4	
4	9	8	7	2	8	0	8	1	8	2	8	5	8	4	
3	2	4	3	4	0	4	1	4	2	4	5	4	4	
3	10	12	5	5	0	5	1	5	2	5	1	5	0	
2	12	10	12	0	12	1	12	5	12	3	12	4	
5	6	0	5	3	4	5	0	5	1	5	2	5	3	5	4	
5	11	9	6	13	12	6	0	6	1	6	2	6	3	6	4	
5	4	2	7	8	11	4	0	4	1	4	2	4	5	4	4	
4	14	8	9	6	8	0	8	1	8	2	8	1	8	0	
3	4	3	5	4	0	4	1	4	2	4	3	4	4	
4	8	9	6	13	8	0	8	1	8	2	8	5	8	4	
5	12	13	6	9	11	12	0	12	1	12	5	12	3	12	4	
5	2	1	5	12	10	5	0	5	1	5	2	5	3	5	4	
5	13	6	0	7	2	6	0	6	1	6	2	6	5	6	4	
4	9	6	13	12	6	0	6	1	6	2	6	1	6	0	
5	3	5	0	6	9	5	0	5	1	5	2	5	5	5	4	
2	0	6	6	0	6	1	6	5	6	3	6	4	
3	3	5	12	12	0	12	1	12	2	12	3	12	4	
4	8	7	2	4	7	0	7	1	7	2	7	3	7	4	
5	14	7	2	4	3	7	0	7	1	7	2	7	1	7	0	
3	7	2	1	7	0	7	1	7	2	7	5	7	4	
2	7	0	7	0	7	1	7	2	7	1	7	0	
4	9	6	0	5	6	0	6	1	6	2	6	1	6	0	
5	4	2	7	8	11	4	0	4	1	4	5	4	3	4	4	
4	6	0	5	3	6	0	6	1	6	2	6	5	6	4	
3	13	6	9	6	0	6	1	6	2	6	3	6	4	
3	6	9	8	6	0	6	1	6	2	6	3	6	4	
5	10	13	6	9	8	6	0	6	1	6	2	6	5	6	4	
3	1	5	12	12	0	12	1	12	2	12	5	12	4	
6	3	4	2	7	8	11	4	0	4	1	4	2	4	5	4	4	
3	7	8	9	7	0	7	1	7	2	7	1	7	0	
5	14	8	9	6	13	8	0	8	1	8	2	8	3	8	4	
3	9	6	0	6	0	6	1	6	2	6	1	6	0	
4	8	7	0	5	8	0	8	1	8	2	8	5	8	4	
3	0	5	3	5	0	5	1	5	5	5	3	5	4	
3	2	4	1	4	0	4	1	4	2	4	1	4	0	
2	8	11	8	0	8	1	8	2	8	5	8	4	
4	5	0	6	9	5	0	5	1	5	2	5	3	5	4	
4	10	12	5	3	12	0	12	1	12	2	12	3	12	4	
4	0	6	13	10	6	0	6	1	6	5	6	3	6	4	
3	3	5	0	5	0	5	1	5	2	5	3	5	4	
3	11	8	14	8	0	8	1	8	5	8	3	8	4	
4	7	0	5	12	7	0	7	1	7	2	7	1	7	0	
5	11	8	7	2	4	7	0	7	1	7	5	7	3	7	4	
3	2	7	8	7	0	7	1	7	2	7	1	7	0	
6	10	13	6	9	8	14	6	0	6	1	6	2	6	5	6	4	
5	12	5	0	7	14	12	0	12	1	12	5	12	3	12	4	
5	10	12	5	3	4	12	0	12	1	12	2	12	5	5	4	
3	5	0	6	5	0	5	1	5	5	5	3	5	4	
3	6	0	7	6	0	6	1	6	2	6	1	6	0	
3	8	9	6	8	0	8	1	8	2	8	1	8	0	
4	14	7	2	1	7	0	7	1	7	2	7	3	7	4	
2	13	6	6	0	6	1	6	2	6	5	6	4	
4	12	13	6	9	12	0	12	1	12	5	12	3	12	4	
2	7	2	7	0	7	1	7	2	7	3	7	4	
2	12	10	12	0	12	1	12	2	12	3	12	4	
5	2	7	0	6	13	7	0	7	1	7	2	7	1	7	0	
4	14	7	2	1	7	0	7	1	7	2	7	5	7	4	
3	9	6	13	6	0	6	1	6	2	6	5	6	4	
4	13	6	0	7	6	0	6	1	6	2	6	1	6	0	
4	6	9	8	14	6	0	6	1	6	2	6	1	6	0	
2	0	5	5	0	5	1	5	2	5	5	5	4	
5	8	7	0	5	3	8	0	8	1	7	2	7	1	7	0	
2	1	4	4	0	4	1	4	2	4	1	4	0	
5	4	3	5	12	10	4	0	4	1	4	2	4	3	4	4	
2	9	6	6	0	6	1	6	2	6	3	6	4	
6	14	8	9	6	13	10	8	0	8	1	8	5	8	3	8	4	
3	13	12	10	12	0	12	1	12	2	12	1	12	0	
3	0	5	12	5	0	5	1	5	2	5	3	5	4	
3	6	9	11	6	0	6	1	6	2	6	1	6	0	
5	10	13	6	9	11	6	0	6	1	6	5	6	3	6	4	
4	1	5	12	13	5	0	5	1	12	2	12	1	12	0	
5	3	4	2	7	8	4	0	4	1	4	5	4	3	4	4	
2	7	14	7	0	7	1	7	2	7	3	7	4	
4	8	7	2	1	8	0	8	1	8	2	8	5	8	4	
5	14	7	0	5	12	7	0	7	1	7	5	7	3	7	4	
4	2	7	0	6	7	0	7	1	7	2	7	5	7	4	
5	9	6	0	5	1	6	0	6	1	6	2	6	5	6	4	
3	2	7	0	7	0	7	1	7	2	7	5	7	4	
3	5	12	10	5	0	5	1	5	2	5	1	5	0	
3	0	6	9	6	0	6	1	6	2	6	5	6	4	
3	6	0	5	5	0	5	1	5	2	5	3	5	4	
4	1	2	7	8	7	0	7	1	7	2	7	1	7	0	
5	4	2	7	0	6	4	0	4	1	4	2	4	3	4	4	
2	8	14	8	0	8	1	8	2	8	5	8	4	
4	12	5	3	4	5	0	5	1	5	2	5	1	5	0	
4	2	7	8	11	7	0	7	1	8	2	8	3	8	4	
2	5	3	5	0	5	1	5	2	5	1	5	0	
5	10	12	5	0	7	12	0	12	1	12	5	12	3	5	4	
3	13	12	10	12	0	12	1	12	2	12	5	12	4	
2	0	7	7	0	7	1	7	2	7	1	7	0	
4	8	7	0	5	8	0	8	1	8	2	8	3	8	4	
3	3	4	1	4	0	4	1	4	2	4	5	4	4	
3	14	7	0	7	0	7	1	7	5	7	3	7	4	
4	7	0	5	3	7	0	7	1	7	5	7	3	7	4	
4	12	13	6	9	12	0	12	1	12	2	12	1	12	0	
4	2	1	5	12	5	0	5	1	5	2	5	5	5	4	
3	5	0	6	5	0	5	1	5	2	5	1	5	0	
3	9	8	14	8	0	8	1	8	5	8	3	8	4	
4	13	6	9	8	6	0	6	1	6	2	6	3	6	4	
3	0	7	14	7	0	7	1	7	2	7	1	7	0	
2	4	3	4	0	4	1	4	5	4	3	4	4	
2	6	9	6	0	6	1	6	2	6	3	6	4	
3	6	9	11	6	0	6	1	6	2	6	5	6	4	
3	1	4	3	4	0	4	1	4	2	4	5	4	4	
3	8	7	2	8	0	8	1	8	2	8	5	8	4	
2	1	5	5	0	5	1	5	2	5	5	5	4	
5	4	2	7	8	9	4	0	4	1	4	2	4	1	4	0	
4	5	0	7	8	5	0	5	1	5	2	5	3	5	4	
4	10	13	6	0	6	0	6	1	6	2	6	3	6	4	
4	0	6	9	11	6	0	6	1	6	2	6	1	6	0	
5	11	8	7	2	1	8	0	8	1	8	2	8	1	8	0	
4	1	2	7	14	7	0	7	1	7	2	7	3	7	4	
6	14	8	9	6	13	10	8	0	8	1	8	2	8	5	8	4	
4	4	3	5	0	4	0	4	1	4	2	4	1	4	0	
4	2	7	8	9	7	0	7	1	7	5	7	3	7	4	
4	9	8	7	2	8	0	8	1	8	5	8	3	8	4	
4	13	12	5	3	12	0	12	1	12	5	12	3	12	4	
3	2	4	3	4	0	4	1	4	5	4	3	4	4	
2	6	0	6	0	6	1	6	5	6	3	6	4	
3	1	4	2	4	0	4	1	4	2	4	5	4	4	
5	6	0	7	2	4	6	0	6	1	6	5	6	3	6	4	
5	11	9	6	13	12	6	0	6	1	6	2	6	1	6	0	
4	14	7	0	6	7	0	7	1	7	2	7	3	7	4	
3	4	3	5	4	0	4	1	4	2	4	1	4	0	
4	8	9	6	13	8	0	8	1	8	5	8	3	8	4	
5	12	13	6	9	11	12	0	12	1	12	2	12	3	12	4	
3	5	1	4	5	0	5	1	5	2	5	3	5	4	
5	13	6	9	8	14	6	0	6	1	6	2	6	5	6	4	
2	0	6	6	0	6	1	6	2	6	5	6	4	
3	3	5	12	12	0	12	1	12	2	12	1	12	0	
5	7	0	6	13	10	7	0	7	1	7	2	7	5	7	4	
5	14	7	2	4	3	7	0	7	1	7	2	7	5	7	4	
6	11	8	7	2	4	3	8	0	8	1	8	5	8	3	8	4	
5	4	2	7	8	11	4	0	4	1	4	2	4	3	4	4	
4	9	6	0	5	6	0	6	1	6	2	6	3	6	4	
3	4	2	7	4	0	4	1	4	5	4	3	4	4	
6	10	13	6	9	8	14	6	0	6	1	6	2	6	1	6	0	
3	0	6	13	6	0	6	1	6	2	6	3	6	4	
2	3	5	5	0	5	1	5	2	5	1	5	0	
3	1	5	12	5	0	5	1	5	5	5	3	5	4	
3	7	8	9	7	0	7	1	7	2	7	3	7	4	
3	12	5	0	12	0	12	1	12	5	12	3	12	4	
5	14	7	0	6	13	7	0	7	1	7	2	7	1	7	0	
4	5	0	6	9	5	0	5	1	5	5	5	3	5	4	
4	10	12	5	3	5	0	5	1	5	2	5	1	5	0	
4	14	8	9	6	8	0	8	1	8	2	8	5	8	4	
3	3	5	0	5	0	5	1	5	2	5	1	5	0	
5	4	3	5	12	13	4	0	4	1	4	5	4	3	4	4	
3	11	8	14	8	0	8	1	8	2	8	3	8	4	
4	14	7	2	4	7	0	7	1	7	2	7	1	7	0	
3	4	2	7	4	0	4	1	4	2	4	3	4	4	
3	2	7	8	7	0	7	1	7	2	8	3	8	4	
4	1	2	7	14	7	0	7	1	7	2	7	5	7	4	
5	13	12	5	1	4	12	0	12	1	12	2	12	5	12	4	
2	6	13	6	0	6	1	6	2	6	5	6	4	
5	3	5	0	7	14	5	0	5	1	5	2	5	3	5	4	
3	8	9	6	8	0	8	1	8	2	8	3	8	4	
4	14	7	2	1	7	0	7	1	7	2	7	1	7	0	
2	7	2	7	0	7	1	7	2	7	1	7	0	
3	9	8	11	8	0	8	1	8	2	8	1	8	0	
4	13	6	0	7	6	0	6	1	6	2	6	3	6	4	
4	6	0	7	14	6	0	6	1	6	2	6	3	6	4	
5	11	8	7	0	5	8	0	8	1	8	5	8	3	8	4	
2	0	5	5	0	5	1	5	5	5	3	5	4	
3	7	8	11	7	0	7	1	7	2	7	1	7	0	
5	4	3	5	12	10	4	0	4	1	4	5	4	3	4	4	
2	9	6	6	0	6	1	6	2	6	1	6	0	
3	12	5	1	12	0	5	1	5	2	5	5	5	4	
4	11	8	7	0	8	0	8	1	8	5	8	3	8	4	
4	10	12	5	1	12	0	5	1	5	2	5	3	5	4	
4	3	5	12	13	5	0	12	1	12	5	12	3	12	4	
3	3	4	2	4	0	4	1	4	2	4	3	4	4	
4	1	5	12	13	5	0	12	1	12	2	12	3	12	4	
2	7	14	7	0	7	1	7	2	7	1	7	0	
4	12	5	0	7	12	0	12	1	12	2	12	5	12	4	
5	14	7	0	5	12	7	0	7	1	7	2	7	5	7	4	
4	2	7	0	6	7	0	7	1	7	2	7	1	7	0	
2	5	0	5	0	5	1	5	2	5	5	5	4	
5	3	5	0	7	14	5	0	5	1	5	5	5	3	5	4	
3	5	12	10	5	0	5	1	5	2	5	5	5	4	
3	11	8	9	8	0	8	1	8	5	8	3	8	4	
3	0	6	9	6	0	6	1	6	5	6	3	6	4	
3	6	0	5	6	0	6	1	6	2	6	1	6	0	
2	14	7	7	0	7	1	7	2	7	3	7	4	
5	4	3	5	0	6	4	0	4	1	4	5	4	3	4	4	
4	1	5	12	10	5	0	5	1	5	2	5	5	5	4	
4	12	5	3	4	12	0	12	1	12	2	12	3	12	4	
4	2	7	8	11	7	0	7	1	7	2	7	1	7	0	
2	5	3	5	0	5	1	5	2	5	3	5	4	
3	13	12	5	12	0	12	1	12	2	12	1	12	0	
3	6	13	12	6	0	6	1	6	2	6	1	6	0	
4	14	7	2	4	7	0	7	1	7	2	7	5	7	4	
4	8	7	0	5	8	0	8	1	8	2	8	1	8	0	
3	14	7	0	7	0	7	1	7	2	7	5	7	4	
4	7	0	5	3	7	0	7	1	7	2	7	5	7	4	
5	9	8	7	2	4	8	0	8	1	8	2	8	3	8	4	
3	9	8	11	8	0	8	1	8	2	8	5	8	4	
3	5	0	6	5	0	5	1	5	2	5	5	5	4	
4	13	6	9	8	6	0	6	1	6	2	6	1	6	0	
3	0	7	14	7	0	7	1	7	2	7	3	7	4	
2	6	9	6	0	6	1	6	2	6	1	6	0	
4	11	8	7	2	8	0	8	1	8	2	7	5	7	4	
3	1	5	3	5	0	5	1	5	2	5	1	5	0	
2	7	8	7	0	7	1	7	2	7	3	7	4	
4	10	13	6	9	6	0	6	1	6	5	6	3	6	4	
2	12	5	5	0	5	1	5	2	5	5	5	4	
5	11	9	6	13	12	6	0	6	1	6	5	6	3	6	4	
5	4	2	7	8	9	4	0	4	1	4	2	4	5	4	4	
5	3	5	0	6	9	5	0	5	1	5	5	5	3	5	4	
3	10	13	6	6	0	6	1	6	5	6	3	6	4	
4	5	0	7	8	7	0	7	1	7	2	7	1	7	0	
4	10	12	5	0	12	0	12	1	12	5	12	3	12	4	
5	11	8	7	2	1	8	0	8	1	8	2	8	3	8	4	
4	1	2	7	14	7	0	7	1	7	2	7	1	7	0	
4	4	3	5	0	4	0	4	1	4	2	4	3	4	4	
3	12	13	6	12	0	12	1	12	2	12	1	12	0	
4	2	7	8	9	7	0	7	1	8	2	8	3	8	4	
2	5	1	5	0	5	1	5	2	5	1	5	0	
4	13	12	5	3	12	0	12	1	12	2	12	5	12	4	
4	6	0	7	2	6	0	6	1	6	2	6	5	6	4	
5	6	0	5	3	4	5	0	5	1	5	2	5	5	5	4	
2	8	7	8	0	8	1	8	2	8	3	8	4	
3	7	0	5	5	0	5	1	5	2	5	5	5	4	
3	4	3	5	4	0	4	1	4	2	4	5	4	4	
5	12	13	6	9	11	12	0	12	1	12	2	12	1	12	0	
3	5	1	4	5	0	5	1	5	2	5	1	5	0	
6	10	13	6	9	8	14	6	0	6	1	6	5	6	3	6	4	
2	13	6	6	0	6	1	6	2	6	3	6	4	
3	0	5	1	5	0	5	1	5	5	5	3	5	4	
4	3	5	0	6	5	0	5	1	5	2	5	5	5	4	
3	3	5	12	12	0	12	1	12	2	12	5	12	4	
5	7	0	6	13	10	7	0	7	1	7	5	7	3	7	4	
5	9	6	0	5	3	6	0	6	1	6	5	6	3	6	4	
3	9	8	7	8	0	8	1	8	2	8	5	8	4	
5	4	2	7	8	11	4	0	4	1	4	2	4	1	4	0	
4	9	6	0	5	6	0	6	1	6	5	6	3	6	4	
6	10	13	6	9	8	14	6	0	6	1	6	2	6	3	6	4	
3	0	6	13	6	0	6	1	6	2	6	1	6	0	
2	3	5	5	0	5	1	5	2	5	3	5	4	
4	12	13	6	9	12	0	12	1	12	2	12	5	12	4	
6	11	8	7	2	4	3	8	0	8	1	8	2	8	1	8	0	
2	11	8	8	0	8	1	8	5	8	3	8	4	
3	1	5	12	5	0	5	1	5	2	5	3	5	4	
2	3	5	5	0	5	1	5	5	5	3	5	4	
2	4	2	4	0	4	1	4	2	4	1	4	0	
3	12	5	0	12	0	12	1	12	2	12	5	12	4	
5	10	13	6	9	8	6	0	6	1	6	5	6	3	6	4	
4	5	0	6	9	5	0	5	1	5	2	5	5	5	4	
4	10	12	5	3	5	0	5	1	5	2	5	5	5	4	
3	3	5	0	5	0	5	1	5	2	5	5	5	4	
3	11	8	14	8	0	8	1	8	2	8	1	8	0	
4	14	7	2	4	7	0	7	1	7	2	7	3	7	4	
3	2	7	14	7	0	7	1	7	5	7	3	7	4	
3	4	2	7	4	0	4	1	4	2	4	1	4	0	
2	12	5	5	0	5	1	5	2	5	3	5	4	
3	2	7	8	7	0	7	1	7	5	7	3	7	4	
3	5	1	2	5	0	5	1	5	2	5	3	5	4	
5	13	12	5	1	4	12	0	12	1	12	5	12	3	12	4	
2	6	13	6	0	6	1	6	5	6	3	6	4	
3	8	7	0	8	0	8	1	8	5	8	3	8	4	
3	7	8	9	7	0	7	1	7	2	7	5	7	4	
3	1	2	7	7	0	7	1	7	5	7	3	7	4	
5	3	4	2	7	14	4	0	4	1	4	2	4	1	4	0	
3	8	9	6	8	0	8	1	8	5	8	3	8	4	
3	9	8	11	8	0	8	1	8	2	8	3	8	4	
2	10	12	12	0	12	1	12	2	12	1	12	0	
4	3	4	2	7	4	0	4	1	4	2	4	1	4	0	
5	14	8	9	6	13	8	0	8	1	8	5	8	3	8	4	
5	11	8	7	0	5	8	0	8	1	8	2	8	5	8	4	
3	7	8	11	7	0	7	1	7	2	7	3	7	4	
3	2	1	5	5	0	5	1	5	2	5	5	5	4	
5	4	3	5	12	10	4	0	4	1	4	2	4	5	4	4	
2	9	6	6	0	6	1	6	2	6	5	6	4	
4	10	12	5	1	12	0	12	1	12	5	12	3	12	4	
2	12	13	12	0	12	1	12	2	12	5	12	4	
4	10	12	5	1	5	0	5	1	5	2	5	1	5	0	
5	1	2	7	8	11	7	0	7	1	7	5	7	3	7	4	
3	3	4	2	4	0	4	1	4	2	4	1	4	0	
4	11	8	7	0	8	0	8	1	8	2	8	3	8	4	
6	14	8	9	6	13	10	8	0	8	1	8	2	8	1	8	0	
2	4	1	4	0	4	1	4	2	4	3	4	4	
4	12	5	0	7	12	0	12	1	12	5	12	3	12	4	
4	2	7	0	6	7	0	7	1	7	2	7	3	7	4	
2	4	3	4	0	4	1	4	2	4	5	4	4	
3	3	4	2	4	0	4	1	4	5	4	3	4	4	
4	0	5	3	4	5	0	5	1	5	5	5	3	5	4	
3	5	12	10	5	0	5	1	5	5	5	3	5	4	
3	11	8	9	8	0	8	1	8	2	8	5	8	4	
4	11	8	7	0	8	0	8	1	8	2	8	5	8	4	
2	14	7	7	0	7	1	7	2	7	1	7	0	
5	4	3	5	0	6	4	0	4	1	4	2	4	5	4	4	
4	3	4	2	7	4	0	4	1	4	5	4	3	4	4	
4	2	7	8	11	7	0	8	1	8	2	8	5	8	4	
3	13	12	5	12	0	12	1	12	2	12	3	12	4	
3	9	6	0	6	0	6	1	6	5	6	3	6	4	
3	6	13	12	6	0	6	1	6	2	6	3	6	4	
3	1	5	0	5	0	5	1	5	2	5	5	5	4	
3	7	0	5	7	0	7	1	7	2	7	1	7	0	
2	12	13	12	0	12	1	12	5	12	3	12	4	
5	9	8	7	2	4	8	0	8	1	8	2	8	1	8	0	
3	0	7	8	7	0	7	1	7	5	7	3	7	4	
3	14	8	9	8	0	8	1	8	5	8	3	8	4	
3	0	7	14	7	0	7	1	7	5	7	3	7	4	
2	3	4	4	0	4	1	4	2	4	3	4	4	
2	8	7	8	0	8	1	8	2	8	5	8	4	
4	11	8	7	2	7	0	7	1	7	5	7	3	7	4	
3	1	4	3	4	0	4	1	4	2	4	3	4	4	
2	7	8	8	0	8	1	8	2	8	1	8	0	
3	10	12	5	12	0	12	1	12	5	12	3	12	4	
2	2	4	4	0	4	1	4	2	4	1	4	0	
5	4	2	7	8	9	4	0	4	1	4	5	4	3	4	4	
3	10	13	6	6	0	6	1	6	2	6	5	6	4	
4	10	12	5	0	12	0	12	1	12	2	5	5	5	4	
4	1	5	0	6	5	0	5	1	5	2	5	5	5	4	
5	8	9	6	13	12	8	0	8	1	8	2	8	5	8	4	
5	8	9	6	13	12	8	0	8	1	8	5	8	3	8	4	
5	8	9	6	13	10	8	0	8	1	8	2	8	1	8	0	
4	14	7	0	5	5	0	5	1	5	2	5	3	5	4	
3	4	2	7	4	0	4	1	4	2	4	5	4	4	
3	12	13	6	12	0	12	1	12	2	12	3	12	4	
4	2	7	8	9	7	0	7	1	7	2	7	1	7	0	
2	5	1	5	0	5	1	5	2	5	3	5	4	
4	13	12	5	3	5	0	5	1	5	2	5	1	5	0	
3	0	5	3	5	0	5	1	5	2	5	5	5	4	
4	6	0	7	2	6	0	6	1	6	2	6	1	6	0	
2	8	7	8	0	8	1	8	2	8	1	8	0	
3	4	3	5	4	0	4	1	4	5	4	3	4	4	
4	9	6	13	10	6	0	6	1	6	2	6	3	6	4	
4	14	7	0	6	7	0	7	1	7	5	7	3	7	4	
2	13	6	6	0	6	1	6	2	6	1	6	0	
2	7	8	7	0	7	1	7	2	7	5	7	4	
2	3	4	4	0	4	1	4	5	4	3	4	4	
4	3	5	0	6	5	0	5	1	5	5	5	3	5	4	
5	8	7	2	4	3	8	0	8	1	8	2	8	5	8	4	
5	7	0	6	13	10	7	0	7	1	7	2	7	3	7	4	
5	9	6	0	5	3	6	0	6	1	6	2	6	5	6	4	
4	14	7	0	5	7	0	7	1	7	5	7	3	7	4	
4	9	6	0	5	6	0	6	1	6	2	6	5	6	4	
3	0	6	13	6	0	6	1	6	2	6	5	6	4	
6	11	8	7	0	5	3	8	0	8	1	8	2	8	3	8	4	
3	1	5	12	5	0	5	1	5	2	5	1	5	0	
2	4	2	4	0	4	1	4	2	4	3	4	4	
3	12	5	0	12	0	12	1	12	2	12	1	12	0	
2	2	7	7	0	7	1	7	2	7	3	7	4	
