2507.14	2506.56
2809
3911.9	3970.52
15
0	90	3000
1	0	3000
2	732	3000
3	0	3000
4	326	3000
5	823	3000
6	621	3000
7	873	3000
8	566	3000
9	0	3000
10	0	3000
11	248	3000
12	580	3000
13	597	3000
14	0	3000
44
0	5	94.428466	94.942746
5	0	94.868760	94.942746
0	6	79.855572	97.708373
6	0	83.926476	97.708373
0	7	96.476088	107.847469
7	0	91.863894	107.847469
1	2	42.362710	106.004333
2	1	38.118688	106.004333
1	4	18.305742	104.160274
4	1	9.199042	104.160274
1	5	42.979418	106.004333
5	1	56.134650	106.004333
2	4	46.664272	97.708373
4	2	41.466262	97.708373
2	7	94.004072	94.021178
7	2	93.924960	94.021178
3	4	35.619674	91.255735
4	3	49.459782	91.255735
3	5	72.329066	83.881529
5	3	59.159932	83.881529
5	12	84.799788	84.803282
12	5	84.313622	84.803282
6	9	83.385966	89.412137
9	6	87.656866	89.412137
6	13	87.513004	101.395569
13	6	88.060678	101.395569
7	8	79.013180	100.473078
8	7	79.525136	100.473078
7	14	47.336474	104.160274
14	7	42.143684	104.160274
8	9	57.671326	97.708373
9	8	47.577436	97.708373
8	11	35.705226	82.959776
11	8	41.895460	82.959776
8	14	19.070992	88.490385
14	8	24.250142	88.490385
9	11	31.315998	103.238705
11	9	25.552776	103.238705
10	12	31.969162	97.708373
12	10	32.204324	97.708373
10	13	34.675316	93.099610
13	10	34.933916	93.099610
12	13	43.167592	90.333982
13	12	42.255564	90.333982
840
4	10	12	5	3	12	0	12	1	12	5	12	3	12	4	
3	14	7	2	7	0	7	1	7	5	7	3	7	4	
3	3	5	0	5	0	5	1	5	5	5	3	5	4	
2	8	9	8	0	8	1	8	2	8	3	8	4	
4	14	7	2	4	7	0	7	1	7	5	7	3	7	4	
3	2	7	14	2	0	2	1	2	2	2	5	2	4	
4	9	6	13	12	6	0	6	1	6	5	6	3	6	4	
2	12	5	12	0	12	1	12	2	12	1	12	0	
3	2	7	8	2	0	2	1	2	2	2	5	2	4	
3	5	1	2	5	0	5	1	5	2	5	1	5	0	
5	13	12	5	3	4	13	0	13	1	13	2	13	3	13	4	
3	0	7	2	7	0	7	1	7	2	7	1	7	0	
4	4	3	5	12	4	0	4	1	4	5	4	3	4	4	
2	6	13	13	0	13	1	13	2	13	3	13	4	
3	8	7	0	7	0	7	1	7	2	7	5	7	4	
3	1	2	7	2	0	2	1	2	2	2	5	2	4	
3	8	9	6	8	0	8	1	8	2	8	5	8	4	
5	3	5	0	7	14	5	0	5	1	5	2	5	5	5	4	
2	8	7	7	0	7	1	7	5	7	3	7	4	
2	10	12	12	0	12	1	12	2	12	3	12	4	
4	3	5	0	7	5	0	5	1	5	2	5	3	5	4	
4	7	0	6	13	7	0	7	1	7	5	7	3	7	4	
4	14	7	2	1	7	0	7	1	7	5	7	3	7	4	
5	11	9	6	0	5	11	0	11	1	11	2	11	1	11	0	
2	1	2	2	0	2	1	2	2	2	3	2	4	
4	4	3	5	12	4	0	4	1	4	2	4	1	4	0	
3	7	2	1	7	0	7	1	7	5	7	3	7	4	
3	2	1	5	2	0	2	1	2	5	2	3	2	4	
2	9	6	6	0	6	1	6	5	6	3	6	4	
5	1	2	7	8	11	2	0	2	1	2	2	2	5	2	4	
4	11	8	7	0	11	0	11	1	11	2	8	1	8	0	
6	14	7	0	6	13	10	7	0	7	1	7	2	7	3	7	4	
2	4	1	4	0	4	1	4	2	4	1	4	0	
4	12	5	0	7	12	0	12	1	12	2	12	3	12	4	
2	5	0	5	0	5	1	5	2	5	3	5	4	
4	0	5	3	4	5	0	5	1	5	2	5	5	5	4	
2	11	9	11	0	11	1	11	2	11	1	11	0	
4	10	13	6	9	13	0	13	1	13	2	13	5	13	4	
2	9	8	8	0	8	1	8	5	8	3	8	4	
5	11	9	6	13	12	11	0	11	1	11	2	11	5	11	4	
3	7	0	6	7	0	7	1	7	2	7	5	7	4	
2	14	7	7	0	7	1	7	2	7	5	7	4	
4	13	6	9	11	13	0	13	1	13	5	13	3	13	4	
4	2	7	8	11	2	0	2	1	2	5	2	3	2	4	
3	6	13	10	13	0	13	1	13	5	13	3	13	4	
3	13	12	5	13	0	13	1	13	5	13	3	13	4	
3	0	5	1	5	0	5	1	5	2	5	3	5	4	
5	3	5	0	6	9	5	0	5	1	5	2	5	1	5	0	
4	3	5	12	10	5	0	5	1	5	2	5	5	5	4	
3	1	5	0	5	0	5	1	5	5	5	3	5	4	
3	7	0	5	7	0	7	1	7	2	7	3	7	4	
5	5	0	6	9	11	0	0	0	1	0	5	0	3	0	4	
3	0	7	8	7	0	7	1	7	2	7	5	7	4	
3	0	7	14	7	0	7	1	7	2	7	5	7	4	
2	3	4	4	0	4	1	4	2	4	1	4	0	
4	11	8	7	2	8	0	8	1	8	2	8	3	8	4	
2	14	8	8	0	8	1	8	2	8	1	8	0	
2	4	3	4	0	4	1	4	2	4	3	4	4	
2	2	4	2	0	2	1	2	2	2	3	2	4	
3	10	13	6	13	0	13	1	13	2	13	1	13	0	
3	13	6	0	13	0	13	1	13	2	13	5	13	4	
4	0	6	13	10	6	0	6	1	6	2	6	5	6	4	
4	6	0	5	1	6	0	6	1	6	2	6	5	6	4	
3	9	8	7	8	0	8	1	8	5	8	3	8	4	
5	8	9	6	13	10	8	0	8	1	8	2	8	3	8	4	
5	12	5	0	7	8	5	0	5	1	5	5	5	3	5	4	
4	14	7	0	5	7	0	7	1	7	2	7	1	7	0	
3	5	0	7	5	0	5	1	5	5	5	3	5	4	
3	12	13	6	12	0	12	1	12	5	12	3	12	4	
2	6	0	6	0	6	1	6	2	6	5	6	4	
2	5	1	5	0	5	1	5	5	5	3	5	4	
2	10	13	13	0	13	1	13	2	13	5	13	4	
4	13	12	5	3	13	0	13	1	13	2	13	3	13	4	
2	11	8	8	0	8	1	8	2	8	5	8	4	
4	6	0	7	2	6	0	6	1	6	2	6	3	6	4	
4	4	2	7	8	2	0	2	1	2	5	2	3	2	4	
4	9	6	13	10	6	0	6	1	6	2	6	1	6	0	
2	13	12	13	0	13	1	13	2	13	5	13	4	
2	10	13	13	0	13	1	13	2	13	3	13	4	
4	3	5	0	6	5	0	5	1	5	2	5	3	5	4	
5	7	0	6	13	10	7	0	7	1	7	2	7	1	7	0	
5	9	6	0	5	3	6	0	6	1	6	2	6	1	6	0	
3	12	5	3	12	0	12	1	12	2	12	5	12	4	
2	5	12	12	0	12	1	12	2	12	5	12	4	
3	7	8	9	7	0	7	1	7	5	7	3	7	4	
4	11	9	6	13	11	0	6	1	6	5	6	3	6	4	
3	0	6	13	6	0	6	1	6	5	6	3	6	4	
5	8	9	6	13	12	8	0	8	1	8	2	8	1	8	0	
3	14	8	11	8	0	8	1	8	2	8	3	8	4	
2	4	2	2	0	2	1	2	5	2	3	2	4	
3	12	5	0	12	0	12	1	12	2	12	3	12	4	
2	2	7	2	0	2	1	2	2	2	1	2	0	
5	14	8	9	6	13	8	0	8	1	8	2	8	5	8	4	
4	13	12	5	1	13	0	13	1	12	2	12	1	12	0	
2	6	0	6	0	6	1	6	2	6	1	6	0	
5	14	7	2	4	3	7	0	7	1	7	5	7	3	7	4	
3	14	7	2	7	0	7	1	7	2	7	5	7	4	
2	8	9	8	0	8	1	8	2	8	1	8	0	
3	6	13	12	13	0	13	1	13	2	13	5	13	4	
3	2	7	14	2	0	2	1	2	2	2	1	2	0	
4	10	12	5	1	12	0	12	1	12	2	12	5	12	4	
4	3	5	12	10	5	0	5	1	5	5	5	3	5	4	
2	9	8	8	0	8	1	8	2	8	3	8	4	
2	3	5	5	0	5	1	5	2	5	5	5	4	
3	5	1	2	2	0	2	1	2	2	2	5	2	4	
5	13	12	5	1	4	12	0	12	1	12	2	12	1	12	0	
3	0	7	2	7	0	7	1	7	2	7	3	7	4	
2	6	13	13	0	13	1	13	2	13	1	13	0	
3	8	7	0	7	0	7	1	7	2	7	1	7	0	
3	11	9	6	11	0	11	1	11	2	11	5	11	4	
3	1	2	7	2	0	2	1	2	2	2	1	2	0	
3	7	2	4	7	0	7	1	7	2	7	3	7	4	
3	3	4	2	4	0	4	1	4	2	4	5	4	4	
5	10	12	5	1	2	12	0	12	1	12	5	12	3	12	4	
3	3	4	1	4	0	4	1	4	5	4	3	4	4	
2	10	12	12	0	12	1	12	5	12	3	12	4	
3	13	6	9	13	0	13	1	13	5	13	3	13	4	
4	7	0	6	13	7	0	7	1	7	2	7	5	7	4	
5	11	8	7	0	5	11	0	11	1	11	2	8	3	8	4	
2	1	2	2	0	2	1	2	2	2	1	2	0	
4	4	3	5	12	4	0	4	1	4	2	4	3	4	4	
4	12	5	1	2	12	0	12	1	12	2	12	1	12	0	
3	2	1	5	2	0	2	1	2	2	2	3	2	4	
3	5	12	13	12	0	12	1	12	2	12	1	12	0	
4	5	0	7	14	5	0	5	1	5	5	5	3	5	4	
5	11	9	6	13	10	11	0	11	1	11	2	11	5	11	4	
3	13	6	9	13	0	13	1	13	2	13	5	13	4	
5	1	2	7	8	11	2	0	2	1	2	2	2	1	2	0	
2	8	11	8	0	8	1	8	2	8	3	8	4	
2	4	1	4	0	4	1	4	2	4	5	4	4	
3	14	8	9	8	0	8	1	8	2	8	5	8	4	
4	12	5	0	7	12	0	12	1	12	2	12	1	12	0	
2	5	0	5	0	5	1	5	2	5	1	5	0	
5	13	6	0	7	2	13	0	13	1	13	2	6	3	6	4	
4	0	5	3	4	5	0	5	1	5	2	5	1	5	0	
3	7	8	11	7	0	7	1	7	5	7	3	7	4	
4	6	0	5	3	6	0	6	1	6	2	6	3	6	4	
2	11	9	11	0	11	1	11	2	11	3	11	4	
3	10	12	5	12	0	12	1	12	2	12	5	12	4	
3	7	0	6	7	0	7	1	7	5	7	3	7	4	
5	12	5	0	7	14	12	0	12	1	12	2	12	1	12	0	
2	14	7	7	0	7	1	7	5	7	3	7	4	
4	13	6	9	11	13	0	13	1	13	2	13	5	13	4	
3	6	13	10	6	0	6	1	6	2	6	5	6	4	
3	13	12	5	13	0	13	1	13	2	13	5	13	4	
3	0	5	1	5	0	5	1	5	2	5	1	5	0	
5	3	5	0	6	9	5	0	5	1	5	2	5	3	5	4	
3	11	8	7	11	0	11	1	11	2	11	1	11	0	
3	1	5	0	5	0	5	1	5	2	5	3	5	4	
4	4	2	7	14	2	0	2	1	2	2	2	1	2	0	
5	5	0	7	8	11	5	0	0	1	0	2	0	5	0	4	
5	13	6	0	7	14	13	0	13	1	13	2	6	3	6	4	
3	0	7	8	7	0	7	1	7	2	7	1	7	0	
2	3	4	4	0	4	1	4	2	4	5	4	4	
4	11	8	7	2	11	0	11	1	11	2	11	1	11	0	
2	14	8	8	0	8	1	8	2	8	3	8	4	
6	2	7	0	6	13	10	2	0	2	1	2	5	2	3	2	4	
2	4	3	4	0	4	1	4	2	4	1	4	0	
3	12	5	1	12	0	12	1	12	2	12	3	12	4	
2	2	4	2	0	2	1	2	5	2	3	2	4	
4	5	0	7	14	5	0	5	1	5	2	5	3	5	4	
3	10	13	6	13	0	13	1	13	2	13	3	13	4	
3	13	6	0	13	0	13	1	13	5	13	3	13	4	
4	6	0	5	1	6	0	6	1	6	5	6	3	6	4	
4	8	7	2	4	7	0	7	1	7	5	7	3	7	4	
4	14	7	0	5	7	0	7	1	7	2	7	5	7	4	
5	8	9	6	13	10	8	0	8	1	8	5	8	3	8	4	
5	12	13	6	9	8	12	0	12	1	12	2	13	5	13	4	
3	5	0	7	5	0	5	1	5	2	5	5	5	4	
3	12	13	6	12	0	12	1	12	2	12	5	12	4	
2	5	1	5	0	5	1	5	2	5	5	5	4	
5	10	13	6	9	8	13	0	13	1	13	2	13	1	13	0	
3	0	5	3	5	0	5	1	5	2	5	3	5	4	
6	3	5	0	6	9	11	5	0	5	1	5	2	5	1	5	0	
4	4	2	7	8	2	0	2	1	2	2	2	5	2	4	
2	12	13	12	0	12	1	12	2	12	3	12	4	
2	7	8	7	0	7	1	7	5	7	3	7	4	
2	2	1	2	0	2	1	2	2	2	5	2	4	
4	9	6	13	10	6	0	6	1	6	2	6	5	6	4	
2	13	12	13	0	13	1	13	5	13	3	13	4	
2	10	13	13	0	13	1	13	2	13	1	13	0	
4	3	5	0	6	5	0	5	1	5	2	5	1	5	0	
4	9	6	13	12	6	0	6	1	6	2	6	5	6	4	
5	11	8	7	2	4	8	0	8	1	8	2	8	3	8	4	
2	8	11	8	0	8	1	8	5	8	3	8	4	
5	4	3	5	12	13	4	0	4	1	4	2	4	3	4	4	
5	9	6	0	5	3	6	0	6	1	6	2	6	3	6	4	
3	12	5	3	12	0	12	1	12	5	12	3	12	4	
2	5	12	12	0	12	1	12	5	12	3	12	4	
5	10	12	5	3	4	12	0	12	1	12	2	12	1	12	0	
4	1	5	12	13	5	0	5	1	5	2	5	5	5	4	
4	11	9	6	13	11	0	11	1	11	2	11	5	11	4	
5	8	9	6	13	12	8	0	8	1	8	2	8	3	8	4	
3	14	8	11	8	0	8	1	8	2	8	1	8	0	
5	2	7	0	6	13	2	0	2	1	2	2	2	5	2	4	
2	4	2	2	0	2	1	2	2	2	5	2	4	
3	9	6	13	6	0	6	1	6	2	6	1	6	0	
2	2	7	2	0	2	1	2	2	2	5	2	4	
4	13	12	5	1	13	0	13	1	13	2	13	3	13	4	
2	6	0	6	0	6	1	6	2	6	3	6	4	
2	11	8	8	0	8	1	8	2	8	3	8	4	
3	14	7	2	7	0	7	1	7	2	7	1	7	0	
4	6	0	7	2	6	0	6	1	6	5	6	3	6	4	
2	1	4	4	0	4	1	4	2	4	5	4	4	
3	7	2	1	2	0	2	1	2	2	2	1	2	0	
3	2	7	14	2	0	2	1	2	2	2	3	2	4	
2	9	8	8	0	8	1	8	2	8	1	8	0	
4	0	6	13	12	0	0	0	1	0	5	0	3	0	4	
3	5	1	2	5	0	5	1	5	5	5	3	5	4	
5	10	13	6	9	11	13	0	13	1	13	2	13	3	13	4	
3	0	7	2	7	0	7	1	7	5	7	3	7	4	
5	3	5	0	7	8	5	0	5	1	5	2	5	3	5	4	
3	8	7	0	7	0	7	1	7	2	7	3	7	4	
3	11	9	6	11	0	11	1	11	5	11	3	11	4	
3	3	5	12	12	0	12	1	12	5	12	3	12	4	
3	1	2	7	2	0	2	1	2	2	2	3	2	4	
3	7	2	4	2	0	2	1	2	2	2	1	2	0	
5	9	6	0	5	1	6	0	6	1	6	2	6	1	6	0	
3	2	7	0	2	0	2	1	2	2	2	1	2	0	
2	12	5	12	0	5	1	5	5	5	3	5	4	
5	10	12	5	1	2	12	0	12	1	12	2	12	5	12	4	
2	9	8	8	0	8	1	8	2	8	5	8	4	
2	10	12	12	0	12	1	12	2	12	5	12	4	
4	1	2	7	8	2	0	2	1	2	2	2	5	2	4	
4	3	5	0	7	5	0	5	1	5	2	5	5	5	4	
4	7	0	6	13	7	0	7	1	7	2	7	1	7	0	
2	8	14	8	0	8	1	8	2	8	1	8	0	
3	14	8	9	8	0	8	1	8	2	8	3	8	4	
5	1	2	7	8	9	2	0	2	1	2	2	2	5	2	4	
4	12	5	1	2	12	0	12	1	12	2	12	3	12	4	
3	2	1	5	2	0	2	1	2	2	2	1	2	0	
3	5	12	13	12	0	12	1	12	2	12	3	12	4	
5	10	13	6	0	7	13	0	13	1	13	2	13	3	13	4	
2	0	7	7	0	7	1	7	2	7	5	7	4	
5	11	9	6	13	10	11	0	11	1	11	5	11	3	11	4	
5	1	2	7	8	11	2	0	2	1	2	2	2	3	2	4	
2	8	11	11	0	11	1	11	2	11	1	11	0	
4	2	1	5	12	2	0	2	1	2	2	2	1	2	0	
2	4	1	4	0	4	1	4	5	4	3	4	4	
3	9	8	14	8	0	8	1	8	2	8	3	8	4	
5	9	8	7	2	4	7	0	7	1	7	5	7	3	7	4	
5	13	6	0	7	2	13	0	13	1	6	2	6	1	6	0	
4	0	7	2	4	0	0	0	1	0	2	7	3	7	4	
4	6	0	5	3	6	0	6	1	6	2	6	1	6	0	
3	8	7	2	7	0	7	1	7	2	7	1	7	0	
2	1	5	5	0	5	1	5	2	5	1	5	0	
3	7	0	6	7	0	7	1	7	2	7	3	7	4	
5	12	5	0	7	14	12	0	12	1	12	2	12	3	12	4	
4	13	6	9	11	13	0	13	1	13	2	13	1	13	0	
4	0	6	9	11	6	0	6	1	6	2	6	5	6	4	
3	6	13	10	6	0	13	1	13	2	13	1	13	0	
3	0	5	1	5	0	5	1	5	2	5	5	5	4	
2	7	0	7	0	7	1	7	2	7	5	7	4	
3	11	8	7	8	0	8	1	8	2	8	3	8	4	
3	1	5	0	5	0	5	1	5	2	5	1	5	0	
4	4	2	7	14	2	0	2	1	2	2	2	3	2	4	
4	9	8	7	2	8	0	8	1	8	2	8	3	8	4	
5	9	8	7	2	4	8	0	8	1	8	2	8	5	8	4	
3	2	4	3	2	0	2	1	2	2	2	3	2	4	
5	8	7	2	4	3	7	0	7	1	7	5	7	3	7	4	
5	5	0	7	8	11	0	0	0	1	0	2	0	1	0	0	
5	13	6	0	7	14	13	0	13	1	6	2	6	1	6	0	
3	0	7	8	7	0	7	1	7	2	7	3	7	4	
4	2	1	5	12	2	0	2	1	2	5	2	3	2	4	
5	1	2	7	8	9	2	0	2	1	2	2	2	1	2	0	
3	6	0	7	6	0	6	1	6	5	6	3	6	4	
4	8	9	6	13	8	0	8	1	8	2	8	3	8	4	
2	14	8	8	0	8	1	8	5	8	3	8	4	
5	2	1	5	12	10	2	0	2	1	2	2	2	5	2	4	
3	12	5	1	12	0	12	1	12	2	12	1	12	0	
2	2	4	2	0	2	1	2	2	2	5	2	4	
4	5	0	7	14	5	0	5	1	5	2	5	1	5	0	
3	13	6	0	13	0	13	1	13	2	13	3	13	4	
2	0	6	6	0	6	1	6	2	6	1	6	0	
6	11	8	7	2	4	3	11	0	11	1	11	2	11	5	11	4	
4	6	0	5	1	6	0	6	1	6	2	6	3	6	4	
4	8	7	2	4	7	0	7	1	7	2	7	5	7	4	
2	8	9	8	0	8	1	8	5	8	3	8	4	
5	8	9	6	13	10	8	0	8	1	8	2	8	5	8	4	
5	12	13	6	9	8	12	0	12	1	13	2	13	1	13	0	
3	5	0	7	5	0	5	1	5	2	5	1	5	0	
5	10	13	6	9	8	13	0	13	1	13	2	13	3	13	4	
3	0	5	3	5	0	5	1	5	2	5	1	5	0	
6	3	5	0	6	9	11	5	0	5	1	5	2	5	3	5	4	
4	8	7	2	1	7	0	7	1	7	2	7	3	7	4	
2	12	10	12	0	12	1	12	2	12	5	12	4	
4	1	5	0	6	5	0	5	1	5	2	5	3	5	4	
2	6	9	6	0	6	1	6	5	6	3	6	4	
4	4	2	7	8	2	0	2	1	2	2	2	1	2	0	
2	12	13	12	0	12	1	13	2	13	1	13	0	
2	2	1	2	0	2	1	2	5	2	3	2	4	
4	9	6	13	10	6	0	6	1	6	5	6	3	6	4	
2	13	12	13	0	13	1	13	2	13	3	13	4	
4	0	6	13	10	6	0	6	1	6	2	6	1	6	0	
5	13	6	0	7	2	13	0	13	1	6	5	6	3	6	4	
3	6	13	12	13	0	13	1	13	5	13	3	13	4	
5	11	8	7	2	4	11	0	11	1	11	2	11	1	11	0	
6	4	3	5	0	6	13	4	0	4	1	4	2	4	1	4	0	
3	12	5	3	12	0	12	1	12	2	12	3	12	4	
2	5	12	12	0	12	1	12	2	12	3	12	4	
5	10	12	5	3	4	12	0	12	1	12	2	12	3	12	4	
4	6	0	5	3	6	0	6	1	6	5	6	3	6	4	
4	11	9	6	13	11	0	11	1	11	2	11	1	11	0	
4	1	5	12	10	5	0	5	1	5	2	5	3	5	4	
2	7	2	7	0	7	1	7	2	7	5	7	4	
3	14	8	11	8	0	8	1	8	2	8	5	8	4	
5	2	7	0	6	13	2	0	2	1	2	5	2	3	2	4	
3	9	6	13	6	0	6	1	6	2	6	3	6	4	
4	13	6	0	7	13	0	13	1	13	5	13	3	13	4	
2	2	7	2	0	2	1	2	5	2	3	2	4	
5	7	0	6	13	12	7	0	7	1	7	5	7	3	7	4	
4	6	0	7	14	0	0	0	1	0	5	0	3	0	4	
4	8	7	0	5	7	0	7	1	7	5	7	3	7	4	
4	13	12	5	1	13	0	13	1	13	5	13	3	13	4	
2	0	5	5	0	5	1	5	2	5	3	5	4	
4	3	5	12	13	5	0	5	1	5	2	5	1	5	0	
2	11	8	11	0	11	1	11	2	11	1	11	0	
3	14	7	2	7	0	7	1	7	2	7	3	7	4	
2	1	4	4	0	4	1	4	5	4	3	4	4	
3	7	2	1	7	0	7	1	7	2	7	3	7	4	
2	7	0	7	0	7	1	7	5	7	3	7	4	
3	0	5	12	5	0	5	1	5	2	5	5	5	4	
3	7	8	11	7	0	7	1	7	2	7	5	7	4	
5	12	5	0	7	14	12	0	12	1	12	2	12	5	12	4	
5	10	13	6	9	11	13	0	13	1	13	2	13	1	13	0	
3	0	7	2	7	0	7	1	7	2	7	5	7	4	
5	3	5	0	7	8	5	0	5	1	5	2	5	1	5	0	
2	7	14	7	0	7	1	7	2	7	5	7	4	
3	11	9	6	11	0	11	1	11	2	11	3	11	4	
5	14	7	0	5	12	7	0	7	1	7	2	7	1	7	0	
3	7	2	4	7	0	7	1	7	2	7	5	7	4	
5	9	6	0	5	1	6	0	6	1	6	2	6	3	6	4	
2	13	6	13	0	13	1	13	5	13	3	13	4	
3	2	7	0	2	0	2	1	2	2	2	3	2	4	
4	4	3	5	12	4	0	4	1	4	2	4	5	4	4	
5	10	12	5	1	2	12	0	12	1	12	2	12	1	12	0	
3	6	9	8	6	0	6	1	6	5	6	3	6	4	
3	0	6	9	6	0	6	1	6	2	6	3	6	4	
3	3	4	1	4	0	4	1	4	2	4	1	4	0	
3	6	0	5	6	0	6	1	6	2	6	5	6	4	
3	7	0	5	7	0	7	1	7	5	7	3	7	4	
4	7	0	6	13	7	0	7	1	7	2	7	3	7	4	
2	8	14	8	0	8	1	8	2	8	3	8	4	
4	12	5	1	4	12	0	12	1	5	5	5	3	5	4	
3	14	8	9	8	0	8	1	8	2	8	1	8	0	
2	5	3	5	0	5	1	5	5	5	3	5	4	
4	12	5	1	2	12	0	12	1	12	5	12	3	12	4	
4	5	0	6	13	5	0	5	1	5	5	5	3	5	4	
5	10	13	6	0	7	13	0	13	1	13	2	13	1	13	0	
2	0	7	7	0	7	1	7	5	7	3	7	4	
5	11	9	6	13	10	11	0	11	1	11	2	11	3	11	4	
3	14	7	0	7	0	7	1	7	2	7	1	7	0	
4	7	0	5	3	7	0	7	1	7	2	7	1	7	0	
4	2	1	5	12	2	0	2	1	2	2	2	3	2	4	
4	8	7	2	1	7	0	7	1	7	5	7	3	7	4	
3	9	8	14	8	0	8	1	8	2	8	1	8	0	
4	13	6	9	8	13	0	13	1	13	2	13	5	13	4	
2	5	0	5	0	5	1	5	5	5	3	5	4	
2	6	9	6	0	6	1	6	2	6	5	6	4	
4	10	13	6	9	13	0	13	1	13	2	13	3	13	4	
4	3	5	12	10	5	0	5	1	5	2	5	3	5	4	
3	8	7	2	7	0	7	1	7	2	7	3	7	4	
2	1	5	5	0	5	1	5	2	5	3	5	4	
3	7	0	6	7	0	7	1	7	2	7	1	7	0	
3	9	8	7	8	0	8	1	8	2	8	1	8	0	
4	1	5	0	6	5	0	5	1	5	5	5	3	5	4	
4	5	0	7	8	5	0	5	1	5	2	5	5	5	4	
4	13	6	9	11	13	0	13	1	13	2	13	3	13	4	
4	0	7	8	11	0	0	0	1	0	5	7	3	7	4	
3	6	13	10	13	0	13	1	13	2	13	3	13	4	
5	11	8	7	2	1	8	0	8	1	8	5	8	3	8	4	
3	6	9	8	6	0	6	1	6	2	6	5	6	4	
4	4	2	7	0	2	0	2	1	2	5	2	3	2	4	
2	13	10	13	0	13	1	13	5	13	3	13	4	
3	11	8	7	8	0	8	1	8	5	8	3	8	4	
4	4	2	7	14	2	0	2	1	2	5	2	3	2	4	
4	9	8	7	2	8	0	8	1	8	2	8	1	8	0	
3	2	4	3	2	0	2	1	2	2	2	1	2	0	
5	5	0	6	9	11	5	0	5	1	5	2	5	3	5	4	
3	10	12	5	12	0	12	1	12	2	12	3	12	4	
5	6	0	7	2	4	6	0	6	1	6	2	6	1	6	0	
5	1	2	7	8	9	2	0	2	1	2	2	2	3	2	4	
3	6	9	11	6	0	6	1	6	5	6	3	6	4	
4	8	9	6	13	8	0	8	1	8	2	8	1	8	0	
5	12	13	6	9	11	12	0	12	1	12	2	12	5	12	4	
2	14	8	8	0	8	1	8	2	8	5	8	4	
5	2	1	5	12	10	2	0	2	1	2	2	2	1	2	0	
3	5	1	4	5	0	5	1	5	2	5	5	5	4	
4	9	6	13	12	6	0	6	1	6	2	6	3	6	4	
4	1	2	7	8	2	0	2	1	2	5	2	3	2	4	
4	5	0	7	14	5	0	5	1	5	2	5	5	5	4	
3	13	6	0	13	0	13	1	13	2	13	1	13	0	
2	0	6	6	0	6	1	6	2	6	3	6	4	
4	6	0	5	1	6	0	6	1	6	2	6	1	6	0	
4	8	7	2	4	7	0	7	1	7	2	7	1	7	0	
5	14	7	2	4	3	7	0	7	1	7	2	7	3	7	4	
2	7	0	7	0	7	1	7	2	7	3	7	4	
5	12	13	6	9	8	12	0	12	1	12	2	13	3	13	4	
4	1	5	12	13	5	0	5	1	5	5	5	3	5	4	
3	5	0	7	5	0	5	1	5	2	5	3	5	4	
3	13	6	9	13	0	13	1	13	2	13	1	13	0	
3	6	9	8	6	0	6	1	6	2	6	1	6	0	
4	3	5	12	13	5	0	5	1	5	2	5	5	5	4	
6	3	5	0	6	9	11	5	0	5	1	5	5	5	3	5	4	
4	8	7	2	1	7	0	7	1	7	2	7	1	7	0	
2	1	2	2	0	2	1	2	5	2	3	2	4	
4	1	5	0	6	5	0	5	1	5	2	5	1	5	0	
4	4	2	7	8	2	0	2	1	2	2	2	3	2	4	
3	9	6	0	6	0	6	1	6	2	6	3	6	4	
2	2	1	2	0	2	1	2	2	2	3	2	4	
4	5	0	6	9	5	0	5	1	5	2	5	1	5	0	
2	13	12	13	0	13	1	12	2	12	1	12	0	
4	0	6	13	10	6	0	6	1	6	2	6	3	6	4	
5	13	6	0	7	14	13	0	6	1	6	5	6	3	6	4	
3	11	8	14	8	0	8	1	8	2	8	5	8	4	
4	7	0	5	12	0	0	0	1	0	2	0	3	0	4	
5	11	8	7	2	4	11	0	11	1	11	2	11	5	11	4	
5	4	3	5	12	13	4	0	4	1	4	2	4	5	4	4	
3	12	5	3	12	0	12	1	12	2	12	1	12	0	
2	5	12	12	0	12	1	12	2	12	1	12	0	
5	10	12	5	3	4	12	0	12	1	12	5	12	3	12	4	
4	7	0	5	12	7	0	7	1	7	2	7	5	7	4	
3	6	0	7	6	0	6	1	6	2	6	3	6	4	
4	11	9	6	13	11	0	11	1	11	2	11	3	11	4	
4	1	5	12	10	5	0	5	1	5	2	5	1	5	0	
2	7	2	7	0	7	1	7	5	7	3	7	4	
2	12	10	12	0	12	1	12	2	12	1	12	0	
3	14	8	11	8	0	8	1	8	5	8	3	8	4	
5	2	7	0	6	13	2	0	2	1	2	2	2	3	2	4	
3	9	6	13	6	0	6	1	6	5	6	3	6	4	
4	13	6	0	7	13	0	13	1	13	2	13	5	13	4	
4	6	0	7	14	0	0	0	1	0	2	0	5	0	4	
4	13	12	5	1	13	0	13	1	13	2	13	5	13	4	
2	0	5	5	0	5	1	5	2	5	1	5	0	
4	3	5	12	13	5	0	5	1	5	2	5	3	5	4	
5	8	7	2	4	3	7	0	7	1	7	2	7	3	7	4	
5	1	2	7	8	9	2	0	2	1	2	5	2	3	2	4	
2	1	4	4	0	4	1	4	2	4	3	4	4	
5	4	3	5	12	10	4	0	4	1	4	2	4	1	4	0	
2	13	10	13	0	13	1	13	2	13	3	13	4	
3	0	5	12	5	0	5	1	5	2	5	1	5	0	
3	6	9	11	6	0	6	1	6	2	6	3	6	4	
4	1	2	7	14	2	0	2	1	2	5	2	3	2	4	
5	10	13	6	9	11	13	0	13	1	13	2	13	5	13	4	
5	3	5	0	7	8	5	0	5	1	5	2	5	5	5	4	
2	7	14	7	0	7	1	7	5	7	3	7	4	
3	11	9	6	11	0	11	1	11	2	11	1	11	0	
5	14	7	0	5	12	7	0	7	1	7	2	7	3	7	4	
4	2	7	0	6	2	0	2	1	2	5	2	3	2	4	
3	7	2	4	7	0	7	1	7	5	7	3	7	4	
5	9	6	0	5	1	6	0	6	1	6	5	6	3	6	4	
3	2	7	0	2	0	2	1	2	5	2	3	2	4	
3	5	12	10	12	0	12	1	12	2	12	3	12	4	
5	10	12	5	1	2	12	0	12	1	12	2	12	3	12	4	
3	0	6	9	6	0	6	1	6	2	6	1	6	0	
3	3	4	1	4	0	4	1	4	2	4	3	4	4	
3	6	0	5	6	0	6	1	6	5	6	3	6	4	
4	1	2	7	8	2	0	2	1	2	2	2	3	2	4	
5	4	3	5	0	6	4	0	4	1	4	2	4	1	4	0	
2	8	14	8	0	8	1	8	5	8	3	8	4	
4	12	5	3	4	12	0	12	1	12	2	12	5	12	4	
3	5	1	4	5	0	5	1	5	5	5	3	5	4	
2	5	3	5	0	5	1	5	2	5	5	5	4	
4	12	5	1	2	12	0	12	1	12	2	12	5	12	4	
3	5	12	13	12	0	12	1	12	2	12	5	12	4	
5	10	13	6	0	7	13	0	13	1	13	2	13	5	13	4	
3	12	5	1	12	0	12	1	5	5	5	3	5	4	
2	0	7	7	0	7	1	7	2	7	3	7	4	
5	11	9	6	13	10	11	0	11	1	11	2	11	1	11	0	
3	14	7	0	7	0	7	1	7	2	7	3	7	4	
4	7	0	5	3	7	0	7	1	7	2	7	3	7	4	
4	12	13	6	9	12	0	12	1	12	2	12	3	12	4	
3	9	6	0	6	0	6	1	6	2	6	5	6	4	
3	5	0	6	5	0	5	1	5	2	5	3	5	4	
3	9	8	14	8	0	8	1	8	2	8	5	8	4	
4	13	6	9	8	6	0	6	1	6	5	6	3	6	4	
3	6	0	7	6	0	6	1	6	2	6	5	6	4	
4	10	13	6	9	13	0	13	1	13	2	13	1	13	0	
3	1	4	3	4	0	4	1	4	5	4	3	4	4	
4	3	5	12	10	5	0	5	1	5	2	5	1	5	0	
3	8	7	2	7	0	7	1	7	5	7	3	7	4	
2	1	5	5	0	5	1	5	5	5	3	5	4	
5	4	2	7	8	9	2	0	2	1	2	2	2	3	2	4	
3	9	8	7	8	0	8	1	8	2	8	3	8	4	
2	9	11	11	0	11	1	11	5	11	3	11	4	
4	1	5	12	10	5	0	5	1	5	5	5	3	5	4	
4	5	0	7	8	5	0	5	1	5	5	5	3	5	4	
4	10	13	6	0	13	0	13	1	13	2	13	1	13	0	
4	0	6	9	11	0	0	0	1	0	2	0	3	0	4	
2	8	9	8	0	8	1	8	2	8	5	8	4	
5	11	8	7	2	1	8	0	8	1	8	2	8	5	8	4	
4	4	3	5	0	4	0	4	1	4	2	4	5	4	4	
2	10	13	13	0	13	1	13	5	13	3	13	4	
3	11	8	7	7	0	7	1	7	2	7	5	7	4	
4	2	7	8	9	2	0	2	1	2	2	2	5	2	4	
4	4	2	7	14	2	0	2	1	2	2	2	5	2	4	
4	9	8	7	2	8	0	8	1	8	2	8	5	8	4	
3	2	4	3	2	0	2	1	2	2	2	5	2	4	
3	10	12	5	12	0	12	1	12	2	12	1	12	0	
2	12	10	12	0	12	1	12	5	12	3	12	4	
5	6	0	7	2	4	6	0	6	1	6	2	6	3	6	4	
5	11	9	6	13	12	11	0	11	1	11	2	11	3	11	4	
5	4	2	7	8	11	2	0	2	1	2	2	2	5	2	4	
4	14	8	9	6	8	0	8	1	8	2	8	1	8	0	
3	4	3	5	4	0	4	1	4	2	4	3	4	4	
4	8	9	6	13	8	0	8	1	8	2	8	5	8	4	
5	12	13	6	9	11	12	0	12	1	12	5	12	3	12	4	
5	2	1	5	12	10	2	0	2	1	2	2	2	3	2	4	
5	13	6	0	7	2	13	0	13	1	13	2	13	5	13	4	
4	9	6	13	12	6	0	6	1	6	2	6	1	6	0	
5	3	5	0	6	9	5	0	5	1	5	2	5	5	5	4	
2	0	6	0	0	0	1	0	5	0	3	0	4	
3	3	5	12	5	0	5	1	5	2	5	3	5	4	
4	8	7	2	4	7	0	7	1	7	2	7	3	7	4	
5	14	7	2	4	3	7	0	7	1	7	2	7	1	7	0	
3	7	2	1	7	0	7	1	7	2	7	5	7	4	
2	7	0	7	0	7	1	7	2	7	1	7	0	
4	9	6	0	5	6	0	6	1	6	2	6	1	6	0	
5	4	2	7	8	11	2	0	2	1	2	5	2	3	2	4	
4	6	0	5	3	6	0	6	1	6	2	6	5	6	4	
3	13	6	9	13	0	13	1	13	2	13	3	13	4	
3	6	9	8	6	0	6	1	6	2	6	3	6	4	
5	10	13	6	9	8	13	0	13	1	13	2	13	5	13	4	
3	1	5	12	5	0	5	1	5	2	5	5	5	4	
6	3	4	2	7	8	11	4	0	4	1	4	2	4	5	4	4	
3	7	8	9	7	0	7	1	7	2	7	1	7	0	
5	14	8	9	6	13	8	0	8	1	8	2	8	3	8	4	
3	9	6	0	6	0	6	1	6	2	6	1	6	0	
4	8	7	0	5	7	0	7	1	7	2	7	5	7	4	
3	0	5	3	5	0	5	1	5	5	5	3	5	4	
2	2	1	2	0	2	1	2	2	2	1	2	0	
2	8	11	8	0	8	1	8	2	8	5	8	4	
4	5	0	6	9	5	0	5	1	5	2	5	3	5	4	
4	10	12	5	3	12	0	12	1	12	2	12	3	12	4	
4	0	6	13	10	6	0	6	1	6	5	6	3	6	4	
3	3	5	0	5	0	5	1	5	2	5	3	5	4	
3	11	8	14	8	0	8	1	8	5	8	3	8	4	
4	7	0	5	12	0	0	0	1	0	2	0	1	0	0	
5	11	8	7	2	4	8	0	8	1	8	5	8	3	8	4	
3	2	7	8	2	0	2	1	2	2	2	1	2	0	
6	10	13	6	9	8	14	13	0	13	1	13	2	13	5	13	4	
5	12	5	0	7	14	12	0	12	1	12	5	12	3	12	4	
5	10	12	5	3	4	12	0	12	1	12	2	12	5	12	4	
3	5	0	6	5	0	5	1	5	5	5	3	5	4	
3	6	0	7	6	0	6	1	6	2	6	1	6	0	
3	8	9	6	8	0	8	1	8	2	8	1	8	0	
4	14	7	2	1	7	0	7	1	7	2	7	3	7	4	
2	13	6	13	0	13	1	13	2	13	5	13	4	
4	12	13	6	9	12	0	12	1	12	5	12	3	12	4	
2	7	2	2	0	2	1	2	2	2	3	2	4	
2	12	10	12	0	12	1	12	2	12	3	12	4	
5	2	7	0	6	13	2	0	2	1	2	2	2	1	2	0	
4	14	7	2	1	7	0	7	1	7	2	7	5	7	4	
3	9	6	13	6	0	6	1	6	2	6	5	6	4	
4	13	6	0	7	13	0	13	1	13	2	13	1	13	0	
4	6	0	7	14	0	0	0	1	0	2	0	1	0	0	
2	0	5	5	0	5	1	5	2	5	5	5	4	
5	8	7	2	4	3	7	0	7	1	7	2	7	1	7	0	
2	1	4	4	0	4	1	4	2	4	1	4	0	
5	4	3	5	12	10	4	0	4	1	4	2	4	3	4	4	
2	9	6	6	0	6	1	6	2	6	3	6	4	
6	14	8	9	6	13	10	8	0	8	1	8	5	8	3	8	4	
2	13	10	13	0	13	1	13	2	13	1	13	0	
3	0	5	12	5	0	5	1	5	2	5	3	5	4	
3	6	9	11	6	0	6	1	6	2	6	1	6	0	
5	10	13	6	9	11	13	0	13	1	13	5	13	3	13	4	
4	1	5	12	13	5	0	5	1	5	2	5	1	5	0	
5	3	5	0	7	8	5	0	5	1	5	5	5	3	5	4	
2	7	14	7	0	7	1	7	2	7	3	7	4	
4	8	7	2	1	7	0	7	1	7	2	7	5	7	4	
5	14	7	0	5	12	7	0	7	1	7	5	7	3	7	4	
4	2	7	0	6	2	0	2	1	2	2	2	5	2	4	
5	9	6	0	5	1	6	0	6	1	6	2	6	5	6	4	
3	2	7	0	2	0	2	1	2	2	2	5	2	4	
3	5	12	10	5	0	5	1	12	2	12	1	12	0	
3	0	6	9	6	0	6	1	6	2	6	5	6	4	
3	6	0	5	6	0	6	1	6	2	6	3	6	4	
4	1	2	7	8	2	0	2	1	2	2	2	1	2	0	
5	4	2	7	0	6	2	0	2	1	2	2	2	3	2	4	
2	8	14	8	0	8	1	8	2	8	5	8	4	
4	12	5	3	4	12	0	12	1	12	2	12	1	12	0	
4	2	7	8	11	2	0	2	1	2	2	2	3	2	4	
2	5	3	5	0	5	1	5	2	5	1	5	0	
5	10	13	6	0	7	13	0	13	1	13	5	13	3	13	4	
2	13	10	13	0	13	1	13	2	13	5	13	4	
2	0	7	7	0	7	1	7	2	7	1	7	0	
4	8	7	0	5	7	0	7	1	7	2	7	3	7	4	
3	3	4	1	4	0	4	1	4	2	4	5	4	4	
3	14	7	0	7	0	7	1	7	5	7	3	7	4	
4	7	0	5	3	7	0	7	1	7	5	7	3	7	4	
4	12	13	6	9	12	0	12	1	13	2	13	1	13	0	
4	2	1	5	12	2	0	2	1	2	2	2	5	2	4	
3	5	0	6	5	0	5	1	5	2	5	1	5	0	
3	9	8	14	8	0	8	1	8	5	8	3	8	4	
4	13	6	9	8	13	0	13	1	13	2	13	3	13	4	
3	0	7	14	7	0	7	1	7	2	7	1	7	0	
2	4	3	4	0	4	1	4	5	4	3	4	4	
2	6	9	6	0	6	1	6	2	6	3	6	4	
3	6	9	11	6	0	6	1	6	2	6	5	6	4	
3	1	4	3	4	0	4	1	4	2	4	5	4	4	
3	8	7	2	7	0	7	1	7	2	7	5	7	4	
2	1	5	5	0	5	1	5	2	5	5	5	4	
5	4	2	7	8	9	2	0	2	1	2	2	2	1	2	0	
4	5	0	7	8	5	0	5	1	5	2	5	3	5	4	
4	10	13	6	0	13	0	13	1	13	2	13	3	13	4	
4	0	6	9	11	6	0	6	1	6	2	6	1	6	0	
5	11	8	7	2	1	11	0	11	1	11	2	11	1	11	0	
4	1	2	7	14	2	0	2	1	2	2	2	3	2	4	
6	14	7	0	5	12	10	7	0	7	1	7	2	7	5	7	4	
4	4	3	5	0	4	0	4	1	4	2	4	1	4	0	
4	2	7	8	9	2	0	2	1	2	5	2	3	2	4	
4	9	8	7	2	8	0	8	1	8	5	8	3	8	4	
4	13	12	5	3	13	0	13	1	13	5	13	3	13	4	
3	2	4	3	2	0	2	1	2	5	2	3	2	4	
2	6	0	6	0	6	1	6	5	6	3	6	4	
2	1	2	2	0	2	1	2	2	2	5	2	4	
5	6	0	7	2	4	6	0	6	1	6	5	6	3	6	4	
5	11	9	6	13	12	11	0	11	1	11	2	11	1	11	0	
4	14	8	9	6	8	0	8	1	8	2	8	3	8	4	
3	4	3	5	4	0	4	1	4	2	4	1	4	0	
4	8	9	6	13	8	0	8	1	8	5	8	3	8	4	
5	12	13	6	9	11	12	0	12	1	12	2	12	3	12	4	
3	5	1	4	5	0	5	1	5	2	5	3	5	4	
5	13	6	0	7	14	13	0	13	1	13	2	6	5	6	4	
2	0	6	6	0	6	1	6	2	6	5	6	4	
3	3	5	12	5	0	5	1	5	2	5	1	5	0	
5	7	0	6	13	10	7	0	7	1	7	2	7	5	7	4	
5	14	7	2	4	3	7	0	7	1	7	2	7	5	7	4	
6	11	8	7	2	4	3	11	0	11	1	11	5	11	3	11	4	
5	4	2	7	8	11	2	0	2	1	2	2	2	3	2	4	
4	9	6	0	5	6	0	6	1	6	2	6	3	6	4	
3	4	2	7	2	0	2	1	2	5	2	3	2	4	
6	10	13	6	9	8	14	13	0	13	1	13	2	13	1	13	0	
3	0	6	13	0	0	0	1	0	2	0	3	0	4	
2	3	5	5	0	5	1	5	2	5	1	5	0	
3	1	5	12	5	0	5	1	5	5	5	3	5	4	
3	7	8	9	7	0	7	1	7	2	7	3	7	4	
3	12	5	0	12	0	12	1	5	5	5	3	5	4	
5	14	8	9	6	13	8	0	8	1	8	2	8	1	8	0	
4	5	0	6	9	5	0	5	1	5	5	5	3	5	4	
4	10	12	5	3	12	0	12	1	12	2	12	1	12	0	
4	14	8	9	6	8	0	8	1	8	2	8	5	8	4	
3	3	5	0	5	0	5	1	5	2	5	1	5	0	
6	4	3	5	0	6	13	4	0	4	1	4	5	4	3	4	4	
3	11	8	14	8	0	8	1	8	2	8	3	8	4	
4	14	7	2	4	7	0	7	1	7	2	7	1	7	0	
3	4	2	7	2	0	2	1	2	2	2	3	2	4	
3	2	7	8	2	0	2	1	2	2	2	3	2	4	
4	1	2	7	14	2	0	2	1	2	2	2	5	2	4	
5	13	12	5	3	4	13	0	13	1	13	2	13	5	13	4	
2	6	13	13	0	13	1	13	2	13	5	13	4	
5	3	5	0	7	14	5	0	5	1	5	2	5	3	5	4	
3	8	9	6	8	0	8	1	8	2	8	3	8	4	
4	14	7	2	1	7	0	7	1	7	2	7	1	7	0	
2	7	2	7	0	2	1	2	2	2	1	2	0	
2	9	11	11	0	11	1	11	2	11	1	11	0	
4	13	6	0	7	6	0	6	1	6	2	6	3	6	4	
4	6	0	7	14	0	0	0	1	0	2	0	3	0	4	
5	11	8	7	0	5	11	0	8	1	8	5	8	3	8	4	
2	0	5	5	0	5	1	5	5	5	3	5	4	
3	7	8	11	7	0	7	1	7	2	7	1	7	0	
5	4	3	5	12	10	4	0	4	1	4	5	4	3	4	4	
2	9	6	6	0	6	1	6	2	6	1	6	0	
3	12	5	1	12	0	12	1	12	2	12	5	12	4	
4	11	8	7	0	11	0	8	1	8	5	8	3	8	4	
4	10	12	5	1	12	0	12	1	12	2	12	3	12	4	
4	3	5	12	13	5	0	5	1	5	5	5	3	5	4	
3	3	4	2	4	0	4	1	4	2	4	3	4	4	
4	1	5	12	13	5	0	5	1	5	2	5	3	5	4	
2	7	14	7	0	7	1	7	2	7	1	7	0	
4	12	5	0	7	12	0	12	1	12	2	12	5	12	4	
5	14	7	0	5	12	7	0	7	1	7	2	7	5	7	4	
4	2	7	0	6	2	0	2	1	2	2	2	1	2	0	
2	5	0	5	0	5	1	5	2	5	5	5	4	
5	3	5	0	7	14	5	0	5	1	5	5	5	3	5	4	
3	5	12	10	12	0	12	1	12	2	12	5	12	4	
2	11	9	11	0	11	1	11	5	11	3	11	4	
3	0	6	9	6	0	6	1	6	5	6	3	6	4	
3	6	0	5	6	0	6	1	6	2	6	1	6	0	
2	14	7	7	0	7	1	7	2	7	3	7	4	
5	4	2	7	0	6	2	0	2	1	2	5	2	3	2	4	
4	1	5	12	10	5	0	5	1	5	2	5	5	5	4	
4	12	5	3	4	12	0	12	1	12	2	12	3	12	4	
4	2	7	8	11	2	0	2	1	2	2	2	1	2	0	
2	5	3	5	0	5	1	5	2	5	3	5	4	
3	13	12	5	13	0	13	1	12	2	12	1	12	0	
3	6	13	12	13	0	13	1	13	2	13	1	13	0	
4	14	7	2	4	7	0	7	1	7	2	7	5	7	4	
4	8	7	0	5	7	0	7	1	7	2	7	1	7	0	
3	14	7	0	7	0	7	1	7	2	7	5	7	4	
4	7	0	5	3	7	0	7	1	7	2	7	5	7	4	
5	9	8	7	2	4	8	0	8	1	8	2	8	3	8	4	
2	9	11	11	0	11	1	11	2	11	5	11	4	
3	5	0	6	5	0	5	1	5	2	5	5	5	4	
4	13	6	9	8	13	0	13	1	13	2	13	1	13	0	
3	0	7	14	7	0	7	1	7	2	7	3	7	4	
2	6	9	6	0	6	1	6	2	6	1	6	0	
4	11	8	7	2	8	0	8	1	8	2	8	5	8	4	
3	1	4	3	4	0	4	1	4	2	4	1	4	0	
2	7	8	7	0	7	1	7	2	7	3	7	4	
4	10	13	6	9	13	0	13	1	13	5	13	3	13	4	
2	12	5	12	0	12	1	12	2	12	5	12	4	
5	11	9	6	13	12	11	0	11	1	11	5	11	3	11	4	
5	4	2	7	8	9	2	0	2	1	2	2	2	5	2	4	
5	3	5	0	6	9	5	0	5	1	5	5	5	3	5	4	
3	10	13	6	13	0	13	1	13	5	13	3	13	4	
4	5	0	7	8	5	0	5	1	5	2	5	1	5	0	
4	10	13	6	0	13	0	13	1	13	5	13	3	13	4	
5	11	8	7	2	1	8	0	8	1	8	2	8	3	8	4	
4	1	2	7	14	2	0	2	1	2	2	2	1	2	0	
4	4	3	5	0	4	0	4	1	4	2	4	3	4	4	
3	12	13	6	13	0	13	1	13	2	13	1	13	0	
4	2	7	8	9	2	0	2	1	2	2	2	3	2	4	
2	5	1	5	0	5	1	5	2	5	1	5	0	
4	13	12	5	3	13	0	13	1	13	2	13	5	13	4	
4	6	0	7	2	6	0	6	1	6	2	6	5	6	4	
5	6	0	5	1	4	6	0	6	1	6	2	0	5	0	4	
2	8	7	7	0	7	1	7	2	7	3	7	4	
3	7	0	5	7	0	7	1	7	2	7	5	7	4	
3	4	3	5	4	0	4	1	4	2	4	5	4	4	
5	12	13	6	9	11	13	0	13	1	13	2	13	1	13	0	
3	5	1	4	5	0	5	1	5	2	5	1	5	0	
6	10	13	6	9	8	14	13	0	13	1	13	5	13	3	13	4	
2	13	6	13	0	13	1	13	2	13	3	13	4	
3	0	5	1	5	0	5	1	5	5	5	3	5	4	
4	3	5	0	6	5	0	5	1	5	2	5	5	5	4	
3	3	5	12	5	0	5	1	5	2	5	5	5	4	
5	7	0	6	13	10	7	0	7	1	7	5	7	3	7	4	
5	9	6	0	5	3	6	0	6	1	6	5	6	3	6	4	
3	9	8	7	7	0	7	1	7	2	7	5	7	4	
5	4	2	7	8	11	2	0	2	1	2	2	2	1	2	0	
4	9	6	0	5	6	0	6	1	6	5	6	3	6	4	
6	10	13	6	9	8	14	13	0	13	1	13	2	13	3	13	4	
3	0	6	13	6	0	6	1	6	2	6	1	6	0	
2	3	5	5	0	5	1	5	2	5	3	5	4	
4	12	13	6	9	12	0	12	1	12	2	12	5	12	4	
6	11	8	7	2	4	3	11	0	11	1	11	2	11	1	11	0	
2	11	8	8	0	8	1	8	5	8	3	8	4	
3	1	5	12	12	0	12	1	12	2	12	3	12	4	
2	3	5	5	0	5	1	5	5	5	3	5	4	
2	4	2	2	0	2	1	2	2	2	1	2	0	
3	12	5	0	12	0	12	1	5	2	5	5	5	4	
5	10	13	6	9	8	13	0	13	1	13	5	13	3	13	4	
4	5	0	6	9	5	0	5	1	5	2	5	5	5	4	
4	10	12	5	3	12	0	12	1	12	2	12	5	12	4	
3	3	5	0	5	0	5	1	5	2	5	5	5	4	
3	11	8	14	11	0	11	1	11	2	11	1	11	0	
4	14	7	2	4	7	0	7	1	7	2	7	3	7	4	
3	2	7	14	2	0	2	1	2	5	2	3	2	4	
3	4	2	7	2	0	2	1	2	2	2	1	2	0	
2	12	5	12	0	12	1	12	2	12	3	12	4	
3	2	7	8	2	0	2	1	2	5	2	3	2	4	
3	5	1	2	5	0	5	1	5	2	5	3	5	4	
5	13	12	5	1	4	12	0	12	1	12	5	12	3	12	4	
2	6	13	13	0	13	1	13	5	13	3	13	4	
3	8	7	0	7	0	7	1	7	5	7	3	7	4	
3	7	8	9	7	0	7	1	7	2	7	5	7	4	
3	1	2	7	2	0	2	1	2	5	2	3	2	4	
5	3	5	0	7	14	5	0	5	1	5	2	5	1	5	0	
3	8	9	6	8	0	8	1	8	5	8	3	8	4	
2	9	11	11	0	11	1	11	2	11	3	11	4	
2	10	12	12	0	12	1	12	2	12	1	12	0	
4	3	4	2	7	4	0	4	1	4	2	4	1	4	0	
5	14	8	9	6	13	8	0	8	1	8	5	8	3	8	4	
5	11	8	7	0	5	11	0	11	1	11	2	8	5	8	4	
3	7	8	11	7	0	7	1	7	2	7	3	7	4	
3	2	1	5	2	0	2	1	2	2	2	5	2	4	
5	4	3	5	12	10	4	0	4	1	4	2	4	5	4	4	
2	9	6	6	0	6	1	6	2	6	5	6	4	
4	10	12	5	1	12	0	12	1	12	5	12	3	12	4	
2	12	13	12	0	12	1	12	2	12	5	12	4	
4	10	12	5	1	12	0	12	1	12	2	12	1	12	0	
5	1	2	7	8	11	2	0	2	1	2	5	2	3	2	4	
3	3	4	2	4	0	4	1	4	2	4	1	4	0	
4	11	9	6	0	11	0	11	1	11	2	11	3	11	4	
6	14	8	9	6	13	10	8	0	8	1	8	2	8	1	8	0	
2	4	1	4	0	4	1	4	2	4	3	4	4	
4	12	5	0	7	12	0	12	1	12	5	12	3	12	4	
4	2	7	0	6	2	0	2	1	2	2	2	3	2	4	
2	4	3	4	0	4	1	4	2	4	5	4	4	
3	3	4	2	4	0	4	1	4	5	4	3	4	4	
4	0	5	3	4	5	0	5	1	5	5	5	3	5	4	
3	5	12	10	12	0	12	1	12	5	12	3	12	4	
2	11	9	11	0	11	1	11	2	11	5	11	4	
4	11	8	7	0	11	0	11	1	11	2	8	5	8	4	
2	14	7	7	0	7	1	7	2	7	1	7	0	
5	4	2	7	0	6	2	0	2	1	2	2	2	5	2	4	
4	3	5	0	7	5	0	5	1	5	5	5	3	5	4	
4	2	7	8	11	2	0	2	1	2	2	2	5	2	4	
3	13	12	5	13	0	13	1	13	2	13	3	13	4	
3	9	6	0	6	0	6	1	6	5	6	3	6	4	
3	6	13	12	13	0	13	1	13	2	13	3	13	4	
3	1	5	0	5	0	5	1	5	2	5	5	5	4	
3	7	0	5	7	0	7	1	7	2	7	1	7	0	
2	12	13	12	0	12	1	12	5	12	3	12	4	
5	9	8	7	2	4	8	0	8	1	8	2	8	1	8	0	
3	0	7	8	7	0	7	1	7	5	7	3	7	4	
3	14	8	9	8	0	8	1	8	5	8	3	8	4	
3	0	7	14	7	0	7	1	7	5	7	3	7	4	
2	3	4	4	0	4	1	4	2	4	3	4	4	
2	8	7	7	0	7	1	7	2	7	5	7	4	
4	11	8	7	2	8	0	8	1	8	5	8	3	8	4	
3	1	4	3	4	0	4	1	4	2	4	3	4	4	
2	7	8	7	0	7	1	7	2	7	1	7	0	
3	10	12	5	12	0	12	1	12	5	12	3	12	4	
2	2	4	2	0	2	1	2	2	2	1	2	0	
5	4	2	7	8	9	2	0	2	1	2	5	2	3	2	4	
3	10	13	6	13	0	13	1	13	2	13	5	13	4	
4	10	12	5	0	12	0	12	1	12	2	12	5	12	4	
4	1	5	0	6	5	0	5	1	5	2	5	5	5	4	
5	8	9	6	13	12	8	0	8	1	8	2	8	5	8	4	
5	8	9	6	13	12	8	0	8	1	8	5	8	3	8	4	
5	8	9	6	13	10	8	0	8	1	8	2	8	1	8	0	
4	14	7	0	5	7	0	7	1	7	2	7	3	7	4	
3	4	2	7	2	0	2	1	2	2	2	5	2	4	
3	12	13	6	12	0	12	1	12	2	12	3	12	4	
4	2	7	8	9	2	0	2	1	2	2	2	1	2	0	
2	5	1	5	0	5	1	5	2	5	3	5	4	
4	13	12	5	3	12	0	12	1	12	2	12	1	12	0	
3	0	5	3	5	0	5	1	5	2	5	5	5	4	
4	6	0	7	2	6	0	6	1	6	2	6	1	6	0	
2	8	7	7	0	7	1	7	2	7	1	7	0	
3	4	3	5	4	0	4	1	4	5	4	3	4	4	
4	9	6	13	10	6	0	6	1	6	2	6	3	6	4	
4	14	8	9	6	8	0	8	1	8	5	8	3	8	4	
2	13	6	13	0	13	1	13	2	13	1	13	0	
2	7	8	7	0	7	1	7	2	7	5	7	4	
2	3	4	4	0	4	1	4	5	4	3	4	4	
4	3	5	0	6	5	0	5	1	5	5	5	3	5	4	
5	8	7	0	5	3	8	0	8	1	8	2	7	5	7	4	
5	7	0	6	13	10	7	0	7	1	7	2	7	3	7	4	
5	9	6	0	5	3	6	0	6	1	6	2	6	5	6	4	
4	14	7	0	5	7	0	7	1	7	5	7	3	7	4	
4	9	6	0	5	6	0	6	1	6	2	6	5	6	4	
3	0	6	13	6	0	6	1	6	2	6	5	6	4	
6	11	8	7	2	4	3	11	0	11	1	11	2	11	3	11	4	
3	1	5	12	5	0	5	1	5	2	5	1	5	0	
2	4	2	2	0	2	1	2	2	2	3	2	4	
3	12	5	0	12	0	12	1	12	2	12	1	12	0	
2	2	7	2	0	2	1	2	2	2	3	2	4	
