2506.56	2506.56
3177
7352.12	5399.45
15
0	0	3000
1	0	3000
2	361	3000
3	0	3000
4	413	3000
5	861	3000
6	528	3000
7	1023	3000
8	0	3000
9	579	3000
10	0	3000
11	297	3000
12	710	3000
13	397	3000
14	287	3000
44
0	5	91.563088	94.942746
0	6	88.574122	97.708373
0	7	104.071366	107.847469
1	2	39.702480	106.004333
1	4	14.277298	104.160274
1	5	47.097258	106.004333
2	1	38.125488	106.004333
2	4	48.207642	97.708373
2	7	91.084600	94.021178
3	4	33.082542	91.255735
3	5	71.130698	83.881529
4	1	9.199042	104.160274
4	2	42.664630	97.708373
4	3	43.239208	91.255735
5	0	93.740580	94.942746
5	1	53.557016	106.004333
5	3	61.645006	83.881529
5	12	84.048870	84.803282
6	0	92.753908	97.708373
6	9	85.016494	89.412137
6	13	88.263922	101.395569
7	0	97.613092	107.847469
7	2	94.017520	94.021178
7	8	77.421174	100.473078
7	14	47.297952	104.160274
8	7	72.677684	100.473078
8	9	47.177410	97.708373
8	11	38.231510	82.959776
8	14	19.109514	88.490385
9	6	88.121442	89.412137
9	8	47.623208	97.708373
9	11	28.789714	103.238705
10	12	28.499850	97.708373
10	13	38.144628	93.099610
11	8	35.048008	82.959776
11	9	32.400228	103.238705
12	5	82.287870	84.803282
12	10	30.874416	97.708373
12	13	43.739132	90.333982
13	6	90.086430	101.395569
13	10	36.263824	93.099610
13	12	43.691674	90.333982
14	7	48.526560	104.160274
14	8	17.867266	88.490385
840
4	10	12	5	3	12	0	12	1	12	5	12	3	12	4	
3	14	7	2	14	0	14	1	14	5	7	3	7	4	
3	3	5	0	5	0	5	1	5	5	5	3	5	4	
2	8	9	9	0	9	1	9	2	9	3	9	4	
4	14	7	2	4	14	0	7	1	7	5	7	3	7	4	
3	2	7	14	2	0	7	1	7	2	7	5	7	4	
4	9	6	13	12	9	0	9	1	9	5	9	3	9	4	
2	12	5	12	0	12	1	12	2	12	1	12	0	
3	2	7	8	7	0	7	1	7	2	7	5	7	4	
3	5	1	2	5	0	5	1	5	2	5	1	2	0	
5	13	12	5	3	4	12	0	12	1	12	2	12	3	12	4	
3	0	7	2	7	0	7	1	7	2	7	1	7	0	
4	4	3	5	12	4	0	4	1	4	5	4	3	4	4	
2	6	13	6	0	6	1	6	2	6	3	6	4	
3	8	7	0	7	0	7	1	7	2	7	5	7	4	
3	1	2	7	2	0	2	1	2	2	2	5	2	4	
3	8	9	6	9	0	9	1	9	2	9	5	9	4	
5	3	5	0	7	14	5	0	5	1	5	2	5	5	5	4	
2	8	7	7	0	7	1	7	5	7	3	7	4	
2	10	12	12	0	12	1	12	2	12	3	12	4	
4	3	5	0	7	5	0	5	1	5	2	5	3	5	4	
4	7	0	6	13	7	0	7	1	7	5	7	3	7	4	
4	14	7	2	1	7	0	7	1	7	5	7	3	7	4	
5	11	8	7	0	5	11	0	11	1	11	2	11	1	11	0	
2	1	2	2	0	2	1	2	2	2	3	2	4	
4	4	3	5	12	4	0	4	1	4	2	4	1	4	0	
3	7	2	1	7	0	7	1	7	5	7	3	7	4	
3	2	1	5	2	0	2	1	2	5	2	3	2	4	
2	9	6	9	0	9	1	9	5	9	3	9	4	
5	1	2	7	8	11	2	0	2	1	2	2	2	5	2	4	
4	11	8	7	0	11	0	11	1	11	2	11	1	11	0	
6	14	8	9	6	13	10	14	0	14	1	14	2	14	3	14	4	
2	4	1	4	0	4	1	4	2	4	1	4	0	
4	12	5	0	7	12	0	12	1	12	2	12	3	12	4	
2	5	0	5	0	5	1	5	2	5	3	5	4	
4	0	7	2	4	7	0	7	1	7	2	7	5	7	4	
2	11	9	11	0	11	1	11	2	11	1	11	0	
4	10	13	6	9	13	0	13	1	6	2	9	5	9	4	
2	9	8	9	0	9	1	9	5	9	3	9	4	
5	11	9	6	13	12	11	0	11	1	11	2	11	5	9	4	
3	7	0	6	7	0	7	1	7	2	7	5	7	4	
2	14	7	14	0	14	1	14	2	14	5	14	4	
4	13	6	9	11	13	0	13	1	13	5	13	3	13	4	
4	2	7	8	11	2	0	7	1	7	5	7	3	7	4	
3	6	13	10	6	0	6	1	6	5	6	3	6	4	
3	13	12	5	13	0	13	1	13	5	13	3	13	4	
3	0	5	1	5	0	5	1	5	2	5	3	5	4	
5	3	5	0	6	9	5	0	5	1	5	2	5	1	5	0	
4	3	5	12	10	5	0	5	1	5	2	5	5	5	4	
3	1	5	0	5	0	5	1	5	5	5	3	5	4	
3	7	0	5	7	0	7	1	7	2	7	3	7	4	
5	5	0	6	9	11	5	0	5	1	5	5	5	3	5	4	
3	0	7	8	7	0	7	1	7	2	7	5	7	4	
3	0	7	14	7	0	7	1	7	2	7	5	7	4	
2	3	4	4	0	4	1	4	2	4	1	4	0	
4	11	8	7	2	11	0	11	1	11	2	11	3	11	4	
2	14	8	14	0	14	1	14	2	14	1	14	0	
2	4	3	4	0	4	1	4	2	4	3	4	4	
2	2	4	2	0	2	1	2	2	2	3	2	4	
3	10	13	6	13	0	13	1	13	2	13	1	13	0	
3	13	6	0	13	0	13	1	6	2	6	5	6	4	
4	0	6	13	10	6	0	6	1	6	2	6	5	6	4	
4	6	0	5	1	6	0	6	1	6	2	6	5	6	4	
3	9	8	7	9	0	9	1	9	5	9	3	9	4	
5	8	9	6	13	10	9	0	9	1	9	2	9	3	9	4	
5	12	13	6	9	8	12	0	12	1	12	5	12	3	12	4	
4	14	7	0	5	14	0	14	1	14	2	14	1	14	0	
3	5	0	7	5	0	5	1	5	5	5	3	5	4	
3	12	13	6	12	0	12	1	12	5	12	3	12	4	
2	6	0	6	0	6	1	6	2	6	5	6	4	
2	5	1	5	0	5	1	5	5	5	3	5	4	
2	10	13	13	0	13	1	13	2	13	5	13	4	
4	13	12	5	3	12	0	12	1	12	2	12	3	12	4	
2	11	8	11	0	11	1	11	2	11	5	11	4	
4	6	0	7	2	6	0	6	1	6	2	6	3	6	4	
4	4	2	7	8	2	0	2	1	2	5	2	3	7	4	
4	9	6	13	10	6	0	6	1	6	2	6	1	6	0	
2	13	12	12	0	12	1	12	2	12	5	12	4	
2	10	13	13	0	13	1	13	2	13	3	13	4	
4	3	5	0	6	5	0	5	1	5	2	5	3	5	4	
5	7	0	5	12	10	7	0	7	1	7	2	7	1	7	0	
5	9	6	0	5	3	9	0	9	1	9	2	9	1	9	0	
3	12	5	3	12	0	12	1	12	2	12	5	12	4	
2	5	12	12	0	12	1	12	2	12	5	12	4	
3	7	8	9	7	0	7	1	7	5	7	3	7	4	
4	11	9	6	13	11	0	9	1	9	5	9	3	9	4	
3	0	6	13	6	0	6	1	6	5	6	3	6	4	
5	8	9	6	13	12	9	0	9	1	9	2	9	1	9	0	
3	14	8	11	14	0	14	1	14	2	14	3	14	4	
2	4	2	4	0	4	1	4	5	4	3	4	4	
3	12	5	0	12	0	12	1	12	2	12	3	12	4	
2	2	7	7	0	7	1	7	2	7	1	7	0	
5	14	7	0	6	13	14	0	14	1	14	2	14	5	14	4	
4	13	12	5	1	12	0	12	1	12	2	12	1	12	0	
2	6	0	6	0	6	1	6	2	6	1	6	0	
5	14	7	2	4	3	14	0	14	1	14	5	7	3	7	4	
3	14	7	2	14	0	7	1	7	2	7	5	7	4	
2	8	9	9	0	9	1	9	2	9	1	9	0	
3	6	13	12	13	0	13	1	13	2	13	5	13	4	
3	2	7	14	7	0	7	1	7	2	7	1	7	0	
4	10	12	5	1	12	0	12	1	12	2	12	5	12	4	
4	3	5	12	10	5	0	5	1	5	5	5	3	5	4	
2	9	8	9	0	9	1	9	2	9	3	9	4	
2	3	5	5	0	5	1	5	2	5	5	5	4	
3	5	1	2	5	0	5	1	5	2	5	5	5	4	
5	13	12	5	3	4	12	0	12	1	12	2	12	1	12	0	
3	0	7	2	7	0	7	1	7	2	7	3	7	4	
2	6	13	13	0	13	1	13	2	13	1	13	0	
3	8	7	0	7	0	7	1	7	2	7	1	7	0	
3	11	9	6	11	0	11	1	11	2	11	5	11	4	
3	1	2	7	2	0	2	1	2	2	2	1	2	0	
3	7	2	4	7	0	7	1	7	2	7	3	7	4	
3	3	4	2	4	0	4	1	4	2	4	5	4	4	
5	10	12	5	1	2	12	0	12	1	12	5	12	3	12	4	
3	3	4	1	4	0	4	1	4	5	4	3	4	4	
2	10	12	12	0	12	1	12	5	12	3	12	4	
3	13	6	9	13	0	13	1	13	5	6	3	6	4	
4	7	0	6	13	7	0	7	1	7	2	7	5	7	4	
5	11	9	6	0	5	9	0	9	1	9	2	9	3	9	4	
2	1	2	2	0	2	1	2	2	2	1	2	0	
4	4	3	5	12	4	0	4	1	4	2	4	3	4	4	
4	12	5	1	2	12	0	12	1	12	2	12	1	12	0	
3	2	1	5	2	0	2	1	2	2	2	3	2	4	
3	5	12	13	12	0	12	1	12	2	12	1	12	0	
4	5	0	7	14	5	0	5	1	5	5	5	3	5	4	
5	11	9	6	13	10	11	0	11	1	11	2	11	5	11	4	
3	13	6	9	13	0	6	1	6	2	6	5	6	4	
5	1	2	7	8	11	2	0	2	1	2	2	2	1	2	0	
2	8	11	11	0	11	1	11	2	11	3	11	4	
2	4	1	4	0	4	1	4	2	4	5	4	4	
3	14	8	9	14	0	14	1	14	2	14	5	14	4	
4	12	5	0	7	12	0	12	1	12	2	12	1	12	0	
2	5	0	5	0	5	1	5	2	5	1	5	0	
5	13	12	5	1	2	13	0	13	1	13	2	13	3	13	4	
4	0	7	2	4	7	0	7	1	7	2	7	1	7	0	
3	7	8	11	7	0	7	1	7	5	7	3	7	4	
4	6	0	5	3	6	0	6	1	6	2	6	3	6	4	
2	11	9	9	0	9	1	9	2	9	3	9	4	
3	10	12	5	12	0	12	1	12	2	12	5	12	4	
3	7	0	6	7	0	7	1	7	5	7	3	7	4	
5	12	5	0	7	14	12	0	12	1	12	2	12	1	12	0	
2	14	7	7	0	7	1	7	5	7	3	7	4	
4	13	6	9	11	13	0	13	1	13	2	6	5	6	4	
3	6	13	10	13	0	13	1	13	2	13	5	13	4	
3	13	12	5	12	0	12	1	12	2	12	5	12	4	
3	0	5	1	5	0	5	1	5	2	5	1	5	0	
5	3	5	0	6	9	5	0	5	1	5	2	5	3	5	4	
3	11	8	7	11	0	11	1	11	2	11	1	11	0	
3	1	5	0	5	0	5	1	5	2	5	3	5	4	
4	4	2	7	14	4	0	4	1	4	2	4	1	4	0	
5	5	0	6	9	11	5	0	5	1	5	2	5	5	5	4	
5	13	6	9	8	14	13	0	13	1	13	2	13	3	13	4	
3	0	7	8	7	0	7	1	7	2	7	1	7	0	
2	3	4	4	0	4	1	4	2	4	5	4	4	
4	11	8	7	2	11	0	11	1	11	2	11	1	11	0	
2	14	8	14	0	14	1	14	2	14	3	14	4	
5	2	1	5	12	10	2	0	2	1	2	5	2	3	2	4	
2	4	3	4	0	4	1	4	2	4	1	4	0	
3	12	5	1	12	0	12	1	12	2	12	3	12	4	
2	2	4	4	0	4	1	4	5	4	3	4	4	
4	5	0	7	14	5	0	5	1	5	2	5	3	5	4	
3	10	13	6	13	0	13	1	13	2	13	3	13	4	
3	13	6	0	13	0	13	1	13	5	6	3	6	4	
4	6	0	5	1	6	0	6	1	6	5	6	3	6	4	
4	8	7	2	4	7	0	7	1	7	5	7	3	7	4	
4	14	7	0	5	14	0	14	1	14	2	14	5	14	4	
5	8	9	6	13	10	9	0	9	1	9	5	9	3	9	4	
5	12	13	6	9	8	12	0	12	1	12	2	12	5	12	4	
3	5	0	7	5	0	5	1	5	2	5	5	5	4	
3	12	13	6	12	0	12	1	12	2	12	5	12	4	
2	5	1	5	0	5	1	5	2	5	5	5	4	
5	10	13	6	9	8	13	0	13	1	13	2	13	1	13	0	
3	0	5	3	5	0	5	1	5	2	5	3	5	4	
6	3	5	0	7	8	11	5	0	5	1	5	2	5	1	5	0	
4	4	2	7	8	4	0	4	1	4	2	4	5	4	4	
2	12	13	12	0	12	1	12	2	12	3	12	4	
2	7	8	7	0	7	1	7	5	7	3	7	4	
2	2	1	2	0	2	1	2	2	2	5	2	4	
4	9	6	13	10	9	0	9	1	9	2	9	5	9	4	
2	13	12	12	0	12	1	12	5	12	3	12	4	
2	10	13	13	0	13	1	13	2	13	1	13	0	
4	3	5	0	6	5	0	5	1	5	2	5	1	5	0	
4	9	6	13	12	6	0	6	1	6	2	6	5	6	4	
5	11	8	7	2	4	11	0	11	1	11	2	11	3	11	4	
2	8	11	11	0	11	1	11	5	11	3	11	4	
5	4	3	5	12	13	4	0	4	1	4	2	4	3	4	4	
5	9	6	0	5	3	9	0	9	1	9	2	9	3	9	4	
3	12	5	3	12	0	12	1	12	5	12	3	12	4	
2	5	12	12	0	12	1	12	5	12	3	12	4	
5	10	12	5	3	4	12	0	12	1	12	2	12	1	12	0	
4	1	5	12	13	5	0	5	1	5	2	5	5	5	4	
4	11	9	6	13	11	0	11	1	9	2	9	5	9	4	
5	8	9	6	13	12	9	0	9	1	9	2	9	3	9	4	
3	14	8	11	14	0	14	1	14	2	14	1	14	0	
5	2	7	0	6	13	2	0	7	1	7	2	7	5	7	4	
2	4	2	4	0	4	1	4	2	4	5	4	4	
3	9	6	13	9	0	9	1	9	2	9	1	9	0	
2	2	7	7	0	7	1	7	2	7	5	7	4	
4	13	12	5	1	12	0	12	1	12	2	12	3	12	4	
2	6	0	6	0	6	1	6	2	6	3	6	4	
2	11	8	11	0	11	1	11	2	11	3	11	4	
3	14	7	2	14	0	14	1	14	2	14	1	14	0	
4	6	0	7	2	6	0	6	1	6	5	6	3	6	4	
2	1	4	4	0	4	1	4	2	4	5	4	4	
3	7	2	1	7	0	7	1	7	2	7	1	7	0	
3	2	7	14	2	0	7	1	7	2	7	3	7	4	
2	9	8	9	0	9	1	9	2	9	1	9	0	
3	0	5	12	5	0	5	1	5	5	5	3	5	4	
3	5	1	2	5	0	5	1	5	5	5	3	5	4	
5	10	13	6	9	11	13	0	13	1	13	2	13	3	13	4	
3	0	7	2	7	0	7	1	7	5	7	3	7	4	
5	3	5	0	7	8	5	0	5	1	5	2	5	3	5	4	
3	8	7	0	7	0	7	1	7	2	7	3	7	4	
3	11	9	6	11	0	11	1	11	5	11	3	9	4	
3	3	5	12	5	0	5	1	5	5	5	3	5	4	
3	1	2	7	2	0	2	1	2	2	2	3	2	4	
3	7	2	4	7	0	7	1	7	2	7	1	7	0	
5	9	6	0	5	1	9	0	6	1	6	2	6	1	6	0	
3	2	7	0	7	0	7	1	7	2	7	1	7	0	
2	12	5	12	0	12	1	12	5	12	3	12	4	
5	10	12	5	1	2	12	0	12	1	12	2	12	5	12	4	
2	9	8	9	0	9	1	9	2	9	5	9	4	
2	10	12	12	0	12	1	12	2	12	5	12	4	
4	1	2	7	8	2	0	2	1	2	2	2	5	2	4	
4	3	5	0	7	5	0	5	1	5	2	5	5	5	4	
4	7	0	6	13	7	0	7	1	7	2	7	1	7	0	
2	8	14	14	0	14	1	14	2	14	1	14	0	
3	14	8	9	14	0	14	1	14	2	14	3	14	4	
5	1	5	0	6	9	5	0	5	1	5	2	5	5	5	4	
4	12	5	1	2	12	0	12	1	12	2	12	3	12	4	
3	2	1	5	2	0	2	1	2	2	2	1	2	0	
3	5	12	13	12	0	12	1	12	2	12	3	12	4	
5	10	13	6	0	7	13	0	13	1	13	2	13	3	13	4	
2	0	7	7	0	7	1	7	2	7	5	7	4	
5	11	9	6	13	10	11	0	11	1	11	5	11	3	9	4	
5	1	2	7	8	11	2	0	2	1	2	2	2	3	2	4	
2	8	11	11	0	11	1	11	2	11	1	11	0	
4	2	1	5	12	2	0	2	1	2	2	2	1	2	0	
2	4	1	4	0	4	1	4	5	4	3	4	4	
3	9	8	14	9	0	9	1	9	2	9	3	9	4	
5	9	8	7	2	4	9	0	9	1	9	5	9	3	9	4	
5	13	12	5	1	2	13	0	12	1	12	2	12	1	12	0	
4	0	7	2	4	7	0	7	1	7	2	7	3	7	4	
4	6	0	5	3	6	0	6	1	6	2	6	1	6	0	
3	8	7	2	7	0	7	1	7	2	7	1	7	0	
2	1	5	5	0	5	1	5	2	5	1	5	0	
3	7	0	6	7	0	7	1	7	2	7	3	7	4	
5	12	5	0	7	14	12	0	12	1	12	2	12	3	12	4	
4	13	6	9	11	13	0	13	1	13	2	13	1	13	0	
4	0	7	8	11	7	0	7	1	7	2	7	5	7	4	
3	6	13	10	13	0	13	1	13	2	13	1	13	0	
3	0	5	1	5	0	5	1	5	2	5	5	5	4	
2	7	0	7	0	7	1	7	2	7	5	7	4	
3	11	8	7	11	0	11	1	11	2	11	3	11	4	
3	1	5	0	5	0	5	1	5	2	5	1	5	0	
4	4	2	7	14	2	0	2	1	2	2	2	3	7	4	
4	9	8	7	2	9	0	9	1	9	2	9	3	9	4	
5	9	8	7	2	4	9	0	9	1	9	2	9	5	9	4	
3	2	4	3	2	0	2	1	2	2	2	3	2	4	
5	8	7	2	4	3	7	0	7	1	7	5	7	3	7	4	
5	5	0	6	9	11	5	0	5	1	5	2	5	1	5	0	
5	13	6	9	8	14	13	0	13	1	13	2	13	1	13	0	
3	0	7	8	7	0	7	1	7	2	7	3	7	4	
4	2	1	5	12	2	0	2	1	2	5	2	3	2	4	
5	1	2	7	8	9	2	0	2	1	2	2	2	1	2	0	
3	6	0	7	6	0	6	1	6	5	6	3	6	4	
4	8	9	6	13	9	0	9	1	9	2	9	3	9	4	
2	14	8	14	0	14	1	14	5	14	3	14	4	
5	2	1	5	12	10	2	0	2	1	2	2	2	5	2	4	
3	12	5	1	12	0	12	1	12	2	12	1	12	0	
2	2	4	2	0	2	1	2	2	2	5	2	4	
4	5	0	7	14	5	0	5	1	5	2	5	1	5	0	
3	13	6	0	13	0	13	1	13	2	13	3	6	4	
2	0	6	6	0	6	1	6	2	6	1	6	0	
6	11	9	6	0	5	3	9	0	9	1	9	2	9	5	9	4	
4	6	0	5	1	6	0	6	1	6	2	6	3	6	4	
4	8	7	2	4	7	0	7	1	7	2	7	5	7	4	
2	8	9	9	0	9	1	9	5	9	3	9	4	
5	8	9	6	13	10	9	0	9	1	9	2	9	5	9	4	
5	12	13	6	9	8	12	0	12	1	12	2	12	1	12	0	
3	5	0	7	5	0	5	1	5	2	5	1	5	0	
5	10	13	6	9	8	13	0	13	1	13	2	13	3	13	4	
3	0	5	3	5	0	5	1	5	2	5	1	5	0	
6	3	5	0	7	8	11	5	0	5	1	5	2	5	3	5	4	
4	8	7	2	1	7	0	7	1	7	2	7	3	7	4	
2	12	10	12	0	12	1	12	2	12	5	12	4	
4	1	5	0	6	5	0	5	1	5	2	5	3	5	4	
2	6	9	6	0	6	1	6	5	6	3	6	4	
4	4	2	7	8	4	0	4	1	4	2	4	1	4	0	
2	12	13	12	0	12	1	12	2	12	1	12	0	
2	2	1	2	0	2	1	2	5	2	3	2	4	
4	9	6	13	10	9	0	9	1	9	5	9	3	9	4	
2	13	12	12	0	12	1	12	2	12	3	12	4	
4	0	5	12	10	5	0	5	1	5	2	5	1	5	0	
5	13	12	5	1	2	13	0	13	1	13	5	12	3	12	4	
3	6	13	12	6	0	6	1	6	5	6	3	6	4	
5	11	8	7	2	4	11	0	11	1	11	2	11	1	11	0	
5	4	3	5	12	13	4	0	4	1	4	2	4	1	4	0	
3	12	5	3	12	0	12	1	12	2	12	3	12	4	
2	5	12	12	0	12	1	12	2	12	3	12	4	
5	10	12	5	3	4	12	0	12	1	12	2	12	3	12	4	
4	6	0	5	3	6	0	6	1	6	5	6	3	6	4	
4	11	9	6	13	9	0	9	1	9	2	9	1	9	0	
4	1	5	12	10	5	0	5	1	5	2	5	3	5	4	
2	7	2	7	0	7	1	7	2	7	5	7	4	
3	14	8	11	14	0	14	1	14	2	14	5	14	4	
5	2	7	0	6	13	2	0	7	1	7	5	7	3	7	4	
3	9	6	13	9	0	9	1	9	2	9	3	9	4	
4	13	6	0	7	13	0	13	1	13	5	6	3	6	4	
2	2	7	7	0	7	1	7	5	7	3	7	4	
4	7	0	5	12	7	0	7	1	7	5	7	3	7	4	
4	6	0	7	14	6	0	6	1	6	5	6	3	6	4	
4	8	7	0	5	7	0	7	1	7	5	7	3	7	4	
4	13	12	5	1	12	0	12	1	12	5	12	3	12	4	
2	0	5	5	0	5	1	5	2	5	3	5	4	
4	3	5	12	13	5	0	5	1	5	2	5	1	5	0	
2	11	8	11	0	11	1	11	2	11	1	11	0	
3	14	7	2	14	0	14	1	14	2	7	3	7	4	
2	1	4	4	0	4	1	4	5	4	3	4	4	
3	7	2	1	7	0	7	1	7	2	7	3	7	4	
2	7	0	7	0	7	1	7	5	7	3	7	4	
3	0	5	12	5	0	5	1	5	2	5	5	5	4	
3	7	8	11	7	0	7	1	7	2	7	5	7	4	
5	12	5	0	7	14	12	0	12	1	12	2	12	5	12	4	
5	10	13	6	9	11	13	0	13	1	13	2	13	1	13	0	
3	0	7	2	7	0	7	1	7	2	7	5	7	4	
5	3	5	0	7	8	5	0	5	1	5	2	5	1	5	0	
2	7	14	7	0	7	1	7	2	7	5	7	4	
3	11	9	6	11	0	11	1	11	2	11	3	9	4	
5	14	7	0	5	12	7	0	7	1	7	2	7	1	7	0	
3	7	2	4	7	0	7	1	7	2	7	5	7	4	
5	9	6	0	5	1	9	0	6	1	6	2	6	3	6	4	
2	13	6	13	0	13	1	13	5	13	3	6	4	
3	2	7	0	2	0	7	1	7	2	7	3	7	4	
4	4	3	5	12	4	0	4	1	4	2	4	5	4	4	
5	10	12	5	1	2	12	0	12	1	12	2	12	1	12	0	
3	6	9	8	6	0	6	1	6	5	6	3	6	4	
3	0	6	9	6	0	6	1	6	2	6	3	6	4	
3	3	4	1	4	0	4	1	4	2	4	1	4	0	
3	6	0	5	6	0	6	1	6	2	6	5	6	4	
3	7	0	5	7	0	7	1	7	5	7	3	7	4	
4	7	0	6	13	7	0	7	1	7	2	7	3	7	4	
2	8	14	14	0	14	1	14	2	14	3	14	4	
4	12	5	3	4	5	0	5	1	5	5	5	3	5	4	
3	14	8	9	14	0	14	1	14	2	14	1	14	0	
2	5	3	5	0	5	1	5	5	5	3	5	4	
4	12	5	1	2	12	0	12	1	5	5	5	3	5	4	
3	5	12	13	12	0	12	1	12	5	12	3	12	4	
5	10	13	6	0	7	13	0	13	1	13	2	13	1	13	0	
2	0	7	7	0	7	1	7	5	7	3	7	4	
5	11	9	6	13	10	11	0	11	1	11	2	11	3	9	4	
3	14	7	0	14	0	14	1	14	2	14	1	14	0	
4	7	2	4	3	7	0	7	1	2	2	2	1	2	0	
4	2	1	5	12	2	0	2	1	2	2	2	3	2	4	
4	8	7	2	1	7	0	7	1	7	5	7	3	7	4	
3	9	8	14	9	0	9	1	9	2	9	1	9	0	
4	13	6	9	8	13	0	13	1	6	2	6	5	6	4	
2	5	0	5	0	5	1	5	5	5	3	5	4	
2	6	9	6	0	6	1	6	2	6	5	6	4	
4	10	13	6	9	13	0	13	1	13	2	13	3	13	4	
4	3	5	12	10	5	0	5	1	5	2	5	3	5	4	
3	8	7	2	7	0	7	1	7	2	7	3	7	4	
2	1	5	5	0	5	1	5	2	5	3	5	4	
3	7	0	6	7	0	7	1	7	2	7	1	7	0	
3	9	8	7	9	0	9	1	9	2	9	1	9	0	
4	1	5	0	6	5	0	5	1	5	5	5	3	5	4	
4	5	0	7	8	5	0	5	1	5	2	5	5	5	4	
4	13	6	9	11	13	0	13	1	13	2	13	3	6	4	
4	0	7	8	11	7	0	7	1	7	5	7	3	7	4	
3	6	13	10	6	0	6	1	6	2	6	3	6	4	
5	11	8	7	2	1	11	0	11	1	11	5	11	3	11	4	
3	6	9	8	9	0	9	1	9	2	9	5	9	4	
4	4	2	7	0	4	0	4	1	4	5	4	3	4	4	
2	13	10	13	0	13	1	13	5	13	3	13	4	
3	11	8	7	11	0	11	1	11	5	11	3	11	4	
4	4	2	7	14	2	0	2	1	2	5	2	3	7	4	
4	9	8	7	2	9	0	9	1	9	2	9	1	9	0	
3	2	4	3	4	0	4	1	4	2	4	1	4	0	
5	5	0	6	9	11	5	0	5	1	5	2	5	3	5	4	
3	10	12	5	12	0	12	1	12	2	12	3	12	4	
5	6	0	5	1	4	6	0	6	1	6	2	6	1	6	0	
5	1	5	0	6	9	5	0	5	1	5	2	5	3	5	4	
3	6	9	11	6	0	6	1	6	5	6	3	9	4	
4	8	9	6	13	9	0	9	1	9	2	9	1	9	0	
5	12	13	6	9	11	12	0	12	1	12	2	12	5	12	4	
2	14	8	14	0	14	1	14	2	14	5	14	4	
5	2	1	5	12	10	2	0	2	1	2	2	2	1	2	0	
3	5	3	4	5	0	5	1	5	2	5	5	5	4	
4	9	6	13	12	9	0	9	1	9	2	9	3	9	4	
4	1	2	7	8	2	0	2	1	2	5	2	3	2	4	
4	5	0	7	14	5	0	5	1	5	2	5	5	5	4	
3	13	6	0	13	0	13	1	13	2	13	1	13	0	
2	0	6	6	0	6	1	6	2	6	3	6	4	
4	6	0	5	1	6	0	6	1	6	2	6	1	6	0	
4	8	7	2	4	7	0	7	1	7	2	7	1	7	0	
5	14	7	2	4	3	7	0	7	1	7	2	7	3	7	4	
2	7	0	7	0	7	1	7	2	7	3	7	4	
5	12	13	6	9	8	12	0	12	1	12	2	12	3	12	4	
4	1	5	12	13	5	0	5	1	5	5	5	3	5	4	
3	5	0	7	5	0	5	1	5	2	5	3	5	4	
3	13	6	9	6	0	6	1	6	2	6	1	6	0	
3	6	9	8	9	0	9	1	9	2	9	1	9	0	
4	3	5	12	13	5	0	5	1	5	2	5	5	5	4	
6	3	5	0	6	9	11	5	0	5	1	5	5	5	3	5	4	
4	8	7	2	1	7	0	7	1	7	2	7	1	7	0	
2	1	2	2	0	2	1	2	5	2	3	2	4	
4	1	5	0	6	5	0	5	1	5	2	5	1	5	0	
4	4	2	7	8	2	0	2	1	2	2	2	3	7	4	
3	9	6	0	9	0	9	1	9	2	9	3	9	4	
2	2	1	2	0	2	1	2	2	2	3	2	4	
4	5	0	6	9	5	0	5	1	5	2	5	1	5	0	
2	13	12	12	0	12	1	12	2	12	1	12	0	
4	0	6	13	10	6	0	6	1	6	2	6	3	6	4	
5	13	6	9	8	14	13	0	13	1	13	5	13	3	6	4	
3	11	8	14	11	0	11	1	11	2	11	5	11	4	
4	7	0	5	12	7	0	7	1	7	2	7	3	7	4	
5	11	8	7	2	4	11	0	11	1	11	2	11	5	11	4	
5	4	3	5	12	13	4	0	4	1	4	2	4	5	4	4	
3	12	5	3	12	0	12	1	12	2	12	1	12	0	
2	5	12	12	0	12	1	12	2	12	1	12	0	
5	10	12	5	3	4	12	0	12	1	12	5	12	3	12	4	
4	7	0	5	12	7	0	7	1	7	2	7	5	7	4	
3	6	0	7	6	0	6	1	6	2	6	3	6	4	
4	11	9	6	13	11	0	11	1	11	2	9	3	9	4	
4	1	5	12	10	5	0	5	1	5	2	5	1	5	0	
2	7	2	7	0	7	1	7	5	7	3	7	4	
2	12	10	12	0	12	1	12	2	12	1	12	0	
3	14	8	11	14	0	14	1	14	5	14	3	14	4	
5	2	7	0	6	13	2	0	7	1	7	2	7	3	7	4	
3	9	6	13	9	0	9	1	9	5	9	3	9	4	
4	13	6	0	7	13	0	13	1	13	2	13	5	6	4	
4	6	0	7	14	6	0	6	1	6	2	6	5	6	4	
4	13	12	5	1	13	0	12	1	12	2	12	5	12	4	
2	0	5	5	0	5	1	5	2	5	1	5	0	
4	3	5	12	13	5	0	5	1	5	2	5	3	5	4	
5	8	7	0	5	3	7	0	7	1	7	2	7	3	7	4	
5	1	5	0	6	9	5	0	5	1	5	5	5	3	5	4	
2	1	4	4	0	4	1	4	2	4	3	4	4	
5	4	3	5	12	10	4	0	4	1	4	2	4	1	4	0	
2	13	10	13	0	13	1	13	2	13	3	13	4	
3	0	5	12	5	0	5	1	5	2	5	1	5	0	
3	6	9	11	6	0	6	1	6	2	6	3	9	4	
4	1	2	7	14	2	0	2	1	2	5	2	3	2	4	
5	10	13	6	9	11	13	0	13	1	13	2	13	5	13	4	
5	3	5	0	7	8	5	0	5	1	5	2	5	5	5	4	
2	7	14	7	0	7	1	14	5	14	3	14	4	
3	11	9	6	9	0	9	1	9	2	9	1	9	0	
5	14	7	0	5	12	7	0	7	1	7	2	7	3	7	4	
4	2	7	0	6	7	0	7	1	7	5	7	3	7	4	
3	7	2	4	7	0	7	1	7	5	7	3	7	4	
5	9	6	0	5	1	6	0	6	1	6	5	6	3	6	4	
3	2	7	0	7	0	7	1	7	5	7	3	7	4	
3	5	12	10	12	0	12	1	12	2	12	3	12	4	
5	10	12	5	1	2	12	0	12	1	12	2	12	3	12	4	
3	0	6	9	6	0	6	1	6	2	6	1	6	0	
3	3	4	1	4	0	4	1	4	2	4	3	4	4	
3	6	0	5	6	0	6	1	6	5	6	3	6	4	
4	1	2	7	8	2	0	2	1	2	2	2	3	2	4	
5	4	2	7	0	6	4	0	4	1	4	2	4	1	4	0	
2	8	14	14	0	14	1	14	5	14	3	14	4	
4	12	5	3	4	12	0	12	1	12	2	12	5	12	4	
3	5	3	4	5	0	5	1	5	5	5	3	5	4	
2	5	3	5	0	5	1	5	2	5	5	5	4	
4	12	5	1	2	12	0	12	1	12	2	12	5	12	4	
3	5	12	13	12	0	12	1	12	2	12	5	12	4	
5	10	13	6	0	7	13	0	13	1	13	2	13	5	13	4	
3	12	5	1	12	0	12	1	12	5	12	3	12	4	
2	0	7	7	0	7	1	7	2	7	3	7	4	
5	11	9	6	13	10	11	0	11	1	11	2	11	1	11	0	
3	14	7	0	14	0	14	1	14	2	7	3	7	4	
4	7	0	5	3	7	0	7	1	7	2	7	3	7	4	
4	12	13	6	9	12	0	12	1	12	2	12	3	12	4	
3	9	6	0	9	0	9	1	9	2	9	5	9	4	
3	5	0	6	5	0	5	1	5	2	5	3	5	4	
3	9	8	14	9	0	9	1	9	2	9	5	9	4	
4	13	6	9	8	13	0	13	1	13	5	13	3	6	4	
3	6	0	7	6	0	6	1	6	2	6	5	6	4	
4	10	13	6	9	13	0	13	1	13	2	13	1	13	0	
3	1	4	3	4	0	4	1	4	5	4	3	4	4	
4	3	5	12	10	5	0	5	1	5	2	5	1	5	0	
3	8	7	2	7	0	7	1	7	5	7	3	7	4	
2	1	5	5	0	5	1	5	5	5	3	5	4	
5	4	2	7	8	9	2	0	2	1	2	2	2	3	7	4	
3	9	8	7	9	0	9	1	9	2	9	3	9	4	
2	9	11	9	0	9	1	9	5	9	3	9	4	
4	1	5	12	10	5	0	5	1	5	5	5	3	5	4	
4	5	0	7	8	5	0	5	1	5	5	5	3	5	4	
4	10	13	6	0	13	0	13	1	13	2	13	1	13	0	
4	0	7	8	11	7	0	7	1	7	2	7	3	7	4	
2	8	9	9	0	9	1	9	2	9	5	9	4	
5	11	8	7	2	1	11	0	11	1	11	2	11	5	11	4	
4	4	2	7	0	4	0	4	1	4	2	4	5	4	4	
2	10	13	13	0	13	1	13	5	13	3	13	4	
3	11	8	7	11	0	11	1	11	2	11	5	11	4	
4	2	7	8	9	7	0	7	1	7	2	7	5	7	4	
4	4	2	7	14	2	0	2	1	2	2	2	5	7	4	
4	9	8	7	2	9	0	9	1	9	2	9	5	9	4	
3	2	4	3	2	0	2	1	2	2	2	5	2	4	
3	10	12	5	12	0	12	1	12	2	12	1	12	0	
2	12	10	12	0	12	1	12	5	12	3	12	4	
5	6	0	5	1	4	6	0	6	1	6	2	6	3	6	4	
5	11	9	6	13	12	11	0	11	1	11	2	11	3	9	4	
5	4	2	7	8	11	2	0	2	1	2	2	2	5	7	4	
4	14	7	0	6	14	0	14	1	14	2	14	1	14	0	
3	4	3	5	4	0	4	1	4	2	4	3	4	4	
4	8	9	6	13	9	0	9	1	9	2	9	5	9	4	
5	12	13	6	9	11	12	0	12	1	13	5	13	3	13	4	
5	2	1	5	12	10	2	0	2	1	2	2	2	3	2	4	
5	13	6	0	7	2	6	0	6	1	6	2	6	5	6	4	
4	9	6	13	12	9	0	9	1	9	2	9	1	9	0	
5	3	5	0	6	9	5	0	5	1	5	2	5	5	5	4	
2	0	6	6	0	6	1	6	5	6	3	6	4	
3	3	5	12	5	0	5	1	5	2	5	3	5	4	
4	8	7	2	4	7	0	7	1	7	2	7	3	7	4	
5	14	7	0	5	3	14	0	14	1	14	2	14	1	7	0	
3	7	2	1	7	0	7	1	7	2	7	5	7	4	
2	7	0	7	0	7	1	7	2	7	1	7	0	
4	9	6	0	5	9	0	9	1	9	2	9	1	9	0	
5	4	2	7	8	11	2	0	2	1	2	5	2	3	7	4	
4	6	0	5	3	6	0	6	1	6	2	6	5	6	4	
3	13	6	9	13	0	13	1	13	2	13	3	6	4	
3	6	9	8	6	0	6	1	6	2	6	3	6	4	
5	10	13	6	9	8	13	0	13	1	13	2	13	5	13	4	
3	1	5	12	5	0	5	1	5	2	5	5	5	4	
6	3	5	0	7	8	11	5	0	5	1	5	2	5	5	5	4	
3	7	8	9	7	0	7	1	7	2	7	1	7	0	
5	14	8	9	6	13	14	0	14	1	14	2	14	3	14	4	
3	9	6	0	6	0	6	1	6	2	6	1	6	0	
4	8	7	0	5	7	0	7	1	7	2	7	5	7	4	
3	0	5	3	5	0	5	1	5	5	5	3	5	4	
2	2	1	2	0	2	1	2	2	2	1	2	0	
2	8	11	11	0	11	1	11	2	11	5	11	4	
4	5	0	6	9	5	0	5	1	5	2	5	3	5	4	
4	10	12	5	3	12	0	12	1	12	2	12	3	12	4	
4	0	5	12	10	5	0	5	1	5	5	5	3	5	4	
3	3	5	0	5	0	5	1	5	2	5	3	5	4	
3	11	8	14	11	0	11	1	11	5	11	3	11	4	
4	7	0	5	12	7	0	7	1	7	2	7	1	7	0	
5	11	8	7	2	4	11	0	11	1	11	5	11	3	11	4	
3	2	7	8	7	0	7	1	7	2	7	1	7	0	
6	10	13	6	0	7	14	13	0	13	1	13	2	13	5	13	4	
5	12	5	0	7	14	12	0	12	1	12	5	12	3	12	4	
5	10	12	5	3	4	12	0	12	1	12	2	12	5	12	4	
3	5	0	6	5	0	5	1	5	5	5	3	5	4	
3	6	0	7	6	0	6	1	6	2	6	1	6	0	
3	8	9	6	9	0	9	1	9	2	9	1	9	0	
4	14	7	2	1	14	0	14	1	14	2	7	3	7	4	
2	13	6	13	0	13	1	13	2	13	5	6	4	
4	12	13	6	9	12	0	12	1	13	5	13	3	13	4	
2	7	2	7	0	7	1	7	2	7	3	7	4	
2	12	10	12	0	12	1	12	2	12	3	12	4	
5	2	7	0	6	13	2	0	7	1	7	2	7	1	7	0	
4	14	7	2	1	14	0	14	1	14	2	14	5	7	4	
3	9	6	13	9	0	9	1	9	2	9	5	9	4	
4	13	6	0	7	6	0	6	1	6	2	6	1	6	0	
4	6	0	7	14	6	0	6	1	6	2	6	1	6	0	
2	0	5	5	0	5	1	5	2	5	5	5	4	
5	8	7	2	4	3	7	0	7	1	7	2	7	1	7	0	
2	1	4	4	0	4	1	4	2	4	1	4	0	
5	4	3	5	12	10	4	0	4	1	4	2	4	3	4	4	
2	9	6	9	0	9	1	9	2	9	3	9	4	
6	14	8	9	6	13	10	14	0	14	1	14	5	14	3	14	4	
2	13	10	13	0	13	1	13	2	13	1	13	0	
3	0	5	12	5	0	5	1	5	2	5	3	5	4	
3	6	9	11	9	0	9	1	9	2	9	1	9	0	
5	10	13	6	9	11	13	0	13	1	13	5	13	3	13	4	
4	1	5	12	13	5	0	5	1	5	2	5	1	5	0	
5	3	5	0	7	8	5	0	5	1	5	5	5	3	5	4	
2	7	14	7	0	7	1	7	2	14	3	14	4	
4	8	7	2	1	7	0	7	1	7	2	7	5	7	4	
5	14	7	0	5	12	14	0	14	1	7	5	7	3	7	4	
4	2	7	0	6	2	0	7	1	7	2	7	5	7	4	
5	9	6	0	5	1	9	0	6	1	6	2	6	5	6	4	
3	2	7	0	7	0	7	1	7	2	7	5	7	4	
3	5	12	10	12	0	12	1	12	2	12	1	12	0	
3	0	6	9	6	0	6	1	6	2	6	5	6	4	
3	6	0	5	6	0	6	1	6	2	6	3	6	4	
4	1	2	7	8	2	0	2	1	2	2	2	1	2	0	
5	4	2	7	0	6	4	0	4	1	4	2	4	3	4	4	
2	8	14	14	0	14	1	14	2	14	5	14	4	
4	12	5	3	4	12	0	12	1	12	2	12	1	12	0	
4	2	7	8	11	2	0	7	1	7	2	7	3	7	4	
2	5	3	5	0	5	1	5	2	5	1	5	0	
5	10	13	6	0	7	13	0	13	1	13	5	13	3	13	4	
2	13	10	13	0	13	1	13	2	13	5	13	4	
2	0	7	7	0	7	1	7	2	7	1	7	0	
4	8	7	0	5	7	0	7	1	7	2	7	3	7	4	
3	3	4	1	4	0	4	1	4	2	4	5	4	4	
3	14	7	0	7	0	7	1	7	5	7	3	7	4	
4	7	0	5	3	7	0	7	1	7	5	7	3	7	4	
4	12	13	6	9	12	0	12	1	12	2	12	1	12	0	
4	2	1	5	12	2	0	2	1	2	2	2	5	2	4	
3	5	0	6	5	0	5	1	5	2	5	1	5	0	
3	9	8	14	9	0	9	1	9	5	9	3	9	4	
4	13	6	9	8	13	0	13	1	13	2	13	3	6	4	
3	0	7	14	7	0	7	1	7	2	7	1	7	0	
2	4	3	4	0	4	1	4	5	4	3	4	4	
2	6	9	6	0	6	1	6	2	6	3	6	4	
3	6	9	11	6	0	6	1	6	2	6	5	6	4	
3	1	4	3	4	0	4	1	4	2	4	5	4	4	
3	8	7	2	7	0	7	1	7	2	7	5	7	4	
2	1	5	5	0	5	1	5	2	5	5	5	4	
5	4	2	7	8	9	4	0	4	1	4	2	4	1	4	0	
4	5	0	7	8	5	0	5	1	5	2	5	3	5	4	
4	10	13	6	0	13	0	13	1	13	2	13	3	13	4	
4	0	7	8	11	7	0	7	1	7	2	7	1	7	0	
5	11	8	7	2	1	11	0	11	1	11	2	11	1	11	0	
4	1	2	7	14	2	0	2	1	2	2	2	3	2	4	
6	14	7	0	6	13	10	14	0	14	1	14	2	14	5	14	4	
4	4	2	7	0	4	0	4	1	4	2	4	1	4	0	
4	2	7	8	9	7	0	7	1	7	5	7	3	7	4	
4	9	8	7	2	9	0	9	1	9	5	9	3	9	4	
4	13	12	5	3	13	0	13	1	13	5	13	3	12	4	
3	2	4	3	2	0	2	1	2	5	2	3	2	4	
2	6	0	6	0	6	1	6	5	6	3	6	4	
2	1	2	2	0	2	1	2	2	2	5	2	4	
5	6	0	5	1	4	6	0	6	1	6	5	6	3	6	4	
5	11	9	6	13	12	11	0	11	1	11	2	11	1	11	0	
4	14	8	9	6	14	0	14	1	14	2	14	3	14	4	
3	4	3	5	4	0	4	1	4	2	4	1	4	0	
4	8	9	6	13	9	0	9	1	9	5	9	3	9	4	
5	12	13	6	9	11	12	0	12	1	12	2	12	3	12	4	
3	5	3	4	5	0	5	1	5	2	5	3	5	4	
5	13	6	9	8	14	13	0	13	1	13	2	13	5	6	4	
2	0	6	6	0	6	1	6	2	6	5	6	4	
3	3	5	12	5	0	5	1	5	2	5	1	5	0	
5	7	0	6	13	10	7	0	7	1	7	2	7	5	7	4	
5	14	7	2	4	3	14	0	14	1	14	2	14	5	14	4	
6	11	9	6	0	5	3	9	0	9	1	9	5	9	3	9	4	
5	4	2	7	8	11	2	0	2	1	2	2	2	3	7	4	
4	9	6	0	5	9	0	9	1	9	2	9	3	9	4	
3	4	2	7	2	0	2	1	2	5	2	3	7	4	
6	10	13	6	0	7	14	13	0	13	1	13	2	13	1	13	0	
3	0	6	13	6	0	6	1	6	2	6	3	6	4	
2	3	5	5	0	5	1	5	2	5	1	5	0	
3	1	5	12	5	0	5	1	5	5	5	3	5	4	
3	7	8	9	7	0	7	1	7	2	7	3	7	4	
3	12	5	0	12	0	12	1	5	5	5	3	5	4	
5	14	8	9	6	13	14	0	14	1	14	2	14	1	14	0	
4	5	0	6	9	5	0	5	1	5	5	5	3	5	4	
4	10	12	5	3	12	0	12	1	12	2	12	1	12	0	
4	14	7	0	6	14	0	7	1	7	2	7	5	7	4	
3	3	5	0	5	0	5	1	5	2	5	1	5	0	
5	4	3	5	12	13	4	0	4	1	4	5	4	3	4	4	
3	11	8	14	11	0	11	1	11	2	11	3	11	4	
4	14	7	2	4	14	0	14	1	7	2	7	1	7	0	
3	4	2	7	2	0	2	1	2	2	2	3	7	4	
3	2	7	8	7	0	7	1	7	2	7	3	7	4	
4	1	2	7	14	2	0	2	1	2	2	2	5	2	4	
5	13	12	5	3	4	13	0	12	1	12	2	12	5	12	4	
2	6	13	6	0	6	1	6	2	6	5	6	4	
5	3	5	0	7	14	5	0	5	1	5	2	5	3	5	4	
3	8	9	6	9	0	9	1	9	2	9	3	9	4	
4	14	7	2	1	14	0	14	1	14	2	14	1	7	0	
2	7	2	7	0	7	1	7	2	7	1	7	0	
2	9	11	11	0	11	1	11	2	11	1	11	0	
4	13	6	0	7	13	0	13	1	13	2	13	3	6	4	
4	6	0	7	14	6	0	6	1	6	2	6	3	6	4	
5	11	9	6	0	5	9	0	9	1	9	5	9	3	9	4	
2	0	5	5	0	5	1	5	5	5	3	5	4	
3	7	8	11	7	0	7	1	7	2	7	1	7	0	
5	4	3	5	12	10	4	0	4	1	4	5	4	3	4	4	
2	9	6	9	0	9	1	9	2	9	1	9	0	
3	12	5	1	12	0	12	1	12	2	12	5	12	4	
4	11	9	6	0	9	0	9	1	9	5	9	3	9	4	
4	10	12	5	1	12	0	12	1	12	2	12	3	12	4	
4	3	5	12	13	5	0	5	1	5	5	5	3	5	4	
3	3	4	2	4	0	4	1	4	2	4	3	4	4	
4	1	5	12	13	12	0	12	1	12	2	12	3	12	4	
2	7	14	14	0	14	1	14	2	14	1	14	0	
4	12	5	0	7	12	0	12	1	12	2	12	5	12	4	
5	14	7	0	5	12	14	0	14	1	14	2	14	5	7	4	
4	2	7	0	6	7	0	7	1	7	2	7	1	7	0	
2	5	0	5	0	5	1	5	2	5	5	5	4	
5	3	5	0	7	14	5	0	5	1	5	5	5	3	5	4	
3	5	12	10	12	0	12	1	12	2	12	5	12	4	
2	11	9	9	0	9	1	9	5	9	3	9	4	
3	0	6	9	6	0	6	1	6	5	6	3	6	4	
3	6	0	5	6	0	6	1	6	2	6	1	6	0	
2	14	7	14	0	14	1	7	2	7	3	7	4	
5	4	2	7	0	6	4	0	4	1	4	5	4	3	4	4	
4	1	5	12	10	5	0	5	1	5	2	5	5	5	4	
4	12	5	3	4	12	0	12	1	12	2	12	3	12	4	
4	2	7	8	11	7	0	7	1	7	2	7	1	7	0	
2	5	3	5	0	5	1	5	2	5	3	5	4	
3	13	12	5	12	0	12	1	12	2	12	1	12	0	
3	6	13	12	6	0	6	1	6	2	6	1	6	0	
4	14	7	2	4	7	0	7	1	7	2	7	5	7	4	
4	8	7	0	5	7	0	7	1	7	2	7	1	7	0	
3	14	7	0	14	0	14	1	7	2	7	5	7	4	
4	7	0	5	3	7	0	7	1	7	2	7	5	7	4	
5	9	8	7	2	4	9	0	9	1	9	2	9	3	9	4	
2	9	11	9	0	9	1	9	2	9	5	9	4	
3	5	0	6	5	0	5	1	5	2	5	5	5	4	
4	13	6	9	8	13	0	13	1	13	2	13	1	13	0	
3	0	7	14	7	0	7	1	7	2	7	3	7	4	
2	6	9	9	0	9	1	9	2	9	1	9	0	
4	11	8	7	2	11	0	11	1	11	2	11	5	11	4	
3	1	4	3	4	0	4	1	4	2	4	1	4	0	
2	7	8	7	0	7	1	7	2	7	3	7	4	
4	10	13	6	9	13	0	13	1	13	5	13	3	13	4	
2	12	5	12	0	12	1	12	2	12	5	12	4	
5	11	9	6	13	12	11	0	11	1	9	5	9	3	9	4	
5	4	2	7	8	9	2	0	2	1	2	2	2	5	7	4	
5	3	5	0	6	9	5	0	5	1	5	5	5	3	5	4	
3	10	13	6	13	0	13	1	13	5	13	3	13	4	
4	5	0	7	8	5	0	5	1	5	2	5	1	5	0	
4	10	13	6	0	13	0	13	1	13	5	13	3	13	4	
5	11	8	7	2	1	11	0	11	1	11	2	11	3	11	4	
4	1	2	7	14	2	0	2	1	2	2	2	1	2	0	
4	4	2	7	0	4	0	4	1	4	2	4	3	4	4	
3	12	13	6	12	0	12	1	12	2	12	1	12	0	
4	2	7	8	9	2	0	7	1	7	2	7	3	7	4	
2	5	1	5	0	5	1	5	2	5	1	5	0	
4	13	12	5	3	13	0	12	1	12	2	12	5	12	4	
4	6	0	7	2	6	0	6	1	6	2	6	5	6	4	
5	6	0	5	1	4	6	0	6	1	6	2	6	5	6	4	
2	8	7	7	0	7	1	7	2	7	3	7	4	
3	7	0	5	7	0	7	1	7	2	7	5	7	4	
3	4	3	5	4	0	4	1	4	2	4	5	4	4	
5	12	13	6	9	11	12	0	12	1	12	2	12	1	12	0	
3	5	3	4	5	0	5	1	5	2	5	1	5	0	
6	10	13	6	0	7	14	13	0	13	1	13	5	13	3	13	4	
2	13	6	13	0	13	1	13	2	6	3	6	4	
3	0	5	1	5	0	5	1	5	5	5	3	5	4	
4	3	5	0	6	5	0	5	1	5	2	5	5	5	4	
3	3	5	12	5	0	5	1	5	2	5	5	5	4	
5	7	0	6	13	10	7	0	7	1	7	5	7	3	7	4	
5	9	6	0	5	3	9	0	9	1	9	5	9	3	9	4	
3	9	8	7	9	0	9	1	9	2	9	5	9	4	
5	4	2	7	8	11	4	0	4	1	4	2	4	1	4	0	
4	9	6	0	5	9	0	9	1	9	5	9	3	9	4	
6	10	13	6	0	7	14	13	0	13	1	13	2	13	3	13	4	
3	0	6	13	6	0	6	1	6	2	6	1	6	0	
2	3	5	5	0	5	1	5	2	5	3	5	4	
4	12	13	6	9	12	0	12	1	12	2	12	5	12	4	
6	11	8	7	2	4	3	11	0	11	1	11	2	11	1	11	0	
2	11	8	11	0	11	1	11	5	11	3	11	4	
3	1	5	12	12	0	12	1	12	2	12	3	12	4	
2	3	5	5	0	5	1	5	5	5	3	5	4	
2	4	2	4	0	4	1	4	2	4	1	4	0	
3	12	5	0	12	0	12	1	12	2	12	5	12	4	
5	10	13	6	9	8	13	0	13	1	13	5	13	3	13	4	
4	5	0	6	9	5	0	5	1	5	2	5	5	5	4	
4	10	12	5	3	12	0	12	1	12	2	12	5	12	4	
3	3	5	0	5	0	5	1	5	2	5	5	5	4	
3	11	8	14	11	0	11	1	11	2	11	1	11	0	
4	14	7	2	4	7	0	7	1	7	2	7	3	7	4	
3	2	7	14	7	0	7	1	7	5	7	3	7	4	
3	4	2	7	4	0	4	1	4	2	4	1	4	0	
2	12	5	12	0	12	1	12	2	12	3	12	4	
3	2	7	8	7	0	7	1	7	5	7	3	7	4	
3	5	1	2	5	0	5	1	5	2	5	3	5	4	
5	13	12	5	3	4	12	0	12	1	12	5	12	3	12	4	
2	6	13	6	0	6	1	6	5	6	3	6	4	
3	8	7	0	7	0	7	1	7	5	7	3	7	4	
3	7	8	9	7	0	7	1	7	2	7	5	7	4	
3	1	2	7	2	0	2	1	2	5	2	3	2	4	
5	3	5	0	7	14	5	0	5	1	5	2	5	1	5	0	
3	8	9	6	9	0	9	1	9	5	9	3	9	4	
2	9	11	9	0	9	1	9	2	9	3	9	4	
2	10	12	12	0	12	1	12	2	12	1	12	0	
4	3	5	0	7	5	0	5	1	5	2	5	1	5	0	
5	14	8	9	6	13	14	0	14	1	14	5	14	3	14	4	
5	11	9	6	0	5	9	0	9	1	9	2	9	5	9	4	
3	7	8	11	7	0	7	1	7	2	7	3	7	4	
3	2	1	5	2	0	2	1	2	2	2	5	2	4	
5	4	3	5	12	10	4	0	4	1	4	2	4	5	4	4	
2	9	6	9	0	9	1	9	2	9	5	9	4	
4	10	12	5	1	12	0	12	1	12	5	12	3	12	4	
2	12	13	12	0	12	1	12	2	12	5	12	4	
4	10	12	5	1	12	0	12	1	12	2	12	1	12	0	
5	1	2	7	8	11	2	0	2	1	2	5	2	3	2	4	
3	3	4	2	4	0	4	1	4	2	4	1	4	0	
4	11	9	6	0	9	0	9	1	9	2	9	3	9	4	
6	14	8	9	6	13	10	14	0	14	1	14	2	14	1	14	0	
2	4	1	4	0	4	1	4	2	4	3	4	4	
4	12	5	0	7	12	0	12	1	12	5	12	3	12	4	
4	2	7	0	6	7	0	7	1	7	2	7	3	7	4	
2	4	3	4	0	4	1	4	2	4	5	4	4	
3	3	4	2	4	0	4	1	4	5	4	3	4	4	
4	0	7	2	4	7	0	7	1	7	5	7	3	7	4	
3	5	12	10	12	0	12	1	12	5	12	3	12	4	
2	11	9	11	0	11	1	11	2	11	5	9	4	
4	11	8	7	0	11	0	11	1	11	2	11	5	11	4	
2	14	7	14	0	14	1	14	2	14	1	14	0	
5	4	2	7	0	6	4	0	4	1	4	2	4	5	4	4	
4	3	5	0	7	5	0	5	1	5	5	5	3	5	4	
4	2	7	8	11	7	0	7	1	7	2	7	5	7	4	
3	13	12	5	12	0	12	1	12	2	12	3	12	4	
3	9	6	0	9	0	9	1	9	5	9	3	9	4	
3	6	13	12	13	0	13	1	13	2	13	3	13	4	
3	1	5	0	5	0	5	1	5	2	5	5	5	4	
3	7	0	5	7	0	7	1	7	2	7	1	7	0	
2	12	13	13	0	13	1	13	5	13	3	13	4	
5	9	8	7	2	4	9	0	9	1	9	2	9	1	9	0	
3	0	7	8	7	0	7	1	7	5	7	3	7	4	
3	14	8	9	14	0	14	1	14	5	14	3	14	4	
3	0	7	14	7	0	7	1	7	5	7	3	7	4	
2	3	4	4	0	4	1	4	2	4	3	4	4	
2	8	7	7	0	7	1	7	2	7	5	7	4	
4	11	8	7	2	11	0	11	1	11	5	11	3	11	4	
3	1	4	3	4	0	4	1	4	2	4	3	4	4	
2	7	8	7	0	7	1	7	2	7	1	7	0	
3	10	12	5	12	0	12	1	12	5	12	3	12	4	
2	2	4	2	0	2	1	2	2	2	1	2	0	
5	4	2	7	8	9	4	0	4	1	4	5	4	3	4	4	
3	10	13	6	13	0	13	1	13	2	13	5	13	4	
4	10	13	6	0	13	0	13	1	13	2	13	5	13	4	
4	1	5	0	6	5	0	5	1	5	2	5	5	5	4	
5	8	9	6	13	12	9	0	9	1	9	2	9	5	9	4	
5	8	9	6	13	12	9	0	9	1	9	5	9	3	9	4	
5	8	9	6	13	10	9	0	9	1	9	2	9	1	9	0	
4	14	7	0	5	14	0	14	1	7	2	7	3	7	4	
3	4	2	7	2	0	2	1	2	2	2	5	7	4	
3	12	13	6	12	0	12	1	12	2	12	3	12	4	
4	2	7	8	9	2	0	7	1	7	2	7	1	7	0	
2	5	1	5	0	5	1	5	2	5	3	5	4	
4	13	12	5	3	12	0	12	1	12	2	12	1	12	0	
3	0	5	3	5	0	5	1	5	2	5	5	5	4	
4	6	0	7	2	6	0	6	1	6	2	6	1	6	0	
2	8	7	7	0	7	1	7	2	7	1	7	0	
3	4	3	5	4	0	4	1	4	5	4	3	4	4	
4	9	6	13	10	9	0	9	1	9	2	9	3	9	4	
4	14	8	9	6	14	0	14	1	14	5	14	3	14	4	
2	13	6	6	0	6	1	6	2	6	1	6	0	
2	7	8	7	0	7	1	7	2	7	5	7	4	
2	3	4	4	0	4	1	4	5	4	3	4	4	
4	3	5	0	6	5	0	5	1	5	5	5	3	5	4	
5	8	7	2	4	3	7	0	7	1	7	2	7	5	7	4	
5	7	0	5	12	10	7	0	7	1	7	2	7	3	7	4	
5	9	6	0	5	3	9	0	9	1	9	2	9	5	9	4	
4	14	7	0	5	14	0	14	1	14	5	7	3	7	4	
4	9	6	0	5	9	0	9	1	9	2	9	5	9	4	
3	0	6	13	6	0	6	1	6	2	6	5	6	4	
6	11	8	7	2	4	3	11	0	11	1	11	2	11	3	11	4	
3	1	5	12	5	0	5	1	5	2	5	1	5	0	
2	4	2	4	0	4	1	4	2	4	3	4	4	
3	12	5	0	12	0	12	1	12	2	12	1	12	0	
2	2	7	7	0	7	1	7	2	7	3	7	4	
