1932.2	1932.2
1259
3631.19	1719.73
10
0	0	3000
1	338	3000
2	432	3000
3	636	3000
4	0	3000
5	829	3000
6	451	3000
7	0	3000
8	558	3000
9	0	3000
34
0	1	11.138954	131.479641
0	2	40.722638	135.308578
0	5	55.614500	149.350323
1	0	20.860564	131.479641
1	2	11.099572	146.797369
1	3	34.145300	144.244414
1	4	42.960148	146.797369
2	0	23.537860	135.308578
2	1	11.186086	146.797369
2	3	46.968300	135.308578
2	4	52.122420	130.202668
3	1	53.882770	144.244414
3	2	46.398854	135.308578
3	4	11.058788	126.372741
3	9	114.777474	116.160923
4	1	33.591212	146.797369
4	2	36.894092	130.202668
4	3	32.118300	126.372741
4	5	106.384184	117.437895
5	0	63.187606	149.350323
5	4	102.366038	117.437895
5	6	118.930160	123.819787
5	9	53.919978	140.414487
6	5	119.506506	123.819787
6	7	61.929246	139.138505
6	8	35.779900	144.244414
7	6	44.645262	139.138505
7	8	55.264424	135.308578
8	6	54.688330	144.244414
8	7	37.812244	135.308578
8	9	114.057194	114.884940
9	3	112.559278	116.160923
9	5	57.656858	140.414487
9	8	114.438590	114.884940
360
3	3	2	0	2	0	2	1	2	5	2	3	2	4	
2	8	9	8	0	8	1	8	2	8	3	8	4	
2	8	9	8	0	8	1	8	2	8	1	8	0	
2	9	8	8	0	8	1	8	5	8	3	8	4	
4	2	3	9	8	3	0	3	1	3	2	3	5	3	4	
3	5	4	2	5	0	5	1	5	2	5	1	5	0	
2	0	2	2	0	2	1	2	2	2	1	2	0	
4	8	6	5	0	8	0	6	1	6	2	6	5	6	4	
5	1	4	5	6	7	1	0	1	1	1	2	1	5	1	4	
2	8	6	6	0	6	1	6	2	6	5	6	4	
4	3	9	8	7	3	0	3	1	3	2	3	3	3	4	
2	1	2	2	0	2	1	2	2	2	3	2	4	
5	7	6	5	0	1	6	0	6	1	6	5	6	3	6	4	
3	2	4	5	2	0	2	1	2	5	2	3	2	4	
3	9	8	6	8	0	8	1	8	5	8	3	8	4	
2	4	1	1	0	1	1	1	2	1	1	1	0	
2	5	0	5	0	5	1	5	2	5	3	5	4	
3	0	2	4	2	0	2	1	2	2	2	5	2	4	
2	7	6	6	0	6	1	6	2	6	5	6	4	
2	0	1	1	0	1	1	1	2	1	3	1	4	
2	3	9	3	0	3	1	3	2	3	1	3	0	
2	1	0	1	0	1	1	1	5	1	3	1	4	
3	7	6	5	6	0	6	1	6	2	6	3	6	4	
4	0	5	9	8	5	0	5	1	5	2	5	5	5	4	
2	3	4	3	0	3	1	3	2	3	1	3	0	
2	4	3	3	0	3	1	3	2	3	3	3	4	
2	2	4	2	0	2	1	2	2	2	3	2	4	
4	6	5	4	1	6	0	6	1	6	2	6	5	6	4	
3	5	6	7	6	0	6	1	6	5	6	3	6	4	
3	5	4	1	5	0	5	1	5	5	5	3	5	4	
3	0	2	3	2	0	2	1	2	5	2	3	2	4	
4	6	5	4	2	5	0	5	1	5	2	5	3	5	4	
4	4	5	6	8	5	0	5	1	5	5	5	3	5	4	
4	3	9	8	6	3	0	3	1	3	2	3	3	3	4	
2	9	3	3	0	3	1	3	2	3	1	3	0	
3	7	8	9	8	0	8	1	8	5	8	3	8	4	
2	4	2	2	0	2	1	2	5	2	3	2	4	
5	2	3	9	8	7	2	0	2	1	3	2	3	1	3	0	
3	6	5	0	6	0	6	1	6	2	6	1	6	0	
5	7	8	9	3	1	8	0	8	1	8	2	8	5	8	4	
2	9	8	8	0	8	1	8	2	8	3	8	4	
3	5	4	2	5	0	5	1	5	2	5	5	5	4	
2	0	2	2	0	2	1	2	2	2	3	2	4	
4	8	9	5	0	8	0	8	1	8	2	8	1	8	0	
5	1	3	9	8	7	1	0	1	1	3	2	3	1	3	0	
4	7	6	5	4	6	0	6	1	6	2	6	3	6	4	
2	3	1	3	0	3	1	3	5	3	3	3	4	
4	3	9	8	7	3	0	3	1	3	5	3	3	3	4	
2	1	2	2	0	2	1	2	2	2	1	2	0	
3	2	4	5	2	0	2	1	2	2	2	3	2	4	
2	4	1	1	0	1	1	1	2	1	5	1	4	
2	5	0	5	0	5	1	5	2	5	1	5	0	
3	0	2	4	2	0	2	1	2	2	2	1	2	0	
4	6	5	4	3	5	0	5	1	5	2	5	3	5	4	
2	6	8	8	0	8	1	8	2	8	5	8	4	
2	7	6	6	0	6	1	6	5	6	3	6	4	
3	9	8	7	8	0	8	1	8	5	8	3	8	4	
2	0	1	1	0	1	1	1	2	1	1	1	0	
2	3	9	3	0	3	1	3	2	3	3	3	4	
2	1	0	1	0	1	1	1	2	1	3	1	4	
4	0	5	6	8	6	0	6	1	6	2	6	1	6	0	
2	3	4	3	0	3	1	3	2	3	5	3	4	
2	4	3	3	0	3	1	3	2	3	1	3	0	
2	2	4	2	0	2	1	2	5	2	3	2	4	
4	6	5	4	1	5	0	5	1	5	5	5	3	5	4	
4	8	9	3	4	8	0	8	1	8	5	8	3	8	4	
3	5	6	7	5	0	5	1	5	2	5	5	6	4	
3	5	4	1	5	0	5	1	5	2	5	5	5	4	
3	0	2	3	2	0	2	1	2	2	2	3	2	4	
4	4	5	6	8	5	0	5	1	5	2	6	5	6	4	
3	9	5	0	5	0	5	1	5	2	5	5	5	4	
2	7	8	8	0	8	1	8	5	8	3	8	4	
2	2	1	2	0	1	1	1	2	1	5	1	4	
4	3	9	8	6	3	0	3	1	3	2	3	1	3	0	
2	9	3	3	0	3	1	3	2	3	3	3	4	
2	4	2	2	0	2	1	2	2	2	5	2	4	
5	2	4	5	6	7	2	0	2	1	2	2	2	5	2	4	
3	6	5	0	6	0	6	1	6	2	6	3	5	4	
3	8	9	3	8	0	8	1	8	2	8	5	8	4	
2	1	4	1	0	1	1	1	2	1	5	1	4	
5	7	8	9	3	1	8	0	8	1	8	2	8	1	8	0	
2	9	8	8	0	8	1	8	2	8	1	8	0	
3	5	4	2	5	0	5	1	5	5	5	3	5	4	
2	0	2	2	0	2	1	2	5	2	3	2	4	
3	3	9	8	3	0	3	1	3	2	3	3	3	4	
4	8	6	5	0	8	0	8	1	8	2	8	3	6	4	
5	1	4	5	6	7	1	0	1	1	1	2	1	3	1	4	
4	7	6	5	4	6	0	6	1	6	2	6	1	6	0	
3	9	3	1	3	0	3	1	3	2	3	1	3	0	
2	2	0	2	0	2	1	2	2	2	1	2	0	
2	3	1	3	0	3	1	3	2	3	5	3	4	
4	1	3	9	8	3	0	3	1	3	2	3	5	3	4	
4	3	9	8	7	3	0	3	1	3	2	3	5	3	4	
2	1	2	1	0	1	1	2	2	2	5	2	4	
3	2	4	5	2	0	2	1	2	2	2	1	2	0	
4	0	5	6	7	5	0	5	1	5	2	5	5	5	4	
2	4	1	1	0	1	1	1	5	1	3	1	4	
3	0	2	4	2	0	2	1	2	2	2	3	2	4	
4	6	8	9	3	6	0	6	1	6	2	6	1	6	0	
4	8	9	3	2	8	0	8	1	8	2	8	1	8	0	
3	1	4	5	1	0	1	1	1	2	1	1	1	0	
2	7	6	6	0	6	1	6	2	6	3	6	4	
3	9	8	7	8	0	8	1	8	2	8	5	8	4	
2	0	1	1	0	1	1	1	2	1	5	1	4	
2	1	0	1	0	1	1	1	2	1	1	1	0	
3	9	3	2	3	0	3	1	3	2	3	3	3	4	
2	2	3	2	0	2	1	3	2	3	3	3	4	
4	0	5	9	8	5	0	5	1	5	2	5	3	5	4	
3	1	3	9	1	0	1	1	1	2	1	1	1	0	
2	3	4	3	0	3	1	3	5	3	3	3	4	
2	2	4	2	0	2	1	2	2	2	5	2	4	
3	0	5	6	5	0	5	1	5	2	5	1	5	0	
4	6	5	4	1	5	0	5	1	5	2	5	3	5	4	
4	8	6	5	4	8	0	6	1	6	2	6	5	6	4	
2	8	9	8	0	8	1	8	5	8	3	8	4	
3	5	6	7	6	0	6	1	6	2	6	1	6	0	
3	0	2	3	2	0	2	1	2	2	2	1	2	0	
4	8	9	3	1	8	0	8	1	8	2	8	3	8	4	
4	1	4	5	6	1	0	1	1	1	2	1	3	1	4	
4	4	5	6	8	5	0	5	1	5	2	5	1	5	0	
3	9	5	0	5	0	5	1	5	5	5	3	5	4	
2	2	1	1	0	1	1	1	5	1	3	1	4	
5	7	8	9	3	2	8	0	8	1	8	2	8	5	8	4	
5	2	3	9	8	7	2	0	2	1	2	5	3	3	3	4	
3	8	6	5	8	0	6	1	6	5	6	3	6	4	
2	0	5	5	0	5	1	5	2	5	3	5	4	
3	6	5	0	6	0	6	1	5	5	5	3	5	4	
3	8	9	3	8	0	8	1	8	5	8	3	8	4	
2	1	4	1	0	1	1	1	5	1	3	1	4	
5	7	8	9	3	1	8	0	8	1	8	2	8	3	8	4	
2	0	2	2	0	2	1	2	2	2	5	2	4	
3	3	9	8	3	0	3	1	3	2	3	1	3	0	
4	7	6	5	4	6	0	6	1	6	2	6	5	6	4	
3	9	3	1	3	0	3	1	3	2	3	3	3	4	
2	2	0	2	0	2	1	2	2	2	3	2	4	
2	6	8	6	0	6	1	6	5	6	3	6	4	
3	0	5	9	5	0	5	1	5	2	5	3	5	4	
2	3	1	1	0	1	1	1	2	1	1	1	0	
2	6	5	6	0	6	1	6	2	6	5	6	4	
4	1	3	9	8	3	0	3	1	3	5	3	3	3	4	
2	1	2	2	0	2	1	2	5	2	3	2	4	
3	5	9	3	5	0	5	1	5	5	5	3	5	4	
4	0	5	6	7	5	0	5	1	5	5	5	3	5	4	
4	7	8	9	3	8	0	8	1	8	2	8	1	8	0	
4	8	9	3	1	8	0	8	1	8	5	8	3	8	4	
3	6	8	9	6	0	6	1	6	2	6	5	6	4	
4	6	5	4	3	5	0	5	1	5	2	5	5	5	4	
4	8	9	3	2	8	0	8	1	8	2	8	3	8	4	
3	1	4	5	1	0	1	1	1	2	1	3	1	4	
2	7	6	6	0	6	1	6	2	6	1	6	0	
3	9	8	7	8	0	8	1	8	2	8	1	8	0	
3	5	9	8	5	0	5	1	5	2	5	5	5	4	
2	0	1	1	0	1	1	1	5	1	3	1	4	
3	4	2	0	2	0	2	1	2	5	2	3	2	4	
3	9	3	2	3	0	3	1	3	2	3	1	3	0	
2	2	3	2	0	2	1	2	2	2	1	2	0	
3	6	5	4	6	0	6	1	6	2	6	1	6	0	
3	1	3	9	3	0	3	1	3	2	3	3	3	4	
2	5	4	5	0	5	1	5	2	5	5	5	4	
3	0	5	6	5	0	5	1	5	2	5	3	5	4	
4	6	5	4	1	5	0	5	1	5	2	5	1	5	0	
4	8	6	5	4	8	0	6	1	6	2	6	1	6	0	
4	7	6	5	0	6	0	6	1	6	2	5	3	5	4	
3	5	6	7	5	0	5	1	6	2	6	3	6	4	
3	3	9	5	3	0	3	1	3	5	3	3	3	4	
3	7	8	9	8	0	8	1	8	2	8	5	8	4	
4	1	4	5	6	1	0	1	1	1	2	1	1	1	0	
4	4	5	6	8	5	0	5	1	5	2	5	3	5	4	
3	9	5	0	5	0	5	1	5	2	5	3	5	4	
2	2	1	2	0	2	1	2	2	2	3	2	4	
2	5	9	5	0	5	1	5	2	5	1	5	0	
4	4	5	6	7	5	0	5	1	5	2	5	5	5	4	
2	5	0	5	0	5	1	5	5	5	3	5	4	
2	6	7	6	0	6	1	6	2	6	3	6	4	
5	7	8	9	3	2	8	0	8	1	8	5	8	3	8	4	
2	0	5	5	0	5	1	5	2	5	1	5	0	
3	6	5	0	6	0	5	1	5	2	5	5	5	4	
3	8	9	3	8	0	8	1	8	2	8	3	8	4	
2	1	4	1	0	1	1	1	2	1	3	1	4	
2	3	2	3	0	3	1	3	2	3	5	3	4	
3	3	9	8	3	0	3	1	3	2	3	5	3	4	
4	2	4	5	6	2	0	2	1	2	5	2	3	2	4	
4	7	6	5	4	6	0	6	1	6	5	6	3	6	4	
3	9	3	1	3	0	3	1	3	5	3	3	3	4	
2	2	0	2	0	2	1	2	5	2	3	2	4	
3	0	5	9	5	0	5	1	5	2	5	1	5	0	
2	3	1	3	0	3	1	1	2	1	3	1	4	
2	6	5	6	0	6	1	5	5	5	3	5	4	
4	1	3	9	8	1	0	1	1	1	2	1	3	1	4	
3	4	5	6	5	0	5	1	5	2	5	1	5	0	
3	5	9	3	5	0	5	1	5	2	5	5	5	4	
4	0	5	6	7	5	0	5	1	5	2	5	3	5	4	
4	7	8	9	3	8	0	8	1	8	2	8	3	8	4	
3	9	5	4	5	0	5	1	5	2	5	5	5	4	
2	5	6	5	0	5	1	5	2	5	3	5	4	
3	6	8	9	6	0	6	1	6	5	6	3	6	4	
2	1	3	3	0	3	1	3	5	3	3	3	4	
4	6	5	4	3	5	0	5	1	5	5	5	3	5	4	
4	8	9	3	2	8	0	8	1	8	5	8	3	8	4	
3	1	4	5	1	0	1	1	1	5	1	3	1	4	
3	4	3	9	3	0	3	1	3	2	3	3	3	4	
3	9	8	7	8	0	8	1	8	2	8	3	8	4	
3	5	9	8	5	0	5	1	5	5	5	3	5	4	
2	8	9	8	0	8	1	8	2	8	5	8	4	
3	4	2	0	2	0	2	1	2	2	2	5	2	4	
3	2	3	9	3	0	3	1	3	2	3	5	3	4	
3	9	3	2	3	0	3	1	3	2	3	5	3	4	
2	2	3	3	0	3	1	3	2	3	5	3	4	
3	6	5	4	6	0	6	1	6	2	6	3	5	4	
2	8	7	8	0	8	1	8	2	8	5	8	4	
3	1	3	9	3	0	3	1	3	5	3	3	3	4	
2	4	5	5	0	5	1	5	2	5	3	5	4	
2	5	4	5	0	5	1	5	5	5	3	5	4	
3	0	5	6	5	0	5	1	5	5	5	3	5	4	
4	8	6	5	4	8	0	8	1	8	2	8	3	6	4	
4	7	6	5	0	6	0	6	1	6	2	6	1	6	0	
2	9	5	5	0	5	1	5	2	5	1	5	0	
2	6	8	8	0	8	1	8	2	8	3	8	4	
3	7	8	9	8	0	8	1	8	2	8	1	8	0	
4	1	4	5	6	1	0	1	1	1	2	1	5	1	4	
3	9	5	0	5	0	5	1	5	2	5	1	5	0	
3	7	6	5	6	0	6	1	6	2	6	1	6	0	
2	2	1	1	0	1	1	1	2	1	1	1	0	
2	5	9	5	0	5	1	5	2	5	3	5	4	
3	3	1	0	3	0	3	1	1	2	1	3	1	4	
4	4	5	6	7	5	0	5	1	5	5	5	3	5	4	
4	2	3	9	8	3	0	3	1	3	2	3	1	3	0	
2	6	7	6	0	6	1	6	2	6	1	6	0	
2	8	6	6	0	6	1	6	2	6	1	6	0	
5	7	8	9	3	2	8	0	8	1	8	2	8	3	8	4	
3	3	9	5	3	0	3	1	3	2	3	5	3	4	
2	0	5	5	0	5	1	5	2	5	5	5	4	
3	8	9	3	8	0	8	1	8	2	8	1	8	0	
2	1	4	1	0	1	1	1	2	1	1	1	0	
3	9	8	6	8	0	8	1	8	2	8	3	8	4	
2	3	2	2	0	2	1	2	5	2	3	2	4	
3	3	9	8	3	0	3	1	3	5	3	3	3	4	
4	8	9	3	1	8	0	8	1	8	2	8	5	8	4	
4	2	4	5	6	2	0	2	1	2	2	2	5	2	4	
3	9	3	1	3	0	3	1	3	2	3	5	3	4	
2	2	0	2	0	2	1	2	2	2	5	2	4	
3	0	5	9	5	0	5	1	5	2	5	5	5	4	
2	6	5	6	0	6	1	5	2	5	3	5	4	
4	1	3	9	8	1	0	1	1	1	2	1	1	1	0	
3	4	5	6	5	0	5	1	5	2	5	3	5	4	
3	5	9	3	5	0	5	1	5	2	5	1	5	0	
4	0	5	6	7	5	0	5	1	5	2	5	1	5	0	
3	8	9	5	8	0	8	1	8	2	8	3	8	4	
4	7	8	9	3	8	0	8	1	8	5	8	3	8	4	
3	9	5	4	5	0	5	1	5	5	5	3	5	4	
2	5	6	5	0	5	1	5	2	5	1	5	0	
2	4	3	3	0	3	1	3	5	3	3	3	4	
3	6	8	9	6	0	6	1	6	2	6	3	6	4	
2	1	3	1	0	1	1	1	2	3	5	3	4	
4	8	9	3	2	8	0	8	1	8	2	8	5	8	4	
3	1	4	5	1	0	1	1	1	2	1	5	1	4	
3	4	3	9	3	0	3	1	3	2	3	1	3	0	
3	5	9	8	5	0	5	1	5	2	5	3	5	4	
3	4	2	0	2	0	2	1	2	2	2	1	2	0	
3	2	3	9	3	0	3	1	3	5	3	3	3	4	
3	9	3	2	3	0	3	1	3	5	3	3	3	4	
2	2	3	3	0	3	1	3	5	3	3	3	4	
4	6	5	4	2	6	0	6	1	5	5	5	3	5	4	
3	6	5	4	6	0	6	1	5	5	5	3	5	4	
2	8	7	8	0	8	1	8	5	8	3	8	4	
3	1	3	9	1	0	1	1	1	2	1	5	3	4	
2	4	5	5	0	5	1	5	2	5	1	5	0	
2	5	4	5	0	5	1	5	2	5	3	5	4	
3	0	5	6	5	0	5	1	5	2	5	5	5	4	
4	7	6	5	0	6	0	6	1	6	2	6	5	6	4	
2	9	5	5	0	5	1	5	2	5	3	5	4	
3	3	9	5	3	0	3	1	3	2	3	1	3	0	
3	7	8	9	8	0	8	1	8	2	8	3	8	4	
4	1	4	5	6	1	0	1	1	1	5	1	3	1	4	
2	5	9	5	0	5	1	5	5	5	3	5	4	
3	3	2	0	2	0	2	1	2	2	2	1	2	0	
4	4	5	6	7	5	0	5	1	5	2	5	3	5	4	
4	2	3	9	8	2	0	2	1	2	2	2	3	3	4	
2	6	7	6	0	6	1	6	2	6	5	6	4	
2	8	6	8	0	8	1	8	2	8	3	8	4	
5	7	8	9	3	2	8	0	8	1	8	2	8	1	8	0	
2	0	5	5	0	5	1	5	5	5	3	5	4	
3	9	8	6	8	0	8	1	8	2	8	1	8	0	
2	3	2	2	0	2	1	2	2	2	3	2	4	
4	2	4	5	6	2	0	2	1	2	2	2	1	2	0	
2	5	0	5	0	5	1	5	2	5	5	5	4	
3	0	5	9	5	0	5	1	5	5	5	3	5	4	
2	6	5	6	0	6	1	6	2	6	1	6	0	
3	4	5	6	5	0	5	1	5	5	5	3	5	4	
3	5	9	3	5	0	5	1	5	2	5	3	5	4	
2	3	9	3	0	3	1	3	5	3	3	3	4	
3	8	9	5	8	0	8	1	8	2	8	1	8	0	
4	7	8	9	3	8	0	8	1	8	2	8	5	8	4	
3	9	5	4	5	0	5	1	5	2	5	3	5	4	
2	5	6	5	0	5	1	5	2	5	5	5	4	
3	6	8	9	8	0	8	1	8	2	8	1	8	0	
2	1	3	3	0	3	1	3	2	3	1	3	0	
2	7	8	8	0	8	1	8	2	8	3	8	4	
3	4	3	9	3	0	3	1	3	2	3	5	3	4	
3	5	9	8	5	0	5	1	5	2	5	1	5	0	
3	4	2	0	2	0	2	1	2	2	2	3	2	4	
3	2	3	9	2	0	2	1	3	2	3	3	3	4	
3	5	4	1	5	0	5	1	5	2	5	1	5	0	
4	6	5	0	2	6	0	6	1	6	2	6	5	5	4	
3	6	5	4	6	0	6	1	6	2	6	5	6	4	
2	8	7	8	0	8	1	8	2	8	3	8	4	
3	7	6	5	6	0	6	1	6	2	6	5	6	4	
2	4	5	5	0	5	1	5	2	5	5	5	4	
2	5	4	5	0	5	1	5	2	5	1	5	0	
4	3	9	8	6	3	0	3	1	3	2	3	5	3	4	
3	7	6	5	6	0	6	1	6	5	6	3	6	4	
2	9	3	3	0	3	1	3	5	3	3	3	4	
4	7	6	5	0	6	0	6	1	6	5	6	3	6	4	
2	9	5	5	0	5	1	5	5	5	3	5	4	
3	3	9	5	3	0	3	1	3	2	3	3	3	4	
2	6	8	6	0	6	1	6	2	6	1	6	0	
2	4	2	2	0	2	1	2	2	2	1	2	0	
2	5	9	5	0	5	1	5	2	5	5	5	4	
3	3	1	0	3	0	1	1	1	2	1	5	1	4	
4	4	5	6	7	5	0	5	1	5	2	5	1	5	0	
2	9	8	8	0	8	1	8	2	8	5	8	4	
4	2	3	9	8	2	0	2	1	2	5	2	3	2	4	
3	5	4	2	5	0	5	1	5	2	5	3	5	4	
4	8	9	5	0	8	0	8	1	8	5	8	3	8	4	
4	8	9	3	1	8	0	8	1	8	2	8	1	8	0	
5	1	3	9	8	7	1	0	1	1	3	5	3	3	3	4	
2	6	7	6	0	6	1	6	5	6	3	6	4	
2	8	6	6	0	6	1	6	5	6	3	6	4	
4	3	9	8	7	3	0	3	1	3	2	3	1	3	0	
3	2	4	5	2	0	2	1	2	2	2	5	2	4	
3	9	8	6	8	0	8	1	8	2	8	5	8	4	
2	3	2	3	0	3	1	3	2	3	1	3	0	
2	4	1	1	0	1	1	1	2	1	3	1	4	
4	2	4	5	6	2	0	2	1	2	2	2	3	2	4	
2	4	3	3	0	3	1	3	2	3	5	3	4	
3	0	2	4	2	0	2	1	2	5	2	3	2	4	
3	4	5	6	5	0	5	1	5	2	5	5	5	4	
2	3	9	3	0	3	1	3	2	3	5	3	4	
2	1	0	1	0	1	1	1	2	1	5	1	4	
3	8	9	5	8	0	8	1	8	2	8	5	8	4	
3	9	5	4	5	0	5	1	5	2	5	1	5	0	
4	0	5	9	8	5	0	5	1	5	5	5	3	5	4	
2	5	6	5	0	5	1	5	5	5	3	5	4	
2	3	4	3	0	3	1	3	2	3	3	3	4	
2	1	3	3	0	3	1	3	2	3	3	3	4	
2	7	8	8	0	8	1	8	2	8	1	8	0	
2	2	4	2	0	2	1	2	2	2	1	2	0	
3	4	3	9	3	0	3	1	3	5	3	3	3	4	
3	2	3	9	3	0	3	1	3	2	3	1	3	0	
3	5	4	1	5	0	5	1	5	2	5	3	5	4	
3	0	2	3	2	0	2	1	2	2	2	5	2	4	
4	6	5	4	2	5	0	5	1	5	2	5	1	5	0	
2	8	7	8	0	8	1	8	2	8	1	8	0	
2	4	5	5	0	5	1	5	5	5	3	5	4	
2	7	8	8	0	8	1	8	2	8	5	8	4	
4	3	9	8	6	3	0	3	1	3	5	3	3	3	4	
2	9	3	3	0	3	1	3	2	3	5	3	4	
2	9	5	5	0	5	1	5	2	5	5	5	4	
2	4	2	2	0	2	1	2	2	2	3	2	4	
5	2	3	9	8	7	2	0	2	1	3	2	3	3	3	4	
