1932.2	1932.2
1100
3716.23	2196
10
0	0	3000
1	404	3000
2	281	3000
3	178	3000
4	597	3000
5	538	3000
6	562	3000
7	93	3000
8	221	3000
9	370	3000
34
0	1	33.274064	131.479641
1	0	22.364064	131.479641
0	2	21.901416	135.308578
2	0	22.083560	135.308578
0	5	66.685734	149.350323
5	0	77.523528	149.350323
1	2	11.099572	146.797369
2	1	11.186086	146.797369
1	3	51.553518	144.244414
3	1	35.230682	144.244414
1	4	36.622548	146.797369
4	1	42.682308	146.797369
2	3	34.522596	135.308578
3	2	54.783218	135.308578
2	4	42.426272	130.202668
4	2	23.734798	130.202668
3	4	11.058788	126.372741
4	3	23.864056	126.372741
3	9	110.786644	116.160923
9	3	101.592454	116.160923
4	5	110.325814	117.437895
5	4	110.018974	117.437895
5	6	123.634090	123.819787
6	5	122.725814	123.819787
5	9	52.088440	140.414487
9	5	64.285936	140.414487
6	7	56.966732	139.138505
7	6	54.912986	139.138505
6	8	45.865682	144.244414
8	6	48.059252	144.244414
7	8	44.996700	135.308578
8	7	42.774758	135.308578
8	9	110.837886	114.884940
9	8	109.734660	114.884940
360
3	3	2	0	3	0	2	1	2	5	2	3	2	4	
2	8	9	8	0	8	1	8	2	8	3	8	4	
2	8	9	9	0	9	1	9	2	9	1	9	0	
2	9	8	9	0	9	1	8	5	8	3	8	4	
4	2	3	9	8	2	0	2	1	2	2	2	5	2	4	
3	5	4	2	4	0	4	1	4	2	4	1	4	0	
2	0	2	2	0	2	1	2	2	2	1	2	0	
4	8	9	5	0	8	0	8	1	8	2	8	5	8	4	
5	1	3	9	8	7	1	0	1	1	3	2	3	5	3	4	
2	8	6	6	0	6	1	6	2	6	5	6	4	
4	3	9	8	7	9	0	9	1	9	2	9	3	9	4	
2	1	2	1	0	1	1	1	2	1	3	1	4	
5	7	8	9	3	1	7	0	7	1	7	5	8	3	8	4	
3	2	4	5	2	0	2	1	2	5	2	3	2	4	
3	9	8	6	9	0	9	1	9	5	9	3	9	4	
2	4	1	4	0	4	1	4	2	4	1	4	0	
2	5	0	5	0	5	1	5	2	5	3	5	4	
3	0	5	4	5	0	5	1	5	2	5	5	5	4	
2	7	6	6	0	6	1	6	2	6	5	6	4	
2	0	1	1	0	1	1	1	2	1	3	1	4	
2	3	9	3	0	3	1	9	2	9	1	9	0	
2	1	0	1	0	1	1	1	5	1	3	1	4	
3	7	6	5	6	0	6	1	6	2	6	3	6	4	
4	0	5	6	8	5	0	5	1	5	2	5	5	5	4	
2	3	4	4	0	4	1	4	2	4	1	4	0	
2	4	3	4	0	4	1	4	2	4	3	4	4	
2	2	4	2	0	2	1	4	2	4	3	4	4	
4	6	5	0	1	6	0	6	1	6	2	6	5	6	4	
3	5	6	7	5	0	5	1	6	5	6	3	6	4	
3	5	4	1	4	0	4	1	4	5	4	3	4	4	
3	0	1	3	1	0	1	1	1	5	1	3	1	4	
4	6	5	0	2	6	0	6	1	6	2	6	3	6	4	
4	4	5	6	8	4	0	4	1	4	5	4	3	4	4	
4	3	9	8	6	3	0	3	1	9	2	9	3	9	4	
2	9	3	9	0	3	1	3	2	3	1	3	0	
3	7	8	9	7	0	7	1	7	5	7	3	7	4	
2	4	2	4	0	4	1	4	5	4	3	4	4	
5	2	4	5	6	7	2	0	2	1	2	2	2	1	2	0	
3	6	5	0	6	0	5	1	5	2	5	1	5	0	
5	7	6	5	4	1	7	0	6	1	6	2	6	5	6	4	
2	9	8	9	0	9	1	8	2	8	3	8	4	
3	5	4	2	4	0	4	1	4	2	4	5	4	4	
2	0	2	2	0	2	1	2	2	2	3	2	4	
4	8	6	5	0	6	0	6	1	6	2	6	1	6	0	
5	1	4	5	6	7	1	0	1	1	1	2	1	1	1	0	
4	7	6	5	4	7	0	6	1	6	2	6	3	6	4	
2	3	1	3	0	3	1	1	5	1	3	1	4	
4	3	9	8	7	9	0	9	1	9	5	9	3	9	4	
2	1	2	1	0	1	1	1	2	1	1	1	0	
3	2	4	5	4	0	4	1	4	2	4	3	4	4	
2	4	1	4	0	4	1	4	2	4	5	4	4	
2	5	0	5	0	5	1	5	2	5	1	5	0	
3	0	5	4	5	0	5	1	5	2	5	1	5	0	
4	6	8	9	3	6	0	6	1	6	2	6	3	6	4	
2	6	8	6	0	6	1	6	2	6	5	6	4	
2	7	6	7	0	6	1	6	5	6	3	6	4	
3	9	8	7	9	0	9	1	9	5	9	3	9	4	
2	0	1	1	0	1	1	1	2	1	1	1	0	
2	3	9	9	0	9	1	9	2	9	3	9	4	
2	1	0	1	0	1	1	1	2	1	3	1	4	
4	0	5	6	8	5	0	5	1	5	2	5	1	5	0	
2	3	4	3	0	4	1	4	2	4	5	4	4	
2	4	3	4	0	4	1	4	2	4	1	4	0	
2	2	4	2	0	2	1	4	5	4	3	4	4	
4	6	5	0	1	6	0	6	1	6	5	6	3	6	4	
4	8	9	3	4	9	0	9	1	9	5	9	3	9	4	
3	5	6	7	5	0	5	1	6	2	6	5	6	4	
3	5	4	1	5	0	4	1	4	2	4	5	4	4	
3	0	1	3	1	0	1	1	1	2	1	3	1	4	
4	4	5	9	8	5	0	5	1	5	2	5	5	5	4	
3	9	5	0	9	0	5	1	5	2	5	5	5	4	
2	7	8	7	0	8	1	8	5	8	3	8	4	
2	2	1	1	0	1	1	1	2	1	5	1	4	
4	3	9	8	6	3	0	3	1	9	2	9	1	9	0	
2	9	3	3	0	3	1	3	2	3	3	3	4	
2	4	2	4	0	4	1	4	2	4	5	4	4	
5	2	4	5	6	7	2	0	2	1	2	2	2	5	2	4	
3	6	5	0	6	0	6	1	6	2	6	3	6	4	
3	8	9	3	9	0	9	1	9	2	9	5	9	4	
2	1	4	1	0	1	1	1	2	1	5	1	4	
5	7	6	5	4	1	7	0	7	1	7	2	7	1	7	0	
2	9	8	9	0	9	1	9	2	9	1	9	0	
3	5	4	2	5	0	5	1	5	5	5	3	5	4	
2	0	2	2	0	2	1	2	5	2	3	2	4	
3	3	9	8	9	0	9	1	9	2	9	3	9	4	
4	8	9	5	0	8	0	8	1	8	2	8	3	8	4	
5	1	4	5	6	7	1	0	1	1	1	2	1	3	1	4	
4	7	6	5	4	6	0	6	1	6	2	6	1	6	0	
3	9	3	1	3	0	3	1	3	2	3	1	3	0	
2	2	0	2	0	2	1	2	2	2	1	2	0	
2	3	1	1	0	1	1	1	2	1	5	1	4	
4	1	3	9	8	1	0	1	1	1	2	1	5	1	4	
4	3	9	8	7	3	0	9	1	9	2	9	5	9	4	
2	1	2	1	0	1	1	1	2	1	5	1	4	
3	2	4	5	4	0	4	1	4	2	4	1	4	0	
4	0	5	6	7	5	0	5	1	5	2	5	5	5	4	
2	4	1	4	0	4	1	4	5	1	3	1	4	
3	0	5	4	5	0	5	1	5	2	5	3	5	4	
4	6	5	4	3	6	0	6	1	5	2	5	1	5	0	
4	8	9	3	2	9	0	9	1	9	2	9	1	9	0	
3	1	4	5	1	0	1	1	1	2	1	1	1	0	
2	7	6	7	0	6	1	6	2	6	3	6	4	
3	9	8	7	9	0	9	1	9	2	9	5	9	4	
2	0	1	1	0	1	1	1	2	1	5	1	4	
2	1	0	1	0	1	1	1	2	1	1	1	0	
3	9	3	2	9	0	9	1	3	2	3	3	3	4	
2	2	3	2	0	2	1	2	2	2	3	2	4	
4	0	5	6	8	5	0	5	1	5	2	5	3	5	4	
3	1	3	9	1	0	1	1	1	2	1	1	1	0	
2	3	4	3	0	4	1	4	5	4	3	4	4	
2	2	4	4	0	4	1	4	2	4	5	4	4	
3	0	5	6	5	0	5	1	5	2	5	1	5	0	
4	6	5	0	1	6	0	6	1	6	2	6	3	6	4	
4	8	6	5	4	8	0	8	1	6	2	6	5	6	4	
2	8	9	9	0	9	1	9	5	9	3	9	4	
3	5	6	7	6	0	6	1	6	2	6	1	6	0	
3	0	1	3	1	0	1	1	1	2	1	1	1	0	
4	8	9	3	1	8	0	8	1	8	2	8	3	9	4	
4	1	4	5	6	1	0	4	1	4	2	4	3	4	4	
4	4	5	6	8	4	0	4	1	4	2	4	1	4	0	
3	9	5	0	9	0	5	1	5	5	5	3	5	4	
2	2	1	2	0	1	1	1	5	1	3	1	4	
5	7	8	9	3	2	7	0	7	1	7	2	8	5	8	4	
5	2	4	5	6	7	2	0	2	1	2	5	2	3	2	4	
3	8	9	5	8	0	8	1	8	5	8	3	8	4	
2	0	5	5	0	5	1	5	2	5	3	5	4	
3	6	5	0	6	0	6	1	6	5	6	3	6	4	
3	8	9	3	9	0	9	1	9	5	9	3	9	4	
2	1	4	1	0	1	1	4	5	4	3	4	4	
5	7	8	9	3	1	7	0	8	1	8	2	8	3	8	4	
2	0	2	2	0	2	1	2	2	2	5	2	4	
3	3	9	8	9	0	9	1	9	2	9	1	9	0	
4	7	6	5	4	6	0	6	1	6	2	6	5	6	4	
3	9	3	1	9	0	3	1	3	2	3	3	3	4	
2	2	0	2	0	2	1	2	2	2	3	2	4	
2	6	8	6	0	6	1	6	5	6	3	6	4	
3	0	5	9	5	0	5	1	5	2	5	3	5	4	
2	3	1	1	0	1	1	1	2	1	1	1	0	
2	6	5	5	0	5	1	5	2	5	5	5	4	
4	1	3	9	8	1	0	1	1	1	5	1	3	1	4	
2	1	2	1	0	1	1	1	5	1	3	1	4	
3	5	4	3	4	0	4	1	4	5	4	3	4	4	
4	0	5	6	7	5	0	5	1	5	5	5	3	5	4	
4	7	8	9	3	7	0	7	1	7	2	7	1	7	0	
4	8	9	3	1	9	0	9	1	9	5	9	3	9	4	
3	6	8	9	6	0	6	1	6	2	6	5	6	4	
4	6	8	9	3	6	0	6	1	6	2	6	5	6	4	
4	8	9	3	2	9	0	9	1	9	2	9	3	9	4	
3	1	4	5	4	0	4	1	4	2	4	3	4	4	
2	7	6	6	0	6	1	6	2	6	1	6	0	
3	9	8	7	9	0	9	1	9	2	9	1	9	0	
3	5	9	8	5	0	5	1	5	2	5	5	5	4	
2	0	1	1	0	1	1	1	5	1	3	1	4	
3	4	2	0	4	0	4	1	4	5	4	3	4	4	
3	9	3	2	3	0	3	1	3	2	3	1	3	0	
2	2	3	3	0	3	1	3	2	3	1	3	0	
3	6	5	4	5	0	5	1	5	2	5	1	5	0	
3	1	3	9	1	0	1	1	1	2	1	3	1	4	
2	5	4	4	0	4	1	4	2	4	5	4	4	
3	0	5	6	5	0	5	1	5	2	5	3	5	4	
4	6	5	0	1	6	0	5	1	5	2	5	1	5	0	
4	8	9	5	4	8	0	8	1	8	2	8	1	8	0	
4	7	6	5	0	7	0	6	1	6	2	6	3	6	4	
3	5	6	7	6	0	6	1	6	2	6	3	6	4	
3	3	9	5	9	0	9	1	9	5	9	3	9	4	
3	7	8	9	7	0	7	1	7	2	7	5	7	4	
4	1	4	5	6	4	0	4	1	4	2	4	1	4	0	
4	4	3	9	8	4	0	4	1	3	2	3	3	3	4	
3	9	5	0	5	0	5	1	5	2	5	3	5	4	
2	2	1	2	0	1	1	1	2	1	3	1	4	
2	5	9	9	0	9	1	9	2	9	1	9	0	
4	4	5	6	7	4	0	4	1	4	2	4	5	4	4	
2	5	0	5	0	5	1	5	5	5	3	5	4	
2	6	7	6	0	6	1	6	2	6	3	6	4	
5	7	8	9	3	2	7	0	8	1	8	5	8	3	8	4	
2	0	5	5	0	5	1	5	2	5	1	5	0	
3	6	5	0	6	0	6	1	5	2	5	5	5	4	
3	8	9	3	9	0	9	1	9	2	9	3	9	4	
2	1	4	4	0	4	1	4	2	4	3	4	4	
2	3	2	2	0	2	1	2	2	2	5	2	4	
3	3	9	8	9	0	9	1	9	2	9	5	9	4	
4	2	4	5	6	2	0	2	1	2	5	2	3	2	4	
4	7	6	5	4	7	0	6	1	6	5	6	3	6	4	
3	9	3	1	9	0	9	1	3	5	3	3	3	4	
2	2	0	2	0	2	1	2	5	2	3	2	4	
3	0	5	9	5	0	5	1	5	2	5	1	5	0	
2	3	1	1	0	1	1	1	2	1	3	1	4	
2	6	5	6	0	6	1	6	5	6	3	6	4	
4	1	3	9	8	1	0	1	1	1	2	1	3	1	4	
3	4	5	6	4	0	4	1	4	2	4	1	4	0	
3	5	4	3	4	0	4	1	4	2	4	5	4	4	
4	0	5	6	7	5	0	5	1	5	2	5	3	5	4	
4	7	8	9	3	7	0	7	1	8	2	8	3	8	4	
3	9	5	4	5	0	5	1	5	2	5	5	5	4	
2	5	6	5	0	5	1	5	2	6	3	6	4	
3	6	8	9	6	0	6	1	6	5	6	3	6	4	
2	1	3	1	0	1	1	1	5	1	3	1	4	
4	6	8	9	3	6	0	6	1	6	5	6	3	6	4	
4	8	9	3	2	9	0	9	1	9	5	9	3	9	4	
3	1	0	5	1	0	1	1	1	5	1	3	1	4	
3	4	5	9	4	0	4	1	4	2	4	3	4	4	
3	9	8	7	9	0	9	1	9	2	9	3	8	4	
3	5	9	8	5	0	5	1	5	5	5	3	5	4	
2	8	9	9	0	9	1	9	2	9	5	9	4	
3	4	1	0	4	0	4	1	1	2	1	5	1	4	
3	2	3	9	2	0	2	1	2	2	2	5	2	4	
3	9	3	2	3	0	3	1	3	2	3	5	3	4	
2	2	3	2	0	2	1	2	2	2	5	2	4	
3	6	5	4	6	0	6	1	6	2	6	3	6	4	
2	8	7	8	0	8	1	8	2	8	5	8	4	
3	1	3	9	1	0	1	1	1	5	1	3	1	4	
2	4	5	4	0	4	1	4	2	4	3	4	4	
2	5	4	4	0	4	1	4	5	4	3	4	4	
3	0	5	6	5	0	5	1	5	5	5	3	5	4	
4	8	6	5	4	8	0	8	1	6	2	6	3	6	4	
4	7	6	5	0	6	0	6	1	6	2	6	1	6	0	
2	9	5	9	0	5	1	5	2	5	1	5	0	
2	6	8	6	0	6	1	6	2	6	3	6	4	
3	7	8	9	7	0	7	1	7	2	7	1	7	0	
4	1	4	5	6	4	0	4	1	4	2	4	5	4	4	
3	9	5	0	5	0	5	1	5	2	5	1	5	0	
3	7	6	5	6	0	6	1	6	2	6	1	6	0	
2	2	1	2	0	2	1	1	2	1	1	1	0	
2	5	9	5	0	5	1	5	2	5	3	5	4	
3	3	2	0	3	0	3	1	2	2	2	3	2	4	
4	4	5	6	7	4	0	4	1	4	5	4	3	4	4	
4	2	3	9	8	3	0	3	1	3	2	3	1	3	0	
2	6	7	6	0	6	1	6	2	6	1	6	0	
2	8	6	6	0	6	1	6	2	6	1	6	0	
5	7	8	9	3	2	7	0	7	1	7	2	8	3	8	4	
3	3	9	5	9	0	9	1	9	2	9	5	9	4	
2	0	5	5	0	5	1	5	2	5	5	5	4	
3	8	9	3	9	0	9	1	9	2	9	1	9	0	
2	1	4	1	0	1	1	1	2	1	1	1	0	
3	9	8	6	9	0	8	1	8	2	8	3	8	4	
2	3	2	3	0	2	1	2	5	2	3	2	4	
3	3	9	8	3	0	9	1	9	5	9	3	9	4	
4	8	9	3	1	8	0	8	1	8	2	9	5	9	4	
4	2	4	5	6	4	0	4	1	4	2	4	5	4	4	
3	9	3	1	3	0	3	1	3	2	3	5	3	4	
2	2	0	2	0	2	1	2	2	2	5	2	4	
3	0	5	9	5	0	5	1	5	2	5	5	5	4	
2	6	5	5	0	5	1	5	2	5	3	5	4	
4	1	3	9	8	1	0	1	1	1	2	1	1	1	0	
3	4	5	6	4	0	4	1	4	2	4	3	4	4	
3	5	4	3	4	0	4	1	4	2	4	1	4	0	
4	0	5	6	7	5	0	5	1	5	2	5	1	5	0	
3	8	6	5	6	0	6	1	6	2	6	3	6	4	
4	7	8	9	3	7	0	7	1	7	5	7	3	7	4	
3	9	5	4	9	0	5	1	5	5	5	3	5	4	
2	5	6	6	0	6	1	6	2	6	1	6	0	
2	4	3	4	0	4	1	4	5	4	3	4	4	
3	6	8	9	6	0	6	1	6	2	6	3	6	4	
2	1	3	1	0	1	1	1	2	1	5	1	4	
4	8	9	3	2	9	0	9	1	9	2	9	5	9	4	
3	1	4	5	4	0	4	1	4	2	4	5	4	4	
3	4	5	9	4	0	4	1	4	2	4	1	4	0	
3	5	9	8	5	0	5	1	5	2	5	3	5	4	
3	4	1	0	4	0	4	1	1	2	1	1	1	0	
3	2	3	9	2	0	2	1	2	5	2	3	2	4	
3	9	3	2	9	0	3	1	3	5	3	3	3	4	
2	2	3	2	0	2	1	2	5	2	3	2	4	
4	6	5	0	2	6	0	6	1	6	5	6	3	6	4	
3	6	5	4	6	0	6	1	6	5	6	3	6	4	
2	8	7	8	0	8	1	8	5	8	3	8	4	
3	1	3	9	1	0	1	1	1	2	1	5	1	4	
2	4	5	4	0	4	1	4	2	4	1	4	0	
2	5	4	5	0	5	1	4	2	4	3	4	4	
3	0	5	6	5	0	5	1	5	2	5	5	5	4	
4	7	6	5	0	6	0	6	1	6	2	6	5	6	4	
2	9	5	9	0	9	1	5	2	5	3	5	4	
3	3	9	5	9	0	9	1	9	2	9	1	9	0	
3	7	8	9	7	0	7	1	7	2	7	3	7	4	
4	1	0	5	6	1	0	1	1	1	5	1	3	1	4	
2	5	9	5	0	5	1	5	5	5	3	9	4	
3	3	2	0	3	0	2	1	2	2	2	1	2	0	
4	4	5	6	7	4	0	4	1	4	2	4	3	4	4	
4	2	3	9	8	2	0	2	1	2	2	2	3	2	4	
2	6	7	6	0	6	1	6	2	6	5	6	4	
2	8	6	6	0	6	1	6	2	6	3	6	4	
5	7	6	5	4	2	7	0	7	1	7	2	7	1	7	0	
2	0	5	5	0	5	1	5	5	5	3	5	4	
3	9	8	6	9	0	9	1	9	2	9	1	9	0	
2	3	2	2	0	2	1	2	2	2	3	2	4	
4	2	4	5	6	4	0	4	1	4	2	4	1	4	0	
2	5	0	5	0	5	1	5	2	5	5	5	4	
3	0	5	9	5	0	5	1	5	5	5	3	5	4	
2	6	5	5	0	5	1	5	2	5	1	5	0	
3	4	5	6	4	0	4	1	4	5	4	3	4	4	
3	5	9	3	5	0	5	1	5	2	5	3	5	4	
2	3	9	3	0	3	1	9	5	9	3	9	4	
3	8	6	5	6	0	6	1	6	2	6	1	6	0	
4	7	8	9	3	7	0	7	1	8	2	8	5	8	4	
3	9	5	4	5	0	5	1	5	2	5	3	5	4	
2	5	6	5	0	5	1	5	2	5	5	6	4	
3	6	8	9	6	0	6	1	6	2	6	1	6	0	
2	1	3	1	0	1	1	1	2	1	1	1	0	
2	7	8	7	0	7	1	7	2	7	3	7	4	
3	4	5	9	4	0	4	1	4	2	4	5	4	4	
3	5	6	8	5	0	5	1	5	2	6	1	6	0	
3	4	1	0	4	0	4	1	4	2	4	3	1	4	
3	2	3	9	2	0	2	1	2	2	2	3	2	4	
3	5	4	1	5	0	4	1	4	2	4	1	4	0	
4	6	5	0	2	6	0	6	1	6	2	6	5	6	4	
3	6	5	4	6	0	6	1	6	2	6	5	6	4	
2	8	7	8	0	8	1	8	2	8	3	7	4	
3	7	6	5	6	0	6	1	6	2	6	5	6	4	
2	4	5	4	0	4	1	4	2	4	5	4	4	
2	5	4	5	0	5	1	4	2	4	1	4	0	
4	3	9	5	6	3	0	3	1	3	2	3	5	9	4	
3	7	6	5	7	0	6	1	6	5	6	3	6	4	
2	9	3	3	0	3	1	3	5	3	3	3	4	
4	7	6	5	0	6	0	6	1	6	5	6	3	6	4	
2	9	5	9	0	5	1	5	5	5	3	5	4	
3	3	9	5	3	0	3	1	9	2	9	3	9	4	
2	6	8	6	0	6	1	6	2	6	1	6	0	
2	4	2	4	0	4	1	4	2	4	1	2	0	
2	5	9	5	0	5	1	5	2	5	5	5	4	
3	3	2	0	2	0	2	1	2	2	2	5	2	4	
4	4	5	6	7	4	0	4	1	4	2	4	1	4	0	
2	9	8	8	0	8	1	8	2	8	5	8	4	
4	2	3	9	8	2	0	2	1	2	5	2	3	2	4	
3	5	4	2	4	0	4	1	4	2	4	3	4	4	
4	8	9	5	0	8	0	8	1	8	5	8	3	8	4	
4	8	9	3	1	9	0	9	1	9	2	9	1	9	0	
5	1	0	5	6	7	1	0	1	1	1	5	1	3	1	4	
2	6	7	6	0	6	1	6	5	6	3	6	4	
2	8	6	6	0	6	1	6	5	6	3	6	4	
4	3	9	8	7	9	0	9	1	9	2	9	1	9	0	
3	2	4	5	4	0	4	1	4	2	4	5	4	4	
3	9	8	6	9	0	8	1	8	2	8	5	8	4	
2	3	2	3	0	2	1	2	2	2	1	2	0	
2	4	1	4	0	4	1	4	2	4	3	4	4	
4	2	4	5	6	4	0	4	1	4	2	4	3	4	4	
2	4	3	4	0	4	1	4	2	4	5	4	4	
3	0	5	4	5	0	5	1	5	5	5	3	5	4	
3	4	5	6	4	0	4	1	4	2	4	5	4	4	
2	3	9	9	0	9	1	9	2	9	5	9	4	
2	1	0	1	0	1	1	1	2	1	5	1	4	
3	8	6	5	6	0	6	1	6	2	6	5	6	4	
3	9	5	4	9	0	5	1	5	2	5	1	5	0	
4	0	5	6	8	5	0	5	1	5	5	5	3	5	4	
2	5	6	5	0	5	1	6	5	6	3	6	4	
2	3	4	4	0	4	1	4	2	4	3	4	4	
2	1	3	1	0	1	1	1	2	1	3	1	4	
2	7	8	7	0	7	1	7	2	7	1	7	0	
2	2	4	4	0	4	1	4	2	4	1	4	0	
3	4	5	9	4	0	4	1	4	5	4	3	4	4	
3	2	3	9	2	0	3	1	3	2	3	1	3	0	
3	5	4	1	4	0	4	1	4	2	4	3	4	4	
3	0	1	3	1	0	1	1	1	2	1	5	1	4	
4	6	5	0	2	6	0	6	1	6	2	6	1	6	0	
2	8	7	8	0	8	1	8	2	8	1	8	0	
2	4	5	4	0	4	1	4	5	4	3	4	4	
2	7	8	7	0	8	1	8	2	8	5	8	4	
4	3	9	5	6	9	0	9	1	9	5	9	3	9	4	
2	9	3	3	0	3	1	3	2	3	5	3	4	
2	9	5	5	0	5	1	5	2	5	5	5	4	
2	4	2	4	0	4	1	4	2	4	3	4	4	
5	2	3	9	8	7	3	0	3	1	3	2	3	3	3	4	
