-1.79769e+308	1932.2
1269
5189.27	5395.57
10
0	309	3000
1	336	3000
2	0	3000
3	521	3000
4	422	3000
5	519	3000
6	356	3000
7	133	3000
8	274	3000
9	374	3000
34
0	1	27.621048	131.479641
1	0	21.022094	131.479641
0	2	21.885366	135.308578
2	0	29.898794	135.308578
0	5	76.484318	149.350323
5	0	75.179782	149.350323
1	2	11.099572	146.797369
2	1	11.186086	146.797369
1	3	43.926766	144.244414
3	1	35.230682	144.244414
1	4	42.265950	146.797369
4	1	45.010004	146.797369
2	3	32.524546	135.308578
3	2	46.918898	135.308578
2	4	36.609088	130.202668
4	2	31.615168	130.202668
3	4	26.909842	126.372741
4	3	35.763684	126.372741
3	9	104.515142	116.160923
9	3	101.032860	116.160923
4	5	110.124052	117.437895
5	4	116.247634	117.437895
5	6	121.599548	123.819787
6	5	122.581502	123.819787
5	9	52.888188	140.414487
9	5	57.483546	140.414487
6	7	66.591534	139.138505
7	6	62.777306	139.138505
6	8	33.166306	144.244414
8	6	39.010588	144.244414
7	8	37.132380	135.308578
8	7	33.149956	135.308578
8	9	110.982198	114.884940
9	8	111.769202	114.884940
360
3	3	2	0	3	0	3	1	3	5	3	3	3	4	
2	8	9	8	0	8	1	8	2	8	3	8	4	
2	8	9	9	0	9	1	9	2	9	1	9	0	
2	9	8	9	0	9	1	9	5	9	3	9	4	
4	2	3	9	8	3	0	3	1	3	2	3	5	3	4	
3	5	4	2	4	0	4	1	4	2	4	1	4	0	
2	0	2	0	0	0	1	0	2	0	1	0	0	
4	8	9	5	0	8	0	9	1	9	2	9	5	9	4	
5	1	4	5	6	7	4	0	4	1	4	2	4	5	4	4	
2	8	6	6	0	6	1	6	2	6	5	6	4	
4	3	9	8	7	9	0	9	1	9	2	9	3	9	4	
2	1	2	1	0	1	1	1	2	1	3	1	4	
5	7	8	9	3	1	7	0	8	1	8	5	8	3	8	4	
3	2	4	5	4	0	4	1	4	5	4	3	4	4	
3	9	5	6	5	0	5	1	5	5	5	3	5	4	
2	4	1	1	0	1	1	1	2	1	1	1	0	
2	5	0	5	0	5	1	5	2	5	3	5	4	
3	0	5	4	0	0	5	1	5	2	5	5	5	4	
2	7	6	7	0	7	1	6	2	6	5	6	4	
2	0	1	0	0	0	1	1	2	1	3	1	4	
2	3	9	3	0	3	1	3	2	3	1	3	0	
2	1	0	1	0	0	1	0	5	0	3	0	4	
3	7	6	5	6	0	6	1	6	2	6	3	6	4	
4	0	5	9	8	0	0	0	1	0	2	0	5	0	4	
2	3	4	3	0	3	1	3	2	3	1	3	0	
2	4	3	4	0	3	1	3	2	3	3	3	4	
2	2	4	4	0	4	1	4	2	4	3	4	4	
4	6	5	4	1	6	0	6	1	5	2	5	5	5	4	
3	5	6	7	5	0	6	1	6	5	6	3	6	4	
3	5	4	1	5	0	4	1	4	5	4	3	4	4	
3	0	1	3	1	0	1	1	1	5	1	3	1	4	
4	6	5	0	2	6	0	6	1	6	2	6	3	6	4	
4	4	3	9	8	3	0	3	1	3	5	3	3	3	4	
4	3	9	8	6	3	0	9	1	9	2	9	3	9	4	
2	9	3	9	0	9	1	9	2	9	1	9	0	
3	7	8	9	8	0	8	1	8	5	8	3	8	4	
2	4	2	4	0	4	1	4	5	4	3	4	4	
5	2	4	5	6	7	4	0	4	1	4	2	4	1	4	0	
3	6	5	0	5	0	5	1	5	2	5	1	5	0	
5	7	6	5	4	1	7	0	7	1	6	2	6	5	6	4	
2	9	8	9	0	9	1	8	2	8	3	8	4	
3	5	4	2	5	0	5	1	5	2	5	5	5	4	
2	0	2	0	0	0	1	0	2	0	3	0	4	
4	8	6	5	0	6	0	6	1	6	2	6	1	6	0	
5	1	4	5	6	7	1	0	1	1	1	2	1	1	1	0	
4	7	6	5	4	7	0	6	1	6	2	6	3	6	4	
2	3	1	1	0	1	1	1	5	1	3	1	4	
4	3	9	8	7	3	0	3	1	3	5	9	3	9	4	
2	1	2	1	0	1	1	1	2	1	1	1	0	
3	2	4	5	4	0	4	1	4	2	4	3	4	4	
2	4	1	1	0	1	1	1	2	1	5	1	4	
2	5	0	5	0	0	1	0	2	0	1	0	0	
3	0	5	4	0	0	5	1	5	2	5	1	5	0	
4	6	8	9	3	6	0	6	1	6	2	6	3	6	4	
2	6	8	8	0	8	1	8	2	8	5	8	4	
2	7	6	6	0	6	1	6	5	6	3	6	4	
3	9	8	7	9	0	9	1	9	5	9	3	9	4	
2	0	1	0	0	1	1	1	2	1	1	1	0	
2	3	9	3	0	3	1	3	2	3	3	3	4	
2	1	0	0	0	0	1	0	2	0	3	0	4	
4	0	5	6	8	0	0	5	1	5	2	5	1	5	0	
2	3	4	3	0	3	1	3	2	3	5	3	4	
2	4	3	4	0	4	1	4	2	4	1	4	0	
2	2	4	4	0	4	1	4	5	4	3	4	4	
4	6	5	4	1	5	0	5	1	5	5	5	3	5	4	
4	8	9	5	4	8	0	9	1	9	5	9	3	9	4	
3	5	6	7	5	0	5	1	5	2	5	5	5	4	
3	5	4	1	4	0	4	1	4	2	4	5	4	4	
3	0	1	3	1	0	1	1	1	2	1	3	1	4	
4	4	5	6	8	4	0	4	1	4	2	4	5	4	4	
3	9	5	0	5	0	5	1	5	2	5	5	5	4	
2	7	8	7	0	7	1	7	5	7	3	7	4	
2	2	1	1	0	1	1	1	2	1	5	1	4	
4	3	9	5	6	3	0	3	1	3	2	3	1	3	0	
2	9	3	9	0	9	1	3	2	3	3	3	4	
2	4	2	4	0	4	1	4	2	4	5	4	4	
5	2	4	5	6	7	4	0	4	1	4	2	4	5	4	4	
3	6	5	0	5	0	5	1	5	2	5	3	5	4	
3	8	9	3	8	0	8	1	9	2	9	5	9	4	
2	1	4	1	0	1	1	4	2	4	5	4	4	
5	7	6	5	4	1	7	0	7	1	6	2	6	1	6	0	
2	9	8	9	0	9	1	9	2	9	1	9	0	
3	5	4	2	4	0	4	1	4	5	4	3	4	4	
2	0	2	0	0	0	1	0	5	0	3	0	4	
3	3	9	8	3	0	3	1	9	2	9	3	9	4	
4	8	6	5	0	8	0	8	1	6	2	6	3	6	4	
5	1	4	5	6	7	1	0	1	1	1	2	1	3	1	4	
4	7	6	5	4	6	0	6	1	6	2	6	1	6	0	
3	9	3	1	9	0	9	1	9	2	9	1	9	0	
2	2	0	0	0	0	1	0	2	0	1	0	0	
2	3	1	1	0	1	1	1	2	1	5	1	4	
4	1	3	9	8	1	0	1	1	1	2	1	5	1	4	
4	3	9	8	7	3	0	3	1	3	2	3	5	3	4	
2	1	2	1	0	1	1	1	2	1	5	1	4	
3	2	4	5	4	0	4	1	4	2	4	1	4	0	
4	0	5	6	7	0	0	0	1	5	2	5	5	5	4	
2	4	1	1	0	1	1	1	5	1	3	1	4	
3	0	5	4	5	0	5	1	5	2	5	3	5	4	
4	6	5	4	3	5	0	5	1	5	2	5	1	5	0	
4	8	9	3	2	8	0	8	1	8	2	8	1	8	0	
3	1	4	5	1	0	1	1	1	2	1	1	1	0	
2	7	6	7	0	6	1	6	2	6	3	6	4	
3	9	8	7	9	0	8	1	8	2	8	5	8	4	
2	0	1	0	0	0	1	0	2	0	5	0	4	
2	1	0	1	0	0	1	0	2	0	1	0	0	
3	9	3	2	9	0	3	1	3	2	3	3	3	4	
2	2	3	3	0	3	1	3	2	3	3	3	4	
4	0	5	9	8	0	0	0	1	5	2	5	3	5	4	
3	1	3	9	1	0	1	1	1	2	1	1	1	0	
2	3	4	4	0	4	1	4	5	4	3	4	4	
2	2	4	4	0	4	1	4	2	4	5	4	4	
3	0	5	6	0	0	0	1	0	2	0	1	0	0	
4	6	5	0	1	6	0	6	1	6	2	6	3	6	4	
4	8	9	3	4	9	0	9	1	9	2	9	5	9	4	
2	8	9	9	0	9	1	9	5	9	3	9	4	
3	5	6	7	6	0	6	1	6	2	6	1	6	0	
3	0	1	3	1	0	1	1	1	2	1	1	1	0	
4	8	9	3	1	8	0	8	1	9	2	9	3	9	4	
4	1	4	5	6	4	0	4	1	4	2	4	3	4	4	
4	4	5	9	8	5	0	5	1	5	2	5	1	5	0	
3	9	5	0	5	0	5	1	5	5	5	3	5	4	
2	2	1	1	0	1	1	1	5	1	3	1	4	
5	7	6	5	4	2	7	0	7	1	6	2	6	5	6	4	
5	2	3	9	8	7	3	0	3	1	3	5	3	3	3	4	
3	8	6	5	6	0	6	1	6	5	6	3	6	4	
2	0	5	0	0	0	1	5	2	5	3	5	4	
3	6	5	0	5	0	5	1	5	5	5	3	5	4	
3	8	9	3	9	0	9	1	9	5	9	3	9	4	
2	1	4	1	0	1	1	1	5	1	3	1	4	
5	7	8	9	3	1	8	0	8	1	8	2	8	3	8	4	
2	0	2	0	0	0	1	0	2	0	5	0	4	
3	3	9	8	3	0	9	1	9	2	9	1	9	0	
4	7	6	5	4	7	0	7	1	7	2	7	5	7	4	
3	9	3	1	9	0	3	1	3	2	3	3	3	4	
2	2	0	0	0	0	1	0	2	0	3	0	4	
2	6	8	8	0	8	1	8	5	8	3	8	4	
3	0	5	9	0	0	0	1	0	2	0	3	0	4	
2	3	1	3	0	1	1	1	2	1	1	1	0	
2	6	5	6	0	6	1	6	2	6	5	6	4	
4	1	3	9	8	1	0	1	1	1	5	1	3	1	4	
2	1	2	1	0	1	1	1	5	1	3	1	4	
3	5	4	3	5	0	4	1	4	5	4	3	4	4	
4	0	5	6	7	0	0	0	1	0	5	0	3	0	4	
4	7	8	9	3	8	0	8	1	8	2	8	1	8	0	
4	8	9	3	1	9	0	9	1	9	5	9	3	9	4	
3	6	8	9	6	0	6	1	6	2	6	5	6	4	
4	6	5	4	3	6	0	6	1	5	2	5	5	5	4	
4	8	9	3	2	8	0	8	1	9	2	9	3	9	4	
3	1	0	5	1	0	1	1	0	2	0	3	0	4	
2	7	6	6	0	6	1	6	2	6	1	6	0	
3	9	8	7	8	0	8	1	8	2	8	1	8	0	
3	5	9	8	5	0	5	1	9	2	9	5	9	4	
2	0	1	0	0	0	1	0	5	0	3	0	4	
3	4	2	0	4	0	4	1	4	5	4	3	4	4	
3	9	3	2	3	0	3	1	3	2	3	1	3	0	
2	2	3	3	0	3	1	3	2	3	1	3	0	
3	6	5	4	6	0	6	1	6	2	6	1	6	0	
3	1	3	9	1	0	1	1	3	2	3	3	3	4	
2	5	4	5	0	5	1	5	2	5	5	5	4	
3	0	5	6	0	0	0	1	0	2	0	3	0	4	
4	6	5	0	1	6	0	6	1	6	2	6	1	6	0	
4	8	9	5	4	8	0	9	1	9	2	9	1	9	0	
4	7	6	5	0	7	0	6	1	6	2	6	3	6	4	
3	5	6	7	5	0	6	1	6	2	6	3	6	4	
3	3	9	5	9	0	9	1	9	5	9	3	9	4	
3	7	8	9	8	0	8	1	8	2	8	5	8	4	
4	1	4	5	6	4	0	4	1	4	2	4	1	4	0	
4	4	3	9	8	4	0	4	1	3	2	3	3	3	4	
3	9	5	0	9	0	9	1	9	2	9	3	9	4	
2	2	1	1	0	1	1	1	2	1	3	1	4	
2	5	9	5	0	9	1	9	2	9	1	9	0	
4	4	5	6	7	4	0	4	1	4	2	4	5	4	4	
2	5	0	0	0	0	1	0	5	0	3	0	4	
2	6	7	6	0	6	1	7	2	7	3	7	4	
5	7	8	9	3	2	8	0	8	1	8	5	8	3	8	4	
2	0	5	0	0	0	1	0	2	0	1	0	0	
3	6	5	0	6	0	6	1	5	2	5	5	5	4	
3	8	9	3	8	0	8	1	9	2	9	3	9	4	
2	1	4	1	0	1	1	4	2	4	3	4	4	
2	3	2	3	0	3	1	3	2	3	5	3	4	
3	3	9	8	3	0	3	1	3	2	3	5	3	4	
4	2	0	5	6	0	0	0	1	0	5	0	3	0	4	
4	7	6	5	4	6	0	6	1	6	5	6	3	6	4	
3	9	3	1	3	0	3	1	3	5	3	3	3	4	
2	2	0	0	0	0	1	0	5	0	3	0	4	
3	0	5	9	0	0	0	1	0	2	0	1	0	0	
2	3	1	1	0	1	1	1	2	1	3	1	4	
2	6	5	6	0	6	1	6	5	6	3	6	4	
4	1	3	9	8	1	0	1	1	1	2	1	3	1	4	
3	4	5	6	4	0	5	1	5	2	5	1	5	0	
3	5	4	3	5	0	4	1	4	2	4	5	4	4	
4	0	5	6	7	0	0	0	1	5	2	5	3	5	4	
4	7	8	9	3	8	0	8	1	8	2	8	3	8	4	
3	9	3	4	9	0	9	1	3	2	3	5	3	4	
2	5	6	5	0	5	1	5	2	5	3	5	4	
3	6	8	9	6	0	8	1	8	5	8	3	8	4	
2	1	3	1	0	1	1	1	5	1	3	1	4	
4	6	8	9	3	6	0	6	1	6	5	6	3	6	4	
4	8	9	3	2	9	0	9	1	9	5	9	3	9	4	
3	1	4	5	1	0	4	1	4	5	4	3	4	4	
3	4	3	9	4	0	4	1	3	2	3	3	3	4	
3	9	8	7	9	0	9	1	8	2	8	3	8	4	
3	5	9	8	5	0	5	1	5	5	5	3	5	4	
2	8	9	9	0	9	1	9	2	9	5	9	4	
3	4	1	0	4	0	4	1	1	2	1	5	1	4	
3	2	3	9	3	0	3	1	3	2	3	5	3	4	
3	9	3	2	3	0	3	1	3	2	3	5	3	4	
2	2	3	3	0	3	1	3	2	3	5	3	4	
3	6	5	4	5	0	5	1	5	2	5	3	5	4	
2	8	7	8	0	7	1	7	2	7	5	7	4	
3	1	3	9	1	0	1	1	1	5	1	3	1	4	
2	4	5	4	0	4	1	5	2	5	3	5	4	
2	5	4	5	0	4	1	4	5	4	3	4	4	
3	0	5	6	0	0	0	1	0	5	0	3	0	4	
4	8	6	5	4	8	0	8	1	6	2	6	3	6	4	
4	7	6	5	0	6	0	6	1	6	2	6	1	6	0	
2	9	5	9	0	9	1	9	2	9	1	9	0	
2	6	8	8	0	8	1	8	2	8	3	8	4	
3	7	8	9	7	0	7	1	7	2	7	1	7	0	
4	1	4	5	6	1	0	1	1	1	2	1	5	1	4	
3	9	5	0	9	0	9	1	9	2	9	1	9	0	
3	7	6	5	6	0	6	1	6	2	6	1	6	0	
2	2	1	1	0	1	1	1	2	1	1	1	0	
2	5	9	9	0	9	1	9	2	9	3	9	4	
3	3	2	0	3	0	3	1	3	2	3	3	3	4	
4	4	5	6	7	4	0	5	1	5	5	5	3	5	4	
4	2	3	9	8	3	0	3	1	3	2	3	1	3	0	
2	6	7	6	0	6	1	6	2	6	1	6	0	
2	8	6	8	0	8	1	8	2	8	1	8	0	
5	7	8	9	3	2	8	0	8	1	8	2	8	3	8	4	
3	3	9	5	3	0	3	1	3	2	3	5	3	4	
2	0	5	0	0	0	1	5	2	5	5	5	4	
3	8	9	3	8	0	8	1	8	2	8	1	8	0	
2	1	4	1	0	1	1	1	2	1	1	1	0	
3	9	8	6	9	0	8	1	8	2	8	3	8	4	
2	3	2	3	0	3	1	3	5	3	3	3	4	
3	3	9	8	9	0	9	1	9	5	9	3	9	4	
4	8	9	3	1	9	0	9	1	9	2	9	5	9	4	
4	2	0	5	6	0	0	0	1	0	2	0	5	0	4	
3	9	3	1	9	0	3	1	3	2	3	5	3	4	
2	2	0	0	0	0	1	0	2	0	5	0	4	
3	0	5	9	0	0	0	1	5	2	5	5	5	4	
2	6	5	6	0	6	1	6	2	6	3	6	4	
4	1	3	9	8	1	0	1	1	1	2	1	1	1	0	
3	4	5	6	4	0	4	1	5	2	5	3	5	4	
3	5	9	3	5	0	5	1	5	2	5	1	5	0	
4	0	5	6	7	0	0	0	1	0	2	0	1	0	0	
3	8	9	5	8	0	9	1	9	2	9	3	9	4	
4	7	8	9	3	8	0	8	1	8	5	8	3	8	4	
3	9	5	4	5	0	5	1	5	5	5	3	5	4	
2	5	6	5	0	5	1	5	2	5	1	5	0	
2	4	3	4	0	3	1	3	5	3	3	3	4	
3	6	8	9	6	0	6	1	8	2	8	3	8	4	
2	1	3	1	0	1	1	3	2	3	5	3	4	
4	8	9	3	2	8	0	8	1	9	2	9	5	9	4	
3	1	4	5	1	0	1	1	1	2	1	5	1	4	
3	4	3	9	4	0	3	1	3	2	3	1	3	0	
3	5	9	8	5	0	5	1	5	2	5	3	5	4	
3	4	5	0	4	0	4	1	4	2	4	1	4	0	
3	2	3	9	3	0	3	1	3	5	3	3	3	4	
3	9	3	2	3	0	3	1	3	5	3	3	3	4	
2	2	3	3	0	3	1	3	5	3	3	3	4	
4	6	5	4	2	5	0	5	1	5	5	5	3	5	4	
3	6	5	4	5	0	5	1	5	5	5	3	5	4	
2	8	7	7	0	7	1	7	5	7	3	7	4	
3	1	3	9	1	0	1	1	3	2	3	5	3	4	
2	4	5	4	0	4	1	4	2	4	1	4	0	
2	5	4	5	0	4	1	4	2	4	3	4	4	
3	0	5	6	0	0	0	1	5	2	5	5	5	4	
4	7	6	5	0	6	0	6	1	6	2	6	5	6	4	
2	9	5	9	0	9	1	5	2	5	3	5	4	
3	3	9	5	3	0	3	1	3	2	3	1	3	0	
3	7	8	9	7	0	7	1	8	2	8	3	8	4	
4	1	0	5	6	1	0	1	1	1	5	1	3	1	4	
2	5	9	9	0	9	1	9	5	9	3	9	4	
3	3	2	0	3	0	3	1	3	2	3	1	3	0	
4	4	5	6	7	4	0	5	1	5	2	5	3	5	4	
4	2	3	9	8	3	0	3	1	3	2	3	3	3	4	
2	6	7	6	0	6	1	7	2	7	5	7	4	
2	8	6	6	0	6	1	6	2	6	3	6	4	
5	7	6	5	4	2	7	0	7	1	6	2	6	1	6	0	
2	0	5	0	0	0	1	0	5	5	3	5	4	
3	9	8	6	9	0	9	1	9	2	9	1	9	0	
2	3	2	3	0	3	1	3	2	3	3	3	4	
4	2	4	5	6	4	0	4	1	4	2	4	1	4	0	
2	5	0	5	0	0	1	0	2	0	5	0	4	
3	0	5	9	0	0	0	1	0	5	0	3	0	4	
2	6	5	6	0	6	1	6	2	6	1	6	0	
3	4	5	6	4	0	5	1	5	5	5	3	5	4	
3	5	4	3	5	0	4	1	4	2	4	3	4	4	
2	3	9	9	0	9	1	9	5	9	3	9	4	
3	8	6	5	6	0	6	1	6	2	6	1	6	0	
4	7	8	9	3	7	0	7	1	8	2	8	5	8	4	
3	9	5	4	5	0	5	1	5	2	5	3	5	4	
2	5	6	5	0	5	1	5	2	5	5	5	4	
3	6	8	9	8	0	8	1	8	2	8	1	8	0	
2	1	3	1	0	1	1	1	2	1	1	1	0	
2	7	8	7	0	7	1	7	2	7	3	7	4	
3	4	5	9	4	0	4	1	4	2	4	5	4	4	
3	5	9	8	5	0	5	1	5	2	5	1	5	0	
3	4	5	0	4	0	4	1	4	2	4	3	4	4	
3	2	3	9	3	0	3	1	3	2	3	3	3	4	
3	5	4	1	5	0	4	1	4	2	4	1	4	0	
4	6	5	0	2	6	0	6	1	6	2	6	5	6	4	
3	6	5	4	6	0	6	1	5	2	5	5	5	4	
2	8	7	7	0	7	1	7	2	7	3	7	4	
3	7	6	5	7	0	7	1	7	2	7	5	7	4	
2	4	5	4	0	4	1	5	2	5	5	5	4	
2	5	4	5	0	4	1	4	2	4	1	4	0	
4	3	9	8	6	3	0	3	1	9	2	9	5	9	4	
3	7	6	5	6	0	6	1	6	5	6	3	6	4	
2	9	3	3	0	3	1	3	5	3	3	3	4	
4	7	6	5	0	6	0	6	1	6	5	6	3	6	4	
2	9	5	9	0	5	1	5	5	5	3	5	4	
3	3	9	5	3	0	3	1	3	2	3	3	3	4	
2	6	8	8	0	8	1	8	2	8	1	8	0	
2	4	2	4	0	4	1	4	2	4	1	4	0	
2	5	9	9	0	9	1	9	2	9	5	9	4	
3	3	2	0	3	0	3	1	3	2	3	5	3	4	
4	4	5	6	7	5	0	5	1	5	2	5	1	5	0	
2	9	8	9	0	8	1	8	2	8	5	8	4	
4	2	3	9	8	3	0	3	1	3	5	3	3	3	4	
3	5	4	2	4	0	4	1	4	2	4	3	4	4	
4	8	6	5	0	6	0	6	1	6	5	6	3	6	4	
4	8	9	3	1	9	0	9	1	9	2	9	1	9	0	
5	1	4	5	6	7	4	0	4	1	4	5	4	3	4	4	
2	6	7	6	0	7	1	7	5	7	3	7	4	
2	8	6	6	0	6	1	6	5	6	3	6	4	
4	3	9	8	7	9	0	9	1	9	2	9	1	9	0	
3	2	4	5	4	0	4	1	4	2	4	5	4	4	
3	9	8	6	9	0	8	1	8	2	8	5	8	4	
2	3	2	3	0	3	1	3	2	3	1	3	0	
2	4	1	1	0	1	1	1	2	1	3	1	4	
4	2	4	5	6	4	0	4	1	4	2	4	3	4	4	
2	4	3	4	0	4	1	3	2	3	5	3	4	
3	0	5	4	0	0	0	1	0	5	0	3	0	4	
3	4	5	6	4	0	4	1	5	2	5	5	5	4	
2	3	9	3	0	3	1	3	2	3	5	3	4	
2	1	0	1	0	1	1	0	2	0	5	0	4	
3	8	9	5	8	0	9	1	9	2	9	5	9	4	
3	9	5	4	5	0	5	1	5	2	5	1	5	0	
4	0	5	9	8	0	0	0	1	0	5	0	3	0	4	
2	5	6	5	0	6	1	6	5	6	3	6	4	
2	3	4	3	0	3	1	4	2	4	3	4	4	
2	1	3	1	0	1	1	1	2	1	3	1	4	
2	7	8	7	0	7	1	7	2	7	1	7	0	
2	2	4	4	0	4	1	4	2	4	1	4	0	
3	4	3	9	4	0	4	1	4	5	4	3	4	4	
3	2	3	9	3	0	3	1	3	2	3	1	3	0	
3	5	0	1	5	0	5	1	0	2	0	3	0	4	
3	0	1	3	0	0	0	1	0	2	0	5	0	4	
4	6	5	0	2	6	0	6	1	6	2	6	1	6	0	
2	8	7	8	0	8	1	8	2	8	1	8	0	
2	4	5	5	0	5	1	5	5	5	3	5	4	
2	7	8	8	0	8	1	8	2	8	5	8	4	
4	3	9	8	6	3	0	9	1	9	5	9	3	9	4	
2	9	3	9	0	9	1	3	2	3	5	3	4	
2	9	5	5	0	5	1	5	2	5	5	5	4	
2	4	2	4	0	4	1	4	2	4	3	4	4	
5	2	4	5	6	7	4	0	4	1	4	2	4	3	4	4	
