1932.2	1932.2
990
1096.83	789.533
10
0	237	3000
1	0	3000
2	481	3000
3	552	3000
4	121	3000
5	796	3000
6	484	3000
7	35	3000
8	538	3000
9	0	3000
34
0	1	15.795774	131.479641
0	2	34.364472	135.308578
0	5	107.478010	149.350323
1	0	44.365724	131.479641
1	2	11.099572	146.797369
1	3	32.806948	144.244414
1	4	11.107152	146.797369
2	0	51.896210	135.308578
2	1	11.186086	146.797369
2	3	52.726542	135.308578
2	4	27.692016	130.202668
3	1	42.184882	144.244414
3	2	48.203272	135.308578
3	4	26.874980	126.372741
3	9	99.078752	116.160923
4	1	30.946092	146.797369
4	2	51.134028	130.202668
4	3	23.743898	126.372741
4	5	70.219396	117.437895
5	0	61.486260	149.350323
5	4	109.888872	117.437895
5	6	122.297706	123.819787
5	9	55.111238	140.414487
6	5	118.916724	123.819787
6	7	57.509356	139.138505
6	8	42.963042	144.244414
7	6	54.538732	139.138505
7	8	45.370954	135.308578
8	6	43.600784	144.244414
8	7	42.232134	135.308578
8	9	114.646976	114.884940
9	3	106.737790	116.160923
9	5	52.928212	140.414487
9	8	111.071044	114.884940
360
3	3	2	0	3	0	3	1	3	5	3	3	3	4	
2	8	9	8	0	8	1	8	2	8	3	8	4	
2	8	9	8	0	8	1	8	2	8	1	8	0	
2	9	8	8	0	8	1	8	5	8	3	8	4	
4	2	3	9	8	2	0	2	1	2	2	2	5	2	4	
3	5	4	2	5	0	5	1	5	2	5	1	5	0	
2	0	2	2	0	2	1	2	2	2	1	2	0	
4	8	9	5	0	8	0	8	1	8	2	8	5	8	4	
5	1	0	5	6	7	0	0	0	1	0	2	0	5	0	4	
2	8	6	6	0	6	1	6	2	6	5	6	4	
4	3	9	8	7	3	0	3	1	3	2	3	3	3	4	
2	1	2	2	0	2	1	2	2	2	3	2	4	
5	7	8	9	3	1	8	0	8	1	8	5	8	3	8	4	
3	2	4	5	2	0	2	1	2	5	2	3	2	4	
3	9	8	6	8	0	8	1	8	5	8	3	8	4	
2	4	1	4	0	4	1	4	2	4	1	4	0	
2	5	0	5	0	5	1	5	2	5	3	5	4	
3	0	2	4	2	0	2	1	2	2	2	5	2	4	
2	7	6	6	0	6	1	6	2	6	5	6	4	
2	0	1	0	0	0	1	0	2	0	3	0	4	
2	3	9	3	0	3	1	3	2	3	1	3	0	
2	1	0	0	0	0	1	0	5	0	3	0	4	
3	7	6	5	6	0	6	1	6	2	6	3	6	4	
4	0	5	6	8	5	0	5	1	5	2	5	5	5	4	
2	3	4	3	0	3	1	3	2	3	1	3	0	
2	4	3	3	0	3	1	3	2	3	3	3	4	
2	2	4	2	0	2	1	2	2	2	3	2	4	
4	6	5	4	1	5	0	5	1	5	2	5	5	5	4	
3	5	6	7	6	0	6	1	6	5	6	3	6	4	
3	5	4	1	5	0	5	1	5	5	5	3	5	4	
3	0	2	3	2	0	2	1	2	5	2	3	2	4	
4	6	5	4	2	6	0	6	1	6	2	6	3	6	4	
4	4	5	9	8	4	0	5	1	5	5	5	3	5	4	
4	3	9	8	6	3	0	3	1	3	2	3	3	3	4	
2	9	3	3	0	3	1	3	2	3	1	3	0	
3	7	8	9	7	0	8	1	8	5	8	3	8	4	
2	4	2	2	0	2	1	2	5	2	3	2	4	
5	2	3	9	8	7	2	0	2	1	2	2	2	1	3	0	
3	6	5	0	5	0	5	1	5	2	5	1	5	0	
5	7	8	9	3	1	8	0	8	1	8	2	8	5	8	4	
2	9	8	8	0	8	1	8	2	8	3	8	4	
3	5	4	2	5	0	5	1	5	2	5	5	5	4	
2	0	2	2	0	2	1	2	2	2	3	2	4	
4	8	6	5	0	8	0	8	1	8	2	8	1	6	0	
5	1	0	5	6	7	0	0	0	1	0	2	0	1	0	0	
4	7	6	5	4	6	0	6	1	6	2	6	3	6	4	
2	3	1	3	0	3	1	3	5	3	3	3	4	
4	3	9	8	7	3	0	3	1	3	5	3	3	3	4	
2	1	2	2	0	2	1	2	2	2	1	2	0	
3	2	0	5	0	0	0	1	0	2	0	3	0	4	
2	4	1	4	0	4	1	4	2	4	5	4	4	
2	5	0	5	0	5	1	5	2	5	1	5	0	
3	0	2	4	2	0	2	1	2	2	2	1	2	0	
4	6	8	9	3	6	0	6	1	6	2	6	3	6	4	
2	6	8	6	0	6	1	6	2	6	5	6	4	
2	7	6	7	0	6	1	6	5	6	3	6	4	
3	9	8	7	8	0	8	1	8	5	8	3	8	4	
2	0	1	0	0	0	1	0	2	0	1	0	0	
2	3	9	3	0	3	1	3	2	3	3	3	4	
2	1	0	0	0	0	1	0	2	0	3	0	4	
4	0	5	9	8	5	0	5	1	5	2	5	1	5	0	
2	3	4	3	0	3	1	3	2	3	5	3	4	
2	4	3	3	0	3	1	3	2	3	1	3	0	
2	2	4	2	0	2	1	2	5	2	3	2	4	
4	6	5	4	1	6	0	6	1	6	5	6	3	6	4	
4	8	9	3	4	8	0	8	1	8	5	8	3	8	4	
3	5	6	7	6	0	6	1	6	2	6	5	6	4	
3	5	4	1	5	0	5	1	5	2	5	5	5	4	
3	0	2	3	2	0	2	1	2	2	2	3	2	4	
4	4	5	6	8	5	0	5	1	5	2	5	5	5	4	
3	9	5	0	5	0	5	1	5	2	5	5	5	4	
2	7	8	8	0	8	1	8	5	8	3	8	4	
2	2	1	2	0	2	1	2	2	2	5	2	4	
4	3	4	5	6	4	0	4	1	4	2	4	1	4	0	
2	9	3	3	0	3	1	3	2	3	3	3	4	
2	4	2	2	0	2	1	2	2	2	5	2	4	
5	2	3	9	8	7	3	0	3	1	3	2	3	5	3	4	
3	6	5	0	6	0	6	1	6	2	6	3	6	4	
3	8	9	3	8	0	8	1	8	2	8	5	8	4	
2	1	4	4	0	4	1	4	2	4	5	4	4	
5	7	8	9	3	1	7	0	8	1	8	2	8	1	8	0	
2	9	8	8	0	8	1	8	2	8	1	8	0	
3	5	4	2	5	0	5	1	5	5	5	3	5	4	
2	0	2	2	0	2	1	2	5	2	3	2	4	
3	3	9	8	3	0	3	1	3	2	3	3	3	4	
4	8	6	5	0	8	0	6	1	6	2	6	3	6	4	
5	1	0	5	6	7	0	0	0	1	0	2	0	3	0	4	
4	7	6	5	4	6	0	6	1	6	2	6	1	6	0	
3	9	3	1	3	0	3	1	3	2	3	1	3	0	
2	2	0	2	0	2	1	2	2	2	1	2	0	
2	3	1	3	0	3	1	3	2	3	5	3	4	
4	1	3	9	8	3	0	3	1	3	2	3	5	3	4	
4	3	9	8	7	3	0	3	1	3	2	3	5	3	4	
2	1	2	2	0	2	1	2	2	2	5	2	4	
3	2	0	5	0	0	0	1	0	2	0	1	0	0	
4	0	5	6	7	5	0	5	1	5	2	5	5	5	4	
2	4	1	4	0	4	1	4	5	4	3	4	4	
3	0	2	4	2	0	2	1	2	2	2	3	2	4	
4	6	5	4	3	5	0	5	1	5	2	5	1	5	0	
4	8	9	3	2	8	0	8	1	8	2	8	1	8	0	
3	1	0	5	0	0	0	1	0	2	0	1	0	0	
2	7	6	7	0	7	1	7	2	6	3	6	4	
3	9	8	7	8	0	8	1	8	2	8	5	8	4	
2	0	1	0	0	0	1	0	2	0	5	0	4	
2	1	0	0	0	0	1	0	2	0	1	0	0	
3	9	3	2	3	0	3	1	3	2	3	3	3	4	
2	2	3	3	0	3	1	3	2	3	3	3	4	
4	0	5	9	8	5	0	5	1	5	2	5	3	5	4	
3	1	3	9	3	0	3	1	3	2	3	1	3	0	
2	3	4	3	0	3	1	3	5	3	3	3	4	
2	2	4	2	0	2	1	2	2	2	5	2	4	
3	0	5	6	5	0	5	1	5	2	5	1	5	0	
4	6	5	4	1	6	0	6	1	6	2	6	3	6	4	
4	8	6	5	4	8	0	6	1	6	2	6	5	6	4	
2	8	9	8	0	8	1	8	5	8	3	8	4	
3	5	6	7	6	0	6	1	6	2	6	1	6	0	
3	0	2	3	2	0	2	1	2	2	2	1	2	0	
4	8	9	3	1	8	0	8	1	8	2	8	3	8	4	
4	1	0	5	6	0	0	0	1	0	2	0	3	0	4	
4	4	5	6	8	5	0	5	1	5	2	5	1	5	0	
3	9	5	0	5	0	5	1	5	5	5	3	5	4	
2	2	1	2	0	2	1	2	5	2	3	2	4	
5	7	6	5	4	2	7	0	7	1	7	2	7	5	6	4	
5	2	0	5	6	7	2	0	0	1	0	5	0	3	0	4	
3	8	9	5	8	0	8	1	8	5	8	3	8	4	
2	0	5	5	0	5	1	5	2	5	3	5	4	
3	6	5	0	6	0	6	1	6	5	6	3	6	4	
3	8	9	3	8	0	8	1	8	5	8	3	8	4	
2	1	4	4	0	4	1	4	5	4	3	4	4	
5	7	6	5	0	1	7	0	7	1	7	2	6	3	6	4	
2	0	2	2	0	2	1	2	2	2	5	2	4	
3	3	9	8	3	0	3	1	3	2	3	1	3	0	
4	7	6	5	4	6	0	6	1	6	2	6	5	6	4	
3	9	3	1	3	0	3	1	3	2	3	3	3	4	
2	2	0	2	0	2	1	2	2	2	3	2	4	
2	6	8	6	0	6	1	6	5	6	3	6	4	
3	0	5	9	5	0	5	1	5	2	5	3	5	4	
2	3	1	3	0	3	1	3	2	3	1	3	0	
2	6	5	6	0	6	1	6	2	6	5	6	4	
4	1	3	9	8	3	0	3	1	3	5	3	3	3	4	
2	1	2	2	0	2	1	2	5	2	3	2	4	
3	5	9	3	5	0	5	1	5	5	5	3	5	4	
4	0	5	6	7	5	0	5	1	5	5	5	3	5	4	
4	7	8	9	3	8	0	8	1	8	2	8	1	8	0	
4	8	9	3	1	8	0	8	1	8	5	8	3	8	4	
3	6	8	9	6	0	6	1	6	2	6	5	6	4	
4	6	5	4	3	5	0	5	1	5	2	5	5	5	4	
4	8	9	3	2	8	0	8	1	8	2	8	3	8	4	
3	1	0	5	0	0	0	1	0	2	0	3	0	4	
2	7	6	6	0	6	1	6	2	6	1	6	0	
3	9	8	7	8	0	8	1	8	2	8	1	8	0	
3	5	9	8	5	0	5	1	5	2	5	5	5	4	
2	0	1	0	0	0	1	0	5	0	3	0	4	
3	4	2	0	2	0	2	1	2	5	2	3	2	4	
3	9	3	2	3	0	3	1	3	2	3	1	3	0	
2	2	3	2	0	2	1	2	2	2	1	2	0	
3	6	5	4	5	0	5	1	5	2	5	1	5	0	
3	1	3	9	3	0	3	1	3	2	3	3	3	4	
2	5	4	5	0	5	1	5	2	5	5	5	4	
3	0	5	6	5	0	5	1	5	2	5	3	5	4	
4	6	5	0	1	6	0	6	1	6	2	6	1	5	0	
4	8	9	3	4	8	0	8	1	8	2	8	1	8	0	
4	7	6	5	0	7	0	7	1	7	2	6	3	6	4	
3	5	6	7	5	0	5	1	5	2	6	3	6	4	
3	3	4	5	4	0	4	1	4	5	4	3	4	4	
3	7	8	9	8	0	8	1	8	2	8	5	8	4	
4	1	0	5	6	0	0	0	1	0	2	0	1	0	0	
4	4	5	6	8	5	0	5	1	5	2	5	3	5	4	
3	9	5	0	5	0	5	1	5	2	5	3	5	4	
2	2	1	2	0	2	1	2	2	2	3	2	4	
2	5	9	5	0	5	1	5	2	5	1	5	0	
4	4	5	6	7	5	0	5	1	5	2	5	5	5	4	
2	5	0	5	0	5	1	5	5	5	3	5	4	
2	6	7	6	0	6	1	6	2	6	3	6	4	
5	7	6	5	0	2	7	0	7	1	7	5	6	3	6	4	
2	0	5	5	0	5	1	5	2	5	1	5	0	
3	6	5	0	6	0	6	1	6	2	6	5	6	4	
3	8	9	3	8	0	8	1	8	2	8	3	8	4	
2	1	4	4	0	4	1	4	2	4	3	4	4	
2	3	2	2	0	2	1	2	2	2	5	2	4	
3	3	9	8	3	0	3	1	3	2	3	5	3	4	
4	2	4	5	6	2	0	2	1	2	5	2	3	2	4	
4	7	6	5	4	6	0	6	1	6	5	6	3	6	4	
3	9	3	1	3	0	3	1	3	5	3	3	3	4	
2	2	0	2	0	2	1	2	5	2	3	2	4	
3	0	5	9	5	0	5	1	5	2	5	1	5	0	
2	3	1	3	0	3	1	3	2	3	3	3	4	
2	6	5	6	0	6	1	6	5	6	3	6	4	
4	1	3	9	8	3	0	3	1	3	2	3	3	3	4	
3	4	5	6	5	0	5	1	5	2	5	1	5	0	
3	5	9	3	5	0	5	1	5	2	5	5	5	4	
4	0	5	6	7	5	0	5	1	5	2	5	3	5	4	
4	7	8	9	3	8	0	8	1	8	2	8	3	8	4	
3	9	5	4	5	0	5	1	5	2	5	5	5	4	
2	5	6	5	0	5	1	5	2	6	3	6	4	
3	6	8	9	6	0	6	1	6	5	6	3	6	4	
2	1	3	3	0	3	1	3	5	3	3	3	4	
4	6	8	9	3	6	0	6	1	6	5	6	3	6	4	
4	8	9	3	2	8	0	8	1	8	5	8	3	8	4	
3	1	0	5	0	0	0	1	0	5	0	3	0	4	
3	4	3	9	3	0	3	1	3	2	3	3	3	4	
3	9	8	7	8	0	8	1	8	2	8	3	8	4	
3	5	9	8	5	0	5	1	5	5	5	3	5	4	
2	8	9	8	0	8	1	8	2	8	5	8	4	
3	4	2	0	2	0	2	1	2	2	2	5	2	4	
3	2	3	9	2	0	2	1	2	2	2	5	2	4	
3	9	3	2	3	0	3	1	3	2	3	5	3	4	
2	2	3	2	0	2	1	2	2	2	5	2	4	
3	6	5	4	5	0	5	1	5	2	5	3	5	4	
2	8	7	8	0	8	1	8	2	8	5	8	4	
3	1	3	9	3	0	3	1	3	5	3	3	3	4	
2	4	5	4	0	5	1	5	2	5	3	5	4	
2	5	4	5	0	5	1	5	5	5	3	5	4	
3	0	5	6	5	0	5	1	5	5	5	3	5	4	
4	8	9	3	4	8	0	8	1	8	2	8	3	8	4	
4	7	6	5	0	7	0	7	1	7	2	7	1	6	0	
2	9	5	5	0	5	1	5	2	5	1	5	0	
2	6	8	8	0	8	1	8	2	8	3	8	4	
3	7	8	9	8	0	8	1	8	2	8	1	8	0	
4	1	0	5	6	0	0	0	1	0	2	0	5	0	4	
3	9	5	0	5	0	5	1	5	2	5	1	5	0	
3	7	6	5	7	0	6	1	6	2	6	1	6	0	
2	2	1	2	0	2	1	2	2	2	1	2	0	
2	5	9	5	0	5	1	5	2	5	3	5	4	
3	3	2	0	3	0	2	1	2	2	2	3	2	4	
4	4	5	6	7	5	0	5	1	5	5	5	3	5	4	
4	2	3	9	8	2	0	2	1	2	2	2	1	2	0	
2	6	7	6	0	6	1	6	2	6	1	6	0	
2	8	6	8	0	8	1	8	2	8	1	8	0	
5	7	8	9	3	2	8	0	8	1	8	2	8	3	8	4	
3	3	4	5	4	0	4	1	4	2	4	5	4	4	
2	0	5	5	0	5	1	5	2	5	5	5	4	
3	8	9	3	8	0	8	1	8	2	8	1	8	0	
2	1	4	4	0	4	1	4	2	4	1	4	0	
3	9	8	6	8	0	8	1	8	2	8	3	8	4	
2	3	2	3	0	2	1	2	5	2	3	2	4	
3	3	9	8	3	0	3	1	3	5	3	3	3	4	
4	8	9	3	1	8	0	8	1	8	2	8	5	8	4	
4	2	0	5	6	0	0	0	1	0	2	0	5	0	4	
3	9	3	1	3	0	3	1	3	2	3	5	3	4	
2	2	0	2	0	2	1	2	2	2	5	2	4	
3	0	5	9	5	0	5	1	5	2	5	5	5	4	
2	6	5	6	0	6	1	6	2	6	3	6	4	
4	1	3	9	8	3	0	3	1	3	2	3	1	3	0	
3	4	5	6	5	0	5	1	5	2	5	3	5	4	
3	5	9	3	5	0	5	1	5	2	5	1	5	0	
4	0	5	6	7	5	0	5	1	5	2	5	1	5	0	
3	8	9	5	8	0	8	1	8	2	8	3	8	4	
4	7	8	9	3	8	0	8	1	8	5	8	3	8	4	
3	9	5	4	5	0	5	1	5	5	5	3	5	4	
2	5	6	6	0	6	1	6	2	6	1	6	0	
2	4	3	3	0	3	1	3	5	3	3	3	4	
3	6	8	9	6	0	6	1	6	2	6	3	6	4	
2	1	3	3	0	3	1	3	2	3	5	3	4	
4	8	9	3	2	8	0	8	1	8	2	8	5	8	4	
3	1	0	5	0	0	0	1	0	2	0	5	0	4	
3	4	3	9	3	0	3	1	3	2	3	1	3	0	
3	5	9	8	5	0	5	1	5	2	5	3	5	4	
3	4	2	0	2	0	2	1	2	2	2	1	2	0	
3	2	3	9	3	0	3	1	3	5	3	3	3	4	
3	9	3	2	3	0	3	1	3	5	3	3	3	4	
2	2	3	2	0	2	1	2	5	2	3	2	4	
4	6	5	4	2	6	0	6	1	6	5	6	3	6	4	
3	6	5	4	6	0	6	1	6	5	6	3	6	4	
2	8	7	8	0	8	1	8	5	8	3	8	4	
3	1	3	9	3	0	3	1	3	2	3	5	3	4	
2	4	5	5	0	5	1	5	2	5	1	5	0	
2	5	4	5	0	5	1	5	2	5	3	5	4	
3	0	5	6	5	0	5	1	5	2	5	5	5	4	
4	7	6	5	0	7	0	6	1	6	2	6	5	6	4	
2	9	5	5	0	5	1	5	2	5	3	5	4	
3	3	4	5	4	0	4	1	4	2	4	1	4	0	
3	7	8	9	8	0	8	1	8	2	8	3	8	4	
4	1	0	5	6	0	0	0	1	0	5	0	3	0	4	
2	5	9	5	0	5	1	5	5	5	3	5	4	
3	3	2	0	3	0	3	1	3	2	3	1	3	0	
4	4	5	6	7	5	0	5	1	5	2	5	3	5	4	
4	2	3	9	8	2	0	2	1	2	2	2	3	2	4	
2	6	7	6	0	6	1	6	2	6	5	6	4	
2	8	6	6	0	6	1	6	2	6	3	6	4	
5	7	8	9	3	2	8	0	8	1	8	2	8	1	8	0	
2	0	5	5	0	5	1	5	5	5	3	5	4	
3	9	8	6	8	0	8	1	8	2	8	1	8	0	
2	3	2	3	0	3	1	3	2	3	3	3	4	
4	2	4	5	6	2	0	2	1	2	2	2	1	4	0	
2	5	0	5	0	5	1	5	2	5	5	5	4	
3	0	5	9	5	0	5	1	5	5	5	3	5	4	
2	6	5	5	0	5	1	5	2	5	1	5	0	
3	4	5	6	5	0	5	1	5	5	5	3	5	4	
3	5	9	3	5	0	5	1	5	2	5	3	5	4	
2	3	9	3	0	3	1	3	5	3	3	3	4	
3	8	9	5	8	0	8	1	8	2	8	1	8	0	
4	7	8	9	3	8	0	8	1	8	2	8	5	8	4	
3	9	5	4	5	0	5	1	5	2	5	3	5	4	
2	5	6	6	0	6	1	6	2	6	5	6	4	
3	6	8	9	8	0	8	1	8	2	8	1	8	0	
2	1	3	3	0	3	1	3	2	3	1	3	0	
2	7	8	8	0	8	1	8	2	8	3	8	4	
3	4	5	9	4	0	5	1	5	2	5	5	5	4	
3	5	9	8	5	0	5	1	5	2	5	1	5	0	
3	4	2	0	4	0	2	1	2	2	2	3	2	4	
3	2	3	9	2	0	2	1	2	2	2	3	2	4	
3	5	0	1	5	0	0	1	0	2	0	1	0	0	
4	6	5	4	2	6	0	6	1	6	2	6	5	6	4	
3	6	5	4	5	0	5	1	5	2	5	5	5	4	
2	8	7	8	0	8	1	8	2	8	3	8	4	
3	7	6	5	6	0	6	1	6	2	6	5	6	4	
2	4	5	5	0	5	1	5	2	5	5	5	4	
2	5	4	5	0	5	1	5	2	5	1	4	0	
4	3	9	8	6	3	0	3	1	3	2	3	5	3	4	
3	7	6	5	7	0	6	1	6	5	6	3	6	4	
2	9	3	3	0	3	1	3	5	3	3	3	4	
4	7	6	5	0	6	0	6	1	6	5	6	3	6	4	
2	9	5	5	0	5	1	5	5	5	3	5	4	
3	3	4	5	4	0	4	1	4	2	4	3	4	4	
2	6	8	8	0	8	1	8	2	8	1	8	0	
2	4	2	2	0	2	1	2	2	2	1	2	0	
2	5	9	5	0	5	1	5	2	5	5	5	4	
3	3	2	0	3	0	3	1	3	2	3	5	3	4	
4	4	5	6	7	5	0	5	1	5	2	5	1	5	0	
2	9	8	8	0	8	1	8	2	8	5	8	4	
4	2	3	9	8	2	0	2	1	2	5	2	3	2	4	
3	5	4	2	5	0	5	1	5	2	5	3	5	4	
4	8	9	5	0	8	0	8	1	8	5	8	3	8	4	
4	8	9	3	1	8	0	8	1	8	2	8	1	8	0	
5	1	0	5	6	7	0	0	0	1	0	5	0	3	0	4	
2	6	7	6	0	6	1	6	5	6	3	6	4	
2	8	6	8	0	6	1	6	5	6	3	6	4	
4	3	9	8	7	3	0	3	1	3	2	3	1	3	0	
3	2	0	5	0	0	0	1	0	2	0	5	0	4	
3	9	8	6	8	0	8	1	8	2	8	5	8	4	
2	3	2	3	0	3	1	3	2	3	1	3	0	
2	4	1	4	0	4	1	4	2	4	3	4	4	
4	2	4	5	6	2	0	2	1	2	2	2	3	2	4	
2	4	3	3	0	3	1	3	2	3	5	3	4	
3	0	2	4	2	0	2	1	2	5	2	3	2	4	
3	4	5	6	5	0	5	1	5	2	5	5	5	4	
2	3	9	3	0	3	1	3	2	3	5	3	4	
2	1	0	0	0	0	1	0	2	0	5	0	4	
3	8	9	5	8	0	8	1	8	2	8	5	8	4	
3	9	5	4	5	0	5	1	5	2	5	1	5	0	
4	0	5	9	8	5	0	5	1	5	5	5	3	5	4	
2	5	6	6	0	6	1	6	5	6	3	6	4	
2	3	4	3	0	3	1	3	2	3	3	3	4	
2	1	3	3	0	3	1	3	2	3	3	3	4	
2	7	8	8	0	8	1	8	2	8	1	8	0	
2	2	4	2	0	2	1	2	2	2	1	2	0	
3	4	5	9	4	0	5	1	5	5	5	3	5	4	
3	2	3	9	2	0	2	1	2	2	2	1	2	0	
3	5	4	1	5	0	5	1	5	2	5	3	5	4	
3	0	2	3	2	0	2	1	2	2	2	5	2	4	
4	6	5	0	2	6	0	6	1	6	2	6	1	5	0	
2	8	7	8	0	8	1	8	2	8	1	7	0	
2	4	5	5	0	5	1	5	5	5	3	5	4	
2	7	8	7	0	8	1	8	2	8	5	8	4	
4	3	9	8	6	3	0	3	1	3	5	3	3	3	4	
2	9	3	3	0	3	1	3	2	3	5	3	4	
2	9	5	5	0	5	1	5	2	5	5	5	4	
2	4	2	4	0	2	1	2	2	2	3	2	4	
5	2	4	5	6	7	2	0	2	1	2	2	2	3	2	4	
