2109.92	2109.92
4021
38899.5	38727.3
10
0	0	3000
1	0	3000
2	0	3000
3	968	3000
4	0	3000
5	1593	3000
6	0	3000
7	0	3000
8	683	3000
9	0	3000
34
0	1	31.463662	131.479641
1	0	27.582146	131.479641
0	2	22.255106	135.308578
2	0	56.580788	135.308578
0	5	144.931816	149.350323
5	0	114.597588	149.350323
1	2	0.000000	146.797369
2	1	0.000000	146.797369
1	3	82.933118	144.244414
3	1	66.709748	144.244414
1	4	0.000000	146.797369
4	1	13.075292	146.797369
2	3	70.477282	135.308578
3	2	85.948634	135.308578
2	4	0.000000	130.202668
4	2	20.154820	130.202668
3	4	56.061284	126.372741
4	3	43.549844	126.372741
3	9	91.926120	116.160923
9	3	103.358834	116.160923
4	5	89.471028	117.437895
5	4	109.709306	117.437895
5	6	119.846822	123.819787
6	5	120.816172	123.819787
5	9	86.985646	140.414487
9	5	76.678612	140.414487
6	7	40.153598	139.138505
7	6	42.693838	139.138505
6	8	24.705718	144.244414
8	6	24.182928	144.244414
7	8	57.215848	135.308578
8	7	59.587892	135.308578
8	9	112.747528	114.884940
9	8	113.521928	114.884940
360
3	3	2	0	3	0	3	1	3	5	3	3	3	4	
2	8	9	8	0	8	1	8	2	8	3	8	4	
2	8	9	8	0	8	1	8	2	8	1	8	0	
2	9	8	8	0	8	1	8	5	8	3	8	4	
4	2	3	9	8	3	0	3	1	3	2	3	5	3	4	
3	5	0	2	5	0	5	1	5	2	5	1	5	0	
4	0	5	0	2	5	0	5	1	5	2	5	1	5	0	
4	8	9	5	0	8	0	5	1	5	2	5	5	5	4	
5	1	3	9	8	7	3	0	3	1	3	2	3	5	3	4	
2	8	6	8	0	8	1	8	2	8	5	8	4	
4	3	9	8	7	8	0	8	1	8	2	8	3	8	4	
3	1	3	2	3	0	3	1	3	2	3	3	3	4	
5	7	6	5	4	1	5	0	5	1	5	5	5	3	5	4	
3	2	0	5	5	0	5	1	5	5	5	3	5	4	
3	9	8	6	8	0	8	1	8	5	8	3	8	4	
3	4	3	1	3	0	3	1	3	2	3	1	3	0	
2	5	0	5	0	5	1	5	2	5	3	5	4	
3	0	5	4	5	0	5	1	5	2	5	5	5	4	
3	7	8	6	8	0	8	1	8	2	8	5	8	4	
4	0	5	0	1	5	0	5	1	5	2	5	3	5	4	
2	3	9	3	0	3	1	3	2	3	1	3	0	
4	1	3	2	0	3	0	3	1	3	5	3	3	3	4	
3	7	6	5	5	0	5	1	5	2	5	3	5	4	
4	0	5	9	8	5	0	5	1	5	2	5	5	5	4	
2	3	4	3	0	3	1	3	2	3	1	3	0	
2	4	3	3	0	3	1	3	2	3	3	3	4	
3	2	3	4	3	0	3	1	3	2	3	3	3	4	
4	6	5	4	1	5	0	5	1	5	2	5	5	5	4	
3	5	6	7	5	0	5	1	5	5	5	3	5	4	
3	5	0	1	5	0	5	1	5	5	5	3	5	4	
3	0	1	3	3	0	3	1	3	5	3	3	3	4	
4	6	5	4	2	5	0	5	1	5	2	5	3	5	4	
4	4	5	9	8	5	0	5	1	5	5	5	3	5	4	
4	3	4	5	6	5	0	5	1	5	2	5	3	5	4	
2	9	3	3	0	3	1	3	2	3	1	3	0	
3	7	8	9	8	0	8	1	8	5	8	3	8	4	
3	4	3	2	3	0	3	1	3	5	3	3	3	4	
5	2	0	5	6	7	5	0	5	1	5	2	5	1	5	0	
3	6	5	0	5	0	5	1	5	2	5	1	5	0	
5	7	8	9	3	1	8	0	8	1	8	2	8	5	8	4	
2	9	8	8	0	8	1	8	2	8	3	8	4	
3	5	0	2	5	0	5	1	5	2	5	5	5	4	
4	0	5	0	2	5	0	5	1	5	2	5	3	5	4	
4	8	9	5	0	8	0	8	1	8	2	8	1	8	0	
5	1	0	5	6	7	5	0	5	1	5	2	5	1	5	0	
4	7	6	5	4	5	0	5	1	5	2	5	3	5	4	
2	3	1	3	0	3	1	3	5	3	3	3	4	
4	3	9	8	7	3	0	3	1	3	5	3	3	3	4	
3	1	3	2	3	0	3	1	3	2	3	1	3	0	
3	2	0	5	5	0	5	1	5	2	5	3	5	4	
3	4	3	1	3	0	3	1	3	2	3	5	3	4	
2	5	0	5	0	5	1	5	2	5	1	5	0	
3	0	5	4	5	0	5	1	5	2	5	1	5	0	
4	6	5	4	3	5	0	5	1	5	2	5	3	5	4	
2	6	8	8	0	8	1	8	2	8	5	8	4	
3	7	8	6	8	0	8	1	8	5	8	3	8	4	
3	9	8	7	8	0	8	1	8	5	8	3	8	4	
4	0	5	0	1	5	0	5	1	5	2	5	1	5	0	
2	3	9	3	0	3	1	3	2	3	3	3	4	
4	1	0	5	0	5	0	5	1	5	2	5	3	5	4	
4	0	5	6	8	5	0	5	1	5	2	5	1	5	0	
2	3	4	3	0	3	1	3	2	3	5	3	4	
2	4	3	3	0	3	1	3	2	3	1	3	0	
3	2	3	4	3	0	3	1	3	5	3	3	3	4	
4	6	5	4	1	5	0	5	1	5	5	5	3	5	4	
4	8	9	5	4	8	0	8	1	8	5	8	3	5	4	
3	5	6	7	5	0	5	1	5	2	5	5	5	4	
3	5	0	1	5	0	5	1	5	2	5	5	5	4	
3	0	1	3	3	0	3	1	3	2	3	3	3	4	
4	4	5	9	8	5	0	5	1	5	2	5	5	5	4	
3	9	5	0	5	0	5	1	5	2	5	5	5	4	
2	7	8	8	0	8	1	8	5	8	3	8	4	
3	2	3	1	3	0	3	1	3	2	3	5	3	4	
4	3	4	5	6	3	0	3	1	3	2	3	1	3	0	
2	9	3	3	0	3	1	3	2	3	3	3	4	
3	4	3	2	3	0	3	1	3	2	3	5	3	4	
5	2	3	9	8	7	3	0	3	1	3	2	3	5	3	4	
3	6	5	0	5	0	5	1	5	2	5	3	5	4	
3	8	9	3	8	0	8	1	8	2	8	5	8	4	
3	1	3	4	3	0	3	1	3	2	3	5	3	4	
5	7	8	9	3	1	8	0	8	1	8	2	8	1	8	0	
2	9	8	8	0	8	1	8	2	8	1	8	0	
3	5	0	2	5	0	5	1	5	5	5	3	5	4	
4	0	5	0	2	5	0	5	1	5	5	5	3	5	4	
3	3	9	8	8	0	8	1	8	2	8	3	8	4	
4	8	9	5	0	8	0	8	1	8	2	8	3	8	4	
5	1	0	5	6	7	5	0	5	1	5	2	5	3	5	4	
4	7	6	5	4	5	0	5	1	5	2	5	1	5	0	
3	9	3	1	3	0	3	1	3	2	3	1	3	0	
4	2	0	5	0	5	0	5	1	5	2	5	1	5	0	
2	3	1	3	0	3	1	3	2	3	5	3	4	
4	1	3	9	8	8	0	8	1	8	2	8	5	8	4	
4	3	9	8	7	3	0	3	1	3	2	3	5	8	4	
3	1	3	2	3	0	3	1	3	2	3	5	3	4	
3	2	0	5	5	0	5	1	5	2	5	1	5	0	
4	0	5	6	7	5	0	5	1	5	2	5	5	5	4	
3	4	3	1	3	0	3	1	3	5	3	3	3	4	
3	0	5	4	5	0	5	1	5	2	5	3	5	4	
4	6	8	9	3	8	0	8	1	8	2	8	1	8	0	
4	8	9	3	2	3	0	3	1	3	2	3	1	3	0	
3	1	0	5	5	0	5	1	5	2	5	1	5	0	
3	7	8	6	8	0	8	1	8	2	8	3	8	4	
3	9	8	7	8	0	8	1	8	2	8	5	8	4	
4	0	5	0	1	5	0	5	1	5	2	5	5	5	4	
4	1	3	2	0	3	0	3	1	3	2	3	1	3	0	
3	9	3	2	3	0	3	1	3	2	3	3	3	4	
2	2	3	3	0	3	1	3	2	3	3	3	4	
4	0	5	9	8	5	0	5	1	5	2	5	3	5	4	
3	1	3	9	3	0	3	1	3	2	3	1	3	0	
2	3	4	3	0	3	1	3	5	3	3	3	4	
3	2	3	4	3	0	3	1	3	2	3	5	3	4	
3	0	5	6	5	0	5	1	5	2	5	1	5	0	
4	6	5	4	1	5	0	5	1	5	2	5	3	5	4	
4	8	9	5	4	8	0	8	1	8	2	8	5	8	4	
2	8	9	8	0	8	1	8	5	8	3	8	4	
3	5	6	7	5	0	5	1	5	2	5	1	5	0	
3	0	1	3	3	0	3	1	3	2	3	1	3	0	
4	8	9	3	1	3	0	3	1	3	2	3	3	3	4	
4	1	0	5	6	5	0	5	1	5	2	5	3	5	4	
4	4	5	9	8	5	0	5	1	5	2	5	1	5	0	
3	9	5	0	5	0	5	1	5	5	5	3	5	4	
3	2	3	1	3	0	3	1	3	5	3	3	3	4	
5	7	6	5	4	2	5	0	5	1	5	2	5	5	5	4	
5	2	0	5	6	7	5	0	5	1	5	5	5	3	5	4	
3	8	9	5	8	0	8	1	8	5	8	3	8	4	
2	0	5	5	0	5	1	5	2	5	3	5	4	
3	6	5	0	5	0	5	1	5	5	5	3	5	4	
3	8	9	3	8	0	8	1	8	5	8	3	8	4	
3	1	3	4	3	0	3	1	3	5	3	3	3	4	
5	7	8	9	3	1	8	0	8	1	8	2	8	3	8	4	
4	0	5	0	2	5	0	5	1	5	2	5	5	5	4	
3	3	9	8	3	0	3	1	3	2	3	1	3	0	
4	7	6	5	4	5	0	5	1	5	2	5	5	5	4	
3	9	3	1	3	0	3	1	3	2	3	3	3	4	
4	2	0	5	0	5	0	5	1	5	2	5	3	5	4	
2	6	8	8	0	8	1	8	5	8	3	8	4	
3	0	5	9	5	0	5	1	5	2	5	3	5	4	
2	3	1	3	0	3	1	3	2	3	1	3	0	
2	6	5	5	0	5	1	5	2	5	5	5	4	
4	1	3	9	8	8	0	8	1	8	5	8	3	8	4	
3	1	3	2	3	0	3	1	3	5	3	3	3	4	
3	5	9	3	5	0	5	1	5	5	5	3	5	4	
4	0	5	6	7	5	0	5	1	5	5	5	3	5	4	
4	7	8	9	3	8	0	8	1	8	2	8	1	8	0	
4	8	9	3	1	8	0	8	1	8	5	8	3	8	4	
3	6	5	9	5	0	5	1	5	2	5	5	5	4	
4	6	5	4	3	5	0	5	1	5	2	5	5	5	4	
4	8	9	3	2	8	0	8	1	8	2	8	3	8	4	
3	1	0	5	5	0	5	1	5	2	5	3	5	4	
3	7	8	6	8	0	8	1	8	2	8	1	8	0	
3	9	8	7	8	0	8	1	8	2	8	1	8	0	
3	5	9	8	5	0	5	1	5	2	5	5	5	4	
4	0	5	0	1	5	0	5	1	5	5	5	3	5	4	
3	4	5	0	5	0	5	1	5	5	5	3	5	4	
3	9	3	2	3	0	3	1	3	2	3	1	3	0	
2	2	3	3	0	3	1	3	2	3	1	3	0	
3	6	5	4	5	0	5	1	5	2	5	1	5	0	
3	1	3	9	3	0	3	1	3	2	3	3	3	4	
2	5	4	5	0	5	1	5	2	5	5	5	4	
3	0	5	6	5	0	5	1	5	2	5	3	5	4	
4	6	5	4	1	5	0	5	1	5	2	5	1	5	0	
4	8	9	5	4	8	0	8	1	8	2	8	1	8	0	
4	7	6	5	0	5	0	5	1	5	2	5	3	5	4	
3	5	6	7	5	0	5	1	5	2	5	3	5	4	
3	3	4	5	3	0	3	1	3	5	3	3	3	4	
3	7	8	9	8	0	8	1	8	2	8	5	8	4	
4	1	0	5	6	5	0	5	1	5	2	5	1	5	0	
4	4	5	9	8	5	0	5	1	5	2	5	3	5	4	
3	9	5	0	5	0	5	1	5	2	5	3	5	4	
3	2	3	1	3	0	3	1	3	2	3	3	3	4	
2	5	9	5	0	5	1	5	2	5	1	5	0	
4	4	5	6	7	5	0	5	1	5	2	5	5	5	4	
2	5	0	5	0	5	1	5	5	5	3	5	4	
3	6	8	7	8	0	8	1	8	2	8	3	8	4	
5	7	6	5	0	2	5	0	5	1	5	5	5	3	5	4	
2	0	5	5	0	5	1	5	2	5	1	5	0	
3	6	5	0	5	0	5	1	5	2	5	5	5	4	
3	8	9	3	8	0	8	1	8	2	8	3	8	4	
3	1	3	4	3	0	3	1	3	2	3	3	3	4	
2	3	2	3	0	3	1	3	2	3	5	3	4	
3	3	9	8	3	0	3	1	3	2	3	5	3	4	
4	2	0	5	6	5	0	5	1	5	5	5	3	5	4	
4	7	6	5	4	5	0	5	1	5	5	5	3	5	4	
3	9	3	1	3	0	3	1	3	5	3	3	3	4	
4	2	3	1	0	3	0	3	1	3	5	3	3	3	4	
3	0	5	9	5	0	5	1	5	2	5	1	5	0	
2	3	1	3	0	3	1	3	2	3	3	3	4	
2	6	5	5	0	5	1	5	5	5	3	5	4	
4	1	3	9	8	8	0	8	1	8	2	8	3	8	4	
3	4	5	6	5	0	5	1	5	2	5	1	5	0	
3	5	9	3	5	0	5	1	5	2	5	5	5	4	
4	0	5	6	7	5	0	5	1	5	2	5	3	5	4	
4	7	8	9	3	8	0	8	1	8	2	8	3	8	4	
3	9	5	4	5	0	5	1	5	2	5	5	5	4	
2	5	6	5	0	5	1	5	2	5	3	5	4	
3	6	5	9	5	0	5	1	5	5	5	3	5	4	
2	1	3	3	0	3	1	3	5	3	3	3	4	
4	6	5	4	3	5	0	5	1	5	5	5	3	5	4	
4	8	9	3	2	8	0	8	1	8	5	8	3	8	4	
3	1	0	5	5	0	5	1	5	5	5	3	5	4	
3	4	5	9	5	0	5	1	5	2	5	3	5	4	
3	9	8	7	8	0	8	1	8	2	8	3	8	4	
3	5	9	8	5	0	5	1	5	5	5	3	5	4	
2	8	9	8	0	8	1	8	2	8	5	8	4	
3	4	5	0	5	0	5	1	5	2	5	5	5	4	
3	2	3	9	3	0	3	1	3	2	3	5	3	4	
3	9	3	2	3	0	3	1	3	2	3	5	3	4	
2	2	3	3	0	3	1	3	2	3	5	3	4	
3	6	5	4	5	0	5	1	5	2	5	3	5	4	
2	8	7	8	0	8	1	8	2	8	5	8	4	
3	1	3	9	3	0	3	1	3	5	3	3	3	4	
2	4	5	5	0	5	1	5	2	5	3	5	4	
2	5	4	5	0	5	1	5	5	5	3	5	4	
3	0	5	6	5	0	5	1	5	5	5	3	5	4	
4	8	9	5	4	8	0	8	1	8	2	8	3	8	4	
4	7	6	5	0	5	0	5	1	5	2	5	1	5	0	
2	9	5	5	0	5	1	5	2	5	1	5	0	
2	6	8	8	0	8	1	8	2	8	3	8	4	
3	7	8	9	8	0	8	1	8	2	8	1	8	0	
4	1	0	5	6	5	0	5	1	5	2	5	5	5	4	
3	9	5	0	5	0	5	1	5	2	5	1	5	0	
3	7	6	5	5	0	5	1	5	2	5	1	5	0	
3	2	3	1	3	0	3	1	3	2	3	1	3	0	
2	5	9	5	0	5	1	5	2	5	3	5	4	
3	3	2	0	3	0	3	1	3	2	3	3	3	4	
4	4	5	6	7	5	0	5	1	5	5	5	3	5	4	
4	2	3	9	8	8	0	8	1	8	2	8	1	8	0	
3	6	8	7	8	0	8	1	8	2	8	1	8	0	
2	8	6	8	0	8	1	8	2	8	1	8	0	
5	7	8	9	3	2	8	0	8	1	8	2	8	3	8	4	
3	3	4	5	3	0	3	1	3	2	3	5	3	4	
2	0	5	5	0	5	1	5	2	5	5	5	4	
3	8	9	3	8	0	8	1	8	2	8	1	8	0	
3	1	3	4	3	0	3	1	3	2	3	1	3	0	
3	9	5	6	5	0	5	1	5	2	5	3	5	4	
2	3	2	3	0	3	1	3	5	3	3	3	4	
3	3	9	8	3	0	8	1	8	5	8	3	8	4	
4	8	9	3	1	8	0	8	1	8	2	8	5	8	4	
4	2	0	5	6	5	0	5	1	5	2	5	5	5	4	
3	9	3	1	3	0	3	1	3	2	3	5	3	4	
4	2	3	2	0	3	0	3	1	3	2	3	5	3	4	
3	0	5	9	5	0	5	1	5	2	5	5	5	4	
2	6	5	5	0	5	1	5	2	5	3	5	4	
4	1	3	9	8	3	0	3	1	3	2	3	1	3	0	
3	4	5	6	5	0	5	1	5	2	5	3	5	4	
3	5	9	3	5	0	5	1	5	2	5	1	5	0	
4	0	5	6	7	5	0	5	1	5	2	5	1	5	0	
3	8	6	5	5	0	5	1	5	2	5	3	5	4	
4	7	8	9	3	8	0	8	1	8	5	8	3	8	4	
3	9	5	4	5	0	5	1	5	5	5	3	5	4	
2	5	6	5	0	5	1	5	2	5	1	5	0	
2	4	3	3	0	3	1	3	5	3	3	3	4	
3	6	5	9	5	0	5	1	5	2	5	3	5	4	
2	1	3	3	0	3	1	3	2	3	5	3	4	
4	8	9	3	2	8	0	8	1	8	2	8	5	8	4	
3	1	0	5	5	0	5	1	5	2	5	5	5	4	
3	4	5	9	5	0	5	1	5	2	5	1	5	0	
3	5	9	8	5	0	5	1	5	2	5	3	5	4	
3	4	5	0	5	0	5	1	5	2	5	1	5	0	
3	2	3	9	3	0	3	1	3	5	3	3	3	4	
3	9	3	2	3	0	3	1	3	5	3	3	3	4	
2	2	3	3	0	3	1	3	5	3	3	3	4	
4	6	5	0	2	5	0	5	1	5	5	5	3	5	4	
3	6	5	4	5	0	5	1	5	5	5	3	5	4	
2	8	7	8	0	8	1	8	5	8	3	8	4	
3	1	3	9	3	0	3	1	3	2	3	5	3	4	
2	4	5	5	0	5	1	5	2	5	1	5	0	
2	5	4	5	0	5	1	5	2	5	3	5	4	
3	0	5	6	5	0	5	1	5	2	5	5	5	4	
4	7	6	5	0	5	0	5	1	5	2	5	5	5	4	
2	9	5	5	0	5	1	5	2	5	3	5	4	
3	3	4	5	3	0	3	1	3	2	3	1	3	0	
3	7	8	9	8	0	8	1	8	2	8	3	8	4	
4	1	0	5	6	5	0	5	1	5	5	5	3	5	4	
2	5	9	5	0	5	1	5	5	5	3	5	4	
3	3	2	0	3	0	3	1	3	2	3	1	3	0	
4	4	5	6	7	5	0	5	1	5	2	5	3	5	4	
4	2	3	9	8	3	0	3	1	3	2	3	3	3	4	
3	6	8	7	8	0	8	1	8	2	8	5	8	4	
2	8	6	8	0	8	1	8	2	8	3	8	4	
5	7	6	5	4	2	5	0	5	1	5	2	5	1	5	0	
2	0	5	5	0	5	1	5	5	5	3	5	4	
3	9	5	6	5	0	5	1	5	2	5	1	5	0	
2	3	2	3	0	3	1	3	2	3	3	3	4	
4	2	0	5	6	5	0	5	1	5	2	5	1	5	0	
2	5	0	5	0	5	1	5	2	5	5	5	4	
3	0	5	9	5	0	5	1	5	5	5	3	5	4	
2	6	5	5	0	5	1	5	2	5	1	5	0	
3	4	5	6	5	0	5	1	5	5	5	3	5	4	
3	5	9	3	5	0	5	1	5	2	5	3	5	4	
2	3	9	3	0	3	1	3	5	3	3	3	4	
3	8	9	5	8	0	8	1	8	2	8	1	8	0	
4	7	8	9	3	8	0	8	1	8	2	8	5	8	4	
3	9	5	4	5	0	5	1	5	2	5	3	5	4	
2	5	6	5	0	5	1	5	2	5	5	5	4	
3	6	5	9	5	0	5	1	5	2	5	1	5	0	
2	1	3	3	0	3	1	3	2	3	1	3	0	
2	7	8	8	0	8	1	8	2	8	3	8	4	
3	4	5	9	5	0	5	1	5	2	5	5	5	4	
3	5	9	8	5	0	5	1	5	2	5	1	5	0	
3	4	5	0	5	0	5	1	5	2	5	3	5	4	
3	2	3	9	3	0	3	1	3	2	3	3	3	4	
3	5	0	1	5	0	5	1	5	2	5	1	5	0	
4	6	5	4	2	5	0	5	1	5	2	5	5	5	4	
3	6	5	4	5	0	5	1	5	2	5	5	5	4	
2	8	7	8	0	8	1	8	2	8	3	8	4	
3	7	6	5	5	0	5	1	5	2	5	5	5	4	
2	4	5	5	0	5	1	5	2	5	5	5	4	
2	5	4	5	0	5	1	5	2	5	1	5	0	
4	3	4	5	6	3	0	3	1	3	2	3	5	3	4	
3	7	6	5	5	0	5	1	5	5	5	3	5	4	
2	9	3	3	0	3	1	3	5	3	3	3	4	
4	7	6	5	0	5	0	5	1	5	5	5	3	5	4	
2	9	5	5	0	5	1	5	5	5	3	5	4	
3	3	4	5	3	0	3	1	3	2	3	3	3	4	
2	6	8	8	0	8	1	8	2	8	1	8	0	
3	4	3	2	3	0	3	1	3	2	3	1	3	0	
2	5	9	5	0	5	1	5	2	5	5	5	4	
3	3	2	0	3	0	3	1	3	2	3	5	3	4	
4	4	5	6	7	5	0	5	1	5	2	5	1	5	0	
2	9	8	8	0	8	1	8	2	8	5	8	4	
4	2	3	9	8	8	0	8	1	8	5	8	3	8	4	
3	5	0	2	5	0	5	1	5	2	5	3	5	4	
4	8	6	5	0	5	0	5	1	5	5	5	3	5	4	
4	8	9	3	1	8	0	8	1	8	2	8	1	8	0	
5	1	3	9	8	7	3	0	3	1	3	5	3	3	3	4	
3	6	8	7	8	0	8	1	8	5	8	3	8	4	
2	8	6	8	0	8	1	8	5	8	3	8	4	
4	3	9	8	7	3	0	3	1	3	2	3	1	3	0	
3	2	0	5	5	0	5	1	5	2	5	5	5	4	
3	9	5	6	5	0	5	1	5	2	5	5	5	4	
2	3	2	3	0	3	1	3	2	3	1	3	0	
3	4	3	1	3	0	3	1	3	2	3	3	3	4	
4	2	0	5	6	5	0	5	1	5	2	5	3	5	4	
2	4	3	3	0	3	1	3	2	3	5	3	4	
3	0	5	4	5	0	5	1	5	5	5	3	5	4	
3	4	5	6	5	0	5	1	5	2	5	5	5	4	
2	3	9	3	0	3	1	3	2	3	5	3	4	
4	1	3	2	0	3	0	3	1	3	2	3	5	3	4	
3	8	9	5	8	0	8	1	8	2	8	5	8	4	
3	9	5	4	5	0	5	1	5	2	5	1	5	0	
4	0	5	9	8	5	0	5	1	5	5	5	3	5	4	
2	5	6	5	0	5	1	5	5	5	3	5	4	
2	3	4	3	0	3	1	3	2	3	3	3	4	
2	1	3	3	0	3	1	3	2	3	3	3	4	
2	7	8	8	0	8	1	8	2	8	1	8	0	
3	2	3	4	3	0	3	1	3	2	3	1	3	0	
3	4	5	9	5	0	5	1	5	5	5	3	5	4	
3	2	3	9	3	0	3	1	3	2	3	1	3	0	
3	5	4	1	5	0	5	1	5	2	5	3	5	4	
3	0	1	3	3	0	3	1	3	2	3	5	3	4	
4	6	5	4	2	5	0	5	1	5	2	5	1	5	0	
2	8	7	8	0	8	1	8	2	8	1	8	0	
2	4	5	5	0	5	1	5	5	5	3	5	4	
2	7	8	8	0	8	1	8	2	8	5	8	4	
4	3	4	5	6	5	0	5	1	5	5	5	3	5	4	
2	9	3	3	0	3	1	3	2	3	5	3	4	
2	9	5	5	0	5	1	5	2	5	5	5	4	
3	4	3	2	3	0	3	1	3	2	3	3	3	4	
5	2	0	5	6	7	5	0	5	1	5	2	5	3	5	4	
