2109.92	2109.92
3429
9828.56	9948.2
10
0	0	3000
1	0	3000
2	0	3000
3	1043	3000
4	0	3000
5	1490	3000
6	0	3000
7	0	3000
8	711	3000
9	0	3000
34
0	1	23.555498	131.479641
1	0	31.152348	131.479641
0	2	18.761010	135.308578
2	0	57.289652	135.308578
0	5	145.196232	149.350323
5	0	99.180678	149.350323
1	2	0.000000	146.797369
2	1	0.000000	146.797369
1	3	79.346866	144.244414
3	1	66.710198	144.244414
1	4	0.000000	146.797369
4	1	20.966956	146.797369
2	3	73.799118	135.308578
3	2	89.290508	135.308578
2	4	0.000000	130.202668
4	2	24.337742	130.202668
3	4	38.771092	126.372741
4	3	46.885646	126.372741
3	9	113.635622	116.160923
9	3	108.049082	116.160923
4	5	63.482460	117.437895
5	4	116.421318	117.437895
5	6	119.611280	123.819787
6	5	118.733790	123.819787
5	9	76.658106	140.414487
9	5	85.217166	140.414487
6	7	44.432664	139.138505
7	6	43.366164	139.138505
6	8	31.697456	144.244414
8	6	32.934566	144.244414
7	8	56.543522	135.308578
8	7	55.308826	135.308578
8	9	114.829910	114.884940
9	8	113.757470	114.884940
360
3	3	2	0	3	0	3	1	3	5	3	3	3	4	
2	8	9	8	0	8	1	8	2	8	3	8	4	
2	8	9	8	0	8	1	8	2	8	1	8	0	
2	9	8	8	0	8	1	8	5	8	3	8	4	
4	2	3	9	8	8	0	8	1	8	2	8	5	8	4	
3	5	4	2	5	0	5	1	5	2	5	1	5	0	
4	0	5	0	2	5	0	5	1	5	2	5	1	5	0	
4	8	9	5	0	8	0	8	1	8	2	8	5	8	4	
5	1	0	5	6	7	5	0	5	1	5	2	5	5	5	4	
2	8	6	8	0	8	1	8	2	8	5	8	4	
4	3	9	8	7	3	0	3	1	3	2	3	3	3	4	
3	1	3	2	3	0	3	1	3	2	3	3	3	4	
5	7	8	9	3	1	8	0	8	1	8	5	8	3	8	4	
3	2	0	5	5	0	5	1	5	5	5	3	5	4	
3	9	8	6	8	0	8	1	8	5	8	3	8	4	
3	4	3	1	3	0	3	1	3	2	3	1	3	0	
2	5	0	5	0	5	1	5	2	5	3	5	4	
3	0	5	4	5	0	5	1	5	2	5	5	5	4	
3	7	8	6	8	0	8	1	8	2	8	5	8	4	
4	0	5	0	1	5	0	5	1	5	2	5	3	5	4	
2	3	9	3	0	3	1	3	2	3	1	3	0	
4	1	3	2	0	3	0	3	1	3	5	3	3	3	4	
3	7	6	5	5	0	5	1	5	2	5	3	5	4	
4	0	5	9	8	5	0	5	1	5	2	5	5	5	4	
2	3	4	3	0	3	1	3	2	3	1	3	0	
2	4	3	3	0	3	1	3	2	3	3	3	4	
3	2	3	4	3	0	3	1	3	2	3	3	3	4	
4	6	5	4	1	5	0	5	1	5	2	5	5	5	4	
3	5	6	7	5	0	5	1	5	5	5	3	5	4	
3	5	4	1	5	0	5	1	5	5	5	3	5	4	
3	0	1	3	3	0	3	1	3	5	3	3	3	4	
4	6	5	4	2	5	0	5	1	5	2	5	3	5	4	
4	4	3	9	8	3	0	3	1	3	5	3	3	3	4	
4	3	9	5	6	3	0	3	1	3	2	3	3	3	4	
2	9	3	3	0	3	1	3	2	3	1	3	0	
3	7	8	9	8	0	8	1	8	5	8	3	8	4	
3	4	3	2	3	0	3	1	3	5	3	3	3	4	
5	2	3	9	8	7	3	0	3	1	3	2	3	1	3	0	
3	6	5	0	5	0	5	1	5	2	5	1	5	0	
5	7	8	9	3	1	8	0	8	1	8	2	8	5	8	4	
2	9	8	8	0	8	1	8	2	8	3	8	4	
3	5	4	2	5	0	5	1	5	2	5	5	5	4	
4	0	5	0	2	5	0	5	1	5	2	5	3	5	4	
4	8	9	5	0	8	0	8	1	8	2	8	1	8	0	
5	1	0	5	6	7	5	0	5	1	5	2	5	1	5	0	
4	7	6	5	4	5	0	5	1	5	2	5	3	5	4	
2	3	1	3	0	3	1	3	5	3	3	3	4	
4	3	9	8	7	3	0	3	1	3	5	3	3	3	4	
3	1	3	2	3	0	3	1	3	2	3	1	3	0	
3	2	0	5	5	0	5	1	5	2	5	3	5	4	
3	4	3	1	3	0	3	1	3	2	3	5	3	4	
2	5	0	5	0	5	1	5	2	5	1	5	0	
3	0	5	4	5	0	5	1	5	2	5	1	5	0	
4	6	5	4	3	5	0	5	1	5	2	5	3	5	4	
2	6	8	8	0	8	1	8	2	8	5	8	4	
3	7	8	6	8	0	8	1	8	5	8	3	8	4	
3	9	8	7	8	0	8	1	8	5	8	3	8	4	
4	0	5	0	1	5	0	5	1	5	2	5	1	5	0	
2	3	9	3	0	3	1	3	2	3	3	3	4	
4	1	3	2	0	3	0	3	1	3	2	3	3	3	4	
4	0	5	9	8	5	0	5	1	5	2	5	1	5	0	
2	3	4	3	0	3	1	3	2	3	5	3	4	
2	4	3	3	0	3	1	3	2	3	1	3	0	
3	2	3	4	3	0	3	1	3	5	3	3	3	4	
4	6	5	4	1	5	0	5	1	5	5	5	3	5	4	
4	8	9	5	4	8	0	8	1	8	5	8	3	8	4	
3	5	6	7	5	0	5	1	5	2	5	5	5	4	
3	5	4	1	5	0	5	1	5	2	5	5	5	4	
3	0	1	3	3	0	3	1	3	2	3	3	3	4	
4	4	5	6	8	5	0	5	1	5	2	5	5	5	4	
3	9	5	0	5	0	5	1	5	2	5	5	5	4	
2	7	8	8	0	8	1	8	5	8	3	8	4	
3	2	3	1	3	0	3	1	3	2	3	5	3	4	
4	3	9	8	6	3	0	8	1	8	2	8	1	8	0	
2	9	3	3	0	3	1	3	2	3	3	3	4	
3	4	3	2	3	0	3	1	3	2	3	5	3	4	
5	2	3	9	8	7	3	0	3	1	3	2	3	5	3	4	
3	6	5	0	5	0	5	1	5	2	5	3	5	4	
3	8	9	3	8	0	8	1	8	2	8	5	8	4	
3	1	3	4	3	0	3	1	3	2	3	5	3	4	
5	7	8	9	3	1	8	0	8	1	8	2	8	1	8	0	
2	9	8	8	0	8	1	8	2	8	1	8	0	
3	5	4	2	5	0	5	1	5	5	5	3	5	4	
4	0	5	0	2	5	0	5	1	5	5	5	3	5	4	
3	3	9	8	3	0	3	1	3	2	3	3	3	4	
4	8	9	5	0	8	0	8	1	8	2	8	3	8	4	
5	1	3	9	8	7	3	0	3	1	3	2	3	3	3	4	
4	7	6	5	4	5	0	5	1	5	2	5	1	5	0	
3	9	3	1	3	0	3	1	3	2	3	1	3	0	
4	2	0	5	0	5	0	5	1	5	2	5	1	5	0	
2	3	1	3	0	3	1	3	2	3	5	3	4	
4	1	3	9	8	3	0	3	1	3	2	3	5	3	4	
4	3	9	8	7	3	0	3	1	3	2	3	5	3	4	
3	1	3	2	3	0	3	1	3	2	3	5	3	4	
3	2	0	5	5	0	5	1	5	2	5	1	5	0	
4	0	5	6	7	5	0	5	1	5	2	5	5	5	4	
3	4	3	1	3	0	3	1	3	5	3	3	3	4	
3	0	5	4	5	0	5	1	5	2	5	3	5	4	
4	6	5	9	3	5	0	5	1	5	2	5	1	5	0	
4	8	9	3	2	8	0	8	1	8	2	8	1	8	0	
3	1	0	5	5	0	5	1	5	2	5	1	5	0	
3	7	8	6	8	0	8	1	8	2	8	3	8	4	
3	9	8	7	8	0	8	1	8	2	8	5	8	4	
4	0	5	0	1	5	0	5	1	5	2	5	5	5	4	
4	1	3	2	0	3	0	3	1	3	2	3	1	3	0	
3	9	3	2	3	0	3	1	3	2	3	3	3	4	
2	2	3	3	0	3	1	3	2	3	3	3	4	
4	0	5	9	8	5	0	5	1	5	2	5	3	5	4	
3	1	3	9	3	0	3	1	3	2	3	1	3	0	
2	3	4	3	0	3	1	3	5	3	3	3	4	
3	2	3	4	3	0	3	1	3	2	3	5	3	4	
3	0	5	6	5	0	5	1	5	2	5	1	5	0	
4	6	5	4	1	5	0	5	1	5	2	5	3	5	4	
4	8	9	5	4	8	0	8	1	8	2	8	5	8	4	
2	8	9	8	0	8	1	8	5	8	3	8	4	
3	5	6	7	5	0	5	1	5	2	5	1	5	0	
3	0	1	3	3	0	3	1	3	2	3	1	3	0	
4	8	9	3	1	8	0	8	1	8	2	8	3	8	4	
4	1	0	5	6	5	0	5	1	5	2	5	3	5	4	
4	4	3	9	8	3	0	3	1	3	2	3	1	3	0	
3	9	5	0	5	0	5	1	5	5	5	3	5	4	
3	2	3	1	3	0	3	1	3	5	3	3	3	4	
5	7	6	5	0	2	5	0	5	1	5	2	5	5	5	4	
5	2	3	9	8	7	3	0	3	1	3	5	8	3	8	4	
3	8	9	5	8	0	8	1	8	5	8	3	8	4	
2	0	5	5	0	5	1	5	2	5	3	5	4	
3	6	5	0	5	0	5	1	5	5	5	3	5	4	
3	8	9	3	8	0	8	1	8	5	8	3	8	4	
3	1	3	4	3	0	3	1	3	5	3	3	3	4	
5	7	8	9	3	1	8	0	8	1	8	2	8	3	8	4	
4	0	5	0	2	5	0	5	1	5	2	5	5	5	4	
3	3	9	8	3	0	3	1	3	2	3	1	3	0	
4	7	6	5	4	5	0	5	1	5	2	5	5	5	4	
3	9	3	1	3	0	3	1	3	2	3	3	3	4	
4	2	3	2	0	3	0	3	1	3	2	3	3	3	4	
2	6	8	8	0	8	1	8	5	8	3	8	4	
3	0	5	9	5	0	5	1	5	2	5	3	5	4	
2	3	1	3	0	3	1	3	2	3	1	3	0	
2	6	5	5	0	5	1	5	2	5	5	5	4	
4	1	3	9	8	3	0	3	1	3	5	8	3	8	4	
3	1	3	2	3	0	3	1	3	5	3	3	3	4	
3	5	9	3	5	0	5	1	5	5	5	3	5	4	
4	0	5	6	7	5	0	5	1	5	5	5	3	5	4	
4	7	8	9	3	8	0	3	1	3	2	3	1	3	0	
4	8	9	3	1	3	0	3	1	3	5	3	3	3	4	
3	6	5	9	5	0	5	1	5	2	5	5	5	4	
4	6	5	4	3	5	0	5	1	5	2	5	5	5	4	
4	8	9	3	2	8	0	8	1	8	2	8	3	8	4	
3	1	0	5	5	0	5	1	5	2	5	3	5	4	
3	7	8	6	8	0	8	1	8	2	8	1	8	0	
3	9	8	7	8	0	8	1	8	2	8	1	8	0	
3	5	9	8	5	0	5	1	5	2	5	5	5	4	
4	0	5	4	1	5	0	5	1	5	5	5	3	5	4	
3	4	5	0	5	0	5	1	5	5	5	3	5	4	
3	9	3	2	3	0	3	1	3	2	3	1	3	0	
2	2	3	3	0	3	1	3	2	3	1	3	0	
3	6	5	4	5	0	5	1	5	2	5	1	5	0	
3	1	3	9	3	0	3	1	3	2	3	3	3	4	
2	5	4	5	0	5	1	5	2	5	5	5	4	
3	0	5	6	5	0	5	1	5	2	5	3	5	4	
4	6	5	0	1	5	0	5	1	5	2	5	1	5	0	
4	8	9	3	4	8	0	8	1	8	2	8	1	8	0	
4	7	6	5	0	5	0	5	1	5	2	5	3	5	4	
3	5	6	7	5	0	5	1	5	2	5	3	5	4	
3	3	9	5	3	0	3	1	3	5	3	3	3	4	
3	7	8	9	8	0	8	1	8	2	8	5	8	4	
4	1	0	5	6	5	0	5	1	5	2	5	1	5	0	
4	4	3	9	8	3	0	3	1	3	2	3	3	3	4	
3	9	5	0	5	0	5	1	5	2	5	3	5	4	
3	2	3	1	3	0	3	1	3	2	3	3	3	4	
2	5	9	5	0	5	1	5	2	5	1	5	0	
4	4	5	6	7	5	0	5	1	5	2	5	5	5	4	
2	5	0	5	0	5	1	5	5	5	3	5	4	
3	6	8	7	8	0	8	1	8	2	8	3	8	4	
5	7	8	9	3	2	8	0	8	1	8	5	8	3	8	4	
2	0	5	5	0	5	1	5	2	5	1	5	0	
3	6	5	0	5	0	5	1	5	2	5	5	5	4	
3	8	9	3	8	0	8	1	8	2	8	3	8	4	
3	1	3	4	3	0	3	1	3	2	3	3	3	4	
2	3	2	3	0	3	1	3	2	3	5	3	4	
3	3	9	8	3	0	3	1	3	2	3	5	3	4	
4	2	0	5	6	5	0	5	1	5	5	5	3	5	4	
4	7	6	5	4	5	0	5	1	5	5	5	3	5	4	
3	9	3	1	3	0	3	1	3	5	3	3	3	4	
4	2	0	5	0	5	0	5	1	5	5	5	3	5	4	
3	0	5	9	5	0	5	1	5	2	5	1	5	0	
2	3	1	3	0	3	1	3	2	3	3	3	4	
2	6	5	5	0	5	1	5	5	5	3	5	4	
4	1	3	9	8	3	0	3	1	3	2	3	3	3	4	
3	4	5	6	5	0	5	1	5	2	5	1	5	0	
3	5	9	3	5	0	5	1	3	2	3	5	3	4	
4	0	5	6	7	5	0	5	1	5	2	5	3	5	4	
4	7	8	9	3	3	0	3	1	3	2	3	3	3	4	
3	9	5	4	5	0	5	1	5	2	5	5	5	4	
2	5	6	5	0	5	1	5	2	5	3	5	4	
3	6	5	9	5	0	5	1	5	5	5	3	5	4	
2	1	3	3	0	3	1	3	5	3	3	3	4	
4	6	8	9	3	8	0	8	1	8	5	8	3	8	4	
4	8	9	3	2	3	0	3	1	3	5	3	3	3	4	
3	1	0	5	5	0	5	1	5	5	5	3	5	4	
3	4	5	9	5	0	5	1	5	2	5	3	5	4	
3	9	8	7	8	0	8	1	8	2	8	3	8	4	
3	5	9	8	5	0	5	1	5	5	5	3	5	4	
2	8	9	8	0	8	1	8	2	8	5	8	4	
3	4	5	0	5	0	5	1	5	2	5	5	5	4	
3	2	3	9	3	0	3	1	3	2	3	5	3	4	
3	9	3	2	3	0	3	1	3	2	3	5	3	4	
2	2	3	3	0	3	1	3	2	3	5	3	4	
3	6	5	4	5	0	5	1	5	2	5	3	5	4	
2	8	7	8	0	8	1	8	2	8	5	8	4	
3	1	3	9	3	0	3	1	3	5	3	3	3	4	
2	4	5	5	0	5	1	5	2	5	3	5	4	
2	5	4	5	0	5	1	5	5	5	3	5	4	
3	0	5	6	5	0	5	1	5	5	5	3	5	4	
4	8	9	3	4	8	0	8	1	8	2	8	3	8	4	
4	7	6	5	0	5	0	5	1	5	2	5	1	5	0	
2	9	5	5	0	5	1	5	2	5	1	5	0	
2	6	8	8	0	8	1	8	2	8	3	8	4	
3	7	8	9	8	0	8	1	8	2	8	1	8	0	
4	1	0	5	6	5	0	5	1	5	2	5	5	5	4	
3	9	5	0	5	0	5	1	5	2	5	1	5	0	
3	7	6	5	5	0	5	1	5	2	5	1	5	0	
3	2	3	1	3	0	3	1	3	2	3	1	3	0	
2	5	9	5	0	5	1	5	2	5	3	5	4	
3	3	2	0	3	0	3	1	3	2	3	3	3	4	
4	4	5	6	7	5	0	5	1	5	5	5	3	5	4	
4	2	3	9	8	3	0	8	1	8	2	8	1	8	0	
3	6	8	7	8	0	8	1	8	2	8	1	8	0	
2	8	6	8	0	8	1	8	2	8	1	8	0	
5	7	6	5	4	2	5	0	5	1	5	2	5	3	5	4	
3	3	9	5	3	0	3	1	3	2	3	5	3	4	
2	0	5	5	0	5	1	5	2	5	5	5	4	
3	8	9	3	8	0	8	1	8	2	8	1	8	0	
3	1	3	4	3	0	3	1	3	2	3	1	3	0	
3	9	5	6	5	0	5	1	5	2	5	3	5	4	
2	3	2	3	0	3	1	3	5	3	3	3	4	
3	3	9	8	3	0	3	1	3	5	3	3	3	4	
4	8	9	3	1	8	0	8	1	8	2	8	5	8	4	
4	2	0	5	6	5	0	5	1	5	2	5	5	5	4	
3	9	3	1	3	0	3	1	3	2	3	5	3	4	
4	2	3	2	0	3	0	3	1	3	2	3	5	3	4	
3	0	5	9	5	0	5	1	5	2	5	5	5	4	
2	6	5	5	0	5	1	5	2	5	3	5	4	
4	1	3	9	8	3	0	3	1	3	2	3	1	3	0	
3	4	5	6	5	0	5	1	5	2	5	3	5	4	
3	5	9	3	5	0	5	1	5	2	5	1	5	0	
4	0	5	6	7	5	0	5	1	5	2	5	1	5	0	
3	8	9	5	8	0	8	1	8	2	8	3	8	4	
4	7	8	9	3	3	0	3	1	3	5	3	3	3	4	
3	9	5	4	5	0	5	1	5	5	5	3	5	4	
2	5	6	5	0	5	1	5	2	5	1	5	0	
2	4	3	3	0	3	1	3	5	3	3	3	4	
3	6	8	9	8	0	8	1	8	2	8	3	8	4	
2	1	3	3	0	3	1	3	2	3	5	3	4	
4	8	9	3	2	8	0	8	1	8	2	8	5	8	4	
3	1	0	5	5	0	5	1	5	2	5	5	5	4	
3	4	5	9	5	0	5	1	5	2	5	1	5	0	
3	5	9	8	5	0	5	1	5	2	5	3	5	4	
3	4	5	0	5	0	5	1	5	2	5	1	5	0	
3	2	3	9	3	0	3	1	3	5	3	3	3	4	
3	9	3	2	3	0	3	1	3	5	3	3	3	4	
2	2	3	3	0	3	1	3	5	3	3	3	4	
4	6	5	4	2	5	0	5	1	5	5	5	3	5	4	
3	6	5	4	5	0	5	1	5	5	5	3	5	4	
2	8	7	8	0	8	1	8	5	8	3	8	4	
3	1	3	9	3	0	3	1	3	2	3	5	3	4	
2	4	5	5	0	5	1	5	2	5	1	5	0	
2	5	4	5	0	5	1	5	2	5	3	5	4	
3	0	5	6	5	0	5	1	5	2	5	5	5	4	
4	7	6	5	0	5	0	5	1	5	2	5	5	5	4	
2	9	5	5	0	5	1	5	2	5	3	5	4	
3	3	9	5	5	0	5	1	5	2	5	1	5	0	
3	7	8	9	8	0	8	1	8	2	8	3	8	4	
4	1	0	5	6	5	0	5	1	5	5	5	3	5	4	
2	5	9	5	0	5	1	5	5	5	3	5	4	
3	3	2	0	3	0	3	1	3	2	3	1	3	0	
4	4	5	6	7	5	0	5	1	5	2	5	3	5	4	
4	2	3	9	8	8	0	8	1	8	2	8	3	8	4	
3	6	8	7	8	0	8	1	8	2	8	5	8	4	
2	8	6	8	0	8	1	8	2	8	3	8	4	
5	7	8	9	3	2	8	0	8	1	8	2	8	1	8	0	
2	0	5	5	0	5	1	5	5	5	3	5	4	
3	9	8	6	8	0	8	1	8	2	8	1	8	0	
2	3	2	3	0	3	1	3	2	3	3	3	4	
4	2	0	5	6	5	0	5	1	5	2	5	1	5	0	
2	5	0	5	0	5	1	5	2	5	5	5	4	
3	0	5	9	5	0	5	1	5	5	5	3	5	4	
2	6	5	5	0	5	1	5	2	5	1	5	0	
3	4	5	6	5	0	5	1	5	5	5	3	5	4	
3	5	9	3	5	0	5	1	5	2	5	3	5	4	
2	3	9	3	0	3	1	3	5	3	3	3	4	
3	8	9	5	8	0	8	1	8	2	8	1	8	0	
4	7	8	9	3	8	0	8	1	8	2	8	5	8	4	
3	9	3	4	3	0	3	1	3	2	3	3	3	4	
2	5	6	5	0	5	1	5	2	5	5	5	4	
3	6	5	9	5	0	5	1	5	2	5	1	5	0	
2	1	3	3	0	3	1	3	2	3	1	3	0	
2	7	8	8	0	8	1	8	2	8	3	8	4	
3	4	5	9	5	0	5	1	5	2	5	5	5	4	
3	5	9	8	5	0	5	1	5	2	5	1	5	0	
3	4	5	0	5	0	5	1	5	2	5	3	5	4	
3	2	3	9	3	0	3	1	3	2	3	3	3	4	
3	5	4	1	5	0	5	1	5	2	5	1	5	0	
4	6	5	4	2	5	0	5	1	5	2	5	5	5	4	
3	6	5	4	5	0	5	1	5	2	5	5	5	4	
2	8	7	8	0	8	1	8	2	8	3	8	4	
3	7	6	5	5	0	5	1	5	2	5	5	5	4	
2	4	5	5	0	5	1	5	2	5	5	5	4	
2	5	4	5	0	5	1	5	2	5	1	5	0	
4	3	9	8	6	8	0	8	1	8	2	8	5	8	4	
3	7	6	5	5	0	5	1	5	5	5	3	5	4	
2	9	3	3	0	3	1	3	5	3	3	3	4	
4	7	6	5	0	5	0	5	1	5	5	5	3	5	4	
2	9	5	5	0	5	1	5	5	5	3	5	4	
3	3	9	5	3	0	5	1	5	2	5	3	5	4	
2	6	8	8	0	8	1	8	2	8	1	8	0	
3	4	3	2	3	0	3	1	3	2	3	1	3	0	
2	5	9	5	0	5	1	5	2	5	5	5	4	
3	3	2	0	3	0	3	1	3	2	3	5	3	4	
4	4	5	6	7	5	0	5	1	5	2	5	1	5	0	
2	9	8	8	0	8	1	8	2	8	5	8	4	
4	2	3	9	8	3	0	3	1	3	5	3	3	3	4	
3	5	4	2	5	0	5	1	5	2	5	3	5	4	
4	8	9	5	0	8	0	8	1	8	5	8	3	8	4	
4	8	9	3	1	8	0	8	1	8	2	8	1	8	0	
5	1	3	9	8	7	3	0	3	1	3	5	3	3	3	4	
3	6	8	7	8	0	8	1	8	5	8	3	8	4	
2	8	6	8	0	8	1	8	5	8	3	8	4	
4	3	9	8	7	3	0	3	1	3	2	3	1	3	0	
3	2	0	5	5	0	5	1	5	2	5	5	5	4	
3	9	5	6	5	0	5	1	5	2	5	5	5	4	
2	3	2	3	0	3	1	3	2	3	1	3	0	
3	4	3	1	3	0	3	1	3	2	3	3	3	4	
4	2	0	5	6	5	0	5	1	5	2	5	3	5	4	
2	4	3	3	0	3	1	3	2	3	5	3	4	
3	0	5	4	5	0	5	1	5	5	5	3	5	4	
3	4	5	6	5	0	5	1	5	2	5	5	5	4	
2	3	9	3	0	3	1	3	2	3	5	3	4	
4	1	3	2	0	3	0	3	1	3	2	3	5	3	4	
3	8	9	5	8	0	8	1	8	2	8	5	8	4	
3	9	5	4	5	0	5	1	5	2	5	1	5	0	
4	0	5	9	8	5	0	5	1	5	5	5	3	5	4	
2	5	6	5	0	5	1	5	5	5	3	5	4	
2	3	4	3	0	3	1	3	2	3	3	3	4	
2	1	3	3	0	3	1	3	2	3	3	3	4	
2	7	8	8	0	8	1	8	2	8	1	8	0	
3	2	3	4	3	0	3	1	3	2	3	1	3	0	
3	4	3	9	3	0	3	1	3	5	3	3	3	4	
3	2	3	9	3	0	3	1	3	2	3	1	3	0	
3	5	4	1	5	0	5	1	5	2	5	3	5	4	
3	0	1	3	3	0	3	1	3	2	3	5	3	4	
4	6	5	4	2	5	0	5	1	5	2	5	1	5	0	
2	8	7	8	0	8	1	8	2	8	1	8	0	
2	4	5	5	0	5	1	5	5	5	3	5	4	
2	7	8	8	0	8	1	8	2	8	5	8	4	
4	3	9	8	6	3	0	3	1	3	5	3	3	3	4	
2	9	3	3	0	3	1	3	2	3	5	3	4	
2	9	5	5	0	5	1	5	2	5	5	5	4	
3	4	3	2	3	0	3	1	3	2	3	3	3	4	
5	2	0	5	6	7	5	0	5	1	5	2	5	3	5	4	
