1932.2	1932.2
1238
4015.53	2393.24
10
0	0	3000
1	412	3000
2	335	3000
3	0	3000
4	469	3000
5	576	3000
6	394	3000
7	0	3000
8	508	3000
9	550	3000
34
0	1	22.262572	131.479641
1	0	22.173716	131.479641
0	2	21.923016	135.308578
2	0	20.190308	135.308578
0	5	66.636534	149.350323
5	0	68.568036	149.350323
1	2	11.099572	146.797369
2	1	11.186086	146.797369
1	3	43.930866	144.244414
3	1	55.212422	144.244414
1	4	42.276700	146.797369
4	1	31.553212	146.797369
2	3	44.330888	135.308578
3	2	45.085702	135.308578
2	4	34.635680	130.202668
4	2	33.535162	130.202668
3	4	20.964114	126.372741
4	3	33.697234	126.372741
3	9	110.954684	116.160923
9	3	109.931226	116.160923
4	5	112.241374	117.437895
5	4	112.670094	117.437895
5	6	118.812966	123.819787
6	5	119.444628	123.819787
5	9	54.753874	140.414487
9	5	57.240700	140.414487
6	7	54.781092	139.138505
7	6	44.628762	139.138505
6	8	33.367070	144.244414
8	6	45.199162	144.244414
7	8	55.280924	135.308578
8	7	44.960398	135.308578
8	9	114.119072	114.884940
9	8	114.555784	114.884940
360
3	3	2	0	2	0	2	1	2	5	2	3	2	4	
2	8	9	8	0	8	1	8	2	8	3	8	4	
2	8	9	9	0	9	1	9	2	9	1	9	0	
2	9	8	9	0	9	1	8	5	8	3	8	4	
4	2	3	9	8	2	0	2	1	2	2	2	5	2	4	
3	5	4	2	5	0	5	1	5	2	5	1	5	0	
2	0	2	2	0	2	1	2	2	2	1	2	0	
4	8	6	5	0	8	0	8	1	6	2	6	5	6	4	
5	1	4	5	6	7	1	0	1	1	1	2	1	5	1	4	
2	8	6	8	0	8	1	8	2	8	5	8	4	
4	3	9	8	7	9	0	9	1	9	2	9	3	9	4	
2	1	2	2	0	2	1	2	2	2	3	2	4	
5	7	8	9	3	1	8	0	8	1	8	5	8	3	8	4	
3	2	4	5	4	0	4	1	4	5	4	3	4	4	
3	9	8	6	9	0	9	1	9	5	9	3	9	4	
2	4	1	4	0	4	1	4	2	4	1	4	0	
2	5	0	5	0	5	1	5	2	5	3	5	4	
3	0	5	4	5	0	5	1	5	2	5	5	5	4	
2	7	6	6	0	6	1	6	2	6	5	6	4	
2	0	1	1	0	1	1	1	2	1	3	1	4	
2	3	9	9	0	9	1	9	2	9	1	9	0	
2	1	0	1	0	1	1	1	5	1	3	1	4	
3	7	6	5	6	0	6	1	6	2	6	3	6	4	
4	0	5	6	8	5	0	5	1	5	2	5	5	5	4	
2	3	4	4	0	4	1	4	2	4	1	4	0	
2	4	3	4	0	4	1	4	2	4	3	4	4	
2	2	4	2	0	2	1	2	2	2	3	2	4	
4	6	5	4	1	6	0	5	1	5	2	5	5	5	4	
3	5	6	7	6	0	6	1	6	5	6	3	6	4	
3	5	4	1	4	0	4	1	4	5	4	3	4	4	
3	0	1	3	1	0	1	1	1	5	1	3	1	4	
4	6	5	4	2	6	0	5	1	5	2	5	3	5	4	
4	4	5	6	8	4	0	4	1	4	5	4	3	4	4	
4	3	9	8	6	9	0	9	1	9	2	8	3	8	4	
2	9	3	9	0	9	1	9	2	9	1	9	0	
3	7	8	9	8	0	8	1	8	5	8	3	8	4	
2	4	2	4	0	4	1	4	5	4	3	4	4	
5	2	4	5	6	7	2	0	2	1	2	2	2	1	2	0	
3	6	5	0	6	0	6	1	6	2	6	1	6	0	
5	7	8	9	3	1	8	0	8	1	8	2	8	5	8	4	
2	9	8	9	0	9	1	9	2	8	3	8	4	
3	5	4	2	5	0	5	1	5	2	5	5	5	4	
2	0	2	2	0	2	1	2	2	2	3	2	4	
4	8	9	5	0	8	0	8	1	8	2	8	1	8	0	
5	1	4	5	6	7	4	0	4	1	4	2	4	1	4	0	
4	7	6	5	4	6	0	6	1	6	2	6	3	6	4	
2	3	1	1	0	1	1	1	5	1	3	1	4	
4	3	9	8	7	9	0	9	1	9	5	9	3	9	4	
2	1	2	1	0	1	1	1	2	1	1	1	0	
3	2	4	5	4	0	4	1	4	2	4	3	4	4	
2	4	1	4	0	4	1	4	2	4	5	4	4	
2	5	0	5	0	5	1	5	2	5	1	5	0	
3	0	5	4	5	0	5	1	5	2	5	1	5	0	
4	6	5	4	3	6	0	5	1	5	2	5	3	5	4	
2	6	8	6	0	8	1	8	2	8	5	8	4	
2	7	6	6	0	6	1	6	5	6	3	6	4	
3	9	8	7	9	0	8	1	8	5	8	3	8	4	
2	0	1	1	0	1	1	1	2	1	1	1	0	
2	3	9	9	0	9	1	9	2	9	3	9	4	
2	1	0	1	0	1	1	1	2	1	3	1	4	
4	0	5	9	8	5	0	5	1	5	2	5	1	5	0	
2	3	4	4	0	4	1	4	2	4	5	4	4	
2	4	3	4	0	4	1	4	2	4	1	4	0	
2	2	4	2	0	2	1	2	5	2	3	2	4	
4	6	5	0	1	6	0	6	1	6	5	6	3	6	4	
4	8	9	5	4	8	0	8	1	8	5	8	3	9	4	
3	5	6	7	6	0	6	1	6	2	6	5	6	4	
3	5	4	1	5	0	5	1	5	2	5	5	5	4	
3	0	2	3	2	0	2	1	2	2	2	3	2	4	
4	4	5	9	8	4	0	4	1	5	2	5	5	5	4	
3	9	5	0	9	0	9	1	9	2	9	5	9	4	
2	7	8	8	0	8	1	8	5	8	3	8	4	
2	2	1	1	0	1	1	1	2	1	5	1	4	
4	3	9	8	6	9	0	9	1	8	2	8	1	8	0	
2	9	3	9	0	9	1	9	2	9	3	9	4	
2	4	2	4	0	4	1	4	2	4	5	4	4	
5	2	3	9	8	7	2	0	2	1	2	2	2	5	2	4	
3	6	5	0	6	0	6	1	6	2	6	3	6	4	
3	8	9	3	8	0	8	1	8	2	8	5	8	4	
2	1	4	1	0	1	1	1	2	1	5	1	4	
5	7	8	9	3	1	8	0	8	1	8	2	8	1	8	0	
2	9	8	8	0	8	1	8	2	8	1	8	0	
3	5	4	2	4	0	4	1	4	5	4	3	4	4	
2	0	2	2	0	2	1	2	5	2	3	2	4	
3	3	9	8	9	0	9	1	9	2	9	3	9	4	
4	8	6	5	0	8	0	8	1	8	2	6	3	6	4	
5	1	3	9	8	7	1	0	1	1	1	2	1	3	1	4	
4	7	6	5	4	6	0	6	1	6	2	6	1	6	0	
3	9	3	1	9	0	9	1	9	2	9	1	9	0	
2	2	0	2	0	2	1	2	2	2	1	2	0	
2	3	1	1	0	1	1	1	2	1	5	1	4	
4	1	3	9	8	1	0	1	1	1	2	1	5	1	4	
4	3	9	8	7	9	0	9	1	9	2	9	5	9	4	
2	1	2	1	0	1	1	1	2	1	5	1	4	
3	2	4	5	4	0	4	1	4	2	4	1	4	0	
4	0	5	6	7	5	0	5	1	5	2	5	5	5	4	
2	4	1	4	0	4	1	4	5	4	3	4	4	
3	0	5	4	5	0	5	1	5	2	5	3	5	4	
4	6	5	4	3	6	0	5	1	5	2	5	1	5	0	
4	8	9	3	2	9	0	9	1	9	2	9	1	9	0	
3	1	4	5	1	0	1	1	1	2	1	1	1	0	
2	7	6	6	0	6	1	6	2	6	3	6	4	
3	9	8	7	9	0	9	1	9	2	9	5	9	4	
2	0	1	1	0	1	1	1	2	1	5	1	4	
2	1	0	1	0	1	1	1	2	1	1	1	0	
3	9	3	2	9	0	9	1	9	2	9	3	9	4	
2	2	3	2	0	2	1	2	2	2	3	2	4	
4	0	5	9	8	5	0	5	1	5	2	5	3	5	4	
3	1	3	9	1	0	1	1	1	2	1	1	1	0	
2	3	4	4	0	4	1	4	5	4	3	4	4	
2	2	4	2	0	4	1	4	2	4	5	4	4	
3	0	5	6	5	0	5	1	5	2	5	1	5	0	
4	6	5	0	1	6	0	6	1	6	2	6	3	6	4	
4	8	9	5	4	8	0	8	1	8	2	8	5	8	4	
2	8	9	8	0	8	1	8	5	8	3	8	4	
3	5	6	7	5	0	5	1	5	2	5	1	5	0	
3	0	1	3	1	0	1	1	1	2	1	1	1	0	
4	8	9	3	1	8	0	8	1	8	2	8	3	9	4	
4	1	4	5	6	1	0	1	1	1	2	1	3	1	4	
4	4	5	6	8	4	0	4	1	4	2	4	1	4	0	
3	9	5	0	9	0	9	1	9	5	5	3	5	4	
2	2	1	1	0	1	1	1	5	1	3	1	4	
5	7	8	9	3	2	8	0	8	1	8	2	8	5	8	4	
5	2	4	5	6	7	2	0	2	1	2	5	2	3	2	4	
3	8	9	5	8	0	8	1	8	5	8	3	8	4	
2	0	5	5	0	5	1	5	2	5	3	5	4	
3	6	5	0	6	0	5	1	5	5	5	3	5	4	
3	8	9	3	8	0	8	1	8	5	8	3	9	4	
2	1	4	4	0	4	1	4	5	4	3	4	4	
5	7	8	9	3	1	8	0	8	1	8	2	8	3	8	4	
2	0	2	2	0	2	1	2	2	2	5	2	4	
3	3	9	8	9	0	9	1	9	2	9	1	9	0	
4	7	6	5	4	6	0	6	1	6	2	5	5	5	4	
3	9	3	1	9	0	9	1	9	2	9	3	9	4	
2	2	0	2	0	2	1	2	2	2	3	2	4	
2	6	8	6	0	6	1	6	5	6	3	6	4	
3	0	5	9	5	0	5	1	5	2	5	3	5	4	
2	3	1	1	0	1	1	1	2	1	1	1	0	
2	6	5	6	0	5	1	5	2	5	5	5	4	
4	1	3	9	8	1	0	1	1	1	5	1	3	1	4	
2	1	2	1	0	1	1	1	5	2	3	2	4	
3	5	9	3	5	0	5	1	5	5	5	3	5	4	
4	0	5	6	7	5	0	5	1	5	5	5	3	5	4	
4	7	8	9	3	8	0	8	1	8	2	8	1	8	0	
4	8	9	3	1	8	0	8	1	8	5	8	3	8	4	
3	6	8	9	8	0	8	1	8	2	8	5	8	4	
4	6	5	4	3	5	0	5	1	5	2	5	5	5	4	
4	8	9	3	2	8	0	8	1	8	2	8	3	8	4	
3	1	4	5	1	0	1	1	1	2	1	3	1	4	
2	7	6	6	0	6	1	6	2	6	1	6	0	
3	9	8	7	8	0	8	1	8	2	8	1	8	0	
3	5	9	8	5	0	5	1	5	2	5	5	5	4	
2	0	1	1	0	1	1	1	5	1	3	1	4	
3	4	5	0	4	0	4	1	4	5	4	3	4	4	
3	9	3	2	9	0	9	1	9	2	9	1	9	0	
2	2	3	2	0	2	1	2	2	2	1	2	0	
3	6	5	4	6	0	6	1	6	2	6	1	6	0	
3	1	3	9	1	0	1	1	1	2	1	3	1	4	
2	5	4	5	0	5	1	5	2	5	5	5	4	
3	0	5	6	5	0	5	1	5	2	5	3	5	4	
4	6	5	4	1	5	0	5	1	5	2	5	1	5	0	
4	8	9	5	4	8	0	8	1	8	2	8	1	8	0	
4	7	6	5	0	6	0	6	1	6	2	6	3	6	4	
3	5	6	7	5	0	5	1	5	2	5	3	5	4	
3	3	9	5	9	0	9	1	9	5	9	3	9	4	
3	7	8	9	8	0	8	1	8	2	8	5	8	4	
4	1	4	5	6	1	0	1	1	1	2	1	1	1	0	
4	4	5	6	8	4	0	5	1	5	2	5	3	5	4	
3	9	5	0	9	0	9	1	9	2	9	3	9	4	
2	2	1	2	0	2	1	2	2	2	3	2	4	
2	5	9	9	0	9	1	9	2	9	1	9	0	
4	4	5	6	7	4	0	4	1	4	2	4	5	4	4	
2	5	0	5	0	5	1	5	5	5	3	5	4	
2	6	7	6	0	6	1	6	2	6	3	6	4	
5	7	8	9	3	2	8	0	8	1	8	5	8	3	8	4	
2	0	5	5	0	5	1	5	2	5	1	5	0	
3	6	5	0	6	0	6	1	6	2	6	5	6	4	
3	8	9	3	8	0	9	1	9	2	9	3	9	4	
2	1	4	4	0	4	1	4	2	4	3	4	4	
2	3	2	2	0	2	1	2	2	2	5	2	4	
3	3	9	8	9	0	9	1	9	2	9	5	9	4	
4	2	4	5	6	4	0	4	1	4	5	4	3	4	4	
4	7	6	5	4	6	0	6	1	6	5	6	3	6	4	
3	9	3	1	9	0	9	1	9	5	9	3	9	4	
2	2	0	2	0	2	1	2	5	2	3	2	4	
3	0	5	9	5	0	5	1	5	2	5	1	5	0	
2	3	1	1	0	1	1	1	2	1	3	1	4	
2	6	5	6	0	5	1	5	5	5	3	5	4	
4	1	3	9	8	1	0	1	1	1	2	1	3	1	4	
3	4	5	6	4	0	4	1	4	2	4	1	4	0	
3	5	4	3	4	0	4	1	4	2	4	5	4	4	
4	0	5	6	7	6	0	6	1	6	2	6	3	6	4	
4	7	8	9	3	8	0	8	1	8	2	8	3	8	4	
3	9	3	4	9	0	9	1	9	2	9	5	9	4	
2	5	6	5	0	5	1	5	2	5	3	5	4	
3	6	8	9	6	0	8	1	8	5	8	3	8	4	
2	1	3	1	0	1	1	1	5	1	3	1	4	
4	6	8	9	3	6	0	6	1	6	5	6	3	6	4	
4	8	9	3	2	8	0	8	1	8	5	8	3	8	4	
3	1	4	5	4	0	4	1	4	5	4	3	4	4	
3	4	5	9	4	0	4	1	4	2	4	3	4	4	
3	9	8	7	8	0	8	1	8	2	8	3	8	4	
3	5	9	8	9	0	9	1	9	5	9	3	9	4	
2	8	9	8	0	8	1	8	2	8	5	8	4	
3	4	2	0	4	0	2	1	2	2	2	5	2	4	
3	2	3	9	2	0	2	1	2	2	2	5	2	4	
3	9	3	2	9	0	9	1	9	2	9	5	9	4	
2	2	3	2	0	2	1	2	2	2	5	2	4	
3	6	5	4	6	0	6	1	6	2	6	3	6	4	
2	8	7	8	0	8	1	8	2	8	5	8	4	
3	1	3	9	1	0	1	1	1	5	1	3	1	4	
2	4	5	4	0	4	1	5	2	5	3	5	4	
2	5	4	4	0	4	1	4	5	4	3	4	4	
3	0	5	6	5	0	5	1	5	5	6	3	6	4	
4	8	9	5	4	8	0	8	1	8	2	8	3	8	4	
4	7	6	5	0	6	0	6	1	6	2	6	1	6	0	
2	9	5	9	0	9	1	9	2	9	1	9	0	
2	6	8	6	0	6	1	6	2	6	3	6	4	
3	7	8	9	8	0	8	1	8	2	8	1	8	0	
4	1	4	5	6	4	0	4	1	4	2	4	5	4	4	
3	9	5	0	9	0	9	1	9	2	9	1	9	0	
3	7	6	5	6	0	6	1	6	2	6	1	6	0	
2	2	1	2	0	2	1	2	2	2	1	2	0	
2	5	9	9	0	9	1	9	2	9	3	9	4	
3	3	1	0	1	0	1	1	1	2	1	3	1	4	
4	4	5	6	7	4	0	4	1	4	5	4	3	5	4	
4	2	3	9	8	2	0	2	1	2	2	2	1	2	0	
2	6	7	6	0	6	1	6	2	6	1	6	0	
2	8	6	8	0	8	1	8	2	8	1	6	0	
5	7	8	9	3	2	8	0	8	1	8	2	8	3	8	4	
3	3	9	5	9	0	9	1	9	2	9	5	9	4	
2	0	5	5	0	5	1	5	2	5	5	5	4	
3	8	9	3	8	0	8	1	9	2	9	1	9	0	
2	1	4	1	0	1	1	1	2	1	1	1	0	
3	9	8	6	9	0	9	1	9	2	9	3	9	4	
2	3	2	2	0	2	1	2	5	2	3	2	4	
3	3	9	8	9	0	9	1	9	5	9	3	9	4	
4	8	9	3	1	8	0	8	1	8	2	8	5	8	4	
4	2	4	5	6	4	0	4	1	4	2	4	5	4	4	
3	9	3	1	9	0	9	1	9	2	9	5	9	4	
2	2	0	2	0	2	1	2	2	2	5	2	4	
3	0	5	9	5	0	5	1	5	2	5	5	5	4	
2	6	5	6	0	6	1	6	2	6	3	6	4	
4	1	3	9	8	1	0	1	1	1	2	1	1	1	0	
3	4	5	6	4	0	4	1	5	2	5	3	5	4	
3	5	4	3	5	0	5	1	5	2	4	1	4	0	
4	0	5	6	7	5	0	5	1	5	2	5	1	5	0	
3	8	6	5	8	0	8	1	8	2	6	3	6	4	
4	7	8	9	3	8	0	8	1	8	5	8	3	8	4	
3	9	3	4	9	0	9	1	9	5	9	3	9	4	
2	5	6	6	0	6	1	6	2	6	1	6	0	
2	4	3	4	0	4	1	4	5	4	3	4	4	
3	6	8	9	8	0	8	1	8	2	8	3	8	4	
2	1	3	1	0	1	1	1	2	1	5	1	4	
4	8	9	3	2	9	0	9	1	9	2	9	5	9	4	
3	1	4	5	1	0	1	1	1	2	1	5	1	4	
3	4	5	9	4	0	4	1	4	2	4	1	4	0	
3	5	9	8	9	0	9	1	9	2	9	3	9	4	
3	4	2	0	4	0	2	1	2	2	2	1	2	0	
3	2	3	9	2	0	2	1	2	5	2	3	2	4	
3	9	3	2	9	0	9	1	9	5	9	3	9	4	
2	2	3	2	0	2	1	2	5	2	3	2	4	
4	6	5	0	2	6	0	6	1	6	5	6	3	6	4	
3	6	5	4	6	0	5	1	5	5	5	3	5	4	
2	8	7	8	0	8	1	8	5	8	3	8	4	
3	1	3	9	1	0	1	1	1	2	9	5	9	4	
2	4	5	4	0	4	1	4	2	4	1	4	0	
2	5	4	5	0	5	1	5	2	5	3	5	4	
3	0	5	6	5	0	5	1	5	2	5	5	5	4	
4	7	6	5	0	6	0	6	1	6	2	6	5	6	4	
2	9	5	9	0	9	1	5	2	5	3	5	4	
3	3	9	5	9	0	9	1	9	2	9	1	9	0	
3	7	8	9	8	0	8	1	8	2	8	3	8	4	
4	1	4	5	6	1	0	1	1	1	5	1	3	1	4	
2	5	9	9	0	9	1	9	5	9	3	9	4	
3	3	1	0	1	0	1	1	1	2	1	1	1	0	
4	4	5	6	7	4	0	5	1	5	2	5	3	5	4	
4	2	3	9	8	2	0	2	1	2	2	2	3	2	4	
2	6	7	6	0	6	1	6	2	6	5	6	4	
2	8	6	8	0	8	1	8	2	8	3	8	4	
5	7	8	9	3	2	8	0	8	1	8	2	8	1	8	0	
2	0	5	5	0	5	1	5	5	5	3	5	4	
3	9	8	6	9	0	9	1	9	2	9	1	9	0	
2	3	2	2	0	2	1	2	2	2	3	2	4	
4	2	4	5	6	2	0	2	1	2	2	2	1	2	0	
2	5	0	5	0	5	1	5	2	5	5	5	4	
3	0	5	9	5	0	5	1	5	5	5	3	5	4	
2	6	5	5	0	5	1	5	2	5	1	5	0	
3	4	5	6	4	0	4	1	4	5	4	3	4	4	
3	5	4	3	4	0	4	1	4	2	4	3	4	4	
2	3	9	9	0	9	1	9	5	9	3	9	4	
3	8	9	5	8	0	8	1	8	2	8	1	8	0	
4	7	8	9	3	8	0	8	1	8	2	8	5	8	4	
3	9	3	4	9	0	9	1	9	2	9	3	9	4	
2	5	6	6	0	6	1	6	2	6	5	6	4	
3	6	8	9	6	0	6	1	6	2	6	1	6	0	
2	1	3	1	0	1	1	1	2	1	1	1	0	
2	7	8	8	0	8	1	8	2	8	3	8	4	
3	4	5	9	5	0	5	1	5	2	5	5	5	4	
3	5	9	8	5	0	5	1	5	2	5	1	5	0	
3	4	5	0	4	0	4	1	4	2	4	3	4	4	
3	2	3	9	2	0	2	1	2	2	2	3	2	4	
3	5	4	1	4	0	4	1	4	2	4	1	4	0	
4	6	5	0	2	6	0	5	1	5	2	5	5	5	4	
3	6	5	4	6	0	6	1	6	2	6	5	5	4	
2	8	7	8	0	8	1	8	2	8	3	8	4	
3	7	6	5	6	0	6	1	6	2	6	5	6	4	
2	4	5	4	0	4	1	4	2	4	5	4	4	
2	5	4	4	0	4	1	4	2	4	1	4	0	
4	3	9	5	6	9	0	9	1	9	2	9	5	9	4	
3	7	6	5	6	0	6	1	6	5	6	3	6	4	
2	9	3	9	0	9	1	9	5	9	3	9	4	
4	7	6	5	0	6	0	6	1	6	5	6	3	6	4	
2	9	5	9	0	9	1	9	5	5	3	5	4	
3	3	9	5	9	0	9	1	9	2	9	3	9	4	
2	6	8	6	0	6	1	6	2	6	1	6	0	
2	4	2	4	0	4	1	4	2	4	1	4	0	
2	5	9	5	0	5	1	5	2	9	5	9	4	
3	3	1	0	1	0	1	1	1	2	1	5	1	4	
4	4	5	6	7	4	0	4	1	4	2	4	1	4	0	
2	9	8	8	0	8	1	8	2	8	5	8	4	
4	2	3	9	8	2	0	2	1	2	5	9	3	9	4	
3	5	4	2	4	0	4	1	4	2	4	3	4	4	
4	8	6	5	0	8	0	8	1	8	5	6	3	6	4	
4	8	9	3	1	9	0	9	1	9	2	9	1	9	0	
5	1	4	5	6	7	1	0	1	1	1	5	1	3	1	4	
2	6	7	6	0	6	1	6	5	6	3	6	4	
2	8	6	8	0	8	1	8	5	8	3	6	4	
4	3	9	8	7	9	0	9	1	9	2	9	1	9	0	
3	2	4	5	4	0	4	1	4	2	4	5	4	4	
3	9	8	6	9	0	9	1	9	2	9	5	9	4	
2	3	2	2	0	2	1	2	2	2	1	2	0	
2	4	1	4	0	4	1	4	2	4	3	4	4	
4	2	4	5	6	2	0	2	1	2	2	2	3	2	4	
2	4	3	4	0	4	1	4	2	4	5	4	4	
3	0	5	4	5	0	5	1	5	5	5	3	5	4	
3	4	5	6	4	0	4	1	4	2	4	5	4	4	
2	3	9	9	0	9	1	9	2	9	5	9	4	
2	1	0	1	0	1	1	1	2	1	5	1	4	
3	8	6	5	6	0	6	1	6	2	6	5	6	4	
3	9	5	4	5	0	5	1	5	2	5	1	5	0	
4	0	5	9	8	5	0	5	1	5	5	5	3	5	4	
2	5	6	6	0	6	1	6	5	6	3	6	4	
2	3	4	4	0	4	1	4	2	4	3	4	4	
2	1	3	1	0	1	1	1	2	1	3	1	4	
2	7	8	8	0	8	1	8	2	8	1	8	0	
2	2	4	4	0	4	1	4	2	4	1	4	0	
3	4	5	9	4	0	4	1	4	5	4	3	5	4	
3	2	3	9	2	0	2	1	2	2	2	1	2	0	
3	5	4	1	4	0	4	1	4	2	4	3	4	4	
3	0	1	3	1	0	1	1	1	2	1	5	1	4	
4	6	5	0	2	6	0	6	1	6	2	6	1	6	0	
2	8	7	8	0	8	1	8	2	8	1	8	0	
2	4	5	4	0	4	1	4	5	4	3	5	4	
2	7	8	8	0	8	1	8	2	8	5	8	4	
4	3	9	5	6	9	0	9	1	9	5	9	3	9	4	
2	9	3	9	0	9	1	9	2	9	5	9	4	
2	9	5	9	0	9	1	9	2	9	5	9	4	
2	4	2	4	0	4	1	4	2	4	3	2	4	
5	2	3	9	8	7	2	0	2	1	2	2	2	3	2	4	
