1932.2	1932.2
1011
3408.91	3395.53
10
0	271	3000
1	59	3000
2	238	3000
3	400	3000
4	276	3000
5	507	3000
6	498	3000
7	309	3000
8	16	3000
9	670	3000
34
0	1	24.206046	131.479641
1	0	13.207026	131.479641
0	2	32.303272	135.308578
2	0	51.870196	135.308578
0	5	97.164900	149.350323
5	0	88.706934	149.350323
1	2	11.099572	146.797369
2	1	11.186086	146.797369
1	3	45.810902	144.244414
3	1	40.845502	144.244414
1	4	31.296146	146.797369
4	1	25.909450	146.797369
2	3	42.918850	135.308578
3	2	52.757668	135.308578
2	4	14.619870	130.202668
4	2	25.734980	130.202668
3	4	22.367640	126.372741
4	3	25.862406	126.372741
3	9	114.758182	116.160923
9	3	115.810126	116.160923
4	5	85.724678	117.437895
5	4	94.467464	117.437895
5	6	119.465156	123.819787
6	5	120.932292	123.819787
5	9	54.922738	140.414487
9	5	54.498688	140.414487
6	7	54.313094	139.138505
7	6	51.323716	139.138505
6	8	41.033034	144.244414
8	6	46.537648	144.244414
7	8	48.585970	135.308578
8	7	45.428396	135.308578
8	9	112.631408	114.884940
9	8	113.903594	114.884940
360
3	3	2	0	3	0	3	1	3	5	3	3	3	4	
2	8	9	9	0	9	1	9	2	9	3	9	4	
2	8	9	9	0	9	1	9	2	9	1	9	0	
2	9	8	9	0	9	1	9	5	9	3	9	4	
4	2	3	9	8	3	0	3	1	3	2	3	5	3	4	
3	5	0	2	5	0	5	1	5	2	5	1	0	0	
2	0	2	0	0	2	1	2	2	2	1	2	0	
4	8	6	5	0	6	0	6	1	6	2	6	5	6	4	
5	1	3	9	8	7	1	0	1	1	3	2	3	5	3	4	
2	8	6	6	0	6	1	6	2	6	5	6	4	
4	3	9	8	7	3	0	3	1	9	2	9	3	9	4	
2	1	2	1	0	1	1	1	2	1	3	2	4	
5	7	6	5	4	1	7	0	7	1	6	5	6	3	6	4	
3	2	4	5	2	0	2	1	2	5	2	3	2	4	
3	9	8	6	9	0	9	1	9	5	9	3	9	4	
2	4	1	1	0	1	1	1	2	1	1	1	0	
2	5	0	5	0	5	1	5	2	5	3	5	4	
3	0	5	4	0	0	0	1	0	2	0	5	0	4	
2	7	6	7	0	7	1	7	2	6	5	6	4	
2	0	1	0	0	0	1	0	2	0	3	0	4	
2	3	9	3	0	3	1	9	2	9	1	9	0	
2	1	0	0	0	0	1	0	5	0	3	0	4	
3	7	6	5	7	0	7	1	7	2	7	3	7	4	
4	0	5	9	8	0	0	0	1	5	2	5	5	5	4	
2	3	4	3	0	3	1	3	2	3	1	3	0	
2	4	3	3	0	3	1	3	2	3	3	3	4	
2	2	4	2	0	2	1	2	2	2	3	2	4	
4	6	5	0	1	6	0	6	1	6	2	6	5	6	4	
3	5	6	7	5	0	6	1	6	5	6	3	6	4	
3	5	0	1	5	0	5	1	5	5	0	3	0	4	
3	0	1	3	0	0	0	1	0	5	0	3	0	4	
4	6	5	0	2	6	0	6	1	6	2	6	3	6	4	
4	4	3	9	8	4	0	4	1	3	5	3	3	3	4	
4	3	9	8	6	3	0	3	1	9	2	9	3	9	4	
2	9	3	9	0	9	1	9	2	9	1	9	0	
3	7	8	9	7	0	7	1	7	5	7	3	7	4	
2	4	2	4	0	2	1	2	5	2	3	2	4	
5	2	3	9	8	7	3	0	3	1	3	2	3	1	3	0	
3	6	5	0	6	0	6	1	6	2	6	1	6	0	
5	7	8	9	3	1	7	0	7	1	7	2	7	5	8	4	
2	9	8	9	0	9	1	9	2	9	3	9	4	
3	5	4	2	5	0	5	1	5	2	5	5	5	4	
2	0	2	2	0	2	1	2	2	2	3	2	4	
4	8	6	5	0	6	0	6	1	6	2	6	1	6	0	
5	1	3	9	8	7	1	0	3	1	3	2	3	1	3	0	
4	7	6	5	4	7	0	7	1	7	2	7	3	7	4	
2	3	1	3	0	3	1	3	5	3	3	3	4	
4	3	9	8	7	9	0	9	1	9	5	9	3	9	4	
2	1	2	1	0	1	1	1	2	1	1	2	0	
3	2	0	5	2	0	2	1	2	2	2	3	0	4	
2	4	1	4	0	4	1	4	2	4	5	4	4	
2	5	0	5	0	5	1	5	2	5	1	5	0	
3	0	5	4	5	0	5	1	5	2	5	1	5	0	
4	6	5	4	3	5	0	5	1	5	2	5	3	5	4	
2	6	8	6	0	6	1	6	2	6	5	6	4	
2	7	6	7	0	7	1	7	5	7	3	7	4	
3	9	8	7	9	0	9	1	9	5	9	3	9	4	
2	0	1	0	0	1	1	1	2	1	1	1	0	
2	3	9	9	0	9	1	9	2	9	3	9	4	
2	1	0	0	0	0	1	0	2	0	3	0	4	
4	0	5	6	8	5	0	5	1	5	2	5	1	5	0	
2	3	4	3	0	3	1	3	2	3	5	3	4	
2	4	3	3	0	3	1	3	2	3	1	3	0	
2	2	4	2	0	4	1	4	5	4	3	4	4	
4	6	5	0	1	6	0	6	1	6	5	6	3	6	4	
4	8	9	3	4	9	0	9	1	9	5	9	3	9	4	
3	5	6	7	5	0	5	1	5	2	5	5	6	4	
3	5	4	1	5	0	5	1	5	2	5	5	5	4	
3	0	1	3	0	0	0	1	0	2	0	3	0	4	
4	4	5	6	8	4	0	4	1	4	2	4	5	4	4	
3	9	5	0	9	0	9	1	9	2	9	5	9	4	
2	7	8	7	0	7	1	7	5	7	3	7	4	
2	2	1	2	0	2	1	2	2	2	5	2	4	
4	3	9	5	6	9	0	9	1	9	2	9	1	9	0	
2	9	3	9	0	9	1	9	2	9	3	9	4	
2	4	2	4	0	4	1	4	2	4	5	4	4	
5	2	0	5	6	7	2	0	2	1	2	2	0	5	0	4	
3	6	5	0	6	0	6	1	6	2	6	3	6	4	
3	8	9	3	9	0	9	1	9	2	9	5	9	4	
2	1	4	4	0	4	1	4	2	4	5	4	4	
5	7	6	5	4	1	7	0	7	1	6	2	6	1	6	0	
2	9	8	9	0	9	1	9	2	9	1	9	0	
3	5	4	2	5	0	5	1	5	5	5	3	5	4	
2	0	2	2	0	2	1	2	5	2	3	2	4	
3	3	9	8	9	0	9	1	9	2	9	3	9	4	
4	8	6	5	0	6	0	6	1	6	2	6	3	6	4	
5	1	3	9	8	7	1	0	1	1	1	2	1	3	3	4	
4	7	6	5	4	7	0	7	1	6	2	6	1	6	0	
3	9	3	1	9	0	9	1	9	2	9	1	9	0	
2	2	0	0	0	0	1	0	2	0	1	0	0	
2	3	1	3	0	3	1	3	2	3	5	3	4	
4	1	3	9	8	3	0	3	1	3	2	3	5	3	4	
4	3	9	8	7	3	0	3	1	3	2	9	5	9	4	
2	1	2	1	0	1	1	2	2	2	5	2	4	
3	2	4	5	2	0	2	1	2	2	2	1	2	0	
4	0	5	6	7	5	0	5	1	5	2	5	5	5	4	
2	4	1	4	0	4	1	4	5	4	3	4	4	
3	0	5	4	5	0	5	1	5	2	5	3	5	4	
4	6	5	4	3	6	0	5	1	5	2	5	1	5	0	
4	8	9	3	2	9	0	9	1	9	2	9	1	9	0	
3	1	4	5	4	0	4	1	4	2	4	1	4	0	
2	7	6	6	0	6	1	6	2	6	3	6	4	
3	9	8	7	9	0	9	1	9	2	9	5	9	4	
2	0	1	0	0	0	1	0	2	0	5	0	4	
2	1	0	1	0	1	1	1	2	1	1	1	0	
3	9	3	2	9	0	9	1	9	2	9	3	9	4	
2	2	3	3	0	3	1	3	2	3	3	3	4	
4	0	5	9	8	0	0	0	1	0	2	0	3	5	4	
3	1	3	9	1	0	1	1	3	2	3	1	3	0	
2	3	4	3	0	3	1	3	5	3	3	3	4	
2	2	4	2	0	2	1	2	2	2	5	4	4	
3	0	5	6	5	0	5	1	5	2	5	1	5	0	
4	6	5	0	1	6	0	6	1	6	2	6	3	6	4	
4	8	9	3	4	9	0	9	1	9	2	9	5	9	4	
2	8	9	9	0	9	1	9	5	9	3	9	4	
3	5	6	7	5	0	5	1	5	2	5	1	5	0	
3	0	2	3	0	0	2	1	2	2	2	1	2	0	
4	8	9	3	1	9	0	9	1	9	2	9	3	9	4	
4	1	4	5	6	4	0	4	1	4	2	4	3	4	4	
4	4	5	9	8	5	0	5	1	5	2	5	1	5	0	
3	9	5	0	9	0	9	1	9	5	9	3	9	4	
2	2	1	2	0	2	1	2	5	2	3	2	4	
5	7	8	9	3	2	7	0	7	1	7	2	7	5	8	4	
5	2	3	9	8	7	2	0	2	1	2	5	2	3	3	4	
3	8	6	5	6	0	6	1	6	5	6	3	6	4	
2	0	5	0	0	0	1	0	2	0	3	0	4	
3	6	5	0	6	0	6	1	6	5	6	3	6	4	
3	8	9	3	9	0	9	1	9	5	9	3	9	4	
2	1	4	1	0	1	1	4	5	4	3	4	4	
5	7	6	5	4	1	7	0	7	1	7	2	7	3	7	4	
2	0	2	0	0	0	1	0	2	0	5	0	4	
3	3	9	8	3	0	3	1	3	2	3	1	3	0	
4	7	6	5	4	7	0	7	1	7	2	7	5	7	4	
3	9	3	1	9	0	9	1	9	2	9	3	9	4	
2	2	0	0	0	0	1	0	2	0	3	0	4	
2	6	8	6	0	6	1	6	5	6	3	6	4	
3	0	5	9	5	0	5	1	5	2	5	3	5	4	
2	3	1	3	0	3	1	3	2	1	1	1	0	
2	6	5	6	0	6	1	6	2	6	5	6	4	
4	1	3	9	8	1	0	1	1	3	5	3	3	3	4	
2	1	2	1	0	1	1	1	5	1	3	2	4	
3	5	9	3	5	0	5	1	5	5	5	3	5	4	
4	0	5	6	7	5	0	5	1	5	5	5	3	5	4	
4	7	8	9	3	7	0	7	1	7	2	7	1	7	0	
4	8	9	3	1	9	0	9	1	9	5	9	3	9	4	
3	6	8	9	6	0	6	1	6	2	6	5	6	4	
4	6	8	9	3	6	0	6	1	6	2	6	5	6	4	
4	8	9	3	2	9	0	9	1	9	2	9	3	9	4	
3	1	0	5	1	0	1	1	1	2	1	3	0	4	
2	7	6	7	0	7	1	7	2	7	1	7	0	
3	9	8	7	9	0	9	1	9	2	9	1	9	0	
3	5	9	8	9	0	9	1	9	2	9	5	9	4	
2	0	1	0	0	0	1	0	5	0	3	0	4	
3	4	5	0	4	0	4	1	4	5	4	3	4	4	
3	9	3	2	9	0	3	1	3	2	3	1	3	0	
2	2	3	3	0	3	1	3	2	3	1	3	0	
3	6	5	4	6	0	6	1	6	2	6	1	6	0	
3	1	3	9	3	0	3	1	3	2	3	3	3	4	
2	5	4	5	0	5	1	5	2	5	5	4	4	
3	0	5	6	5	0	5	1	5	2	5	3	5	4	
4	6	5	0	1	6	0	6	1	6	2	6	1	6	0	
4	8	9	3	4	9	0	9	1	9	2	9	1	9	0	
4	7	6	5	0	7	0	6	1	6	2	6	3	6	4	
3	5	6	7	6	0	6	1	6	2	6	3	6	4	
3	3	9	5	9	0	9	1	9	5	9	3	9	4	
3	7	8	9	7	0	7	1	7	2	7	5	7	4	
4	1	4	5	6	1	0	1	1	1	2	1	1	1	0	
4	4	5	6	8	4	0	4	1	4	2	4	3	4	4	
3	9	5	0	9	0	9	1	9	2	9	3	9	4	
2	2	1	2	0	2	1	2	2	2	3	2	4	
2	5	9	9	0	9	1	9	2	9	1	9	0	
4	4	5	6	7	5	0	5	1	5	2	5	5	5	4	
2	5	0	5	0	5	1	5	5	5	3	5	4	
2	6	7	7	0	7	1	7	2	7	3	7	4	
5	7	6	5	4	2	7	0	7	1	6	5	6	3	6	4	
2	0	5	5	0	5	1	5	2	5	1	5	0	
3	6	5	0	6	0	6	1	6	2	6	5	6	4	
3	8	9	3	9	0	9	1	9	2	9	3	9	4	
2	1	4	4	0	4	1	4	2	4	3	4	4	
2	3	2	3	0	3	1	3	2	3	5	2	4	
3	3	9	8	3	0	3	1	9	2	9	5	9	4	
4	2	4	5	6	2	0	2	1	2	5	2	3	2	4	
4	7	6	5	4	7	0	7	1	7	5	7	3	7	4	
3	9	3	1	9	0	9	1	9	5	9	3	9	4	
2	2	0	0	0	0	1	0	5	0	3	0	4	
3	0	5	9	5	0	5	1	5	2	5	1	5	0	
2	3	1	3	0	3	1	3	2	3	3	3	4	
2	6	5	6	0	6	1	6	5	6	3	6	4	
4	1	3	9	8	3	0	3	1	3	2	3	3	3	4	
3	4	5	6	4	0	4	1	5	2	5	1	5	0	
3	5	4	3	4	0	4	1	4	2	4	5	4	4	
4	0	5	6	7	5	0	5	1	5	2	5	3	5	4	
4	7	8	9	3	7	0	7	1	7	2	7	3	7	4	
3	9	5	4	5	0	5	1	5	2	5	5	5	4	
2	5	6	5	0	6	1	6	2	6	3	6	4	
3	6	8	9	6	0	6	1	6	5	6	3	6	4	
2	1	3	3	0	3	1	3	5	3	3	3	4	
4	6	8	9	3	6	0	6	1	6	5	6	3	6	4	
4	8	9	3	2	9	0	9	1	9	5	9	3	9	4	
3	1	0	5	0	0	0	1	0	5	0	3	0	4	
3	4	3	9	4	0	4	1	4	2	4	3	3	4	
3	9	8	7	9	0	9	1	9	2	9	3	9	4	
3	5	9	8	9	0	9	1	9	5	9	3	9	4	
2	8	9	9	0	9	1	9	2	9	5	9	4	
3	4	5	0	5	0	5	1	5	2	5	5	5	4	
3	2	3	9	3	0	3	1	3	2	3	5	3	4	
3	9	3	2	9	0	9	1	9	2	9	5	9	4	
2	2	3	2	0	2	1	2	2	2	5	2	4	
3	6	5	4	6	0	6	1	6	2	6	3	6	4	
2	8	7	7	0	7	1	7	2	7	5	7	4	
3	1	3	9	3	0	3	1	3	5	3	3	3	4	
2	4	5	5	0	5	1	5	2	5	3	5	4	
2	5	4	5	0	5	1	5	5	5	3	5	4	
3	0	5	6	5	0	5	1	5	5	5	3	5	4	
4	8	9	3	4	9	0	9	1	9	2	9	3	9	4	
4	7	6	5	0	7	0	7	1	6	2	6	1	6	0	
2	9	5	9	0	9	1	9	2	9	1	9	0	
2	6	8	6	0	6	1	6	2	6	3	6	4	
3	7	8	9	7	0	7	1	7	2	7	1	7	0	
4	1	4	5	6	4	0	4	1	4	2	4	5	4	4	
3	9	5	0	9	0	9	1	9	2	9	1	9	0	
3	7	6	5	7	0	7	1	7	2	7	1	7	0	
2	2	1	2	0	1	1	1	2	1	1	1	0	
2	5	9	5	0	5	1	9	2	9	3	9	4	
3	3	2	0	3	0	3	1	3	2	3	3	3	4	
4	4	5	6	7	4	0	5	1	5	5	5	3	5	4	
4	2	3	9	8	3	0	3	1	3	2	3	1	3	0	
2	6	7	7	0	7	1	7	2	7	1	7	0	
2	8	6	6	0	6	1	6	2	6	1	6	0	
5	7	6	5	4	2	7	0	7	1	7	2	7	3	7	4	
3	3	9	5	3	0	3	1	9	2	9	5	9	4	
2	0	5	0	0	0	1	0	2	0	5	0	4	
3	8	9	3	9	0	9	1	9	2	9	1	9	0	
2	1	4	4	0	4	1	4	2	4	1	4	0	
3	9	8	6	9	0	9	1	9	2	9	3	9	4	
2	3	2	3	0	3	1	3	5	3	3	3	4	
3	3	9	8	3	0	3	1	9	5	9	3	9	4	
4	8	9	3	1	9	0	9	1	9	2	9	5	9	4	
4	2	0	5	6	2	0	2	1	0	2	0	5	0	4	
3	9	3	1	9	0	9	1	9	2	9	5	9	4	
2	2	0	2	0	2	1	2	2	0	5	0	4	
3	0	5	9	5	0	5	1	5	2	5	5	5	4	
2	6	5	6	0	6	1	6	2	6	3	6	4	
4	1	3	9	8	3	0	3	1	3	2	3	1	3	0	
3	4	5	6	4	0	4	1	5	2	5	3	5	4	
3	5	9	3	5	0	5	1	5	2	5	1	5	0	
4	0	5	6	7	5	0	5	1	5	2	5	1	5	0	
3	8	6	5	6	0	6	1	6	2	6	3	6	4	
4	7	8	9	3	7	0	7	1	7	5	7	3	7	4	
3	9	5	4	5	0	5	1	5	5	5	3	5	4	
2	5	6	5	0	5	1	5	2	5	1	5	0	
2	4	3	3	0	3	1	3	5	3	3	3	4	
3	6	8	9	6	0	6	1	6	2	6	3	6	4	
2	1	3	3	0	3	1	3	2	3	5	3	4	
4	8	9	3	2	9	0	9	1	9	2	9	5	9	4	
3	1	4	5	4	0	4	1	4	2	4	5	4	4	
3	4	3	9	3	0	3	1	3	2	3	1	3	0	
3	5	9	8	9	0	9	1	9	2	9	3	9	4	
3	4	2	0	2	0	2	1	2	2	2	1	2	0	
3	2	3	9	2	0	2	1	2	5	2	3	3	4	
3	9	3	2	9	0	9	1	9	5	9	3	9	4	
2	2	3	3	0	3	1	3	5	3	3	3	4	
4	6	5	0	2	6	0	6	1	6	5	6	3	6	4	
3	6	5	4	6	0	6	1	6	5	6	3	6	4	
2	8	7	7	0	7	1	7	5	7	3	7	4	
3	1	3	9	3	0	3	1	3	2	3	5	3	4	
2	4	5	5	0	5	1	5	2	5	1	5	0	
2	5	4	5	0	5	1	5	2	5	3	5	4	
3	0	5	6	5	0	5	1	5	2	5	5	5	4	
4	7	6	5	0	7	0	7	1	6	2	6	5	6	4	
2	9	5	9	0	9	1	9	2	9	3	9	4	
3	3	9	5	3	0	3	1	3	2	9	1	9	0	
3	7	8	9	7	0	7	1	7	2	7	3	7	4	
4	1	4	5	6	4	0	4	1	4	5	4	3	4	4	
2	5	9	5	0	5	1	5	5	9	3	9	4	
3	3	2	0	3	0	3	1	3	2	3	1	3	0	
4	4	5	6	7	4	0	4	1	4	2	4	3	4	4	
4	2	3	9	8	2	0	2	1	2	2	2	3	2	4	
2	6	7	6	0	6	1	6	2	7	5	7	4	
2	8	6	6	0	6	1	6	2	6	3	6	4	
5	7	6	5	4	2	7	0	7	1	7	2	7	1	7	0	
2	0	5	5	0	5	1	5	5	5	3	5	4	
3	9	8	6	9	0	9	1	9	2	9	1	9	0	
2	3	2	3	0	3	1	3	2	3	3	2	4	
4	2	0	5	6	0	0	0	1	0	2	0	1	0	0	
2	5	0	5	0	5	1	5	2	0	5	0	4	
3	0	5	9	5	0	5	1	5	5	5	3	5	4	
2	6	5	6	0	6	1	6	2	6	1	6	0	
3	4	5	6	4	0	5	1	5	5	5	3	5	4	
3	5	9	3	5	0	5	1	5	2	5	3	5	4	
2	3	9	9	0	9	1	9	5	9	3	9	4	
3	8	6	5	6	0	6	1	6	2	6	1	6	0	
4	7	8	9	3	7	0	7	1	7	2	7	5	7	4	
3	9	5	4	5	0	5	1	5	2	5	3	5	4	
2	5	6	5	0	5	1	5	2	6	5	6	4	
3	6	8	9	6	0	6	1	6	2	6	1	6	0	
2	1	3	3	0	3	1	3	2	3	1	3	0	
2	7	8	7	0	7	1	7	2	7	3	7	4	
3	4	5	9	4	0	4	1	4	2	4	5	4	4	
3	5	9	8	5	0	5	1	5	2	5	1	5	0	
3	4	5	0	5	0	5	1	5	2	5	3	5	4	
3	2	3	9	2	0	2	1	2	2	2	3	3	4	
3	5	4	1	5	0	5	1	5	2	5	1	5	0	
4	6	5	0	2	6	0	6	1	6	2	6	5	6	4	
3	6	5	4	6	0	6	1	6	2	6	5	6	4	
2	8	7	7	0	7	1	7	2	7	3	7	4	
3	7	6	5	7	0	7	1	7	2	7	5	7	4	
2	4	5	4	0	4	1	5	2	5	5	5	4	
2	5	4	5	0	5	1	5	2	5	1	5	0	
4	3	9	5	6	3	0	9	1	9	2	9	5	9	4	
3	7	6	5	7	0	7	1	7	5	7	3	7	4	
2	9	3	9	0	9	1	9	5	9	3	9	4	
4	7	6	5	0	7	0	7	1	7	5	7	3	7	4	
2	9	5	9	0	9	1	9	5	9	3	9	4	
3	3	9	5	9	0	9	1	9	2	9	3	9	4	
2	6	8	6	0	6	1	6	2	6	1	6	0	
2	4	2	4	0	4	1	4	2	4	1	4	0	
2	5	9	5	0	5	1	5	2	5	5	9	4	
3	3	2	0	3	0	3	1	3	2	2	5	2	4	
4	4	5	6	7	5	0	5	1	5	2	5	1	5	0	
2	9	8	9	0	9	1	9	2	9	5	9	4	
4	2	3	9	8	2	0	2	1	2	5	2	3	3	4	
3	5	4	2	4	0	4	1	4	2	4	3	4	4	
4	8	6	5	0	6	0	6	1	6	5	6	3	6	4	
4	8	9	3	1	9	0	9	1	9	2	9	1	9	0	
5	1	4	5	6	7	4	0	4	1	4	5	4	3	4	4	
2	6	7	6	0	6	1	6	5	6	3	6	4	
2	8	6	6	0	6	1	6	5	6	3	6	4	
4	3	9	8	7	3	0	3	1	3	2	3	1	3	0	
3	2	0	5	2	0	0	1	0	2	0	5	0	4	
3	9	8	6	9	0	9	1	9	2	9	5	9	4	
2	3	2	3	0	3	1	3	2	3	1	3	0	
2	4	1	4	0	4	1	4	2	4	3	4	4	
4	2	0	5	6	2	0	2	1	2	2	2	3	0	4	
2	4	3	3	0	3	1	3	2	3	5	3	4	
3	0	5	4	5	0	5	1	5	5	5	3	5	4	
3	4	5	6	5	0	5	1	5	2	5	5	5	4	
2	3	9	9	0	9	1	9	2	9	5	9	4	
2	1	0	1	0	1	1	1	2	0	5	0	4	
3	8	6	5	6	0	6	1	6	2	6	5	6	4	
3	9	5	4	9	0	5	1	5	2	5	1	5	0	
4	0	5	9	8	0	0	0	1	5	5	5	3	5	4	
2	5	6	6	0	6	1	6	5	6	3	6	4	
2	3	4	3	0	3	1	3	2	3	3	3	4	
2	1	3	3	0	3	1	3	2	3	3	3	4	
2	7	8	7	0	7	1	7	2	7	1	7	0	
2	2	4	2	0	2	1	2	2	2	1	2	0	
3	4	5	9	4	0	4	1	4	5	4	3	4	4	
3	2	3	9	2	0	3	1	3	2	3	1	3	0	
3	5	4	1	5	0	5	1	5	2	5	3	5	4	
3	0	2	3	0	0	2	1	2	2	2	5	2	4	
4	6	5	0	2	6	0	6	1	6	2	6	1	6	0	
2	8	7	7	0	7	1	7	2	7	1	7	0	
2	4	5	4	0	5	1	5	5	5	3	5	4	
2	7	8	7	0	7	1	7	2	7	5	7	4	
4	3	9	8	6	3	0	3	1	9	5	9	3	9	4	
2	9	3	9	0	9	1	9	2	9	5	9	4	
2	9	5	9	0	9	1	9	2	9	5	9	4	
2	4	2	4	0	4	1	4	2	4	3	2	4	
5	2	4	5	6	7	2	0	2	1	2	2	2	3	2	4	
