2109.92	2109.92
3729
42659.1	19392
10
0	0	3000
1	0	3000
2	0	3000
3	1003	3000
4	0	3000
5	1513	3000
6	0	3000
7	0	3000
8	728	3000
9	0	3000
34
0	1	33.515844	131.479641
1	0	33.186308	131.479641
0	2	26.241856	135.308578
2	0	44.378604	135.308578
0	5	136.304844	149.350323
5	0	118.607570	149.350323
1	2	0.000000	146.797369
2	1	0.000000	146.797369
1	3	78.666268	144.244414
3	1	68.047060	144.244414
1	4	0.000000	146.797369
4	1	11.023110	146.797369
2	3	68.039776	135.308578
3	2	85.951446	135.308578
2	4	15.331328	130.202668
4	2	16.856896	130.202668
3	4	33.425768	126.372741
4	3	46.870036	126.372741
3	9	107.845930	116.160923
9	3	101.367416	116.160923
4	5	80.149240	117.437895
5	4	105.661792	117.437895
5	6	122.634768	123.819787
6	5	118.882524	123.819787
5	9	65.321762	140.414487
9	5	77.647550	140.414487
6	7	48.886904	139.138505
7	6	43.382664	139.138505
6	8	43.049410	144.244414
8	6	45.849506	144.244414
7	8	56.527022	135.308578
8	7	50.854586	135.308578
8	9	114.681176	114.884940
9	8	110.733982	114.884940
360
3	3	2	0	3	0	3	1	3	5	3	3	3	4	
2	8	9	8	0	8	1	8	2	8	3	8	4	
2	8	9	8	0	8	1	8	2	8	1	8	0	
2	9	8	8	0	8	1	8	5	8	3	8	4	
4	2	3	9	8	3	0	3	1	3	2	3	5	3	4	
3	5	0	2	5	0	5	1	5	2	5	1	5	0	
4	0	5	0	2	5	0	5	1	5	2	5	1	5	0	
4	8	9	5	0	8	0	8	1	8	2	8	5	8	4	
5	1	0	5	6	7	5	0	5	1	5	2	5	5	5	4	
2	8	6	8	0	8	1	8	2	8	5	8	4	
4	3	9	8	7	3	0	3	1	3	2	3	3	3	4	
3	1	3	2	3	0	3	1	3	2	3	3	3	4	
5	7	6	5	0	1	5	0	5	1	5	5	5	3	5	4	
3	2	0	5	5	0	5	1	5	5	5	3	5	4	
3	9	5	6	5	0	5	1	5	5	5	3	5	4	
3	4	3	1	3	0	3	1	3	2	3	1	3	0	
2	5	0	5	0	5	1	5	2	5	3	5	4	
3	0	5	4	5	0	5	1	5	2	5	5	5	4	
3	7	8	6	8	0	8	1	8	2	8	5	8	4	
4	0	5	0	1	5	0	5	1	5	2	5	3	5	4	
2	3	9	3	0	3	1	3	2	3	1	3	0	
4	1	3	1	0	3	0	3	1	3	5	3	3	3	4	
3	7	6	5	5	0	5	1	5	2	5	3	5	4	
4	0	5	6	8	5	0	5	1	5	2	5	5	5	4	
2	3	4	3	0	3	1	3	2	3	1	3	0	
2	4	3	3	0	3	1	3	2	3	3	3	4	
3	2	3	4	3	0	3	1	3	2	3	3	3	4	
4	6	5	4	1	5	0	5	1	5	2	5	5	5	4	
3	5	6	7	5	0	5	1	5	5	5	3	5	4	
3	5	4	1	5	0	5	1	5	5	5	3	5	4	
3	0	1	3	3	0	3	1	3	5	3	3	3	4	
4	6	5	0	2	5	0	5	1	5	2	5	3	5	4	
4	4	5	9	8	5	0	5	1	5	5	5	3	5	4	
4	3	9	8	6	8	0	8	1	8	2	8	3	8	4	
2	9	3	3	0	3	1	3	2	3	1	3	0	
3	7	8	9	8	0	8	1	8	5	8	3	8	4	
3	4	3	2	3	0	3	1	3	5	3	3	3	4	
5	2	3	9	8	7	3	0	3	1	3	2	3	1	3	0	
3	6	5	0	5	0	5	1	5	2	5	1	5	0	
5	7	8	9	3	1	8	0	8	1	8	2	8	5	8	4	
2	9	8	8	0	8	1	8	2	8	3	8	4	
3	5	0	2	5	0	5	1	5	2	5	5	5	4	
4	0	5	0	2	5	0	5	1	5	2	5	3	5	4	
4	8	6	5	0	5	0	5	1	5	2	5	1	5	0	
5	1	3	9	8	7	3	0	3	1	3	2	3	1	3	0	
4	7	6	5	4	5	0	5	1	5	2	5	3	5	4	
2	3	1	3	0	3	1	3	5	3	3	3	4	
4	3	9	8	7	8	0	8	1	8	5	8	3	8	4	
3	1	3	2	3	0	3	1	3	2	3	1	3	0	
3	2	0	5	5	0	5	1	5	2	5	3	5	4	
3	4	3	1	3	0	3	1	3	2	3	5	3	4	
2	5	0	5	0	5	1	5	2	5	1	5	0	
3	0	5	4	5	0	5	1	5	2	5	1	5	0	
4	6	5	4	3	5	0	5	1	5	2	5	3	5	4	
2	6	8	8	0	8	1	8	2	8	5	8	4	
3	7	8	6	8	0	8	1	8	5	8	3	8	4	
3	9	8	7	8	0	8	1	8	5	8	3	8	4	
4	0	5	0	1	5	0	5	1	5	2	5	1	5	0	
2	3	9	3	0	3	1	3	2	3	3	3	4	
4	1	0	5	0	5	0	5	1	5	2	5	3	5	4	
4	0	5	9	8	8	0	8	1	8	2	8	1	8	0	
2	3	4	3	0	3	1	3	2	3	5	3	4	
2	4	3	3	0	3	1	3	2	3	1	3	0	
3	2	3	4	3	0	3	1	3	5	3	3	3	4	
4	6	5	0	1	5	0	5	1	5	5	5	3	5	4	
4	8	9	5	4	8	0	8	1	8	5	8	3	8	4	
3	5	6	7	5	0	5	1	5	2	5	5	5	4	
3	5	0	1	5	0	5	1	5	2	5	5	5	4	
3	0	1	3	3	0	3	1	3	2	3	3	3	4	
4	4	5	9	8	5	0	5	1	5	2	5	5	5	4	
3	9	5	0	5	0	5	1	5	2	5	5	5	4	
2	7	8	8	0	8	1	8	5	8	3	8	4	
3	2	3	1	3	0	3	1	3	2	3	5	3	4	
4	3	9	8	6	8	0	8	1	8	2	8	1	8	0	
2	9	3	3	0	3	1	3	2	3	3	3	4	
3	4	3	2	3	0	3	1	3	2	3	5	3	4	
5	2	4	5	6	7	5	0	5	1	5	2	5	5	5	4	
3	6	5	0	5	0	5	1	5	2	5	3	5	4	
3	8	9	3	8	0	8	1	8	2	3	5	3	4	
3	1	3	4	3	0	3	1	3	2	3	5	3	4	
5	7	8	9	3	1	8	0	8	1	8	2	8	1	8	0	
2	9	8	8	0	8	1	8	2	8	1	8	0	
3	5	0	2	5	0	5	1	5	5	5	3	5	4	
4	0	5	0	2	5	0	5	1	5	5	5	3	5	4	
3	3	9	8	3	0	3	1	3	2	3	3	3	4	
4	8	9	5	0	8	0	8	1	8	2	8	3	8	4	
5	1	3	9	8	7	3	0	3	1	3	2	3	3	3	4	
4	7	6	5	4	5	0	5	1	5	2	5	1	5	0	
3	9	3	1	3	0	3	1	3	2	3	1	3	0	
4	2	0	5	0	5	0	5	1	5	2	5	1	5	0	
2	3	1	3	0	3	1	3	2	3	5	3	4	
4	1	3	9	8	3	0	3	1	3	2	3	5	3	4	
4	3	9	8	7	3	0	3	1	3	2	3	5	3	4	
3	1	3	2	3	0	3	1	3	2	3	5	3	4	
3	2	0	5	5	0	5	1	5	2	5	1	5	0	
4	0	5	6	7	5	0	5	1	5	2	5	5	5	4	
3	4	3	1	3	0	3	1	3	5	3	3	3	4	
3	0	5	4	5	0	5	1	5	2	5	3	5	4	
4	6	5	4	3	5	0	5	1	5	2	5	1	5	0	
4	8	9	3	2	8	0	8	1	8	2	8	1	8	0	
3	1	0	5	5	0	5	1	5	2	5	1	5	0	
3	7	8	6	8	0	8	1	8	2	8	3	8	4	
3	9	8	7	8	0	8	1	8	2	8	5	8	4	
4	0	5	0	1	5	0	5	1	5	2	5	5	5	4	
4	1	3	1	0	3	0	3	1	3	2	3	1	3	0	
3	9	3	2	3	0	3	1	3	2	3	3	3	4	
2	2	3	3	0	3	1	3	2	3	3	3	4	
4	0	5	6	8	5	0	5	1	5	2	5	3	5	4	
3	1	3	9	3	0	3	1	3	2	3	1	3	0	
2	3	4	3	0	3	1	3	5	3	3	3	4	
3	2	3	4	3	0	3	1	3	2	3	5	3	4	
3	0	5	6	5	0	5	1	5	2	5	1	5	0	
4	6	5	0	1	5	0	5	1	5	2	5	3	5	4	
4	8	6	5	4	8	0	8	1	8	2	8	5	8	4	
2	8	9	8	0	8	1	8	5	8	3	8	4	
3	5	6	7	5	0	5	1	5	2	5	1	5	0	
3	0	1	3	3	0	3	1	3	2	3	1	3	0	
4	8	9	3	1	8	0	8	1	8	2	8	3	8	4	
4	1	0	5	6	5	0	5	1	5	2	5	3	5	4	
4	4	5	9	8	5	0	5	1	5	2	5	1	5	0	
3	9	5	0	5	0	5	1	5	5	5	3	5	4	
3	2	3	1	3	0	3	1	3	5	3	3	3	4	
5	7	6	5	4	2	5	0	5	1	5	2	5	5	5	4	
5	2	3	9	8	7	3	0	3	1	3	5	3	3	3	4	
3	8	9	5	8	0	8	1	8	5	8	3	8	4	
2	0	5	5	0	5	1	5	2	5	3	5	4	
3	6	5	0	5	0	5	1	5	5	5	3	5	4	
3	8	9	3	8	0	8	1	8	5	8	3	8	4	
3	1	3	4	3	0	3	1	3	5	3	3	3	4	
5	7	8	9	3	1	8	0	8	1	8	2	8	3	8	4	
4	0	5	0	2	5	0	5	1	5	2	5	5	5	4	
3	3	9	8	3	0	3	1	3	2	3	1	3	0	
4	7	6	5	4	5	0	5	1	5	2	5	5	5	4	
3	9	3	1	3	0	3	1	3	2	3	3	3	4	
4	2	3	2	0	3	0	3	1	3	2	3	3	3	4	
2	6	8	8	0	8	1	8	5	8	3	8	4	
3	0	5	9	5	0	5	1	5	2	5	3	5	4	
2	3	1	3	0	3	1	3	2	3	1	3	0	
2	6	5	5	0	5	1	5	2	5	5	5	4	
4	1	3	9	8	3	0	3	1	8	5	8	3	8	4	
3	1	3	2	3	0	3	1	3	5	3	3	3	4	
3	5	9	3	5	0	5	1	5	5	5	3	5	4	
4	0	5	6	7	5	0	5	1	5	5	5	3	5	4	
4	7	8	9	3	8	0	8	1	8	2	8	1	8	0	
4	8	9	3	1	8	0	8	1	8	5	8	3	8	4	
3	6	8	9	8	0	8	1	8	2	8	5	8	4	
4	6	5	4	3	5	0	5	1	5	2	5	5	5	4	
4	8	9	3	2	8	0	8	1	8	2	8	3	8	4	
3	1	0	5	5	0	5	1	5	2	5	3	5	4	
3	7	8	6	8	0	8	1	8	2	8	1	8	0	
3	9	8	7	8	0	8	1	8	2	8	1	8	0	
3	5	9	8	5	0	5	1	5	2	5	5	5	4	
4	0	1	3	1	3	0	3	1	3	5	3	3	3	4	
3	4	5	0	5	0	5	1	5	5	5	3	5	4	
3	9	3	2	3	0	3	1	3	2	3	1	3	0	
2	2	3	3	0	3	1	3	2	3	1	3	0	
3	6	5	4	5	0	5	1	5	2	5	1	5	0	
3	1	3	9	3	0	3	1	3	2	3	3	3	4	
2	5	4	5	0	5	1	5	2	5	5	5	4	
3	0	5	6	5	0	5	1	5	2	5	3	5	4	
4	6	5	0	1	5	0	5	1	5	2	5	1	5	0	
4	8	9	5	4	8	0	8	1	8	2	8	1	8	0	
4	7	6	5	0	5	0	5	1	5	2	5	3	5	4	
3	5	6	7	5	0	5	1	5	2	5	3	5	4	
3	3	9	5	5	0	5	1	5	5	5	3	5	4	
3	7	8	9	8	0	8	1	8	2	8	5	8	4	
4	1	0	5	6	5	0	5	1	5	2	5	1	5	0	
4	4	3	9	8	3	0	3	1	3	2	3	3	3	4	
3	9	5	0	5	0	5	1	5	2	5	3	5	4	
3	2	3	1	3	0	3	1	3	2	3	3	3	4	
2	5	9	5	0	5	1	5	2	5	1	5	0	
4	4	5	6	7	5	0	5	1	5	2	5	5	5	4	
2	5	0	5	0	5	1	5	5	5	3	5	4	
3	6	8	7	8	0	8	1	8	2	8	3	8	4	
5	7	8	9	3	2	8	0	8	1	8	5	8	3	8	4	
2	0	5	5	0	5	1	5	2	5	1	5	0	
3	6	5	0	5	0	5	1	5	2	5	5	5	4	
3	8	9	3	8	0	8	1	8	2	8	3	8	4	
3	1	3	4	3	0	3	1	3	2	3	3	3	4	
2	3	2	3	0	3	1	3	2	3	5	3	4	
3	3	9	8	3	0	3	1	3	2	3	5	3	4	
4	2	0	5	6	5	0	5	1	5	5	5	3	5	4	
4	7	6	5	4	5	0	5	1	5	5	5	3	5	4	
3	9	3	1	3	0	3	1	3	5	3	3	3	4	
4	2	3	2	0	3	0	3	1	3	5	3	3	3	4	
3	0	5	9	5	0	5	1	5	2	5	1	5	0	
2	3	1	3	0	3	1	3	2	3	3	3	4	
2	6	5	5	0	5	1	5	5	5	3	5	4	
4	1	3	9	8	3	0	3	1	3	2	3	3	3	4	
3	4	5	6	5	0	5	1	5	2	5	1	5	0	
3	5	9	3	5	0	5	1	5	2	5	5	5	4	
4	0	5	6	7	5	0	5	1	5	2	5	3	5	4	
4	7	8	9	3	8	0	8	1	8	2	3	3	3	4	
3	9	5	4	5	0	5	1	5	2	5	5	5	4	
2	5	6	5	0	5	1	5	2	5	3	5	4	
3	6	8	9	8	0	8	1	8	5	8	3	8	4	
2	1	3	3	0	3	1	3	5	3	3	3	4	
4	6	5	4	3	5	0	5	1	5	5	5	3	5	4	
4	8	9	3	2	8	0	8	1	8	5	8	3	8	4	
3	1	0	5	5	0	5	1	5	5	5	3	5	4	
3	4	5	9	5	0	5	1	5	2	5	3	5	4	
3	9	8	7	8	0	8	1	8	2	8	3	8	4	
3	5	9	8	5	0	5	1	5	5	5	3	5	4	
2	8	9	8	0	8	1	8	2	8	5	8	4	
3	4	5	0	5	0	5	1	5	2	5	5	5	4	
3	2	3	9	3	0	3	1	3	2	3	5	3	4	
3	9	3	2	3	0	3	1	3	2	3	5	3	4	
2	2	3	3	0	3	1	3	2	3	5	3	4	
3	6	5	4	5	0	5	1	5	2	5	3	5	4	
2	8	7	8	0	8	1	8	2	8	5	8	4	
3	1	3	9	3	0	3	1	3	5	3	3	3	4	
2	4	5	5	0	5	1	5	2	5	3	5	4	
2	5	4	5	0	5	1	5	5	5	3	5	4	
3	0	5	6	5	0	5	1	5	5	5	3	5	4	
4	8	9	5	4	8	0	8	1	8	2	8	3	8	4	
4	7	6	5	0	5	0	5	1	5	2	5	1	5	0	
2	9	5	5	0	5	1	5	2	5	1	5	0	
2	6	8	8	0	8	1	8	2	8	3	8	4	
3	7	8	9	8	0	8	1	8	2	8	1	8	0	
4	1	0	5	6	5	0	5	1	5	2	5	5	5	4	
3	9	5	0	5	0	5	1	5	2	5	1	5	0	
3	7	6	5	5	0	5	1	5	2	5	1	5	0	
3	2	3	1	3	0	3	1	3	2	3	1	3	0	
2	5	9	5	0	5	1	5	2	5	3	5	4	
3	3	2	0	3	0	3	1	3	2	3	3	3	4	
4	4	5	6	7	5	0	5	1	5	5	5	3	5	4	
4	2	3	9	8	3	0	3	1	3	2	3	1	3	0	
3	6	8	7	8	0	8	1	8	2	8	1	8	0	
2	8	6	8	0	8	1	8	2	8	1	8	0	
5	7	6	5	0	2	5	0	5	1	5	2	5	3	5	4	
3	3	9	5	3	0	3	1	3	2	3	5	3	4	
2	0	5	5	0	5	1	5	2	5	5	5	4	
3	8	9	3	3	0	3	1	3	2	3	1	3	0	
3	1	3	4	3	0	3	1	3	2	3	1	3	0	
3	9	8	6	8	0	8	1	8	2	8	3	8	4	
2	3	2	3	0	3	1	3	5	3	3	3	4	
3	3	9	8	8	0	8	1	8	5	8	3	8	4	
4	8	9	3	1	8	0	8	1	8	2	8	5	8	4	
4	2	0	5	6	5	0	5	1	5	2	5	5	5	4	
3	9	3	1	3	0	3	1	3	2	3	5	3	4	
4	2	3	2	0	3	0	3	1	3	2	3	5	3	4	
3	0	5	9	5	0	5	1	5	2	5	5	5	4	
2	6	5	5	0	5	1	5	2	5	3	5	4	
4	1	3	9	8	3	0	3	1	3	2	3	1	3	0	
3	4	5	6	5	0	5	1	5	2	5	3	5	4	
3	5	9	3	5	0	5	1	5	2	5	1	5	0	
4	0	5	6	7	5	0	5	1	5	2	5	1	5	0	
3	8	9	5	8	0	8	1	8	2	8	3	8	4	
4	7	8	9	3	8	0	8	1	8	5	8	3	8	4	
3	9	5	4	5	0	5	1	5	5	5	3	5	4	
2	5	6	5	0	5	1	5	2	5	1	5	0	
2	4	3	3	0	3	1	3	5	3	3	3	4	
3	6	8	9	8	0	8	1	8	2	8	3	8	4	
2	1	3	3	0	3	1	3	2	3	5	3	4	
4	8	9	3	2	8	0	8	1	8	2	8	5	8	4	
3	1	0	5	5	0	5	1	5	2	5	5	5	4	
3	4	5	9	5	0	5	1	5	2	5	1	5	0	
3	5	9	8	5	0	5	1	5	2	5	3	5	4	
3	4	5	0	5	0	5	1	5	2	5	1	5	0	
3	2	3	9	3	0	3	1	3	5	3	3	3	4	
3	9	3	2	3	0	3	1	3	5	3	3	3	4	
2	2	3	3	0	3	1	3	5	3	3	3	4	
4	6	5	0	2	5	0	5	1	5	5	5	3	5	4	
3	6	5	4	5	0	5	1	5	5	5	3	5	4	
2	8	7	8	0	8	1	8	5	8	3	8	4	
3	1	3	9	3	0	3	1	3	2	3	5	3	4	
2	4	5	5	0	5	1	5	2	5	1	5	0	
2	5	4	5	0	5	1	5	2	5	3	5	4	
3	0	5	6	5	0	5	1	5	2	5	5	5	4	
4	7	6	5	0	5	0	5	1	5	2	5	5	5	4	
2	9	5	5	0	5	1	5	2	5	3	5	4	
3	3	9	5	3	0	3	1	3	2	3	1	3	0	
3	7	8	9	8	0	8	1	8	2	8	3	8	4	
4	1	0	5	6	5	0	5	1	5	5	5	3	5	4	
2	5	9	5	0	5	1	5	5	5	3	5	4	
3	3	2	0	3	0	3	1	3	2	3	1	3	0	
4	4	5	6	7	5	0	5	1	5	2	5	3	5	4	
4	2	3	9	8	3	0	3	1	8	2	8	3	8	4	
3	6	8	7	8	0	8	1	8	2	8	5	8	4	
2	8	6	8	0	8	1	8	2	8	3	8	4	
5	7	8	9	3	2	8	0	8	1	8	2	8	1	8	0	
2	0	5	5	0	5	1	5	5	5	3	5	4	
3	9	8	6	8	0	8	1	8	2	8	1	8	0	
2	3	2	3	0	3	1	3	2	3	3	3	4	
4	2	0	5	6	5	0	5	1	5	2	5	1	5	0	
2	5	0	5	0	5	1	5	2	5	5	5	4	
3	0	5	9	5	0	5	1	5	5	5	3	5	4	
2	6	5	5	0	5	1	5	2	5	1	5	0	
3	4	5	6	5	0	5	1	5	5	5	3	5	4	
3	5	9	3	5	0	5	1	5	2	5	3	5	4	
2	3	9	3	0	3	1	3	5	3	3	3	4	
3	8	9	5	8	0	8	1	8	2	8	1	8	0	
4	7	8	9	3	8	0	8	1	8	2	8	5	8	4	
3	9	5	4	5	0	5	1	5	2	5	3	5	4	
2	5	6	5	0	5	1	5	2	5	5	5	4	
3	6	8	9	8	0	8	1	8	2	8	1	8	0	
2	1	3	3	0	3	1	3	2	3	1	3	0	
2	7	8	8	0	8	1	8	2	8	3	8	4	
3	4	5	9	5	0	5	1	5	2	5	5	5	4	
3	5	9	8	5	0	5	1	5	2	5	1	5	0	
3	4	5	0	5	0	5	1	5	2	5	3	5	4	
3	2	3	9	3	0	3	1	3	2	3	3	3	4	
3	5	4	1	5	0	5	1	5	2	5	1	5	0	
4	6	5	4	2	5	0	5	1	5	2	5	5	5	4	
3	6	5	4	5	0	5	1	5	2	5	5	5	4	
2	8	7	8	0	8	1	8	2	8	3	8	4	
3	7	6	5	5	0	5	1	5	2	5	5	5	4	
2	4	5	5	0	5	1	5	2	5	5	5	4	
2	5	4	5	0	5	1	5	2	5	1	5	0	
4	3	9	5	6	5	0	5	1	5	2	5	5	5	4	
3	7	6	5	5	0	5	1	5	5	5	3	5	4	
2	9	3	3	0	3	1	3	5	3	3	3	4	
4	7	6	5	0	5	0	5	1	5	5	5	3	5	4	
2	9	5	5	0	5	1	5	5	5	3	5	4	
3	3	9	5	3	0	5	1	5	2	5	3	5	4	
2	6	8	8	0	8	1	8	2	8	1	8	0	
3	4	3	2	3	0	3	1	3	2	3	1	3	0	
2	5	9	5	0	5	1	5	2	5	5	5	4	
3	3	2	0	3	0	3	1	3	2	3	5	3	4	
4	4	5	6	7	5	0	5	1	5	2	5	1	5	0	
2	9	8	8	0	8	1	8	2	8	5	8	4	
4	2	3	9	8	8	0	8	1	8	5	8	3	8	4	
3	5	0	2	5	0	5	1	5	2	5	3	5	4	
4	8	9	5	0	8	0	8	1	8	5	8	3	8	4	
4	8	9	3	1	8	0	8	1	8	2	8	1	8	0	
5	1	3	9	8	7	3	0	3	1	3	5	3	3	3	4	
3	6	8	7	8	0	8	1	8	5	8	3	8	4	
2	8	6	8	0	8	1	8	5	8	3	8	4	
4	3	9	8	7	3	0	3	1	3	2	3	1	3	0	
3	2	4	5	5	0	5	1	5	2	5	5	5	4	
3	9	8	6	8	0	8	1	8	2	8	5	8	4	
2	3	2	3	0	3	1	3	2	3	1	3	0	
3	4	3	1	3	0	3	1	3	2	3	3	3	4	
4	2	0	5	6	5	0	5	1	5	2	5	3	5	4	
2	4	3	3	0	3	1	3	2	3	5	3	4	
3	0	5	4	5	0	5	1	5	5	5	3	5	4	
3	4	5	6	5	0	5	1	5	2	5	5	5	4	
2	3	9	3	0	3	1	3	2	3	5	3	4	
4	1	3	2	0	3	0	3	1	3	2	3	5	3	4	
3	8	9	5	8	0	8	1	8	2	8	5	8	4	
3	9	5	4	5	0	5	1	5	2	5	1	5	0	
4	0	5	6	8	5	0	5	1	5	5	5	3	5	4	
2	5	6	5	0	5	1	5	5	5	3	5	4	
2	3	4	3	0	3	1	3	2	3	3	3	4	
2	1	3	3	0	3	1	3	2	3	3	3	4	
2	7	8	8	0	8	1	8	2	8	1	8	0	
3	2	3	4	3	0	3	1	3	2	3	1	3	0	
3	4	5	9	5	0	5	1	5	5	5	3	5	4	
3	2	3	9	3	0	3	1	3	2	3	1	3	0	
3	5	4	1	5	0	5	1	5	2	5	3	5	4	
3	0	1	3	3	0	3	1	3	2	3	5	3	4	
4	6	5	4	2	5	0	5	1	5	2	5	1	5	0	
2	8	7	8	0	8	1	8	2	8	1	8	0	
2	4	5	5	0	5	1	5	5	5	3	5	4	
2	7	8	8	0	8	1	8	2	8	5	8	4	
4	3	9	5	6	3	0	3	1	3	5	3	3	3	4	
2	9	3	3	0	3	1	3	2	3	5	3	4	
2	9	5	5	0	5	1	5	2	5	5	5	4	
3	4	3	2	3	0	3	1	3	2	3	3	3	4	
5	2	3	9	8	7	3	0	3	1	3	2	3	3	3	4	
