1932.2	1932.2
1279
2036.69	1072.4
10
0	0	3000
1	431	3000
2	469	3000
3	350	3000
4	157	3000
5	890	3000
6	19	3000
7	263	3000
8	508	3000
9	157	3000
34
0	1	11.122454	131.479641
0	2	33.038542	135.308578
0	5	55.614500	149.350323
1	0	29.998502	131.479641
1	2	11.099572	146.797369
1	3	34.128100	144.244414
1	4	42.977348	146.797369
2	0	14.383322	135.308578
2	1	11.186086	146.797369
2	3	44.935950	135.308578
2	4	54.154770	130.202668
3	1	51.886320	144.244414
3	2	46.383604	135.308578
3	4	19.034054	126.372741
3	9	103.764844	116.160923
4	1	44.742100	146.797369
4	2	35.438900	130.202668
4	3	35.030484	126.372741
4	5	117.413414	117.437895
5	0	55.503610	149.350323
5	4	115.978332	117.437895
5	6	119.113338	123.819787
5	9	65.278750	140.414487
6	5	119.466174	123.819787
6	7	63.978796	139.138505
6	8	21.508944	144.244414
7	6	46.656962	139.138505
7	8	53.252724	135.308578
8	6	40.231714	144.244414
8	7	35.762694	135.308578
8	9	114.097526	114.884940
9	3	106.647580	116.160923
9	5	64.138208	140.414487
9	8	114.255412	114.884940
360
3	3	1	0	3	0	3	1	1	5	1	3	1	4	
2	8	9	8	0	8	1	8	2	8	3	8	4	
2	8	9	8	0	8	1	8	2	8	1	9	0	
2	9	8	9	0	9	1	9	5	9	3	8	4	
4	2	3	9	8	2	0	2	1	2	2	2	5	2	4	
3	5	4	2	5	0	5	1	5	2	4	1	4	0	
2	0	2	2	0	2	1	2	2	2	1	2	0	
4	8	6	5	0	8	0	8	1	8	2	8	5	6	4	
5	1	4	5	6	7	1	0	1	1	1	2	1	5	1	4	
2	8	6	8	0	8	1	8	2	8	5	8	4	
4	3	9	8	7	3	0	3	1	3	2	3	3	3	4	
2	1	2	1	0	1	1	1	2	1	3	2	4	
5	7	8	9	3	1	7	0	8	1	8	5	8	3	8	4	
3	2	4	5	2	0	2	1	2	5	2	3	2	4	
3	9	5	6	9	0	9	1	9	5	9	3	5	4	
2	4	1	4	0	4	1	4	2	4	1	4	0	
2	5	0	5	0	5	1	5	2	5	3	5	4	
3	0	2	4	2	0	2	1	2	2	2	5	2	4	
2	7	6	7	0	7	1	7	2	7	5	7	4	
2	0	1	1	0	1	1	1	2	1	3	1	4	
2	3	9	3	0	3	1	3	2	9	1	9	0	
2	1	0	1	0	1	1	1	5	1	3	1	4	
3	7	6	5	7	0	7	1	7	2	7	3	7	4	
4	0	5	9	8	5	0	5	1	5	2	5	5	5	4	
2	3	4	3	0	3	1	3	2	3	1	4	0	
2	4	3	4	0	4	1	4	2	4	3	3	4	
2	2	4	2	0	2	1	2	2	2	3	2	4	
4	6	5	4	1	5	0	5	1	5	2	5	5	5	4	
3	5	6	7	5	0	5	1	5	5	5	3	5	4	
3	5	4	1	5	0	5	1	5	5	5	3	5	4	
3	0	2	3	2	0	2	1	2	5	2	3	2	4	
4	6	5	4	2	5	0	5	1	5	2	5	3	5	4	
4	4	5	9	8	4	0	4	1	4	5	4	3	5	4	
4	3	9	8	6	3	0	3	1	3	2	3	3	3	4	
2	9	3	9	0	9	1	9	2	9	1	3	0	
3	7	8	9	7	0	7	1	7	5	7	3	8	4	
2	4	2	4	0	4	1	4	5	4	3	2	4	
5	2	3	9	8	7	2	0	2	1	2	2	2	1	3	0	
3	6	5	0	5	0	5	1	5	2	5	1	5	0	
5	7	8	9	3	1	8	0	8	1	8	2	8	5	8	4	
2	9	8	8	0	8	1	8	2	8	3	8	4	
3	5	4	2	5	0	5	1	5	2	5	5	5	4	
2	0	2	2	0	2	1	2	2	2	3	2	4	
4	8	9	5	0	9	0	9	1	9	2	9	1	9	0	
5	1	3	9	8	7	1	0	1	1	1	2	1	1	3	0	
4	7	6	5	4	7	0	7	1	7	2	7	3	7	4	
2	3	1	3	0	3	1	3	5	3	3	1	4	
4	3	9	8	7	3	0	3	1	3	5	3	3	3	4	
2	1	2	1	0	1	1	1	2	1	1	1	0	
3	2	4	5	2	0	2	1	2	2	2	3	2	4	
2	4	1	4	0	4	1	4	2	4	5	1	4	
2	5	0	5	0	5	1	5	2	5	1	5	0	
3	0	2	4	2	0	2	1	2	2	2	1	2	0	
4	6	5	4	3	5	0	5	1	5	2	5	3	5	4	
2	6	8	8	0	8	1	8	2	8	5	8	4	
2	7	6	7	0	7	1	7	5	7	3	7	4	
3	9	8	7	9	0	8	1	8	5	8	3	8	4	
2	0	1	1	0	1	1	1	2	1	1	1	0	
2	3	9	3	0	3	1	3	2	3	3	3	4	
2	1	0	1	0	1	1	1	2	1	3	1	4	
4	0	5	9	8	5	0	5	1	5	2	5	1	5	0	
2	3	4	3	0	3	1	3	2	3	5	3	4	
2	4	3	4	0	4	1	4	2	4	1	3	0	
2	2	4	2	0	2	1	2	5	2	3	2	4	
4	6	5	4	1	5	0	5	1	5	5	5	3	5	4	
4	8	6	5	4	8	0	8	1	8	5	8	3	6	4	
3	5	6	7	5	0	5	1	5	2	5	5	5	4	
3	5	4	1	5	0	5	1	5	2	5	5	5	4	
3	0	2	3	2	0	2	1	2	2	2	3	2	4	
4	4	5	9	8	4	0	4	1	4	2	4	5	5	4	
3	9	5	0	5	0	5	1	5	2	5	5	5	4	
2	7	8	7	0	8	1	8	5	8	3	8	4	
2	2	1	2	0	2	1	2	2	2	5	1	4	
4	3	9	8	6	3	0	3	1	3	2	3	1	3	0	
2	9	3	3	0	3	1	3	2	3	3	3	4	
2	4	2	2	0	2	1	2	2	2	5	2	4	
5	2	4	5	6	7	2	0	2	1	2	2	2	5	2	4	
3	6	5	0	5	0	5	1	5	2	5	3	5	4	
3	8	9	3	8	0	8	1	8	2	8	5	8	4	
2	1	4	1	0	1	1	1	2	1	5	1	4	
5	7	8	9	3	1	8	0	8	1	8	2	8	1	8	0	
2	9	8	9	0	9	1	9	2	9	1	8	0	
3	5	4	2	5	0	5	1	5	5	5	3	5	4	
2	0	2	2	0	2	1	2	5	2	3	2	4	
3	3	9	8	3	0	3	1	3	2	3	3	3	4	
4	8	9	5	0	8	0	8	1	8	2	8	3	8	4	
5	1	4	5	6	7	1	0	1	1	1	2	1	3	1	4	
4	7	6	5	4	7	0	7	1	7	2	7	1	7	0	
3	9	3	1	9	0	9	1	9	2	9	1	3	0	
2	2	0	2	0	2	1	2	2	2	1	2	0	
2	3	1	1	0	1	1	1	2	1	5	1	4	
4	1	3	9	8	1	0	1	1	1	2	1	5	1	4	
4	3	9	8	7	3	0	3	1	3	2	3	5	3	4	
2	1	2	1	0	1	1	1	2	1	5	2	4	
3	2	4	5	2	0	2	1	2	2	2	1	2	0	
4	0	5	6	7	5	0	5	1	5	2	5	5	5	4	
2	4	1	4	0	4	1	4	5	4	3	1	4	
3	0	2	4	2	0	2	1	2	2	2	3	2	4	
4	6	5	4	3	5	0	5	1	5	2	5	1	5	0	
4	8	9	3	2	8	0	8	1	8	2	8	1	9	0	
3	1	4	5	1	0	1	1	1	2	1	1	4	0	
2	7	6	7	0	7	1	7	2	7	3	7	4	
3	9	8	7	8	0	8	1	8	2	8	5	8	4	
2	0	1	1	0	1	1	1	2	1	5	1	4	
2	1	0	1	0	1	1	1	2	1	1	1	0	
3	9	3	2	9	0	9	1	9	2	9	3	3	4	
2	2	3	2	0	2	1	2	2	2	3	2	4	
4	0	5	9	8	5	0	5	1	5	2	5	3	5	4	
3	1	3	9	1	0	1	1	1	2	1	1	1	0	
2	3	4	4	0	4	1	4	5	4	3	4	4	
2	2	4	2	0	2	1	2	2	2	5	2	4	
3	0	5	6	5	0	5	1	5	2	5	1	5	0	
4	6	5	4	1	5	0	5	1	5	2	5	3	5	4	
4	8	6	5	4	8	0	8	1	8	2	8	5	6	4	
2	8	9	8	0	8	1	8	5	8	3	8	4	
3	5	6	7	5	0	5	1	5	2	5	1	5	0	
3	0	2	3	2	0	2	1	2	2	2	1	2	0	
4	8	9	3	1	8	0	8	1	8	2	8	3	8	4	
4	1	4	5	6	1	0	1	1	1	2	1	3	1	4	
4	4	5	6	8	4	0	4	1	5	2	5	1	5	0	
3	9	5	0	9	0	9	1	9	5	9	3	5	4	
2	2	1	2	0	2	1	2	5	2	3	2	4	
5	7	8	9	3	2	8	0	8	1	8	2	8	5	8	4	
5	2	4	5	6	7	2	0	2	1	2	5	2	3	2	4	
3	8	6	5	8	0	8	1	8	5	8	3	6	4	
2	0	5	5	0	5	1	5	2	5	3	5	4	
3	6	5	0	5	0	5	1	5	5	5	3	5	4	
3	8	9	3	8	0	8	1	8	5	8	3	8	4	
2	1	4	1	0	1	1	1	5	1	3	1	4	
5	7	6	5	4	1	7	0	7	1	7	2	7	3	7	4	
2	0	2	2	0	2	1	2	2	2	5	2	4	
3	3	9	8	3	0	3	1	3	2	3	1	3	0	
4	7	6	5	4	7	0	7	1	7	2	7	5	7	4	
3	9	3	1	9	0	9	1	9	2	9	3	3	4	
2	2	0	2	0	2	1	2	2	2	3	2	4	
2	6	8	8	0	8	1	8	5	8	3	8	4	
3	0	5	9	5	0	5	1	5	2	5	3	5	4	
2	3	1	3	0	3	1	3	2	3	1	3	0	
2	6	5	5	0	5	1	5	2	5	5	5	4	
4	1	3	9	8	1	0	1	1	1	5	1	3	1	4	
2	1	2	1	0	1	1	1	5	1	3	2	4	
3	5	9	3	5	0	5	1	5	5	5	3	5	4	
4	0	5	6	7	5	0	5	1	5	5	5	3	5	4	
4	7	8	9	3	7	0	7	1	7	2	7	1	8	0	
4	8	9	3	1	8	0	8	1	8	5	8	3	8	4	
3	6	8	9	8	0	8	1	8	2	8	5	8	4	
4	6	5	4	3	5	0	5	1	5	2	5	5	5	4	
4	8	9	3	2	8	0	8	1	8	2	8	3	8	4	
3	1	4	5	1	0	1	1	1	2	1	3	1	4	
2	7	6	7	0	7	1	7	2	7	1	7	0	
3	9	8	7	9	0	9	1	9	2	9	1	8	0	
3	5	9	8	5	0	5	1	5	2	5	5	5	4	
2	0	1	1	0	1	1	1	5	1	3	1	4	
3	4	5	0	4	0	4	1	4	5	4	3	5	4	
3	9	3	2	9	0	9	1	9	2	9	1	3	0	
2	2	3	2	0	2	1	2	2	3	1	3	0	
3	6	5	4	5	0	5	1	5	2	5	1	5	0	
3	1	3	9	1	0	1	1	1	2	1	3	1	4	
2	5	4	5	0	5	1	5	2	5	5	5	4	
3	0	5	6	5	0	5	1	5	2	5	3	5	4	
4	6	5	4	1	5	0	5	1	5	2	5	1	5	0	
4	8	9	3	4	8	0	8	1	9	2	9	1	9	0	
4	7	6	5	0	7	0	7	1	7	2	7	3	7	4	
3	5	6	7	5	0	5	1	5	2	5	3	5	4	
3	3	9	5	3	0	3	1	3	5	3	3	3	4	
3	7	8	9	7	0	7	1	7	2	7	5	8	4	
4	1	4	5	6	1	0	1	1	1	2	1	1	4	0	
4	4	5	9	8	4	0	4	1	4	2	4	3	5	4	
3	9	5	0	9	0	9	1	9	2	9	3	5	4	
2	2	1	2	0	2	1	2	2	2	3	1	4	
2	5	9	5	0	5	1	5	2	5	1	9	0	
4	4	5	6	7	4	0	5	1	5	2	5	5	5	4	
2	5	0	5	0	5	1	5	5	5	3	5	4	
2	6	7	7	0	7	1	7	2	7	3	7	4	
5	7	8	9	3	2	7	0	8	1	8	5	8	3	8	4	
2	0	5	5	0	5	1	5	2	5	1	5	0	
3	6	5	0	5	0	5	1	5	2	5	5	5	4	
3	8	9	3	8	0	8	1	8	2	8	3	8	4	
2	1	4	1	0	1	1	1	2	1	3	1	4	
2	3	2	3	0	3	1	3	2	3	5	2	4	
3	3	9	8	3	0	3	1	3	2	3	5	3	4	
4	2	4	5	6	2	0	2	1	2	5	2	3	2	4	
4	7	6	5	4	7	0	7	1	7	5	7	3	7	4	
3	9	3	1	9	0	9	1	9	5	9	3	3	4	
2	2	0	2	0	2	1	2	5	2	3	2	4	
3	0	5	9	5	0	5	1	5	2	5	1	5	0	
2	3	1	3	0	3	1	1	2	1	3	1	4	
2	6	5	5	0	5	1	5	5	5	3	5	4	
4	1	3	9	8	1	0	1	1	1	2	1	3	1	4	
3	4	5	6	4	0	4	1	4	2	4	1	5	0	
3	5	4	3	5	0	5	1	5	2	4	5	4	4	
4	0	5	6	7	5	0	5	1	5	2	5	3	5	4	
4	7	8	9	3	8	0	8	1	8	2	8	3	8	4	
3	9	5	4	5	0	5	1	5	2	5	5	5	4	
2	5	6	5	0	5	1	5	2	5	3	5	4	
3	6	8	9	8	0	8	1	8	5	8	3	8	4	
2	1	3	1	0	1	1	1	5	1	3	1	4	
4	6	5	4	3	5	0	5	1	5	5	5	3	5	4	
4	8	9	3	2	8	0	8	1	8	5	8	3	8	4	
3	1	4	5	1	0	1	1	1	5	1	3	1	4	
3	4	3	9	3	0	3	1	3	2	3	3	3	4	
3	9	8	7	9	0	9	1	9	2	9	3	8	4	
3	5	9	8	5	0	5	1	5	5	5	3	5	4	
2	8	9	8	0	8	1	8	2	8	5	8	4	
3	4	1	0	4	0	4	1	1	2	1	5	1	4	
3	2	3	9	2	0	2	1	2	2	2	5	2	4	
3	9	3	2	9	0	9	1	3	2	3	5	3	4	
2	2	3	2	0	2	1	2	2	2	5	2	4	
3	6	5	4	5	0	5	1	5	2	5	3	5	4	
2	8	7	7	0	7	1	7	2	7	5	7	4	
3	1	3	9	1	0	1	1	1	5	1	3	1	4	
2	4	5	4	0	4	1	4	2	4	3	5	4	
2	5	4	5	0	5	1	5	5	5	3	5	4	
3	0	5	6	5	0	5	1	5	5	5	3	5	4	
4	8	9	3	4	8	0	8	1	8	2	8	3	8	4	
4	7	6	5	0	7	0	7	1	7	2	7	1	7	0	
2	9	5	9	0	9	1	9	2	9	1	9	0	
2	6	8	8	0	8	1	8	2	8	3	8	4	
3	7	8	9	8	0	8	1	8	2	8	1	8	0	
4	1	4	5	6	1	0	1	1	1	2	1	5	1	4	
3	9	5	0	9	0	9	1	9	2	9	1	5	0	
3	7	6	5	7	0	7	1	7	2	7	1	7	0	
2	2	1	2	0	2	1	1	2	1	1	1	0	
2	5	9	5	0	5	1	5	2	5	3	5	4	
3	3	1	0	3	0	3	1	1	2	1	3	1	4	
4	4	5	6	7	4	0	4	1	4	5	4	3	5	4	
4	2	3	9	8	2	0	2	1	2	2	2	1	2	0	
2	6	7	7	0	7	1	7	2	7	1	7	0	
2	8	6	8	0	8	1	8	2	8	1	8	0	
5	7	8	9	3	2	8	0	8	1	8	2	8	3	8	4	
3	3	9	5	3	0	3	1	3	2	3	5	3	4	
2	0	5	5	0	5	1	5	2	5	5	5	4	
3	8	9	3	8	0	8	1	8	2	8	1	8	0	
2	1	4	1	0	1	1	1	2	1	1	4	0	
3	9	8	6	9	0	8	1	8	2	8	3	8	4	
2	3	2	3	0	3	1	3	5	3	3	2	4	
3	3	9	8	3	0	3	1	3	5	3	3	3	4	
4	8	9	3	1	8	0	8	1	8	2	8	5	8	4	
4	2	4	5	6	2	0	2	1	2	2	2	5	2	4	
3	9	3	1	9	0	9	1	9	2	9	5	3	4	
2	2	0	2	0	2	1	2	2	2	5	2	4	
3	0	5	9	5	0	5	1	5	2	5	5	5	4	
2	6	5	5	0	5	1	5	2	5	3	5	4	
4	1	3	9	8	1	0	1	1	1	2	1	1	3	0	
3	4	5	6	4	0	4	1	4	2	4	3	5	4	
3	5	4	3	5	0	5	1	4	2	4	1	4	0	
4	0	5	6	7	5	0	5	1	5	2	5	1	5	0	
3	8	9	5	8	0	8	1	8	2	8	3	8	4	
4	7	8	9	3	7	0	7	1	7	5	7	3	8	4	
3	9	3	4	9	0	9	1	9	5	9	3	3	4	
2	5	6	5	0	5	1	5	2	5	1	5	0	
2	4	3	4	0	4	1	4	5	4	3	3	4	
3	6	5	9	5	0	5	1	5	2	5	3	5	4	
2	1	3	1	0	1	1	1	2	1	5	1	4	
4	8	9	3	2	8	0	8	1	8	2	8	5	8	4	
3	1	4	5	1	0	1	1	1	2	1	5	1	4	
3	4	3	9	4	0	4	1	3	2	3	1	3	0	
3	5	9	8	5	0	5	1	5	2	5	3	5	4	
3	4	1	0	4	0	4	1	4	2	1	1	1	0	
3	2	3	9	2	0	2	1	2	5	2	3	2	4	
3	9	3	2	9	0	9	1	9	5	9	3	3	4	
2	2	3	2	0	2	1	2	5	2	3	2	4	
4	6	5	4	2	5	0	5	1	5	5	5	3	5	4	
3	6	5	4	5	0	5	1	5	5	5	3	5	4	
2	8	7	8	0	8	1	8	5	8	3	7	4	
3	1	3	9	1	0	1	1	1	2	1	5	1	4	
2	4	5	4	0	5	1	5	2	5	1	5	0	
2	5	4	5	0	5	1	5	2	5	3	5	4	
3	0	5	6	5	0	5	1	5	2	5	5	5	4	
4	7	6	5	0	7	0	7	1	7	2	7	5	7	4	
2	9	5	9	0	9	1	9	2	5	3	5	4	
3	3	4	5	4	0	4	1	4	2	4	1	4	0	
3	7	8	9	7	0	7	1	7	2	7	3	8	4	
4	1	4	5	6	1	0	1	1	1	5	1	3	1	4	
2	5	9	5	0	5	1	5	5	5	3	5	4	
3	3	2	0	3	0	3	1	3	2	2	1	2	0	
4	4	5	6	7	5	0	5	1	5	2	5	3	5	4	
4	2	3	9	8	2	0	9	1	9	2	9	3	8	4	
2	6	7	7	0	7	1	7	2	7	5	7	4	
2	8	6	8	0	8	1	8	2	8	3	8	4	
5	7	8	9	3	2	8	0	8	1	8	2	8	1	8	0	
2	0	5	5	0	5	1	5	5	5	3	5	4	
3	9	5	6	9	0	9	1	9	2	9	1	5	0	
2	3	2	2	0	2	1	2	2	2	3	2	4	
4	2	4	5	6	2	0	2	1	2	2	2	1	2	0	
2	5	0	5	0	5	1	5	2	5	5	5	4	
3	0	5	9	5	0	5	1	5	5	5	3	5	4	
2	6	5	5	0	5	1	5	2	5	1	5	0	
3	4	5	6	4	0	4	1	4	5	4	3	5	4	
3	5	9	3	5	0	5	1	5	2	5	3	5	4	
2	3	9	3	0	3	1	3	5	3	3	3	4	
3	8	9	5	8	0	8	1	8	2	8	1	8	0	
4	7	8	9	3	7	0	8	1	8	2	8	5	8	4	
3	9	3	4	9	0	9	1	9	2	9	3	3	4	
2	5	6	5	0	5	1	5	2	5	5	5	4	
3	6	8	9	8	0	8	1	8	2	8	1	8	0	
2	1	3	1	0	1	1	1	2	1	1	1	0	
2	7	8	7	0	8	1	8	2	8	3	8	4	
3	4	5	9	4	0	5	1	5	2	5	5	5	4	
3	5	9	8	5	0	5	1	5	2	5	1	5	0	
3	4	2	0	2	0	2	1	2	2	2	3	2	4	
3	2	3	9	2	0	2	1	2	2	2	3	2	4	
3	5	4	1	5	0	5	1	5	2	5	1	5	0	
4	6	5	4	2	5	0	5	1	5	2	5	5	5	4	
3	6	5	4	5	0	5	1	5	2	5	5	5	4	
2	8	7	8	0	8	1	7	2	7	3	7	4	
3	7	6	5	7	0	7	1	7	2	7	5	7	4	
2	4	5	4	0	4	1	4	2	4	5	5	4	
2	5	4	5	0	5	1	5	2	5	1	5	0	
4	3	9	8	6	3	0	3	1	3	2	3	5	3	4	
3	7	6	5	7	0	7	1	7	5	7	3	7	4	
2	9	3	9	0	9	1	9	5	9	3	3	4	
4	7	6	5	0	7	0	7	1	7	5	7	3	7	4	
2	9	5	9	0	9	1	9	5	9	3	5	4	
3	3	9	5	3	0	3	1	3	2	3	3	3	4	
2	6	8	8	0	8	1	8	2	8	1	8	0	
2	4	2	4	0	4	1	4	2	4	1	4	0	
2	5	9	5	0	5	1	5	2	5	5	5	4	
3	3	1	0	3	0	3	1	3	2	3	5	1	4	
4	4	5	6	7	4	0	4	1	5	2	5	1	5	0	
2	9	8	9	0	9	1	9	2	9	5	8	4	
4	2	3	9	8	2	0	2	1	2	5	2	3	2	4	
3	5	4	2	5	0	5	1	5	2	5	3	5	4	
4	8	6	5	0	8	0	8	1	8	5	8	3	6	4	
4	8	9	3	1	8	0	8	1	8	2	8	1	9	0	
5	1	4	5	6	7	1	0	1	1	1	5	1	3	1	4	
2	6	7	7	0	7	1	7	5	7	3	7	4	
2	8	6	8	0	8	1	8	5	8	3	8	4	
4	3	9	8	7	3	0	3	1	3	2	3	1	3	0	
3	2	4	5	2	0	2	1	2	2	2	5	2	4	
3	9	5	6	9	0	9	1	9	2	9	5	5	4	
2	3	2	3	0	3	1	3	2	3	1	3	0	
2	4	1	1	0	1	1	1	2	1	3	1	4	
4	2	4	5	6	2	0	2	1	2	2	2	3	2	4	
2	4	3	3	0	3	1	3	2	3	5	3	4	
3	0	2	4	2	0	2	1	2	5	2	3	2	4	
3	4	5	6	5	0	5	1	5	2	5	5	5	4	
2	3	9	3	0	3	1	3	2	3	5	3	4	
2	1	0	1	0	1	1	1	2	1	5	1	4	
3	8	9	5	8	0	8	1	8	2	8	5	8	4	
3	9	3	4	9	0	9	1	9	2	9	1	3	0	
4	0	5	9	8	5	0	5	1	5	5	5	3	5	4	
2	5	6	5	0	5	1	5	5	5	3	5	4	
2	3	4	3	0	3	1	3	2	3	3	3	4	
2	1	3	1	0	1	1	1	2	1	3	1	4	
2	7	8	7	0	7	1	7	2	7	1	7	0	
2	2	4	4	0	4	1	4	2	4	1	4	0	
3	4	5	9	4	0	4	1	4	5	4	3	5	4	
3	2	3	9	2	0	2	1	2	2	2	1	2	0	
3	5	4	1	5	0	5	1	5	2	5	3	5	4	
3	0	2	3	2	0	2	1	2	2	2	5	2	4	
4	6	5	4	2	5	0	5	1	5	2	5	1	5	0	
2	8	7	8	0	7	1	7	2	7	1	7	0	
2	4	5	4	0	4	1	4	5	4	3	5	4	
2	7	8	7	0	7	1	7	2	7	5	8	4	
4	3	9	8	6	3	0	3	1	3	5	3	3	3	4	
2	9	3	9	0	9	1	9	2	9	5	3	4	
2	9	5	5	0	5	1	5	2	5	5	5	4	
2	4	2	2	0	2	1	2	2	2	3	2	4	
5	2	4	5	6	7	2	0	2	1	2	2	2	3	2	4	
