2109.92	2109.92
3410
11462.2	11521.9
10
0	0	3000
1	0	3000
2	0	3000
3	1109	3000
4	0	3000
5	1490	3000
6	0	3000
7	0	3000
8	645	3000
9	0	3000
34
0	1	24.270472	131.479641
1	0	34.484860	131.479641
0	2	10.914140	135.308578
2	0	55.283026	135.308578
0	5	145.182228	149.350323
5	0	90.708892	149.350323
1	2	0.000000	146.797369
2	1	0.000000	146.797369
1	3	79.346866	144.244414
3	1	67.998010	144.244414
1	4	0.000000	146.797369
4	1	22.296682	146.797369
2	3	73.813122	135.308578
3	2	95.144756	135.308578
2	4	0.000000	130.202668
4	2	24.337742	130.202668
3	4	49.155824	126.372741
4	3	55.776908	126.372741
3	9	112.078276	116.160923
9	3	115.113262	116.160923
4	5	63.713920	117.437895
5	4	116.489034	117.437895
5	6	123.449346	123.819787
6	5	121.573278	123.819787
5	9	66.925174	140.414487
9	5	67.861286	140.414487
6	7	45.758550	139.138505
7	6	37.563994	139.138505
6	8	32.539126	144.244414
8	6	39.905714	144.244414
7	8	62.345692	135.308578
8	7	53.982940	135.308578
8	9	111.990422	114.884940
9	8	109.919404	114.884940
360
3	3	2	0	3	0	3	1	3	5	3	3	3	4	
2	8	9	8	0	8	1	8	2	8	3	8	4	
2	8	9	8	0	8	1	8	2	8	1	8	0	
2	9	8	8	0	8	1	8	5	8	3	8	4	
4	2	3	9	8	3	0	3	1	3	2	3	5	3	4	
3	5	4	2	5	0	5	1	5	2	5	1	5	0	
4	0	5	0	2	5	0	5	1	5	2	5	1	5	0	
4	8	9	5	0	8	0	8	1	8	2	8	5	8	4	
5	1	0	5	6	7	5	0	5	1	5	2	5	5	5	4	
2	8	6	8	0	8	1	8	2	8	5	8	4	
4	3	9	8	7	3	0	3	1	3	2	3	3	3	4	
3	1	3	2	3	0	3	1	3	2	3	3	3	4	
5	7	6	5	4	1	5	0	5	1	5	5	5	3	5	4	
3	2	0	5	5	0	5	1	5	5	5	3	5	4	
3	9	8	6	8	0	8	1	8	5	8	3	8	4	
3	4	3	1	3	0	3	1	3	2	3	1	3	0	
2	5	0	5	0	5	1	5	2	5	3	5	4	
3	0	5	4	5	0	5	1	5	2	5	5	5	4	
3	7	8	6	8	0	8	1	8	2	8	5	8	4	
4	0	5	0	1	5	0	5	1	5	2	5	3	5	4	
2	3	9	3	0	3	1	3	2	3	1	3	0	
4	1	3	2	0	3	0	3	1	3	5	3	3	3	4	
3	7	6	5	5	0	5	1	5	2	5	3	5	4	
4	0	5	6	8	5	0	5	1	5	2	5	5	5	4	
2	3	4	3	0	3	1	3	2	3	1	3	0	
2	4	3	3	0	3	1	3	2	3	3	3	4	
3	2	3	4	3	0	3	1	3	2	3	3	3	4	
4	6	5	4	1	5	0	5	1	5	2	5	5	5	4	
3	5	6	7	5	0	5	1	5	5	5	3	5	4	
3	5	4	1	5	0	5	1	5	5	5	3	5	4	
3	0	1	3	3	0	3	1	3	5	3	3	3	4	
4	6	5	4	2	5	0	5	1	5	2	5	3	5	4	
4	4	5	9	8	5	0	5	1	5	5	5	3	5	4	
4	3	9	5	6	3	0	3	1	3	2	3	3	3	4	
2	9	3	3	0	3	1	3	2	3	1	3	0	
3	7	8	9	8	0	8	1	8	5	8	3	8	4	
3	4	3	2	3	0	3	1	3	5	3	3	3	4	
5	2	0	5	6	7	5	0	5	1	5	2	5	1	5	0	
3	6	5	0	5	0	5	1	5	2	5	1	5	0	
5	7	8	9	3	1	8	0	8	1	8	2	8	5	8	4	
2	9	8	8	0	8	1	8	2	8	3	8	4	
3	5	4	2	5	0	5	1	5	2	5	5	5	4	
4	0	5	0	2	5	0	5	1	5	2	5	3	5	4	
4	8	9	5	0	8	0	8	1	8	2	8	1	8	0	
5	1	0	5	6	7	5	0	5	1	5	2	5	1	5	0	
4	7	6	5	4	5	0	5	1	5	2	5	3	5	4	
2	3	1	3	0	3	1	3	5	3	3	3	4	
4	3	9	8	7	3	0	3	1	3	5	3	3	3	4	
3	1	3	2	3	0	3	1	3	2	3	1	3	0	
3	2	0	5	5	0	5	1	5	2	5	3	5	4	
3	4	3	1	3	0	3	1	3	2	3	5	3	4	
2	5	0	5	0	5	1	5	2	5	1	5	0	
3	0	5	4	5	0	5	1	5	2	5	1	5	0	
4	6	5	4	3	5	0	5	1	5	2	5	3	5	4	
2	6	8	8	0	8	1	8	2	8	5	8	4	
3	7	8	6	8	0	8	1	8	5	8	3	8	4	
3	9	8	7	8	0	8	1	8	5	8	3	8	4	
4	0	5	0	1	5	0	5	1	5	2	5	1	5	0	
2	3	9	3	0	3	1	3	2	3	3	3	4	
4	1	3	2	0	3	0	3	1	3	2	3	3	3	4	
4	0	5	6	8	5	0	5	1	5	2	5	1	5	0	
2	3	4	3	0	3	1	3	2	3	5	3	4	
2	4	3	3	0	3	1	3	2	3	1	3	0	
3	2	3	4	3	0	3	1	3	5	3	3	3	4	
4	6	5	4	1	5	0	5	1	5	5	5	3	5	4	
4	8	9	5	4	8	0	8	1	8	5	8	3	8	4	
3	5	6	7	5	0	5	1	5	2	5	5	5	4	
3	5	4	1	5	0	5	1	5	2	5	5	5	4	
3	0	1	3	3	0	3	1	3	2	3	3	3	4	
4	4	3	9	8	3	0	3	1	3	2	3	5	3	4	
3	9	5	0	5	0	5	1	5	2	5	5	5	4	
2	7	8	8	0	8	1	8	5	8	3	8	4	
3	2	3	1	3	0	3	1	3	2	3	5	3	4	
4	3	9	5	6	3	0	3	1	3	2	3	1	3	0	
2	9	3	3	0	3	1	3	2	3	3	3	4	
3	4	3	2	3	0	3	1	3	2	3	5	3	4	
5	2	3	9	8	7	3	0	3	1	3	2	3	5	3	4	
3	6	5	0	5	0	5	1	5	2	5	3	5	4	
3	8	9	3	3	0	3	1	3	2	3	5	3	4	
3	1	3	4	3	0	3	1	3	2	3	5	3	4	
5	7	8	9	3	1	8	0	8	1	8	2	8	1	8	0	
2	9	8	8	0	8	1	8	2	8	1	8	0	
3	5	4	2	5	0	5	1	5	5	5	3	5	4	
4	0	5	0	2	5	0	5	1	5	5	5	3	5	4	
3	3	9	8	3	0	3	1	3	2	3	3	3	4	
4	8	9	5	0	8	0	8	1	8	2	8	3	8	4	
5	1	3	9	8	7	3	0	8	1	8	2	8	3	8	4	
4	7	6	5	4	5	0	5	1	5	2	5	1	5	0	
3	9	3	1	3	0	3	1	3	2	3	1	3	0	
4	2	3	2	0	3	0	3	1	3	2	3	1	3	0	
2	3	1	3	0	3	1	3	2	3	5	3	4	
4	1	3	9	8	3	0	3	1	3	2	3	5	3	4	
4	3	9	8	7	3	0	3	1	3	2	3	5	3	4	
3	1	3	2	3	0	3	1	3	2	3	5	3	4	
3	2	0	5	5	0	5	1	5	2	5	1	5	0	
4	0	5	6	7	5	0	5	1	5	2	5	5	5	4	
3	4	3	1	3	0	3	1	3	5	3	3	3	4	
3	0	5	4	5	0	5	1	5	2	5	3	5	4	
4	6	5	4	3	5	0	5	1	5	2	5	1	5	0	
4	8	9	3	2	8	0	8	1	8	2	8	1	8	0	
3	1	0	5	5	0	5	1	5	2	5	1	5	0	
3	7	8	6	8	0	8	1	8	2	8	3	8	4	
3	9	8	7	8	0	8	1	8	2	8	5	8	4	
4	0	5	0	1	5	0	5	1	5	2	5	5	5	4	
4	1	3	1	0	3	0	3	1	3	2	3	1	3	0	
3	9	3	2	3	0	3	1	3	2	3	3	3	4	
2	2	3	3	0	3	1	3	2	3	3	3	4	
4	0	5	9	8	5	0	5	1	5	2	5	3	5	4	
3	1	3	9	3	0	3	1	3	2	3	1	3	0	
2	3	4	3	0	3	1	3	5	3	3	3	4	
3	2	3	4	3	0	3	1	3	2	3	5	3	4	
3	0	5	6	5	0	5	1	5	2	5	1	5	0	
4	6	5	4	1	5	0	5	1	5	2	5	3	5	4	
4	8	9	5	4	8	0	8	1	8	2	8	5	8	4	
2	8	9	8	0	8	1	8	5	8	3	8	4	
3	5	6	7	5	0	5	1	5	2	5	1	5	0	
3	0	1	3	3	0	3	1	3	2	3	1	3	0	
4	8	9	3	1	8	0	8	1	8	2	8	3	8	4	
4	1	0	5	6	5	0	5	1	5	2	5	3	5	4	
4	4	5	9	8	5	0	5	1	5	2	5	1	5	0	
3	9	5	0	5	0	5	1	5	5	5	3	5	4	
3	2	3	1	3	0	3	1	3	5	3	3	3	4	
5	7	8	9	3	2	8	0	8	1	8	2	8	5	8	4	
5	2	0	5	6	7	5	0	5	1	5	5	5	3	5	4	
3	8	9	5	8	0	8	1	8	5	8	3	8	4	
2	0	5	5	0	5	1	5	2	5	3	5	4	
3	6	5	0	5	0	5	1	5	5	5	3	5	4	
3	8	9	3	3	0	3	1	3	5	3	3	3	4	
3	1	3	4	3	0	3	1	3	5	3	3	3	4	
5	7	6	5	0	1	5	0	5	1	5	2	5	3	5	4	
4	0	5	0	2	5	0	5	1	5	2	5	5	5	4	
3	3	9	8	3	0	3	1	3	2	3	1	3	0	
4	7	6	5	4	5	0	5	1	5	2	5	5	5	4	
3	9	3	1	3	0	3	1	3	2	3	3	3	4	
4	2	3	1	0	3	0	3	1	3	2	3	3	3	4	
2	6	8	8	0	8	1	8	5	8	3	8	4	
3	0	5	9	5	0	5	1	5	2	5	3	5	4	
2	3	1	3	0	3	1	3	2	3	1	3	0	
2	6	5	5	0	5	1	5	2	5	5	5	4	
4	1	3	9	8	3	0	3	1	3	5	3	3	3	4	
3	1	3	2	3	0	3	1	3	5	3	3	3	4	
3	5	9	3	5	0	5	1	5	5	5	3	5	4	
4	0	5	6	7	5	0	5	1	5	5	5	3	5	4	
4	7	8	9	3	8	0	8	1	8	2	8	1	8	0	
4	8	9	3	1	8	0	8	1	8	5	8	3	8	4	
3	6	5	9	5	0	5	1	5	2	5	5	5	4	
4	6	5	4	3	5	0	5	1	5	2	5	5	5	4	
4	8	9	3	2	8	0	8	1	8	2	8	3	8	4	
3	1	0	5	5	0	5	1	5	2	5	3	5	4	
3	7	8	6	8	0	8	1	8	2	8	1	8	0	
3	9	8	7	8	0	8	1	8	2	8	1	8	0	
3	5	9	8	5	0	5	1	5	2	5	5	5	4	
4	0	5	0	1	5	0	5	1	5	5	5	3	5	4	
3	4	5	0	5	0	5	1	5	5	5	3	5	4	
3	9	3	2	3	0	3	1	3	2	3	1	3	0	
2	2	3	3	0	3	1	3	2	3	1	3	0	
3	6	5	4	5	0	5	1	5	2	5	1	5	0	
3	1	3	9	3	0	3	1	3	2	3	3	3	4	
2	5	4	5	0	5	1	5	2	5	5	5	4	
3	0	5	6	5	0	5	1	5	2	5	3	5	4	
4	6	5	4	1	5	0	5	1	5	2	5	1	5	0	
4	8	9	5	4	8	0	8	1	8	2	8	1	8	0	
4	7	6	5	0	5	0	5	1	5	2	5	3	5	4	
3	5	6	7	5	0	5	1	5	2	5	3	5	4	
3	3	9	5	3	0	3	1	3	5	3	3	3	4	
3	7	8	9	8	0	8	1	8	2	8	5	8	4	
4	1	0	5	6	5	0	5	1	5	2	5	1	5	0	
4	4	5	9	8	5	0	5	1	5	2	5	3	5	4	
3	9	5	0	5	0	5	1	5	2	5	3	5	4	
3	2	3	1	3	0	3	1	3	2	3	3	3	4	
2	5	9	5	0	5	1	5	2	5	1	5	0	
4	4	5	6	7	5	0	5	1	5	2	5	5	5	4	
2	5	0	5	0	5	1	5	5	5	3	5	4	
3	6	8	7	8	0	8	1	8	2	8	3	8	4	
5	7	6	5	0	2	5	0	5	1	5	5	5	3	5	4	
2	0	5	5	0	5	1	5	2	5	1	5	0	
3	6	5	0	5	0	5	1	5	2	5	5	5	4	
3	8	9	3	8	0	8	1	8	2	8	3	8	4	
3	1	3	4	3	0	3	1	3	2	3	3	3	4	
2	3	2	3	0	3	1	3	2	3	5	3	4	
3	3	9	8	3	0	3	1	3	2	3	5	3	4	
4	2	0	5	6	5	0	5	1	5	5	5	3	5	4	
4	7	6	5	4	5	0	5	1	5	5	5	3	5	4	
3	9	3	1	3	0	3	1	3	5	3	3	3	4	
4	2	3	2	0	3	0	3	1	3	5	3	3	3	4	
3	0	5	9	5	0	5	1	5	2	5	1	5	0	
2	3	1	3	0	3	1	3	2	3	3	3	4	
2	6	5	5	0	5	1	5	5	5	3	5	4	
4	1	3	9	8	3	0	3	1	3	2	3	3	3	4	
3	4	5	6	5	0	5	1	5	2	5	1	5	0	
3	5	9	3	5	0	5	1	5	2	5	5	5	4	
4	0	5	6	7	5	0	5	1	5	2	5	3	5	4	
4	7	8	9	3	3	0	3	1	3	2	3	3	3	4	
3	9	3	4	3	0	3	1	3	2	3	5	3	4	
2	5	6	5	0	5	1	5	2	5	3	5	4	
3	6	5	9	5	0	5	1	5	5	5	3	5	4	
2	1	3	3	0	3	1	3	5	3	3	3	4	
4	6	5	4	3	5	0	5	1	5	5	5	3	5	4	
4	8	9	3	2	8	0	8	1	8	5	8	3	8	4	
3	1	0	5	5	0	5	1	5	5	5	3	5	4	
3	4	3	9	3	0	3	1	3	2	3	3	3	4	
3	9	8	7	8	0	8	1	8	2	8	3	8	4	
3	5	9	8	5	0	5	1	5	5	5	3	5	4	
2	8	9	8	0	8	1	8	2	8	5	8	4	
3	4	5	0	5	0	5	1	5	2	5	5	5	4	
3	2	3	9	3	0	3	1	3	2	3	5	3	4	
3	9	3	2	3	0	3	1	3	2	3	5	3	4	
2	2	3	3	0	3	1	3	2	3	5	3	4	
3	6	5	4	5	0	5	1	5	2	5	3	5	4	
2	8	7	8	0	8	1	8	2	8	5	8	4	
3	1	3	9	3	0	3	1	3	5	3	3	3	4	
2	4	5	5	0	5	1	5	2	5	3	5	4	
2	5	4	5	0	5	1	5	5	5	3	5	4	
3	0	5	6	5	0	5	1	5	5	5	3	5	4	
4	8	9	5	4	8	0	8	1	8	2	8	3	8	4	
4	7	6	5	0	5	0	5	1	5	2	5	1	5	0	
2	9	5	5	0	5	1	5	2	5	1	5	0	
2	6	8	8	0	8	1	8	2	8	3	8	4	
3	7	8	9	8	0	8	1	8	2	8	1	8	0	
4	1	0	5	6	5	0	5	1	5	2	5	5	5	4	
3	9	5	0	5	0	5	1	5	2	5	1	5	0	
3	7	6	5	5	0	5	1	5	2	5	1	5	0	
3	2	3	1	3	0	3	1	3	2	3	1	3	0	
2	5	9	5	0	5	1	5	2	5	3	5	4	
3	3	2	0	3	0	3	1	3	2	3	3	3	4	
4	4	5	6	7	5	0	5	1	5	5	5	3	5	4	
4	2	3	9	8	3	0	3	1	3	2	3	1	3	0	
3	6	8	7	8	0	8	1	8	2	8	1	8	0	
2	8	6	8	0	8	1	8	2	8	1	8	0	
5	7	6	5	4	2	5	0	5	1	5	2	5	3	5	4	
3	3	4	5	5	0	5	1	5	2	5	5	5	4	
2	0	5	5	0	5	1	5	2	5	5	5	4	
3	8	9	3	8	0	8	1	8	2	8	1	8	0	
3	1	3	4	3	0	3	1	3	2	3	1	3	0	
3	9	8	6	8	0	8	1	8	2	8	3	8	4	
2	3	2	3	0	3	1	3	5	3	3	3	4	
3	3	9	8	3	0	3	1	3	5	3	3	3	4	
4	8	9	3	1	8	0	8	1	8	2	8	5	8	4	
4	2	0	5	6	5	0	5	1	5	2	5	5	5	4	
3	9	3	1	3	0	3	1	3	2	3	5	3	4	
4	2	3	2	0	3	0	3	1	3	2	3	5	3	4	
3	0	5	9	5	0	5	1	5	2	5	5	5	4	
2	6	5	5	0	5	1	5	2	5	3	5	4	
4	1	3	9	8	8	0	8	1	8	2	8	1	8	0	
3	4	5	6	5	0	5	1	5	2	5	3	5	4	
3	5	9	3	5	0	5	1	5	2	5	1	5	0	
4	0	5	6	7	5	0	5	1	5	2	5	1	5	0	
3	8	9	5	8	0	8	1	8	2	8	3	8	4	
4	7	8	9	3	8	0	8	1	8	5	8	3	8	4	
3	9	3	4	3	0	3	1	3	5	3	3	3	4	
2	5	6	5	0	5	1	5	2	5	1	5	0	
2	4	3	3	0	3	1	3	5	3	3	3	4	
3	6	5	9	5	0	5	1	5	2	5	3	5	4	
2	1	3	3	0	3	1	3	2	3	5	3	4	
4	8	9	3	2	8	0	8	1	8	2	8	5	8	4	
3	1	0	5	5	0	5	1	5	2	5	5	5	4	
3	4	3	9	3	0	3	1	3	2	3	1	3	0	
3	5	9	8	5	0	5	1	5	2	5	3	5	4	
3	4	5	0	5	0	5	1	5	2	5	1	5	0	
3	2	3	9	3	0	3	1	3	5	3	3	3	4	
3	9	3	2	3	0	3	1	3	5	3	3	3	4	
2	2	3	3	0	3	1	3	5	3	3	3	4	
4	6	5	4	2	5	0	5	1	5	5	5	3	5	4	
3	6	5	4	5	0	5	1	5	5	5	3	5	4	
2	8	7	8	0	8	1	8	5	8	3	8	4	
3	1	3	9	3	0	3	1	3	2	3	5	3	4	
2	4	5	5	0	5	1	5	2	5	1	5	0	
2	5	4	5	0	5	1	5	2	5	3	5	4	
3	0	5	6	5	0	5	1	5	2	5	5	5	4	
4	7	6	5	0	5	0	5	1	5	2	5	5	5	4	
2	9	5	5	0	5	1	5	2	5	3	5	4	
3	3	9	5	3	0	3	1	3	2	3	1	3	0	
3	7	8	9	8	0	8	1	8	2	8	3	8	4	
4	1	0	5	6	5	0	5	1	5	5	5	3	5	4	
2	5	9	5	0	5	1	5	5	5	3	5	4	
3	3	2	0	3	0	3	1	3	2	3	1	3	0	
4	4	5	6	7	5	0	5	1	5	2	5	3	5	4	
4	2	3	9	8	8	0	8	1	8	2	8	3	8	4	
3	6	8	7	8	0	8	1	8	2	8	5	8	4	
2	8	6	8	0	8	1	8	2	8	3	8	4	
5	7	8	9	3	2	8	0	8	1	8	2	8	1	8	0	
2	0	5	5	0	5	1	5	5	5	3	5	4	
3	9	5	6	5	0	5	1	5	2	5	1	5	0	
2	3	2	3	0	3	1	3	2	3	3	3	4	
4	2	0	5	6	5	0	5	1	5	2	5	1	5	0	
2	5	0	5	0	5	1	5	2	5	5	5	4	
3	0	5	9	5	0	5	1	5	5	5	3	5	4	
2	6	5	5	0	5	1	5	2	5	1	5	0	
3	4	5	6	5	0	5	1	5	5	5	3	5	4	
3	5	9	3	5	0	5	1	5	2	5	3	5	4	
2	3	9	3	0	3	1	3	5	3	3	3	4	
3	8	9	5	8	0	8	1	8	2	8	1	8	0	
4	7	8	9	3	3	0	3	1	3	2	3	5	3	4	
3	9	5	4	5	0	5	1	5	2	5	3	5	4	
2	5	6	5	0	5	1	5	2	5	5	5	4	
3	6	8	9	8	0	8	1	8	2	8	1	8	0	
2	1	3	3	0	3	1	3	2	3	1	3	0	
2	7	8	8	0	8	1	8	2	8	3	8	4	
3	4	5	9	5	0	5	1	5	2	5	5	5	4	
3	5	9	8	5	0	5	1	5	2	5	1	5	0	
3	4	5	0	5	0	5	1	5	2	5	3	5	4	
3	2	3	9	3	0	3	1	3	2	3	3	3	4	
3	5	4	1	5	0	5	1	5	2	5	1	5	0	
4	6	5	4	2	5	0	5	1	5	2	5	5	5	4	
3	6	5	4	5	0	5	1	5	2	5	5	5	4	
2	8	7	8	0	8	1	8	2	8	3	8	4	
3	7	6	5	5	0	5	1	5	2	5	5	5	4	
2	4	5	5	0	5	1	5	2	5	5	5	4	
2	5	4	5	0	5	1	5	2	5	1	5	0	
4	3	9	5	6	3	0	3	1	3	2	3	5	3	4	
3	7	6	5	5	0	5	1	5	5	5	3	5	4	
2	9	3	3	0	3	1	3	5	3	3	3	4	
4	7	6	5	0	5	0	5	1	5	5	5	3	5	4	
2	9	5	5	0	5	1	5	5	5	3	5	4	
3	3	9	5	3	0	3	1	3	2	3	3	3	4	
2	6	8	8	0	8	1	8	2	8	1	8	0	
3	4	3	2	3	0	3	1	3	2	3	1	3	0	
2	5	9	5	0	5	1	5	2	5	5	5	4	
3	3	2	0	3	0	3	1	3	2	3	5	3	4	
4	4	5	6	7	5	0	5	1	5	2	5	1	5	0	
2	9	8	8	0	8	1	8	2	8	5	8	4	
4	2	3	9	8	8	0	8	1	8	5	8	3	8	4	
3	5	4	2	5	0	5	1	5	2	5	3	5	4	
4	8	9	5	0	8	0	8	1	8	5	8	3	8	4	
4	8	9	3	1	3	0	3	1	3	2	3	1	3	0	
5	1	3	9	8	7	3	0	3	1	3	5	3	3	8	4	
3	6	8	7	8	0	8	1	8	5	8	3	8	4	
2	8	6	8	0	8	1	8	5	8	3	8	4	
4	3	9	8	7	3	0	3	1	3	2	3	1	3	0	
3	2	0	5	5	0	5	1	5	2	5	5	5	4	
3	9	8	6	8	0	8	1	8	2	8	5	8	4	
2	3	2	3	0	3	1	3	2	3	1	3	0	
3	4	3	1	3	0	3	1	3	2	3	3	3	4	
4	2	0	5	6	5	0	5	1	5	2	5	3	5	4	
2	4	3	3	0	3	1	3	2	3	5	3	4	
3	0	5	4	5	0	5	1	5	5	5	3	5	4	
3	4	5	6	5	0	5	1	5	2	5	5	5	4	
2	3	9	3	0	3	1	3	2	3	5	3	4	
4	1	3	2	0	3	0	3	1	3	2	3	5	3	4	
3	8	6	5	5	0	5	1	5	2	5	5	5	4	
3	9	5	4	5	0	5	1	5	2	5	1	5	0	
4	0	5	9	8	5	0	5	1	5	5	5	3	5	4	
2	5	6	5	0	5	1	5	5	5	3	5	4	
2	3	4	3	0	3	1	3	2	3	3	3	4	
2	1	3	3	0	3	1	3	2	3	3	3	4	
2	7	8	8	0	8	1	8	2	8	1	8	0	
3	2	3	4	3	0	3	1	3	2	3	1	3	0	
3	4	5	9	5	0	5	1	5	5	5	3	5	4	
3	2	3	9	3	0	3	1	3	2	3	1	3	0	
3	5	4	1	5	0	5	1	5	2	5	3	5	4	
3	0	1	3	3	0	3	1	3	2	3	5	3	4	
4	6	5	4	2	5	0	5	1	5	2	5	1	5	0	
2	8	7	8	0	8	1	8	2	8	1	8	0	
2	4	5	5	0	5	1	5	5	5	3	5	4	
2	7	8	8	0	8	1	8	2	8	5	8	4	
4	3	9	5	6	3	0	3	1	3	5	3	3	3	4	
2	9	3	3	0	3	1	3	2	3	5	3	4	
2	9	5	5	0	5	1	5	2	5	5	5	4	
3	4	3	2	3	0	3	1	3	2	3	3	3	4	
5	2	0	5	6	7	5	0	5	1	5	2	5	3	5	4	
