1932.2	1932.2
1085
3952.16	2267.62
10
0	0	3000
1	387	3000
2	351	3000
3	87	3000
4	449	3000
5	714	3000
6	483	3000
7	55	3000
8	380	3000
9	338	3000
34
0	1	33.274064	131.479641
1	0	22.364064	131.479641
0	2	21.901416	135.308578
2	0	22.083560	135.308578
0	5	66.685734	149.350323
5	0	77.523528	149.350323
1	2	11.099572	146.797369
2	1	11.186086	146.797369
1	3	43.926766	144.244414
3	1	44.213082	144.244414
1	4	44.249300	146.797369
4	1	33.699908	146.797369
2	3	40.297988	135.308578
3	2	56.085042	135.308578
2	4	36.650880	130.202668
4	2	22.432974	130.202668
3	4	20.163474	126.372741
4	3	34.686172	126.372741
3	9	110.039028	116.160923
9	3	111.262992	116.160923
4	5	111.073430	117.437895
5	4	100.348436	117.437895
5	6	122.873606	123.819787
6	5	122.109334	123.819787
5	9	53.774946	140.414487
9	5	55.410284	140.414487
6	7	58.818092	139.138505
7	6	44.628762	139.138505
6	8	33.357060	144.244414
8	6	47.830218	144.244414
7	8	55.280924	135.308578
8	7	40.923398	135.308578
8	9	111.454366	114.884940
9	8	110.495144	114.884940
360
3	3	2	0	2	0	2	1	2	5	2	3	2	4	
2	8	9	9	0	9	1	9	2	9	3	9	4	
2	8	9	8	0	8	1	9	2	9	1	9	0	
2	9	8	9	0	8	1	8	5	8	3	8	4	
4	2	3	9	8	2	0	2	1	2	2	2	5	2	4	
3	5	4	2	5	0	5	1	5	2	5	1	5	0	
2	0	2	2	0	2	1	2	2	2	1	2	0	
4	8	6	5	0	6	0	6	1	6	2	6	5	6	4	
5	1	4	5	6	7	4	0	4	1	4	2	4	5	4	4	
2	8	6	8	0	6	1	6	2	6	5	6	4	
4	3	9	8	7	9	0	9	1	9	2	9	3	9	4	
2	1	2	1	0	1	1	1	2	1	3	1	4	
5	7	8	9	3	1	7	0	8	1	8	5	8	3	8	4	
3	2	4	5	4	0	4	1	4	5	4	3	4	4	
3	9	5	6	5	0	5	1	5	5	5	3	5	4	
2	4	1	4	0	4	1	4	2	1	1	1	0	
2	5	0	5	0	5	1	5	2	5	3	5	4	
3	0	5	4	5	0	5	1	5	2	5	5	5	4	
2	7	6	6	0	6	1	6	2	6	5	6	4	
2	0	1	1	0	1	1	1	2	1	3	1	4	
2	3	9	3	0	3	1	9	2	9	1	9	0	
2	1	0	1	0	1	1	1	5	1	3	1	4	
3	7	6	5	6	0	6	1	6	2	6	3	6	4	
4	0	5	6	8	5	0	5	1	5	2	5	5	5	4	
2	3	4	3	0	3	1	4	2	4	1	4	0	
2	4	3	4	0	4	1	4	2	4	3	4	4	
2	2	4	2	0	2	1	2	2	2	3	2	4	
4	6	5	0	1	5	0	5	1	5	2	5	5	5	4	
3	5	6	7	5	0	5	1	6	5	6	3	6	4	
3	5	4	1	5	0	5	1	5	5	5	3	5	4	
3	0	1	3	1	0	1	1	1	5	1	3	1	4	
4	6	5	0	2	6	0	6	1	6	2	6	3	6	4	
4	4	5	9	8	4	0	4	1	5	5	5	3	5	4	
4	3	9	8	6	3	0	3	1	9	2	9	3	9	4	
2	9	3	9	0	9	1	3	2	3	1	3	0	
3	7	8	9	7	0	8	1	8	5	8	3	8	4	
2	4	2	4	0	4	1	2	5	2	3	2	4	
5	2	4	5	6	7	2	0	2	1	2	2	2	1	2	0	
3	6	5	0	6	0	6	1	6	2	6	1	6	0	
5	7	8	9	3	1	8	0	8	1	8	2	8	5	8	4	
2	9	8	9	0	9	1	8	2	8	3	8	4	
3	5	4	2	5	0	5	1	5	2	5	5	5	4	
2	0	2	2	0	2	1	2	2	2	3	2	4	
4	8	9	5	0	8	0	8	1	8	2	8	1	8	0	
5	1	4	5	6	7	1	0	1	1	1	2	1	1	1	0	
4	7	6	5	4	7	0	6	1	6	2	6	3	6	4	
2	3	1	3	0	3	1	1	5	1	3	1	4	
4	3	9	8	7	9	0	9	1	9	5	9	3	9	4	
2	1	2	1	0	2	1	2	2	2	1	2	0	
3	2	4	5	4	0	4	1	4	2	4	3	4	4	
2	4	1	4	0	4	1	4	2	4	5	4	4	
2	5	0	5	0	5	1	5	2	5	1	5	0	
3	0	5	4	5	0	5	1	5	2	5	1	5	0	
4	6	5	4	3	6	0	5	1	5	2	5	3	5	4	
2	6	8	6	0	6	1	6	2	6	5	6	4	
2	7	6	6	0	6	1	6	5	6	3	6	4	
3	9	8	7	9	0	8	1	8	5	8	3	8	4	
2	0	1	1	0	1	1	1	2	1	1	1	0	
2	3	9	3	0	3	1	3	2	9	3	9	4	
2	1	0	1	0	1	1	1	2	1	3	1	4	
4	0	5	6	8	5	0	5	1	5	2	5	1	5	0	
2	3	4	3	0	4	1	4	2	4	5	4	4	
2	4	3	4	0	4	1	4	2	4	1	4	0	
2	2	4	2	0	2	1	2	5	2	3	2	4	
4	6	5	0	1	6	0	6	1	6	5	6	3	6	4	
4	8	9	5	4	8	0	8	1	8	5	8	3	8	4	
3	5	6	7	5	0	5	1	5	2	5	5	5	4	
3	5	4	1	5	0	5	1	5	2	5	5	5	4	
3	0	1	3	1	0	1	1	1	2	1	3	1	4	
4	4	3	9	8	4	0	4	1	4	2	4	5	3	4	
3	9	5	0	5	0	5	1	5	2	5	5	5	4	
2	7	8	8	0	8	1	8	5	8	3	8	4	
2	2	1	1	0	1	1	1	2	1	5	1	4	
4	3	9	8	6	3	0	3	1	9	2	9	1	9	0	
2	9	3	9	0	9	1	9	2	9	3	9	4	
2	4	2	4	0	4	1	4	2	4	5	4	4	
5	2	3	9	8	7	3	0	3	1	3	2	3	5	3	4	
3	6	5	0	6	0	6	1	6	2	6	3	6	4	
3	8	9	3	8	0	8	1	8	2	8	5	8	4	
2	1	4	1	0	1	1	1	2	1	5	1	4	
5	7	8	9	3	1	8	0	8	1	8	2	8	1	8	0	
2	9	8	9	0	9	1	8	2	8	1	8	0	
3	5	4	2	5	0	5	1	5	5	5	3	5	4	
2	0	2	2	0	2	1	2	5	2	3	2	4	
3	3	9	8	9	0	9	1	9	2	9	3	9	4	
4	8	6	5	0	6	0	6	1	6	2	6	3	6	4	
5	1	4	5	6	7	1	0	1	1	1	2	1	3	1	4	
4	7	6	5	4	6	0	6	1	6	2	6	1	6	0	
3	9	3	1	3	0	3	1	3	2	3	1	3	0	
2	2	0	2	0	2	1	2	2	2	1	2	0	
2	3	1	1	0	1	1	1	2	1	5	1	4	
4	1	3	9	8	1	0	1	1	1	2	1	5	1	4	
4	3	9	8	7	3	0	9	1	9	2	9	5	9	4	
2	1	2	1	0	1	1	2	2	2	5	2	4	
3	2	4	5	2	0	2	1	2	2	2	1	2	0	
4	0	5	6	7	5	0	5	1	5	2	5	5	5	4	
2	4	1	4	0	4	1	4	5	1	3	1	4	
3	0	5	4	5	0	5	1	5	2	5	3	5	4	
4	6	5	4	3	6	0	6	1	5	2	5	1	5	0	
4	8	9	3	2	9	0	9	1	9	2	9	1	9	0	
3	1	4	5	1	0	1	1	1	2	1	1	1	0	
2	7	6	6	0	6	1	6	2	6	3	6	4	
3	9	8	7	8	0	8	1	8	2	8	5	8	4	
2	0	1	1	0	1	1	1	2	1	5	1	4	
2	1	0	1	0	1	1	1	2	1	1	1	0	
3	9	3	2	9	0	9	1	3	2	3	3	3	4	
2	2	3	2	0	2	1	2	2	2	3	2	4	
4	0	5	6	8	5	0	5	1	5	2	5	3	5	4	
3	1	3	9	1	0	1	1	1	2	1	1	1	0	
2	3	4	3	0	4	1	4	5	4	3	4	4	
2	2	4	2	0	2	1	2	2	2	5	2	4	
3	0	5	6	5	0	5	1	5	2	5	1	5	0	
4	6	5	0	1	6	0	6	1	6	2	6	3	6	4	
4	8	9	5	4	8	0	8	1	8	2	8	5	8	4	
2	8	9	8	0	8	1	8	5	8	3	8	4	
3	5	6	7	5	0	5	1	5	2	5	1	5	0	
3	0	1	3	1	0	1	1	1	2	1	1	1	0	
4	8	9	3	1	8	0	8	1	8	2	8	3	8	4	
4	1	4	5	6	1	0	4	1	4	2	4	3	4	4	
4	4	3	9	8	3	0	3	1	3	2	3	1	3	0	
3	9	5	0	5	0	5	1	5	5	5	3	5	4	
2	2	1	2	0	1	1	1	5	1	3	1	4	
5	7	8	9	3	2	8	0	8	1	8	2	8	5	8	4	
5	2	4	5	6	7	4	0	4	1	4	5	4	3	4	4	
3	8	6	5	8	0	8	1	8	5	6	3	6	4	
2	0	5	5	0	5	1	5	2	5	3	5	4	
3	6	5	0	6	0	5	1	5	5	5	3	5	4	
3	8	9	3	8	0	8	1	8	5	8	3	8	4	
2	1	4	1	0	1	1	1	5	1	3	1	4	
5	7	8	9	3	1	7	0	8	1	8	2	8	3	8	4	
2	0	2	2	0	2	1	2	2	2	5	2	4	
3	3	9	8	9	0	9	1	9	2	9	1	9	0	
4	7	6	5	4	6	0	6	1	6	2	6	5	6	4	
3	9	3	1	9	0	9	1	3	2	3	3	3	4	
2	2	0	2	0	2	1	2	2	2	3	2	4	
2	6	8	6	0	6	1	6	5	6	3	6	4	
3	0	5	9	5	0	5	1	5	2	5	3	5	4	
2	3	1	1	0	1	1	1	2	1	1	1	0	
2	6	5	6	0	6	1	6	2	6	5	6	4	
4	1	3	9	8	1	0	1	1	1	5	1	3	1	4	
2	1	2	1	0	1	1	1	5	1	3	1	4	
3	5	9	3	5	0	5	1	5	5	5	3	5	4	
4	0	5	6	7	5	0	5	1	5	5	5	3	5	4	
4	7	8	9	3	7	0	7	1	7	2	7	1	7	0	
4	8	9	3	1	8	0	8	1	8	5	8	3	8	4	
3	6	8	9	6	0	6	1	6	2	6	5	6	4	
4	6	5	4	3	6	0	5	1	5	2	5	5	5	4	
4	8	9	3	2	8	0	8	1	8	2	8	3	8	4	
3	1	4	5	4	0	4	1	4	2	4	3	4	4	
2	7	6	6	0	6	1	6	2	6	1	6	0	
3	9	8	7	9	0	9	1	8	2	8	1	8	0	
3	5	9	8	5	0	5	1	5	2	5	5	5	4	
2	0	1	1	0	1	1	1	5	1	3	1	4	
3	4	2	0	4	0	4	1	4	5	4	3	4	4	
3	9	3	2	9	0	9	1	3	2	3	1	3	0	
2	2	3	2	0	2	1	2	2	2	1	2	0	
3	6	5	4	6	0	6	1	6	2	6	1	6	0	
3	1	3	9	1	0	1	1	1	2	1	3	1	4	
2	5	4	5	0	5	1	5	2	5	5	5	4	
3	0	5	6	5	0	5	1	5	2	5	3	5	4	
4	6	5	0	1	6	0	6	1	6	2	6	1	6	0	
4	8	6	5	4	8	0	8	1	6	2	6	1	6	0	
4	7	6	5	0	7	0	6	1	6	2	6	3	6	4	
3	5	6	7	5	0	5	1	5	2	5	3	5	4	
3	3	9	5	9	0	9	1	9	5	9	3	9	4	
3	7	8	9	8	0	8	1	8	2	8	5	8	4	
4	1	4	5	6	4	0	4	1	4	2	4	1	4	0	
4	4	3	9	8	4	0	4	1	3	2	3	3	3	4	
3	9	5	0	9	0	5	1	5	2	5	3	5	4	
2	2	1	1	0	1	1	1	2	1	3	1	4	
2	5	9	5	0	5	1	5	2	5	1	5	0	
4	4	5	6	7	4	0	4	1	4	2	4	5	4	4	
2	5	0	5	0	5	1	5	5	5	3	5	4	
2	6	7	6	0	6	1	6	2	6	3	6	4	
5	7	8	9	3	2	8	0	8	1	8	5	8	3	8	4	
2	0	5	5	0	5	1	5	2	5	1	5	0	
3	6	5	0	6	0	6	1	6	2	6	5	5	4	
3	8	9	3	8	0	8	1	8	2	8	3	8	4	
2	1	4	4	0	4	1	4	2	4	3	4	4	
2	3	2	2	0	2	1	2	2	2	5	2	4	
3	3	9	8	9	0	9	1	9	2	9	5	9	4	
4	2	4	5	6	2	0	2	1	2	5	2	3	2	4	
4	7	6	5	4	7	0	6	1	6	5	6	3	6	4	
3	9	3	1	9	0	9	1	9	5	9	3	9	4	
2	2	0	2	0	2	1	2	5	2	3	2	4	
3	0	5	9	5	0	5	1	5	2	5	1	5	0	
2	3	1	1	0	1	1	1	2	1	3	1	4	
2	6	5	6	0	5	1	5	5	5	3	5	4	
4	1	3	9	8	1	0	1	1	1	2	1	3	1	4	
3	4	5	6	4	0	4	1	4	2	4	1	4	0	
3	5	9	3	5	0	5	1	5	2	5	5	5	4	
4	0	5	6	7	5	0	5	1	5	2	5	3	5	4	
4	7	8	9	3	8	0	8	1	8	2	8	3	8	4	
3	9	5	4	5	0	5	1	5	2	5	5	5	4	
2	5	6	5	0	5	1	5	2	6	3	6	4	
3	6	8	9	8	0	8	1	8	5	8	3	8	4	
2	1	3	1	0	1	1	1	5	1	3	1	4	
4	6	5	4	3	6	0	5	1	5	5	5	3	5	4	
4	8	9	3	2	8	0	8	1	8	5	8	3	8	4	
3	1	0	5	1	0	1	1	1	5	1	3	1	4	
3	4	5	9	4	0	4	1	5	2	5	3	5	4	
3	9	8	7	9	0	9	1	9	2	9	3	8	4	
3	5	9	8	5	0	5	1	5	5	5	3	5	4	
2	8	9	8	0	8	1	8	2	8	5	8	4	
3	4	1	0	4	0	4	1	1	2	1	5	1	4	
3	2	3	9	2	0	2	1	2	2	2	5	2	4	
3	9	3	2	9	0	9	1	9	2	9	5	9	4	
2	2	3	2	0	2	1	2	2	2	5	2	4	
3	6	5	4	6	0	6	1	6	2	6	3	6	4	
2	8	7	8	0	8	1	8	2	8	5	8	4	
3	1	3	9	1	0	1	1	1	5	1	3	1	4	
2	4	5	4	0	4	1	4	2	4	3	4	4	
2	5	4	5	0	5	1	5	5	5	3	5	4	
3	0	5	6	5	0	5	1	5	5	5	3	5	4	
4	8	6	5	4	8	0	8	1	6	2	6	3	6	4	
4	7	6	5	0	6	0	6	1	6	2	6	1	6	0	
2	9	5	9	0	5	1	5	2	5	1	5	0	
2	6	8	6	0	6	1	6	2	6	3	6	4	
3	7	8	9	8	0	8	1	8	2	8	1	8	0	
4	1	4	5	6	4	0	4	1	4	2	4	5	4	4	
3	9	5	0	5	0	5	1	5	2	5	1	5	0	
3	7	6	5	6	0	6	1	6	2	6	1	6	0	
2	2	1	2	0	2	1	2	2	2	1	1	0	
2	5	9	5	0	5	1	5	2	5	3	5	4	
3	3	2	0	2	0	2	1	2	2	2	3	2	4	
4	4	5	6	7	4	0	4	1	4	5	4	3	4	4	
4	2	3	9	8	2	0	2	1	2	2	3	1	3	0	
2	6	7	6	0	6	1	6	2	6	1	6	0	
2	8	6	6	0	6	1	6	2	6	1	6	0	
5	7	8	9	3	2	8	0	8	1	8	2	8	3	8	4	
3	3	4	5	3	0	3	1	4	2	4	5	4	4	
2	0	5	5	0	5	1	5	2	5	5	5	4	
3	8	9	3	8	0	8	1	9	2	9	1	9	0	
2	1	4	1	0	1	1	1	2	1	1	1	0	
3	9	8	6	9	0	8	1	8	2	8	3	8	4	
2	3	2	3	0	2	1	2	5	2	3	2	4	
3	3	9	8	3	0	9	1	9	5	9	3	9	4	
4	8	9	3	1	9	0	9	1	9	2	9	5	9	4	
4	2	4	5	6	4	0	4	1	4	2	4	5	4	4	
3	9	3	1	9	0	9	1	9	2	9	5	9	4	
2	2	0	2	0	2	1	2	2	2	5	2	4	
3	0	5	9	5	0	5	1	5	2	5	5	5	4	
2	6	5	6	0	6	1	6	2	6	3	6	4	
4	1	3	9	8	1	0	1	1	1	2	1	1	3	0	
3	4	5	6	4	0	4	1	4	2	4	3	4	4	
3	5	4	3	5	0	4	1	4	2	4	1	4	0	
4	0	5	6	7	5	0	5	1	5	2	5	1	5	0	
3	8	9	5	8	0	9	1	9	2	9	3	9	4	
4	7	8	9	3	8	0	8	1	8	5	8	3	8	4	
3	9	5	4	5	0	5	1	5	5	5	3	5	4	
2	5	6	6	0	6	1	6	2	6	1	6	0	
2	4	3	4	0	4	1	4	5	4	3	4	4	
3	6	8	9	6	0	6	1	6	2	6	3	6	4	
2	1	3	1	0	1	1	1	2	1	5	1	4	
4	8	9	3	2	8	0	8	1	8	2	8	5	8	4	
3	1	4	5	4	0	4	1	4	2	4	5	4	4	
3	4	5	9	5	0	5	1	5	2	5	1	5	0	
3	5	9	8	5	0	5	1	5	2	5	3	5	4	
3	4	1	0	4	0	4	1	1	2	1	1	1	0	
3	2	3	9	2	0	2	1	2	5	2	3	2	4	
3	9	3	2	9	0	9	1	9	5	9	3	9	4	
2	2	3	2	0	2	1	2	5	2	3	2	4	
4	6	5	0	2	6	0	6	1	6	5	6	3	6	4	
3	6	5	4	5	0	5	1	5	5	5	3	5	4	
2	8	7	8	0	8	1	8	5	8	3	8	4	
3	1	3	9	1	0	1	1	1	2	1	5	1	4	
2	4	5	4	0	4	1	4	2	4	1	5	0	
2	5	4	5	0	5	1	5	2	5	3	5	4	
3	0	5	6	5	0	5	1	5	2	5	5	5	4	
4	7	6	5	0	6	0	6	1	6	2	6	5	6	4	
2	9	5	5	0	5	1	5	2	5	3	5	4	
3	3	9	5	3	0	9	1	9	2	9	1	9	0	
3	7	8	9	7	0	8	1	8	2	8	3	8	4	
4	1	0	5	6	1	0	1	1	1	5	1	3	1	4	
2	5	9	5	0	5	1	5	5	5	3	5	4	
3	3	2	0	2	0	2	1	2	2	2	1	2	0	
4	4	5	6	7	4	0	4	1	4	2	4	3	4	4	
4	2	3	9	8	2	0	2	1	2	2	2	3	2	4	
2	6	7	6	0	6	1	6	2	6	5	6	4	
2	8	6	8	0	6	1	6	2	6	3	6	4	
5	7	8	9	3	2	7	0	7	1	7	2	8	1	8	0	
2	0	5	5	0	5	1	5	5	5	3	5	4	
3	9	8	6	9	0	9	1	9	2	9	1	9	0	
2	3	2	2	0	2	1	2	2	2	3	2	4	
4	2	4	5	6	4	0	4	1	4	2	4	1	4	0	
2	5	0	5	0	5	1	5	2	5	5	5	4	
3	0	5	9	5	0	5	1	5	5	5	3	5	4	
2	6	5	6	0	6	1	6	2	6	1	6	0	
3	4	5	6	4	0	5	1	5	5	5	3	5	4	
3	5	9	3	5	0	5	1	5	2	5	3	5	4	
2	3	9	3	0	9	1	9	5	9	3	9	4	
3	8	6	5	6	0	6	1	6	2	6	1	6	0	
4	7	8	9	3	7	0	7	1	7	2	7	5	7	4	
3	9	5	4	5	0	5	1	5	2	5	3	5	4	
2	5	6	5	0	5	1	5	2	5	5	5	4	
3	6	8	9	6	0	6	1	6	2	6	1	6	0	
2	1	3	1	0	1	1	1	2	1	1	1	0	
2	7	8	7	0	7	1	7	2	7	3	7	4	
3	4	5	9	4	0	4	1	4	2	4	5	4	4	
3	5	9	8	5	0	5	1	5	2	5	1	5	0	
3	4	1	0	4	0	4	1	4	2	4	3	1	4	
3	2	3	9	2	0	2	1	2	2	2	3	2	4	
3	5	4	1	5	0	5	1	5	2	5	1	5	0	
4	6	5	0	2	6	0	6	1	6	2	6	5	6	4	
3	6	5	4	6	0	6	1	6	2	6	5	6	4	
2	8	7	8	0	8	1	8	2	8	3	8	4	
3	7	6	5	6	0	6	1	6	2	6	5	6	4	
2	4	5	4	0	4	1	4	2	4	5	4	4	
2	5	4	5	0	5	1	5	2	5	1	5	0	
4	3	9	5	6	9	0	9	1	9	2	9	5	9	4	
3	7	6	5	7	0	6	1	6	5	6	3	6	4	
2	9	3	9	0	9	1	9	5	9	3	9	4	
4	7	6	5	0	7	0	6	1	6	5	6	3	6	4	
2	9	5	9	0	9	1	9	5	5	3	5	4	
3	3	9	5	9	0	9	1	9	2	9	3	9	4	
2	6	8	6	0	6	1	6	2	8	1	8	0	
2	4	2	4	0	4	1	4	2	4	1	2	0	
2	5	9	5	0	5	1	5	2	5	5	5	4	
3	3	2	0	2	0	2	1	2	2	2	5	2	4	
4	4	5	6	7	4	0	4	1	4	2	4	1	4	0	
2	9	8	9	0	9	1	9	2	9	5	8	4	
4	2	3	9	8	2	0	2	1	2	5	2	3	2	4	
3	5	4	2	5	0	4	1	4	2	4	3	4	4	
4	8	9	5	0	8	0	8	1	8	5	8	3	8	4	
4	8	9	3	1	8	0	8	1	9	2	9	1	9	0	
5	1	0	5	6	7	1	0	1	1	1	5	1	3	1	4	
2	6	7	6	0	6	1	6	5	6	3	6	4	
2	8	6	8	0	8	1	8	5	8	3	8	4	
4	3	9	8	7	9	0	9	1	9	2	9	1	9	0	
3	2	4	5	2	0	2	1	2	2	2	5	2	4	
3	9	8	6	9	0	9	1	9	2	9	5	9	4	
2	3	2	3	0	2	1	2	2	2	1	2	0	
2	4	1	4	0	4	1	4	2	4	3	1	4	
4	2	4	5	6	4	0	4	1	4	2	4	3	4	4	
2	4	3	4	0	4	1	4	2	4	5	4	4	
3	0	5	4	5	0	5	1	5	5	5	3	5	4	
3	4	5	6	4	0	4	1	4	2	4	5	4	4	
2	3	9	3	0	3	1	3	2	9	5	9	4	
2	1	0	1	0	1	1	1	2	1	5	1	4	
3	8	6	5	6	0	6	1	6	2	6	5	6	4	
3	9	3	4	9	0	9	1	9	2	9	1	9	0	
4	0	5	6	8	5	0	5	1	5	5	5	3	5	4	
2	5	6	5	0	5	1	5	5	5	3	5	4	
2	3	4	4	0	4	1	4	2	4	3	4	4	
2	1	3	1	0	1	1	1	2	1	3	1	4	
2	7	8	8	0	8	1	8	2	8	1	8	0	
2	2	4	4	0	4	1	4	2	4	1	4	0	
3	4	5	9	4	0	4	1	4	5	4	3	4	4	
3	2	3	9	2	0	2	1	2	2	2	1	2	0	
3	5	4	1	5	0	5	1	5	2	5	3	5	4	
3	0	1	3	1	0	1	1	1	2	1	5	1	4	
4	6	5	0	2	6	0	6	1	6	2	6	1	5	0	
2	8	7	8	0	8	1	8	2	8	1	7	0	
2	4	5	4	0	4	1	4	5	5	3	5	4	
2	7	8	7	0	7	1	7	2	7	5	8	4	
4	3	9	5	6	9	0	9	1	9	5	9	3	9	4	
2	9	3	9	0	9	1	9	2	9	5	9	4	
2	9	5	5	0	5	1	5	2	5	5	5	4	
2	4	2	4	0	4	1	4	2	4	3	4	4	
5	2	4	5	6	7	2	0	2	1	2	2	2	3	2	4	
