-1.79769e+308	0.305
10
84.001	102.859
10
0	0	3000
1	0	3000
2	0	3000
3	5	3000
4	0	3000
5	0	3000
6	0	3000
7	0	3000
8	0	3000
9	0	3000
34
0	1	0.000000	131.479641
1	0	0.000000	131.479641
0	2	0.000000	135.308578
2	0	0.015250	135.308578
0	5	0.000000	149.350323
5	0	0.000000	149.350323
1	2	0.000000	146.797369
2	1	0.000000	146.797369
1	3	0.000000	144.244414
3	1	0.000000	144.244414
1	4	0.000000	146.797369
4	1	0.000000	146.797369
2	3	0.000000	135.308578
3	2	0.015250	135.308578
2	4	0.000000	130.202668
4	2	0.000000	130.202668
3	4	0.000000	126.372741
4	3	0.000000	126.372741
3	9	0.000000	116.160923
9	3	0.000000	116.160923
4	5	0.000000	117.437895
5	4	0.000000	117.437895
5	6	0.000000	123.819787
6	5	0.000000	123.819787
5	9	0.000000	140.414487
9	5	0.000000	140.414487
6	7	0.000000	139.138505
7	6	0.000000	139.138505
6	8	0.000000	144.244414
8	6	0.000000	144.244414
7	8	0.000000	135.308578
8	7	0.000000	135.308578
8	9	0.000000	114.884940
9	8	0.000000	114.884940
1
3	3	2	0	3	0	3	1	3	5	3	3	3	4	
