1932.2	1932.2
1194
2638.82	1309.85
10
0	594	3000
1	0	3000
2	112	3000
3	412	3000
4	558	3000
5	0	3000
6	546	3000
7	0	3000
8	587	3000
9	435	3000
34
0	1	11.122454	131.479641
0	2	33.021192	135.308578
0	5	112.182200	149.350323
1	0	44.365724	131.479641
1	2	11.099572	146.797369
1	3	32.806948	144.244414
1	4	11.107152	146.797369
2	0	45.425962	135.308578
2	1	11.186086	146.797369
2	3	53.433006	135.308578
2	4	22.281362	130.202668
3	1	42.890202	144.244414
3	2	46.195172	135.308578
3	4	22.181854	126.372741
3	9	97.792968	116.160923
4	1	34.914092	146.797369
4	2	43.310970	130.202668
4	3	11.266978	126.372741
4	5	77.975428	117.437895
5	0	66.644098	149.350323
5	4	111.416706	117.437895
5	6	123.625082	123.819787
5	9	64.196464	140.414487
6	5	119.954150	123.819787
6	7	56.802892	139.138505
6	8	46.354736	144.244414
7	6	55.841512	139.138505
7	8	44.068174	135.308578
8	6	44.693284	144.244414
8	7	42.938598	135.308578
8	9	113.609550	114.884940
9	3	111.226556	116.160923
9	5	56.528838	140.414487
9	8	109.743668	114.884940
360
3	3	2	0	3	0	3	1	3	5	3	3	3	4	
2	8	9	8	0	8	1	8	2	8	3	8	4	
2	8	9	8	0	8	1	8	2	8	1	9	0	
2	9	8	9	0	8	1	8	5	8	3	8	4	
4	2	3	9	8	3	0	3	1	3	2	3	5	3	4	
3	5	4	2	4	0	4	1	4	2	4	1	4	0	
2	0	2	0	0	0	1	0	2	0	1	0	0	
4	8	6	5	0	8	0	8	1	8	2	8	5	6	4	
5	1	0	5	6	7	0	0	0	1	0	2	0	5	0	4	
2	8	6	8	0	8	1	8	2	8	5	8	4	
4	3	9	8	7	9	0	9	1	9	2	9	3	9	4	
2	1	2	2	0	2	1	2	2	2	3	2	4	
5	7	8	9	3	1	8	0	8	1	8	5	8	3	8	4	
3	2	0	5	0	0	0	1	0	5	0	3	0	4	
3	9	8	6	9	0	8	1	8	5	8	3	8	4	
2	4	1	4	0	4	1	4	2	4	1	4	0	
2	5	0	0	0	0	1	0	2	0	3	0	4	
3	0	2	4	2	0	2	1	2	2	2	5	2	4	
2	7	6	6	0	6	1	6	2	6	5	6	4	
2	0	1	0	0	0	1	0	2	0	3	0	4	
2	3	9	3	0	3	1	3	2	3	1	3	0	
2	1	0	0	0	0	1	0	5	0	3	0	4	
3	7	6	5	6	0	6	1	6	2	6	3	6	4	
4	0	5	6	8	0	0	0	1	0	2	0	5	0	4	
2	3	4	3	0	3	1	3	2	3	1	4	0	
2	4	3	4	0	4	1	4	2	4	3	4	4	
2	2	4	4	0	4	1	4	2	4	3	4	4	
4	6	5	4	1	6	0	6	1	6	2	6	5	6	4	
3	5	6	7	6	0	6	1	6	5	6	3	6	4	
3	5	4	1	4	0	4	1	4	5	4	3	4	4	
3	0	2	3	0	0	0	1	0	5	0	3	0	4	
4	6	5	4	2	6	0	6	1	6	2	6	3	6	4	
4	4	5	6	8	4	0	4	1	4	5	4	3	4	4	
4	3	9	8	6	9	0	9	1	9	2	9	3	9	4	
2	9	3	9	0	9	1	9	2	9	1	9	0	
3	7	8	9	8	0	8	1	8	5	8	3	8	4	
2	4	2	4	0	4	1	4	5	4	3	4	4	
5	2	0	5	6	7	0	0	0	1	0	2	0	1	0	0	
3	6	5	0	6	0	6	1	6	2	6	1	6	0	
5	7	8	9	3	1	8	0	8	1	8	2	8	5	8	4	
2	9	8	8	0	8	1	8	2	8	3	8	4	
3	5	4	2	4	0	4	1	4	2	4	5	4	4	
2	0	2	0	0	0	1	0	2	0	3	0	4	
4	8	6	5	0	8	0	8	1	8	2	8	1	6	0	
5	1	0	5	6	7	0	0	0	1	0	2	0	1	0	0	
4	7	6	5	4	6	0	6	1	6	2	6	3	6	4	
2	3	1	3	0	3	1	3	5	3	3	3	4	
4	3	9	8	7	3	0	3	1	3	5	3	3	3	4	
2	1	2	2	0	2	1	2	2	2	1	2	0	
3	2	0	5	0	0	0	1	0	2	0	3	0	4	
2	4	1	4	0	4	1	4	2	4	5	4	4	
2	5	0	0	0	0	1	0	2	0	1	0	0	
3	0	2	4	0	0	2	1	2	2	2	1	2	0	
4	6	8	9	3	6	0	6	1	6	2	6	3	6	4	
2	6	8	6	0	8	1	8	2	8	5	8	4	
2	7	6	6	0	6	1	6	5	6	3	6	4	
3	9	8	7	9	0	8	1	8	5	8	3	8	4	
2	0	1	0	0	0	1	0	2	0	1	0	0	
2	3	9	9	0	9	1	9	2	9	3	9	4	
2	1	0	0	0	0	1	0	2	0	3	0	4	
4	0	5	6	8	0	0	0	1	0	2	0	1	0	0	
2	3	4	4	0	4	1	4	2	4	5	4	4	
2	4	3	3	0	3	1	3	2	3	1	3	0	
2	2	4	4	0	4	1	4	5	4	3	4	4	
4	6	5	4	1	6	0	6	1	6	5	6	3	6	4	
4	8	6	5	4	8	0	8	1	8	5	8	3	8	4	
3	5	6	7	6	0	6	1	6	2	6	5	6	4	
3	5	4	1	4	0	4	1	4	2	4	5	4	4	
3	0	2	3	0	0	0	1	0	2	0	3	0	4	
4	4	5	6	8	4	0	4	1	4	2	4	5	4	4	
3	9	5	0	9	0	9	1	9	2	9	5	9	4	
2	7	8	8	0	8	1	8	5	8	3	8	4	
2	2	1	2	0	2	1	2	2	2	5	2	4	
4	3	9	8	6	9	0	9	1	9	2	9	1	9	0	
2	9	3	9	0	3	1	3	2	3	3	3	4	
2	4	2	4	0	4	1	4	2	4	5	4	4	
5	2	3	9	8	7	2	0	2	1	2	2	2	5	3	4	
3	6	5	0	6	0	6	1	6	2	6	3	6	4	
3	8	9	3	8	0	8	1	8	2	8	5	8	4	
2	1	4	4	0	4	1	4	2	4	5	4	4	
5	7	6	5	4	1	6	0	6	1	6	2	6	1	6	0	
2	9	8	9	0	8	1	8	2	8	1	8	0	
3	5	4	2	4	0	4	1	4	5	4	3	4	4	
2	0	2	0	0	0	1	0	5	0	3	0	4	
3	3	9	8	9	0	9	1	9	2	9	3	9	4	
4	8	9	5	0	8	0	8	1	8	2	8	3	8	4	
5	1	0	5	6	7	0	0	0	1	0	2	0	3	0	4	
4	7	6	5	4	6	0	6	1	6	2	6	1	6	0	
3	9	3	1	9	0	9	1	9	2	9	1	9	0	
2	2	0	0	0	0	1	0	2	0	1	0	0	
2	3	1	3	0	3	1	3	2	3	5	3	4	
4	1	3	9	8	3	0	3	1	3	2	3	5	3	4	
4	3	9	8	7	9	0	9	1	9	2	9	5	9	4	
2	1	2	2	0	2	1	2	2	2	5	2	4	
3	2	0	5	0	0	0	1	0	2	0	1	0	0	
4	0	5	6	7	0	0	0	1	0	2	0	5	0	4	
2	4	1	4	0	4	1	4	5	4	3	4	4	
3	0	2	4	0	0	0	1	0	2	2	3	2	4	
4	6	5	9	3	6	0	6	1	6	2	6	1	6	0	
4	8	9	3	2	8	0	8	1	8	2	8	1	8	0	
3	1	0	5	0	0	0	1	0	2	0	1	0	0	
2	7	6	6	0	6	1	6	2	6	3	6	4	
3	9	8	7	8	0	8	1	8	2	8	5	8	4	
2	0	1	0	0	0	1	0	2	0	5	0	4	
2	1	0	0	0	0	1	0	2	0	1	0	0	
3	9	3	2	9	0	3	1	3	2	3	3	3	4	
2	2	3	3	0	3	1	3	2	3	3	3	4	
4	0	5	6	8	0	0	0	1	0	2	0	3	0	4	
3	1	3	9	3	0	3	1	3	2	3	1	3	0	
2	3	4	3	0	3	1	3	5	3	3	3	4	
2	2	4	4	0	4	1	4	2	4	5	4	4	
3	0	5	6	0	0	0	1	0	2	0	1	0	0	
4	6	5	4	1	6	0	6	1	6	2	6	3	6	4	
4	8	9	5	4	9	0	9	1	9	2	9	5	9	4	
2	8	9	8	0	8	1	8	5	8	3	8	4	
3	5	6	7	6	0	6	1	6	2	6	1	6	0	
3	0	2	3	0	0	0	1	0	2	0	1	0	0	
4	8	9	3	1	8	0	8	1	8	2	8	3	8	4	
4	1	0	5	6	0	0	0	1	0	2	0	3	0	4	
4	4	5	6	8	4	0	4	1	4	2	4	1	4	0	
3	9	5	0	9	0	9	1	9	5	9	3	9	4	
2	2	1	2	0	2	1	2	5	2	3	2	4	
5	7	6	5	4	2	6	0	6	1	6	2	6	5	6	4	
5	2	0	5	6	7	0	0	0	1	0	5	0	3	0	4	
3	8	9	5	8	0	8	1	8	5	8	3	8	4	
2	0	5	0	0	0	1	0	2	0	3	0	4	
3	6	5	0	6	0	6	1	6	5	6	3	6	4	
3	8	9	3	8	0	8	1	8	5	8	3	8	4	
2	1	4	4	0	4	1	4	5	4	3	4	4	
5	7	8	9	3	1	8	0	8	1	8	2	8	3	8	4	
2	0	2	0	0	0	1	0	2	0	5	0	4	
3	3	9	8	3	0	3	1	3	2	3	1	9	0	
4	7	6	5	4	6	0	6	1	6	2	6	5	6	4	
3	9	3	1	9	0	3	1	3	2	3	3	3	4	
2	2	0	0	0	0	1	0	2	0	3	0	4	
2	6	8	6	0	6	1	6	5	6	3	6	4	
3	0	5	9	0	0	0	1	0	2	0	3	0	4	
2	3	1	3	0	3	1	3	2	3	1	3	0	
2	6	5	6	0	6	1	6	2	6	5	6	4	
4	1	3	9	8	3	0	3	1	3	5	3	3	3	4	
2	1	2	2	0	2	1	2	5	2	3	2	4	
3	5	9	3	9	0	9	1	9	5	9	3	9	4	
4	0	5	6	7	0	0	0	1	0	5	0	3	0	4	
4	7	8	9	3	8	0	8	1	8	2	8	1	8	0	
4	8	9	3	1	8	0	8	1	8	5	8	3	8	4	
3	6	5	9	6	0	6	1	6	2	6	5	6	4	
4	6	8	9	3	6	0	6	1	6	2	6	5	6	4	
4	8	9	3	2	8	0	8	1	8	2	8	3	8	4	
3	1	0	5	0	0	0	1	0	2	0	3	0	4	
2	7	6	6	0	6	1	6	2	6	1	6	0	
3	9	8	7	8	0	8	1	8	2	8	1	8	0	
3	5	9	8	9	0	9	1	9	2	9	5	9	4	
2	0	1	0	0	0	1	0	5	0	3	0	4	
3	4	5	0	4	0	4	1	4	5	4	3	4	4	
3	9	3	2	9	0	9	1	9	2	9	1	9	0	
2	2	3	3	0	3	1	3	2	3	1	3	0	
3	6	5	4	6	0	6	1	6	2	6	1	6	0	
3	1	3	9	3	0	3	1	3	2	3	3	3	4	
2	5	4	4	0	4	1	4	2	4	5	4	4	
3	0	5	6	0	0	0	1	0	2	0	3	0	4	
4	6	5	4	1	6	0	6	1	6	2	6	1	6	0	
4	8	9	5	4	9	0	9	1	9	2	9	1	9	0	
4	7	6	5	0	6	0	6	1	6	2	6	3	6	4	
3	5	6	7	6	0	6	1	6	2	6	3	6	4	
3	3	4	5	4	0	4	1	4	5	4	3	4	4	
3	7	8	9	8	0	8	1	8	2	8	5	8	4	
4	1	0	5	6	0	0	0	1	0	2	0	1	0	0	
4	4	5	6	8	4	0	4	1	4	2	4	3	4	4	
3	9	5	0	9	0	9	1	9	2	9	3	9	4	
2	2	1	2	0	2	1	2	2	2	3	2	4	
2	5	9	9	0	9	1	9	2	9	1	9	0	
4	4	5	6	7	4	0	4	1	4	2	4	5	4	4	
2	5	0	0	0	0	1	0	5	0	3	0	4	
2	6	7	6	0	6	1	6	2	6	3	6	4	
5	7	6	5	4	2	6	0	6	1	6	5	6	3	6	4	
2	0	5	0	0	0	1	0	2	0	1	0	0	
3	6	5	0	6	0	6	1	6	2	6	5	6	4	
3	8	9	3	8	0	8	1	8	2	8	3	8	4	
2	1	4	4	0	4	1	4	2	4	3	4	4	
2	3	2	3	0	3	1	3	2	3	5	3	4	
3	3	9	8	3	0	9	1	9	2	8	5	8	4	
4	2	0	5	6	0	0	0	1	0	5	0	3	0	4	
4	7	6	5	4	6	0	6	1	6	5	6	3	6	4	
3	9	3	1	9	0	9	1	9	5	9	3	9	4	
2	2	0	0	0	0	1	0	5	0	3	0	4	
3	0	5	9	0	0	0	1	0	2	0	1	0	0	
2	3	1	3	0	3	1	3	2	3	3	3	4	
2	6	5	6	0	6	1	6	5	6	3	6	4	
4	1	3	9	8	3	0	3	1	3	2	3	3	3	4	
3	4	5	6	4	0	4	1	4	2	4	1	4	0	
3	5	9	3	9	0	9	1	9	2	9	5	9	4	
4	0	5	6	7	0	0	0	1	0	2	0	3	0	4	
4	7	8	9	3	8	0	8	1	8	2	8	3	8	4	
3	9	5	4	9	0	9	1	9	2	9	5	9	4	
2	5	6	6	0	6	1	6	2	6	3	6	4	
3	6	8	9	6	0	8	1	8	5	8	3	8	4	
2	1	3	3	0	3	1	3	5	3	3	3	4	
4	6	5	9	3	6	0	6	1	6	5	6	3	6	4	
4	8	9	3	2	8	0	8	1	8	5	8	3	8	4	
3	1	0	5	0	0	0	1	0	5	0	3	0	4	
3	4	5	9	4	0	4	1	4	2	4	3	4	4	
3	9	8	7	8	0	8	1	8	2	8	3	8	4	
3	5	9	8	9	0	9	1	9	5	9	3	9	4	
2	8	9	8	0	8	1	8	2	8	5	8	4	
3	4	5	0	4	0	4	1	4	2	4	5	4	4	
3	2	3	9	3	0	3	1	3	2	3	5	3	4	
3	9	3	2	9	0	9	1	9	2	9	5	9	4	
2	2	3	3	0	3	1	3	2	3	5	3	4	
3	6	5	4	6	0	6	1	6	2	6	3	6	4	
2	8	7	8	0	8	1	8	2	8	5	8	4	
3	1	3	9	3	0	3	1	3	5	3	3	3	4	
2	4	5	4	0	4	1	4	2	4	3	4	4	
2	5	4	4	0	4	1	4	5	4	3	4	4	
3	0	5	6	0	0	0	1	0	5	0	3	0	4	
4	8	9	5	4	9	0	9	1	9	2	9	3	9	4	
4	7	6	5	0	6	0	6	1	6	2	6	1	6	0	
2	9	5	9	0	9	1	9	2	9	1	9	0	
2	6	8	8	0	8	1	8	2	8	3	8	4	
3	7	8	9	8	0	8	1	8	2	8	1	8	0	
4	1	0	5	6	0	0	0	1	0	2	0	5	0	4	
3	9	5	0	9	0	9	1	9	2	9	1	9	0	
3	7	6	5	6	0	6	1	6	2	6	1	6	0	
2	2	1	2	0	2	1	2	2	2	1	2	0	
2	5	9	9	0	9	1	9	2	9	3	9	4	
3	3	2	0	3	0	3	1	3	2	3	3	3	4	
4	4	5	6	7	4	0	4	1	4	5	4	3	4	4	
4	2	3	9	8	3	0	3	1	3	2	3	1	3	0	
2	6	7	6	0	6	1	6	2	6	1	6	0	
2	8	6	8	0	8	1	8	2	6	1	6	0	
5	7	6	5	4	2	6	0	6	1	6	2	6	3	6	4	
3	3	4	5	4	0	4	1	4	2	4	5	4	4	
2	0	5	0	0	0	1	0	2	0	5	0	4	
3	8	9	3	8	0	8	1	8	2	8	1	8	0	
2	1	4	4	0	4	1	4	2	4	1	4	0	
3	9	8	6	8	0	8	1	8	2	8	3	8	4	
2	3	2	3	0	3	1	3	5	3	3	3	4	
3	3	9	8	3	0	3	1	3	5	3	3	3	4	
4	8	9	3	1	8	0	8	1	8	2	8	5	8	4	
4	2	0	5	6	0	0	0	1	0	2	0	5	0	4	
3	9	3	1	9	0	9	1	9	2	9	5	3	4	
2	2	0	0	0	0	1	0	2	0	5	0	4	
3	0	5	9	0	0	0	1	0	2	0	5	0	4	
2	6	5	6	0	6	1	6	2	6	3	6	4	
4	1	3	9	8	3	0	3	1	3	2	3	1	3	0	
3	4	5	6	4	0	4	1	4	2	4	3	4	4	
3	5	9	3	9	0	9	1	9	2	9	1	9	0	
4	0	5	6	7	0	0	0	1	0	2	0	1	0	0	
3	8	6	5	8	0	8	1	8	2	8	3	8	4	
4	7	8	9	3	8	0	8	1	8	5	8	3	8	4	
3	9	5	4	9	0	9	1	9	5	9	3	9	4	
2	5	6	6	0	6	1	6	2	6	1	6	0	
2	4	3	4	0	4	1	4	5	4	3	4	4	
3	6	8	9	8	0	8	1	8	2	8	3	8	4	
2	1	3	3	0	3	1	3	2	3	5	3	4	
4	8	9	3	2	8	0	8	1	8	2	8	5	8	4	
3	1	0	5	0	0	0	1	0	2	0	5	0	4	
3	4	5	9	4	0	4	1	4	2	4	1	4	0	
3	5	9	8	9	0	9	1	9	2	9	3	9	4	
3	4	5	0	4	0	4	1	4	2	4	1	4	0	
3	2	3	9	3	0	3	1	3	5	3	3	3	4	
3	9	3	2	9	0	9	1	9	5	9	3	9	4	
2	2	3	3	0	3	1	3	5	3	3	3	4	
4	6	5	4	2	6	0	6	1	6	5	6	3	6	4	
3	6	5	4	6	0	6	1	6	5	6	3	6	4	
2	8	7	8	0	8	1	8	5	8	3	8	4	
3	1	3	9	3	0	3	1	3	2	3	5	3	4	
2	4	5	4	0	4	1	4	2	4	1	4	0	
2	5	4	4	0	4	1	4	2	4	3	4	4	
3	0	5	6	0	0	0	1	0	2	0	5	0	4	
4	7	6	5	0	6	0	6	1	6	2	6	5	6	4	
2	9	5	9	0	9	1	9	2	9	3	9	4	
3	3	4	5	4	0	4	1	4	2	4	1	4	0	
3	7	8	9	8	0	8	1	8	2	8	3	8	4	
4	1	0	5	6	0	0	0	1	0	5	0	3	0	4	
2	5	9	9	0	9	1	9	5	9	3	9	4	
3	3	2	0	3	0	3	1	3	2	3	1	3	0	
4	4	5	6	7	4	0	4	1	4	2	6	3	6	4	
4	2	3	9	8	3	0	3	1	3	2	3	3	3	4	
2	6	7	6	0	6	1	6	2	6	5	6	4	
2	8	6	8	0	8	1	8	2	8	3	8	4	
5	7	8	9	3	2	8	0	8	1	8	2	8	1	8	0	
2	0	5	0	0	0	1	0	5	0	3	0	4	
3	9	8	6	8	0	8	1	8	2	8	1	8	0	
2	3	2	3	0	3	1	3	2	3	3	3	4	
4	2	0	5	6	0	0	0	1	0	2	0	1	0	0	
2	5	0	0	0	0	1	0	2	0	5	0	4	
3	0	5	9	0	0	0	1	0	5	0	3	0	4	
2	6	5	6	0	6	1	6	2	6	1	6	0	
3	4	5	6	4	0	4	1	4	5	4	3	4	4	
3	5	9	3	9	0	9	1	9	2	9	3	9	4	
2	3	9	3	0	3	1	3	5	3	3	3	4	
3	8	9	5	8	0	8	1	8	2	8	1	8	0	
4	7	8	9	3	8	0	8	1	8	2	8	5	8	4	
3	9	5	4	9	0	9	1	9	2	9	3	9	4	
2	5	6	6	0	6	1	6	2	6	5	6	4	
3	6	8	9	6	0	6	1	8	2	8	1	8	0	
2	1	3	3	0	3	1	3	2	3	1	3	0	
2	7	8	8	0	8	1	8	2	8	3	8	4	
3	4	5	9	4	0	4	1	4	2	4	5	4	4	
3	5	9	8	9	0	9	1	9	2	9	1	9	0	
3	4	5	0	4	0	4	1	4	2	4	3	4	4	
3	2	3	9	3	0	3	1	3	2	3	3	3	4	
3	5	4	1	4	0	4	1	4	2	4	1	4	0	
4	6	5	4	2	6	0	6	1	6	2	6	5	6	4	
3	6	5	4	6	0	6	1	6	2	6	5	6	4	
2	8	7	8	0	8	1	8	2	8	3	8	4	
3	7	6	5	6	0	6	1	6	2	6	5	6	4	
2	4	5	4	0	4	1	4	2	4	5	4	4	
2	5	4	4	0	4	1	4	2	4	1	4	0	
4	3	9	8	6	9	0	9	1	9	2	9	5	9	4	
3	7	6	5	6	0	6	1	6	5	6	3	6	4	
2	9	3	9	0	9	1	9	5	9	3	9	4	
4	7	6	5	0	6	0	6	1	6	5	6	3	6	4	
2	9	5	9	0	9	1	9	5	9	3	9	4	
3	3	4	5	4	0	4	1	4	2	4	3	4	4	
2	6	8	8	0	8	1	8	2	8	1	8	0	
2	4	2	4	0	4	1	4	2	4	1	4	0	
2	5	9	9	0	9	1	9	2	9	5	9	4	
3	3	2	0	3	0	3	1	3	2	3	5	3	4	
4	4	5	6	7	4	0	4	1	4	2	4	1	4	0	
2	9	8	8	0	8	1	8	2	8	5	8	4	
4	2	3	9	8	3	0	3	1	3	5	3	3	3	4	
3	5	4	2	4	0	4	1	4	2	4	3	4	4	
4	8	6	5	0	8	0	8	1	8	5	8	3	8	4	
4	8	9	3	1	8	0	8	1	8	2	8	1	8	0	
5	1	0	5	6	7	0	0	0	1	0	5	0	3	0	4	
2	6	7	6	0	6	1	6	5	6	3	6	4	
2	8	6	8	0	8	1	8	5	8	3	8	4	
4	3	9	8	7	3	0	3	1	3	2	3	1	3	0	
3	2	0	5	0	0	0	1	0	2	0	5	0	4	
3	9	8	6	8	0	8	1	8	2	8	5	8	4	
2	3	2	3	0	3	1	3	2	3	1	3	0	
2	4	1	4	0	4	1	4	2	4	3	4	4	
4	2	0	5	6	0	0	0	1	0	2	0	3	0	4	
2	4	3	4	0	4	1	4	2	4	5	4	4	
3	0	5	4	0	0	0	1	0	5	0	3	0	4	
3	4	5	6	4	0	4	1	4	2	4	5	4	4	
2	3	9	9	0	9	1	9	2	9	5	9	4	
2	1	0	0	0	0	1	0	2	0	5	0	4	
3	8	9	5	8	0	8	1	8	2	8	5	8	4	
3	9	5	4	9	0	9	1	9	2	9	1	9	0	
4	0	5	6	8	0	0	0	1	0	5	0	3	0	4	
2	5	6	6	0	6	1	6	5	6	3	6	4	
2	3	4	3	0	3	1	3	2	3	3	4	4	
2	1	3	3	0	3	1	3	2	3	3	3	4	
2	7	8	8	0	8	1	8	2	8	1	8	0	
2	2	4	4	0	4	1	4	2	4	1	4	0	
3	4	5	9	4	0	4	1	4	5	4	3	4	4	
3	2	3	9	3	0	3	1	3	2	3	1	3	0	
3	5	4	1	4	0	4	1	4	2	4	3	4	4	
3	0	2	3	0	0	0	1	0	2	0	5	0	4	
4	6	5	4	2	6	0	6	1	6	2	6	1	6	0	
2	8	7	8	0	8	1	8	2	8	1	8	0	
2	4	5	4	0	4	1	4	5	4	3	4	4	
2	7	8	8	0	8	1	8	2	8	5	8	4	
4	3	9	8	6	9	0	9	1	9	5	9	3	9	4	
2	9	3	9	0	9	1	9	2	9	5	9	4	
2	9	5	9	0	9	1	9	2	9	5	9	4	
2	4	2	4	0	4	1	4	2	4	3	4	4	
5	2	3	9	8	7	2	0	2	1	3	2	3	3	3	4	
