1932.2	1932.2
1353
1287.72	865.018
10
0	339	3000
1	201	3000
2	339	3000
3	472	3000
4	0	3000
5	587	3000
6	355	3000
7	184	3000
8	321	3000
9	446	3000
34
0	1	23.083050	131.479641
0	2	40.309058	135.308578
0	5	114.664950	149.350323
1	0	40.990164	131.479641
1	2	11.099572	146.797369
1	3	32.824148	144.244414
1	4	14.465512	146.797369
2	0	60.454410	135.308578
2	1	11.186086	146.797369
2	3	45.642414	135.308578
2	4	24.213644	130.202668
3	1	34.508862	144.244414
3	2	44.893348	135.308578
3	4	13.698468	126.372741
3	9	112.130436	116.160923
4	1	31.334836	146.797369
4	2	46.495066	130.202668
4	3	33.403642	126.372741
4	5	51.985072	117.437895
5	0	76.722422	149.350323
5	4	110.360598	117.437895
5	6	120.267106	123.819787
5	9	55.230070	140.414487
6	5	123.234572	123.819787
6	7	64.576284	139.138505
6	8	33.184466	144.244414
7	6	65.524676	139.138505
7	8	34.385010	135.308578
8	6	36.251640	144.244414
8	7	35.165206	135.308578
8	9	110.329128	114.884940
9	3	93.034202	116.160923
9	5	73.453868	140.414487
9	8	113.101644	114.884940
360
3	3	2	0	3	0	3	1	3	5	2	3	2	4	
2	8	9	8	0	8	1	8	2	8	3	8	4	
2	8	9	9	0	9	1	9	2	9	1	9	0	
2	9	8	9	0	8	1	8	5	8	3	8	4	
4	2	3	9	8	2	0	9	1	9	2	9	5	8	4	
3	5	0	2	0	0	0	1	0	2	0	1	0	0	
2	0	2	0	0	0	1	0	2	0	1	0	0	
4	8	9	5	0	8	0	8	1	8	2	9	5	9	4	
5	1	0	5	6	7	0	0	0	1	0	2	0	5	0	4	
2	8	6	8	0	8	1	8	2	8	5	8	4	
4	3	9	8	7	3	0	3	1	9	2	9	3	9	4	
2	1	2	2	0	2	1	2	2	2	3	2	4	
5	7	6	5	0	1	7	0	7	1	7	5	6	3	6	4	
3	2	0	5	0	0	0	1	0	5	0	3	0	4	
3	9	8	6	8	0	8	1	8	5	8	3	8	4	
2	4	1	1	0	1	1	1	2	1	1	1	0	
2	5	0	0	0	0	1	0	2	0	3	0	4	
3	0	2	4	0	0	0	1	0	2	2	5	2	4	
2	7	6	7	0	7	1	7	2	7	5	7	4	
2	0	1	0	0	0	1	0	2	1	3	1	4	
2	3	9	3	0	3	1	3	2	3	1	3	0	
2	1	0	1	0	1	1	1	5	1	3	1	4	
3	7	6	5	6	0	6	1	6	2	6	3	6	4	
4	0	5	9	8	0	0	5	1	5	2	5	5	5	4	
2	3	4	3	0	3	1	3	2	3	1	3	0	
2	4	3	3	0	3	1	3	2	3	3	3	4	
2	2	4	2	0	2	1	2	2	2	3	2	4	
4	6	5	4	1	6	0	6	1	6	2	6	5	6	4	
3	5	6	7	5	0	5	1	5	5	6	3	6	4	
3	5	4	1	5	0	5	1	5	5	5	3	5	4	
3	0	2	3	2	0	2	1	2	5	2	3	2	4	
4	6	5	4	2	6	0	6	1	6	2	5	3	5	4	
4	4	5	6	8	5	0	5	1	5	5	5	3	5	4	
4	3	9	8	6	3	0	3	1	3	2	9	3	9	4	
2	9	3	3	0	3	1	3	2	3	1	3	0	
3	7	8	9	8	0	8	1	8	5	8	3	8	4	
2	4	2	2	0	2	1	2	5	2	3	2	4	
5	2	4	5	6	7	2	0	2	1	2	2	2	1	2	0	
3	6	5	0	6	0	5	1	5	2	5	1	5	0	
5	7	6	5	4	1	7	0	7	1	7	2	7	5	7	4	
2	9	8	8	0	8	1	8	2	8	3	8	4	
3	5	0	2	5	0	0	1	0	2	0	5	0	4	
2	0	2	2	0	2	1	2	2	2	3	2	4	
4	8	6	5	0	8	0	6	1	6	2	6	1	6	0	
5	1	0	5	6	7	0	0	0	1	0	2	0	1	0	0	
4	7	6	5	4	6	0	6	1	6	2	6	3	6	4	
2	3	1	3	0	1	1	1	5	1	3	1	4	
4	3	9	8	7	3	0	3	1	3	5	3	3	3	4	
2	1	2	2	0	2	1	2	2	2	1	2	0	
3	2	0	5	2	0	2	1	2	2	0	3	0	4	
2	4	1	1	0	1	1	1	2	1	5	1	4	
2	5	0	5	0	5	1	5	2	5	1	5	0	
3	0	2	4	2	0	2	1	2	2	2	1	2	0	
4	6	5	4	3	6	0	6	1	6	2	5	3	5	4	
2	6	8	6	0	6	1	6	2	6	5	6	4	
2	7	6	7	0	7	1	7	5	7	3	7	4	
3	9	8	7	9	0	9	1	9	5	9	3	9	4	
2	0	1	1	0	1	1	1	2	1	1	1	0	
2	3	9	3	0	9	1	9	2	9	3	9	4	
2	1	0	1	0	0	1	0	2	0	3	0	4	
4	0	5	9	8	5	0	5	1	5	2	5	1	5	0	
2	3	4	3	0	3	1	3	2	3	5	3	4	
2	4	3	3	0	3	1	3	2	3	1	3	0	
2	2	4	2	0	2	1	2	5	2	3	2	4	
4	6	5	4	1	6	0	6	1	6	5	6	3	6	4	
4	8	9	3	4	8	0	8	1	8	5	8	3	8	4	
3	5	6	7	5	0	5	1	6	2	6	5	6	4	
3	5	0	1	5	0	5	1	0	2	0	5	0	4	
3	0	2	3	0	0	0	1	0	2	2	3	2	4	
4	4	5	6	8	5	0	5	1	5	2	5	5	5	4	
3	9	5	0	9	0	9	1	9	2	9	5	9	4	
2	7	8	8	0	8	1	8	5	8	3	8	4	
2	2	1	2	0	1	1	1	2	1	5	1	4	
4	3	9	8	6	3	0	3	1	3	2	3	1	3	0	
2	9	3	9	0	9	1	9	2	9	3	9	4	
2	4	2	2	0	2	1	2	2	2	5	2	4	
5	2	0	5	6	7	2	0	2	1	0	2	0	5	0	4	
3	6	5	0	6	0	6	1	6	2	6	3	6	4	
3	8	9	3	9	0	9	1	9	2	9	5	9	4	
2	1	4	1	0	1	1	1	2	1	5	1	4	
5	7	8	9	3	1	8	0	8	1	8	2	8	1	8	0	
2	9	8	9	0	9	1	9	2	9	1	9	0	
3	5	4	2	5	0	5	1	5	5	5	3	5	4	
2	0	2	0	0	0	1	0	5	2	3	2	4	
3	3	9	8	3	0	9	1	9	2	9	3	9	4	
4	8	9	5	0	8	0	8	1	9	2	9	3	9	4	
5	1	0	5	6	7	1	0	0	1	0	2	0	3	0	4	
4	7	6	5	4	6	0	6	1	6	2	6	1	6	0	
3	9	3	1	9	0	3	1	3	2	3	1	3	0	
2	2	0	2	0	2	1	2	2	2	1	2	0	
2	3	1	3	0	3	1	3	2	3	5	3	4	
4	1	3	9	8	1	0	1	1	1	2	1	5	1	4	
4	3	9	8	7	3	0	3	1	9	2	9	5	9	4	
2	1	2	1	0	1	1	2	2	2	5	2	4	
3	2	4	5	2	0	2	1	2	2	2	1	2	0	
4	0	5	6	7	0	0	5	1	5	2	5	5	5	4	
2	4	1	1	0	1	1	1	5	1	3	1	4	
3	0	5	4	0	0	0	1	0	2	0	3	0	4	
4	6	5	4	3	6	0	5	1	5	2	5	1	5	0	
4	8	9	3	2	9	0	9	1	9	2	9	1	9	0	
3	1	0	5	0	0	0	1	0	2	0	1	0	0	
2	7	6	7	0	7	1	7	2	6	3	6	4	
3	9	8	7	9	0	9	1	9	2	9	5	9	4	
2	0	1	0	0	0	1	0	2	0	5	0	4	
2	1	0	1	0	1	1	1	2	1	1	1	0	
3	9	3	2	3	0	3	1	3	2	3	3	3	4	
2	2	3	2	0	2	1	2	2	3	3	3	4	
4	0	5	9	8	5	0	5	1	5	2	5	3	5	4	
3	1	3	9	3	0	3	1	3	2	3	1	3	0	
2	3	4	3	0	3	1	3	5	3	3	3	4	
2	2	4	2	0	2	1	2	2	2	5	2	4	
3	0	5	6	0	0	0	1	0	2	0	1	0	0	
4	6	5	4	1	6	0	6	1	6	2	6	3	6	4	
4	8	9	5	4	9	0	9	1	9	2	9	5	9	4	
2	8	9	8	0	8	1	8	5	9	3	9	4	
3	5	6	7	6	0	6	1	6	2	6	1	6	0	
3	0	2	3	2	0	2	1	2	2	2	1	2	0	
4	8	9	3	1	8	0	8	1	8	2	9	3	9	4	
4	1	0	5	6	1	0	0	1	0	2	0	3	0	4	
4	4	5	6	8	5	0	5	1	5	2	5	1	5	0	
3	9	5	0	9	0	9	1	9	5	5	3	5	4	
2	2	1	2	0	2	1	2	5	1	3	1	4	
5	7	6	5	4	2	7	0	7	1	6	2	6	5	6	4	
5	2	0	5	6	7	0	0	0	1	0	5	0	3	0	4	
3	8	9	5	8	0	8	1	8	5	9	3	9	4	
2	0	5	0	0	5	1	5	2	5	3	5	4	
3	6	5	0	6	0	6	1	6	5	5	3	5	4	
3	8	9	3	8	0	8	1	8	5	9	3	9	4	
2	1	4	1	0	1	1	1	5	1	3	1	4	
5	7	6	5	0	1	7	0	7	1	7	2	6	3	6	4	
2	0	2	0	0	0	1	2	2	2	5	2	4	
3	3	9	8	3	0	3	1	3	2	3	1	3	0	
4	7	6	5	4	7	0	7	1	7	2	7	5	7	4	
3	9	3	1	3	0	3	1	3	2	3	3	3	4	
2	2	0	2	0	2	1	2	2	2	3	2	4	
2	6	8	6	0	8	1	8	5	8	3	8	4	
3	0	5	9	5	0	5	1	5	2	5	3	5	4	
2	3	1	3	0	3	1	3	2	3	1	3	0	
2	6	5	6	0	6	1	6	2	6	5	6	4	
4	1	3	9	8	1	0	1	1	1	5	3	3	3	4	
2	1	2	1	0	1	1	1	5	1	3	1	4	
3	5	9	3	9	0	9	1	9	5	9	3	9	4	
4	0	5	6	7	0	0	0	1	0	5	0	3	0	4	
4	7	8	9	3	7	0	7	1	7	2	7	1	7	0	
4	8	9	3	1	8	0	8	1	8	5	9	3	9	4	
3	6	8	9	8	0	8	1	8	2	8	5	8	4	
4	6	5	4	3	6	0	6	1	5	2	5	5	5	4	
4	8	9	3	2	8	0	8	1	8	2	8	3	8	4	
3	1	4	5	1	0	1	1	1	2	1	3	1	4	
2	7	6	6	0	6	1	6	2	6	1	6	0	
3	9	8	7	9	0	8	1	8	2	8	1	8	0	
3	5	9	8	9	0	9	1	9	2	9	5	9	4	
2	0	1	0	0	0	1	0	5	1	3	1	4	
3	4	2	0	2	0	2	1	2	5	2	3	2	4	
3	9	3	2	3	0	3	1	3	2	3	1	3	0	
2	2	3	3	0	3	1	3	2	3	1	3	0	
3	6	5	4	6	0	5	1	5	2	5	1	5	0	
3	1	3	9	3	0	3	1	3	2	3	3	3	4	
2	5	4	5	0	5	1	5	2	5	5	5	4	
3	0	5	6	0	0	0	1	5	2	5	3	5	4	
4	6	5	4	1	6	0	5	1	5	2	5	1	5	0	
4	8	9	3	4	8	0	8	1	9	2	9	1	9	0	
4	7	6	5	0	6	0	6	1	6	2	6	3	6	4	
3	5	6	7	6	0	6	1	6	2	6	3	6	4	
3	3	9	5	3	0	3	1	3	5	3	3	3	4	
3	7	8	9	8	0	8	1	8	2	8	5	8	4	
4	1	4	5	6	1	0	1	1	1	2	1	1	1	0	
4	4	5	6	8	5	0	5	1	5	2	5	3	5	4	
3	9	5	0	9	0	9	1	9	2	5	3	5	4	
2	2	1	2	0	1	1	1	2	1	3	1	4	
2	5	9	5	0	5	1	5	2	5	1	5	0	
4	4	5	6	7	5	0	5	1	5	2	5	5	5	4	
2	5	0	5	0	5	1	5	5	5	3	5	4	
2	6	7	6	0	6	1	6	2	6	3	6	4	
5	7	6	5	4	2	7	0	7	1	7	5	7	3	7	4	
2	0	5	5	0	5	1	5	2	5	1	5	0	
3	6	5	0	6	0	6	1	6	2	6	5	6	4	
3	8	9	3	9	0	9	1	9	2	9	3	9	4	
2	1	4	1	0	1	1	1	2	1	3	1	4	
2	3	2	3	0	3	1	2	2	2	5	2	4	
3	3	9	8	3	0	3	1	9	2	9	5	9	4	
4	2	0	5	6	2	0	2	1	2	5	0	3	0	4	
4	7	6	5	4	6	0	6	1	6	5	6	3	6	4	
3	9	3	1	9	0	9	1	9	5	3	3	3	4	
2	2	0	2	0	2	1	2	5	2	3	2	4	
3	0	5	9	0	0	0	1	0	2	0	1	0	0	
2	3	1	3	0	1	1	1	2	1	3	1	4	
2	6	5	6	0	6	1	6	5	6	3	6	4	
4	1	3	9	8	1	0	1	1	1	2	3	3	3	4	
3	4	5	6	5	0	5	1	5	2	5	1	5	0	
3	5	9	3	5	0	5	1	5	2	5	5	5	4	
4	0	5	6	7	5	0	5	1	5	2	5	3	5	4	
4	7	8	9	3	7	0	7	1	7	2	7	3	7	4	
3	9	5	4	9	0	9	1	5	2	5	5	5	4	
2	5	6	5	0	5	1	5	2	5	3	5	4	
3	6	8	9	6	0	8	1	8	5	8	3	8	4	
2	1	3	1	0	1	1	1	5	1	3	1	4	
4	6	8	9	3	6	0	6	1	6	5	6	3	6	4	
4	8	9	3	2	8	0	8	1	8	5	8	3	8	4	
3	1	0	5	1	0	1	1	1	5	0	3	0	4	
3	4	3	9	3	0	3	1	3	2	3	3	3	4	
3	9	8	7	9	0	9	1	9	2	8	3	8	4	
3	5	9	8	5	0	5	1	5	5	5	3	5	4	
2	8	9	8	0	8	1	9	2	9	5	9	4	
3	4	2	0	2	0	2	1	2	2	2	5	2	4	
3	2	3	9	3	0	3	1	3	2	3	5	3	4	
3	9	3	2	9	0	3	1	3	2	3	5	3	4	
2	2	3	2	0	2	1	2	2	2	5	2	4	
3	6	5	4	6	0	6	1	6	2	6	3	6	4	
2	8	7	8	0	7	1	7	2	7	5	7	4	
3	1	3	9	1	0	1	1	1	5	1	3	1	4	
2	4	5	5	0	5	1	5	2	5	3	5	4	
2	5	4	5	0	5	1	5	5	5	3	5	4	
3	0	5	6	0	0	0	1	0	5	0	3	0	4	
4	8	9	5	4	9	0	9	1	9	2	9	3	9	4	
4	7	6	5	0	6	0	6	1	6	2	6	1	6	0	
2	9	5	9	0	9	1	9	2	9	1	9	0	
2	6	8	6	0	8	1	8	2	8	3	8	4	
3	7	8	9	8	0	8	1	8	2	8	1	8	0	
4	1	0	5	6	1	0	1	1	0	2	5	5	6	4	
3	9	5	0	9	0	9	1	9	2	9	1	9	0	
3	7	6	5	7	0	7	1	7	2	7	1	7	0	
2	2	1	2	0	2	1	2	2	2	1	2	0	
2	5	9	5	0	5	1	5	2	5	3	5	4	
3	3	2	0	3	0	3	1	3	2	3	3	3	4	
4	4	5	6	7	5	0	5	1	5	5	5	3	5	4	
4	2	3	9	8	2	0	2	1	2	2	2	1	2	0	
2	6	7	6	0	6	1	6	2	6	1	6	0	
2	8	6	6	0	6	1	6	2	6	1	6	0	
5	7	6	5	4	2	7	0	7	1	6	2	6	3	6	4	
3	3	9	5	3	0	3	1	3	2	3	5	3	4	
2	0	5	0	0	0	1	0	2	0	5	0	4	
3	8	9	3	8	0	9	1	9	2	9	1	9	0	
2	1	4	1	0	1	1	1	2	1	1	1	0	
3	9	8	6	9	0	8	1	8	2	8	3	8	4	
2	3	2	3	0	3	1	3	5	2	3	2	4	
3	3	9	8	3	0	3	1	3	5	9	3	9	4	
4	8	9	3	1	8	0	8	1	8	2	8	5	8	4	
4	2	0	5	6	0	0	0	1	0	2	0	5	0	4	
3	9	3	1	3	0	3	1	3	2	3	5	3	4	
2	2	0	2	0	2	1	0	2	0	5	0	4	
3	0	5	9	0	0	0	1	0	2	0	5	0	4	
2	6	5	6	0	5	1	5	2	5	3	5	4	
4	1	3	9	8	3	0	3	1	3	2	3	1	3	0	
3	4	5	6	5	0	5	1	5	2	5	3	5	4	
3	5	9	3	5	0	5	1	5	2	5	1	5	0	
4	0	5	6	7	5	0	5	1	5	2	5	1	5	0	
3	8	9	5	8	0	8	1	8	2	8	3	8	4	
4	7	8	9	3	7	0	7	1	7	5	8	3	8	4	
3	9	5	4	5	0	5	1	5	5	5	3	5	4	
2	5	6	5	0	5	1	5	2	5	1	5	0	
2	4	3	3	0	3	1	3	5	3	3	3	4	
3	6	8	9	6	0	8	1	8	2	8	3	8	4	
2	1	3	3	0	3	1	3	2	3	5	3	4	
4	8	9	3	2	9	0	9	1	9	2	9	5	9	4	
3	1	0	5	1	0	1	1	0	2	5	5	5	4	
3	4	3	9	3	0	3	1	3	2	3	1	3	0	
3	5	9	8	5	0	5	1	5	2	9	3	9	4	
3	4	2	0	2	0	2	1	2	2	2	1	2	0	
3	2	3	9	2	0	2	1	2	5	2	3	2	4	
3	9	3	2	9	0	9	1	9	5	9	3	9	4	
2	2	3	3	0	3	1	3	5	3	3	3	4	
4	6	5	4	2	6	0	5	1	5	5	5	3	5	4	
3	6	5	4	6	0	6	1	6	5	6	3	6	4	
2	8	7	8	0	8	1	8	5	7	3	7	4	
3	1	3	9	1	0	9	1	9	2	9	5	9	4	
2	4	5	5	0	5	1	5	2	5	1	5	0	
2	5	4	5	0	5	1	5	2	5	3	5	4	
3	0	5	6	5	0	5	1	5	2	5	5	5	4	
4	7	6	5	0	7	0	7	1	7	2	7	5	7	4	
2	9	5	9	0	5	1	5	2	5	3	5	4	
3	3	9	5	3	0	3	1	9	2	9	1	9	0	
3	7	8	9	7	0	7	1	7	2	8	3	8	4	
4	1	0	5	6	0	0	0	1	0	5	0	3	0	4	
2	5	9	9	0	9	1	9	5	9	3	9	4	
3	3	2	0	3	0	3	1	3	2	3	1	3	0	
4	4	5	6	7	5	0	5	1	5	2	5	3	5	4	
4	2	3	9	8	2	0	9	1	9	2	9	3	8	4	
2	6	7	6	0	6	1	7	2	7	5	7	4	
2	8	6	6	0	6	1	6	2	6	3	6	4	
5	7	6	5	4	2	7	0	7	1	6	2	6	1	6	0	
2	0	5	0	0	0	1	0	5	5	3	5	4	
3	9	8	6	8	0	8	1	8	2	8	1	8	0	
2	3	2	3	0	3	1	3	2	3	3	3	4	
4	2	4	5	6	2	0	2	1	2	2	2	1	2	0	
2	5	0	5	0	5	1	5	2	5	5	5	4	
3	0	5	9	0	0	0	1	0	5	5	3	5	4	
2	6	5	6	0	6	1	6	2	6	1	6	0	
3	4	5	6	5	0	5	1	5	5	5	3	5	4	
3	5	9	3	5	0	5	1	5	2	5	3	5	4	
2	3	9	3	0	3	1	3	5	9	3	9	4	
3	8	6	5	8	0	6	1	6	2	6	1	6	0	
4	7	8	9	3	7	0	7	1	8	2	8	5	8	4	
3	9	5	4	9	0	9	1	9	2	5	3	5	4	
2	5	6	6	0	6	1	6	2	6	5	6	4	
3	6	8	9	6	0	6	1	6	2	6	1	6	0	
2	1	3	1	0	1	1	1	2	1	1	1	0	
2	7	8	8	0	8	1	8	2	8	3	8	4	
3	4	3	9	3	0	3	1	3	2	3	5	3	4	
3	5	9	8	9	0	9	1	9	2	9	1	9	0	
3	4	2	0	2	0	2	1	2	2	2	3	2	4	
3	2	3	9	2	0	9	1	9	2	9	3	9	4	
3	5	4	1	5	0	5	1	5	2	5	1	5	0	
4	6	5	4	2	6	0	6	1	5	2	5	5	5	4	
3	6	5	4	6	0	6	1	5	2	5	5	5	4	
2	8	7	7	0	7	1	7	2	7	3	7	4	
3	7	6	5	7	0	7	1	6	2	6	5	6	4	
2	4	5	5	0	5	1	5	2	5	5	5	4	
2	5	4	5	0	5	1	5	2	5	1	5	0	
4	3	9	8	6	3	0	3	1	9	2	9	5	9	4	
3	7	6	5	6	0	6	1	6	5	6	3	6	4	
2	9	3	9	0	9	1	9	5	3	3	3	4	
4	7	6	5	0	6	0	6	1	6	5	6	3	6	4	
2	9	5	9	0	9	1	9	5	9	3	9	4	
3	3	9	5	3	0	3	1	3	2	3	3	3	4	
2	6	8	6	0	8	1	8	2	8	1	8	0	
2	4	2	2	0	2	1	2	2	2	1	2	0	
2	5	9	5	0	5	1	9	2	9	5	9	4	
3	3	2	0	3	0	3	1	3	2	3	5	3	4	
4	4	5	6	7	5	0	5	1	5	2	5	1	5	0	
2	9	8	8	0	8	1	8	2	8	5	8	4	
4	2	3	9	8	3	0	3	1	3	5	3	3	3	4	
3	5	4	2	5	0	5	1	5	2	5	3	5	4	
4	8	9	5	0	9	0	9	1	9	5	9	3	9	4	
4	8	9	3	1	8	0	9	1	9	2	9	1	9	0	
5	1	3	9	8	7	1	0	1	1	3	5	3	3	3	4	
2	6	7	6	0	7	1	7	5	7	3	7	4	
2	8	6	8	0	8	1	8	5	8	3	8	4	
4	3	9	8	7	3	0	3	1	3	2	3	1	3	0	
3	2	0	5	2	0	0	1	0	2	0	5	0	4	
3	9	8	6	8	0	8	1	8	2	8	5	8	4	
2	3	2	3	0	3	1	3	2	3	1	3	0	
2	4	1	1	0	1	1	1	2	1	3	1	4	
4	2	0	5	6	2	0	2	1	2	2	0	3	0	4	
2	4	3	3	0	3	1	3	2	3	5	3	4	
3	0	2	4	2	0	2	1	2	5	2	3	2	4	
3	4	5	6	5	0	5	1	5	2	5	5	5	4	
2	3	9	3	0	3	1	3	2	3	5	3	4	
2	1	0	0	0	0	1	0	2	0	5	0	4	
3	8	9	5	8	0	8	1	9	2	9	5	9	4	
3	9	3	4	9	0	3	1	3	2	3	1	3	0	
4	0	5	6	8	0	0	0	1	0	5	5	3	5	4	
2	5	6	6	0	6	1	6	5	6	3	6	4	
2	3	4	3	0	3	1	3	2	3	3	3	4	
2	1	3	3	0	3	1	3	2	3	3	3	4	
2	7	8	7	0	7	1	7	2	7	1	7	0	
2	2	4	2	0	2	1	2	2	2	1	2	0	
3	4	3	9	3	0	3	1	3	5	3	3	3	4	
3	2	3	9	3	0	3	1	3	2	3	1	3	0	
3	5	0	1	5	0	5	1	0	2	0	3	0	4	
3	0	2	3	2	0	2	1	2	2	2	5	2	4	
4	6	5	4	2	6	0	5	1	5	2	5	1	5	0	
2	8	7	8	0	7	1	7	2	7	1	7	0	
2	4	5	5	0	5	1	5	5	5	3	5	4	
2	7	8	8	0	8	1	8	2	8	5	8	4	
4	3	9	8	6	3	0	3	1	9	5	9	3	9	4	
2	9	3	9	0	3	1	3	2	3	5	3	4	
2	9	5	9	0	5	1	5	2	5	5	5	4	
2	4	2	2	0	2	1	2	2	2	3	2	4	
5	2	3	9	8	7	2	0	2	1	2	2	3	3	3	4	
