-1.79769e+308	1932.2
1112
5532.07	5843.75
10
0	227	3000
1	372	3000
2	0	3000
3	543	3000
4	240	3000
5	1054	3000
6	0	3000
7	298	3000
8	510	3000
9	0	3000
34
0	1	55.515504	131.479641
1	0	41.210588	131.479641
0	2	34.512656	135.308578
2	0	31.904694	135.308578
0	5	98.678712	149.350323
5	0	115.701528	149.350323
1	2	11.099572	146.797369
2	1	11.186086	146.797369
1	3	43.926766	144.244414
3	1	33.202482	144.244414
1	4	22.094056	146.797369
4	1	19.160348	146.797369
2	3	34.522596	135.308578
3	2	54.765768	135.308578
2	4	32.588538	130.202668
4	2	11.124408	130.202668
3	4	11.041938	126.372741
4	3	30.102692	126.372741
3	9	108.795036	116.160923
9	3	98.926462	116.160923
4	5	83.649764	117.437895
5	4	77.832286	117.437895
5	6	123.463422	123.819787
6	5	119.861270	123.819787
5	9	75.996418	140.414487
9	5	91.562174	140.414487
6	7	64.593484	139.138505
7	6	56.958636	139.138505
6	8	15.719068	144.244414
8	6	20.799864	144.244414
7	8	42.951050	135.308578
8	7	35.148006	135.308578
8	9	113.702430	114.884940
9	8	109.905328	114.884940
360
3	3	2	0	3	0	3	1	3	5	3	3	3	4	
2	8	9	8	0	8	1	8	2	8	3	8	4	
2	8	9	8	0	8	1	8	2	8	1	8	0	
2	9	8	8	0	8	1	8	5	8	3	8	4	
4	2	3	9	8	3	0	3	1	3	2	3	5	3	4	
3	5	0	2	5	0	5	1	5	2	5	1	5	0	
2	0	2	0	0	0	1	0	2	0	1	0	0	
4	8	9	5	0	8	0	8	1	8	2	8	5	8	4	
5	1	4	5	6	7	4	0	4	1	4	2	4	5	4	4	
2	8	6	8	0	8	1	8	2	8	5	8	4	
4	3	9	8	7	3	0	3	1	3	2	3	3	3	4	
2	1	2	1	0	1	1	1	2	1	3	1	4	
5	7	8	9	3	1	8	0	8	1	8	5	8	3	8	4	
3	2	4	5	4	0	4	1	4	5	4	3	4	4	
3	9	5	6	5	0	5	1	5	5	5	3	5	4	
2	4	1	1	0	1	1	1	2	1	1	1	0	
2	5	0	5	0	5	1	5	2	5	3	5	4	
3	0	5	4	5	0	5	1	5	2	5	5	5	4	
2	7	6	7	0	7	1	7	2	7	5	7	4	
2	0	1	0	0	0	1	0	2	0	3	0	4	
2	3	9	3	0	3	1	3	2	3	1	3	0	
2	1	0	1	0	1	1	1	5	1	3	1	4	
3	7	6	5	7	0	7	1	7	2	7	3	7	4	
4	0	5	9	8	5	0	5	1	5	2	5	5	5	4	
2	3	4	3	0	3	1	3	2	3	1	3	0	
2	4	3	4	0	4	1	4	2	4	3	4	4	
2	2	4	4	0	4	1	4	2	4	3	4	4	
4	6	5	0	1	5	0	5	1	5	2	5	5	5	4	
3	5	6	7	5	0	5	1	5	5	5	3	5	4	
3	5	4	1	5	0	5	1	5	5	5	3	5	4	
3	0	1	3	0	0	0	1	0	5	0	3	0	4	
4	6	5	0	2	5	0	5	1	5	2	5	3	5	4	
4	4	5	9	8	5	0	5	1	5	5	5	3	5	4	
4	3	9	5	6	3	0	3	1	3	2	3	3	3	4	
2	9	3	3	0	3	1	3	2	3	1	3	0	
3	7	8	9	7	0	8	1	8	5	8	3	8	4	
2	4	2	4	0	4	1	4	5	4	3	4	4	
5	2	4	5	6	7	4	0	4	1	4	2	4	1	4	0	
3	6	5	0	5	0	5	1	5	2	5	1	5	0	
5	7	6	5	0	1	7	0	7	1	7	2	7	5	7	4	
2	9	8	8	0	8	1	8	2	8	3	8	4	
3	5	0	2	5	0	5	1	5	2	5	5	5	4	
2	0	2	0	0	0	1	0	2	0	3	0	4	
4	8	9	5	0	8	0	8	1	8	2	8	1	8	0	
5	1	4	5	6	7	4	0	4	1	4	2	4	1	4	0	
4	7	6	5	4	7	0	7	1	7	2	7	3	7	4	
2	3	1	1	0	1	1	1	5	1	3	1	4	
4	3	9	8	7	3	0	3	1	3	5	3	3	3	4	
2	1	2	1	0	1	1	1	2	1	1	1	0	
3	2	0	5	0	0	0	1	0	2	5	3	5	4	
2	4	1	1	0	1	1	1	2	1	5	1	4	
2	5	0	5	0	5	1	5	2	5	1	5	0	
3	0	5	4	5	0	5	1	5	2	5	1	5	0	
4	6	5	4	3	5	0	5	1	5	2	5	3	5	4	
2	6	8	8	0	8	1	8	2	8	5	8	4	
2	7	6	7	0	7	1	7	5	7	3	7	4	
3	9	8	7	8	0	8	1	8	5	8	3	8	4	
2	0	1	0	0	0	1	0	2	0	1	0	0	
2	3	9	3	0	3	1	3	2	3	3	3	4	
2	1	0	1	0	1	1	1	2	1	3	1	4	
4	0	5	9	8	0	0	0	1	0	2	0	1	5	0	
2	3	4	4	0	4	1	4	2	4	5	4	4	
2	4	3	4	0	4	1	4	2	4	1	4	0	
2	2	4	4	0	4	1	4	5	4	3	4	4	
4	6	5	0	1	5	0	5	1	5	5	5	3	5	4	
4	8	9	5	4	8	0	8	1	8	5	8	3	8	4	
3	5	6	7	5	0	5	1	5	2	5	5	5	4	
3	5	0	1	5	0	5	1	5	2	5	5	5	4	
3	0	1	3	0	0	0	1	0	2	0	3	0	4	
4	4	5	9	8	5	0	5	1	5	2	5	5	5	4	
3	9	5	0	5	0	5	1	5	2	5	5	5	4	
2	7	8	7	0	7	1	7	5	7	3	7	4	
2	2	1	1	0	1	1	1	2	1	5	1	4	
4	3	9	5	6	3	0	3	1	3	2	3	1	3	0	
2	9	3	3	0	3	1	3	2	3	3	3	4	
2	4	2	4	0	4	1	4	2	4	5	4	4	
5	2	4	5	6	7	4	0	4	1	4	2	4	5	4	4	
3	6	5	0	5	0	5	1	5	2	5	3	5	4	
3	8	9	3	8	0	8	1	8	2	8	5	8	4	
2	1	4	1	0	1	1	1	2	1	5	1	4	
5	7	6	5	0	1	7	0	7	1	7	2	7	1	7	0	
2	9	8	8	0	8	1	8	2	8	1	8	0	
3	5	4	2	5	0	5	1	5	5	5	3	5	4	
2	0	2	0	0	0	1	0	5	0	3	0	4	
3	3	9	8	3	0	3	1	3	2	3	3	3	4	
4	8	9	5	0	8	0	8	1	8	2	8	3	8	4	
5	1	4	5	6	7	1	0	1	1	1	2	1	3	1	4	
4	7	6	5	4	7	0	7	1	7	2	7	1	7	0	
3	9	3	1	3	0	3	1	3	2	3	1	3	0	
2	2	0	0	0	0	1	0	2	0	1	0	0	
2	3	1	1	0	1	1	1	2	1	5	1	4	
4	1	3	9	8	1	0	1	1	1	2	1	5	1	4	
4	3	9	8	7	3	0	3	1	3	2	3	5	3	4	
2	1	2	1	0	1	1	1	2	1	5	1	4	
3	2	4	5	4	0	4	1	4	2	4	1	4	0	
4	0	5	6	7	5	0	5	1	5	2	5	5	5	4	
2	4	1	4	0	1	1	1	5	1	3	1	4	
3	0	5	4	5	0	5	1	5	2	5	3	5	4	
4	6	5	4	3	5	0	5	1	5	2	5	1	5	0	
4	8	9	3	2	8	0	8	1	8	2	8	1	8	0	
3	1	0	5	1	0	1	1	1	2	1	1	1	0	
2	7	6	7	0	7	1	7	2	7	3	7	4	
3	9	8	7	8	0	8	1	8	2	8	5	8	4	
2	0	1	0	0	0	1	0	2	0	5	0	4	
2	1	0	1	0	1	1	1	2	1	1	1	0	
3	9	3	2	3	0	3	1	3	2	3	3	3	4	
2	2	3	3	0	3	1	3	2	3	3	3	4	
4	0	5	9	8	0	0	0	1	0	2	0	3	0	4	
3	1	3	9	1	0	1	1	1	2	1	1	1	0	
2	3	4	3	0	3	1	3	5	3	3	3	4	
2	2	4	4	0	4	1	4	2	4	5	4	4	
3	0	5	6	5	0	5	1	5	2	5	1	5	0	
4	6	5	0	1	5	0	5	1	5	2	5	3	0	4	
4	8	9	5	4	8	0	8	1	8	2	8	5	8	4	
2	8	9	8	0	8	1	8	5	8	3	8	4	
3	5	6	7	5	0	5	1	5	2	5	1	5	0	
3	0	1	3	1	0	1	1	1	2	1	1	1	0	
4	8	9	3	1	8	0	8	1	8	2	8	3	8	4	
4	1	0	5	6	0	0	0	1	0	2	0	3	0	4	
4	4	5	6	8	4	0	4	1	4	2	4	1	4	0	
3	9	5	0	5	0	5	1	5	5	5	3	5	4	
2	2	1	1	0	1	1	1	5	1	3	1	4	
5	7	8	9	3	2	8	0	8	1	8	2	8	5	8	4	
5	2	4	5	6	7	4	0	4	1	4	5	4	3	4	4	
3	8	9	5	8	0	8	1	8	5	8	3	8	4	
2	0	5	0	0	0	1	0	2	0	3	0	4	
3	6	5	0	5	0	5	1	5	5	5	3	5	4	
3	8	9	3	8	0	8	1	8	5	8	3	8	4	
2	1	4	4	0	4	1	4	5	4	3	4	4	
5	7	6	5	0	1	7	0	7	1	7	2	7	3	7	4	
2	0	2	0	0	0	1	0	2	0	5	0	4	
3	3	9	8	3	0	3	1	3	2	3	1	3	0	
4	7	6	5	4	5	0	5	1	5	2	5	5	5	4	
3	9	3	1	3	0	3	1	3	2	3	3	3	4	
2	2	0	0	0	0	1	0	2	0	3	0	4	
2	6	8	8	0	8	1	8	5	8	3	8	4	
3	0	5	9	5	0	5	1	5	2	5	3	5	4	
2	3	1	1	0	1	1	1	2	1	1	1	0	
2	6	5	5	0	5	1	5	2	5	5	5	4	
4	1	3	9	8	1	0	1	1	1	5	1	3	1	4	
2	1	2	1	0	1	1	1	5	1	3	1	4	
3	5	9	3	5	0	5	1	5	5	5	3	5	4	
4	0	5	6	7	5	0	5	1	5	5	5	3	5	4	
4	7	8	9	3	7	0	7	1	7	2	7	1	7	0	
4	8	9	3	1	8	0	8	1	8	5	8	3	8	4	
3	6	5	9	5	0	5	1	5	2	5	5	5	4	
4	6	5	4	3	5	0	5	1	5	2	5	5	5	4	
4	8	9	3	2	8	0	8	1	8	2	8	3	8	4	
3	1	0	5	0	0	0	1	0	2	0	3	0	4	
2	7	6	7	0	7	1	7	2	7	1	7	0	
3	9	8	7	8	0	8	1	8	2	8	1	8	0	
3	5	9	8	5	0	5	1	5	2	5	5	5	4	
2	0	1	0	0	0	1	0	5	0	3	0	4	
3	4	1	0	4	0	4	1	1	5	1	3	1	4	
3	9	3	2	3	0	3	1	3	2	3	1	3	0	
2	2	3	3	0	3	1	3	2	3	1	3	0	
3	6	5	4	5	0	5	1	5	2	5	1	5	0	
3	1	3	9	1	0	1	1	1	2	1	3	1	4	
2	5	4	5	0	5	1	5	2	5	5	5	4	
3	0	5	6	5	0	5	1	5	2	5	3	5	4	
4	6	5	0	1	5	0	5	1	5	2	5	1	5	0	
4	8	9	5	4	8	0	8	1	8	2	8	1	8	0	
4	7	6	5	0	7	0	5	1	5	2	5	3	5	4	
3	5	6	7	5	0	5	1	5	2	5	3	5	4	
3	3	9	5	3	0	3	1	3	5	3	3	3	4	
3	7	8	9	7	0	7	1	7	2	7	5	7	4	
4	1	0	5	6	0	0	0	1	0	2	0	1	0	0	
4	4	5	9	8	4	0	4	1	4	2	5	3	5	4	
3	9	5	0	5	0	5	1	5	2	5	3	5	4	
2	2	1	1	0	1	1	1	2	1	3	1	4	
2	5	9	5	0	5	1	5	2	5	1	5	0	
4	4	5	6	7	5	0	5	1	5	2	5	5	5	4	
2	5	0	5	0	0	1	0	5	0	3	0	4	
2	6	7	7	0	7	1	7	2	7	3	7	4	
5	7	6	5	4	2	7	0	7	1	7	5	7	3	7	4	
2	0	5	5	0	5	1	5	2	5	1	5	0	
3	6	5	0	5	0	5	1	5	2	5	5	5	4	
3	8	9	3	8	0	8	1	8	2	8	3	8	4	
2	1	4	4	0	4	1	4	2	4	3	4	4	
2	3	2	3	0	3	1	3	2	3	5	3	4	
3	3	9	8	3	0	3	1	3	2	3	5	3	4	
4	2	0	5	6	0	0	0	1	0	5	5	3	5	4	
4	7	6	5	4	7	0	7	1	7	5	7	3	7	4	
3	9	3	1	3	0	3	1	3	5	3	3	3	4	
2	2	0	0	0	0	1	0	5	0	3	0	4	
3	0	5	9	5	0	5	1	5	2	5	1	5	0	
2	3	1	3	0	3	1	3	2	3	3	3	4	
2	6	5	5	0	5	1	5	5	5	3	5	4	
4	1	3	9	8	1	0	1	1	1	2	1	3	1	4	
3	4	5	6	4	0	5	1	5	2	5	1	5	0	
3	5	9	3	5	0	5	1	5	2	5	5	5	4	
4	0	5	6	7	5	0	5	1	5	2	5	3	5	4	
4	7	8	9	3	8	0	8	1	8	2	8	3	8	4	
3	9	5	4	5	0	5	1	5	2	5	5	5	4	
2	5	6	5	0	5	1	5	2	5	3	5	4	
3	6	8	9	8	0	8	1	8	5	8	3	8	4	
2	1	3	1	0	1	1	1	5	1	3	1	4	
4	6	5	4	3	5	0	5	1	5	5	5	3	5	4	
4	8	9	3	2	8	0	8	1	8	5	8	3	8	4	
3	1	0	5	1	0	1	1	1	5	1	3	1	4	
3	4	5	9	5	0	5	1	5	2	5	3	5	4	
3	9	8	7	8	0	8	1	8	2	8	3	8	4	
3	5	9	8	5	0	5	1	5	5	5	3	5	4	
2	8	9	8	0	8	1	8	2	8	5	8	4	
3	4	1	0	4	0	1	1	1	2	1	5	1	4	
3	2	3	9	3	0	3	1	3	2	3	5	3	4	
3	9	3	2	3	0	3	1	3	2	3	5	3	4	
2	2	3	3	0	3	1	3	2	3	5	3	4	
3	6	5	4	5	0	5	1	5	2	5	3	5	4	
2	8	7	8	0	8	1	8	2	8	5	8	4	
3	1	3	9	1	0	1	1	1	5	1	3	1	4	
2	4	5	5	0	5	1	5	2	5	3	5	4	
2	5	4	5	0	5	1	5	5	5	3	5	4	
3	0	5	6	5	0	5	1	5	5	5	3	5	4	
4	8	9	5	4	8	0	8	1	8	2	8	3	8	4	
4	7	6	5	0	7	0	7	1	7	2	7	1	7	0	
2	9	5	5	0	5	1	5	2	5	1	5	0	
2	6	8	8	0	8	1	8	2	8	3	8	4	
3	7	8	9	7	0	7	1	7	2	7	1	7	0	
4	1	0	5	6	1	0	1	1	1	2	1	5	1	4	
3	9	5	0	5	0	5	1	5	2	5	1	5	0	
3	7	6	5	7	0	7	1	7	2	7	1	7	0	
2	2	1	1	0	1	1	1	2	1	1	1	0	
2	5	9	5	0	5	1	5	2	5	3	5	4	
3	3	2	0	3	0	3	1	3	2	3	3	3	4	
4	4	5	6	7	5	0	5	1	5	5	5	3	5	4	
4	2	3	9	8	3	0	3	1	3	2	3	1	3	0	
2	6	7	7	0	7	1	7	2	7	1	7	0	
2	8	6	8	0	8	1	8	2	8	1	8	0	
5	7	8	9	3	2	8	0	8	1	8	2	8	3	8	4	
3	3	9	5	3	0	3	1	3	2	3	5	3	4	
2	0	5	5	0	5	1	5	2	5	5	5	4	
3	8	9	3	8	0	8	1	8	2	8	1	8	0	
2	1	4	1	0	1	1	1	2	1	1	1	0	
3	9	8	6	8	0	8	1	8	2	8	3	8	4	
2	3	2	3	0	3	1	3	5	3	3	3	4	
3	3	9	8	3	0	3	1	3	5	3	3	3	4	
4	8	9	3	1	8	0	8	1	8	2	8	5	8	4	
4	2	0	5	6	0	0	0	1	0	2	0	5	0	4	
3	9	3	1	3	0	3	1	3	2	3	5	3	4	
2	2	0	0	0	0	1	0	2	0	5	0	4	
3	0	5	9	5	0	5	1	5	2	5	5	5	4	
2	6	5	5	0	5	1	5	2	5	3	5	4	
4	1	3	9	8	1	0	1	1	1	2	1	1	1	0	
3	4	5	6	5	0	5	1	5	2	5	3	5	4	
3	5	9	3	5	0	5	1	5	2	5	1	5	0	
4	0	5	6	7	5	0	5	1	5	2	5	1	5	0	
3	8	9	5	8	0	8	1	8	2	8	3	8	4	
4	7	8	9	3	8	0	8	1	8	5	8	3	8	4	
3	9	5	4	5	0	5	1	5	5	5	3	5	4	
2	5	6	5	0	5	1	5	2	5	1	5	0	
2	4	3	4	0	4	1	4	5	4	3	4	4	
3	6	8	9	8	0	8	1	8	2	8	3	8	4	
2	1	3	1	0	1	1	1	2	1	5	1	4	
4	8	9	3	2	8	0	8	1	8	2	8	5	8	4	
3	1	0	5	1	0	0	1	0	2	0	5	0	4	
3	4	5	9	4	0	4	1	4	2	4	1	4	0	
3	5	9	8	5	0	5	1	5	2	5	3	5	4	
3	4	5	0	4	0	4	1	4	2	4	1	4	0	
3	2	3	9	3	0	3	1	3	5	3	3	3	4	
3	9	3	2	3	0	3	1	3	5	3	3	3	4	
2	2	3	3	0	3	1	3	5	3	3	3	4	
4	6	5	0	2	5	0	5	1	5	5	5	3	5	4	
3	6	5	4	5	0	5	1	5	5	5	3	5	4	
2	8	7	7	0	7	1	7	5	7	3	7	4	
3	1	3	9	1	0	1	1	1	2	1	5	1	4	
2	4	5	5	0	5	1	5	2	5	1	5	0	
2	5	4	5	0	5	1	5	2	5	3	5	4	
3	0	5	6	5	0	5	1	5	2	5	5	5	4	
4	7	6	5	0	7	0	7	1	7	2	7	5	7	4	
2	9	5	5	0	5	1	5	2	5	3	5	4	
3	3	9	5	3	0	3	1	3	2	3	1	3	0	
3	7	8	9	7	0	7	1	7	2	7	3	7	4	
4	1	0	5	6	0	0	0	1	0	5	5	3	5	4	
2	5	9	5	0	5	1	5	5	5	3	5	4	
3	3	2	0	3	0	3	1	3	2	3	1	3	0	
4	4	5	6	7	5	0	5	1	5	2	5	3	5	4	
4	2	3	9	8	3	0	3	1	3	2	3	3	3	4	
2	6	7	7	0	7	1	7	2	7	5	7	4	
2	8	6	8	0	8	1	8	2	8	3	8	4	
5	7	6	5	0	2	7	0	7	1	7	2	7	1	7	0	
2	0	5	5	0	5	1	5	5	5	3	5	4	
3	9	5	6	5	0	5	1	5	2	5	1	5	0	
2	3	2	3	0	3	1	3	2	3	3	3	4	
4	2	4	5	6	4	0	4	1	4	2	4	1	4	0	
2	5	0	5	0	5	1	5	2	5	5	5	4	
3	0	5	9	5	0	5	1	5	5	5	3	5	4	
2	6	5	5	0	5	1	5	2	5	1	5	0	
3	4	5	6	5	0	5	1	5	5	5	3	5	4	
3	5	9	3	5	0	5	1	5	2	5	3	5	4	
2	3	9	3	0	3	1	3	5	3	3	3	4	
3	8	9	5	8	0	8	1	8	2	8	1	8	0	
4	7	8	9	3	7	0	7	1	7	2	7	5	7	4	
3	9	5	4	5	0	5	1	5	2	5	3	5	4	
2	5	6	5	0	5	1	5	2	5	5	5	4	
3	6	8	9	8	0	8	1	8	2	8	1	8	0	
2	1	3	1	0	1	1	1	2	1	1	1	0	
2	7	8	7	0	7	1	7	2	7	3	7	4	
3	4	3	9	3	0	3	1	3	2	3	5	3	4	
3	5	9	8	5	0	5	1	5	2	5	1	5	0	
3	4	5	0	5	0	5	1	5	2	5	3	5	4	
3	2	3	9	3	0	3	1	3	2	3	3	3	4	
3	5	0	1	5	0	5	1	5	2	5	1	5	0	
4	6	5	0	2	5	0	5	1	5	2	5	5	5	4	
3	6	5	4	5	0	5	1	5	2	5	5	5	4	
2	8	7	7	0	7	1	7	2	7	3	7	4	
3	7	6	5	7	0	7	1	7	2	7	5	7	4	
2	4	5	5	0	5	1	5	2	5	5	5	4	
2	5	4	5	0	5	1	5	2	5	1	5	0	
4	3	9	5	6	3	0	3	1	3	2	3	5	3	4	
3	7	6	5	7	0	7	1	7	5	7	3	7	4	
2	9	3	3	0	3	1	3	5	3	3	3	4	
4	7	6	5	0	7	0	7	1	7	5	7	3	7	4	
2	9	5	5	0	5	1	5	5	5	3	5	4	
3	3	9	5	3	0	3	1	3	2	3	3	3	4	
2	6	8	8	0	8	1	8	2	8	1	8	0	
2	4	2	4	0	4	1	4	2	4	1	4	0	
2	5	9	5	0	5	1	5	2	5	5	5	4	
3	3	2	0	3	0	3	1	3	2	3	5	3	4	
4	4	5	6	7	4	0	5	1	5	2	5	1	5	0	
2	9	8	8	0	8	1	8	2	8	5	8	4	
4	2	3	9	8	3	0	3	1	3	5	3	3	3	4	
3	5	0	2	5	0	5	1	5	2	5	3	5	4	
4	8	9	5	0	8	0	8	1	8	5	8	3	8	4	
4	8	9	3	1	8	0	8	1	8	2	8	1	8	0	
5	1	4	5	6	7	1	0	1	1	1	5	1	3	1	4	
2	6	7	7	0	7	1	7	5	7	3	7	4	
2	8	6	8	0	8	1	8	5	8	3	8	4	
4	3	9	8	7	3	0	3	1	3	2	3	1	3	0	
3	2	4	5	4	0	4	1	4	2	4	5	4	4	
3	9	8	6	8	0	8	1	8	2	8	5	8	4	
2	3	2	3	0	3	1	3	2	3	1	3	0	
2	4	1	1	0	1	1	1	2	1	3	1	4	
4	2	4	5	6	4	0	4	1	4	2	4	3	4	4	
2	4	3	4	0	3	1	3	2	3	5	3	4	
3	0	5	4	5	0	5	1	5	5	5	3	5	4	
3	4	5	6	5	0	5	1	5	2	5	5	5	4	
2	3	9	3	0	3	1	3	2	3	5	3	4	
2	1	0	1	0	1	1	1	2	1	5	1	4	
3	8	9	5	8	0	8	1	8	2	8	5	8	4	
3	9	5	4	5	0	5	1	5	2	5	1	5	0	
4	0	5	6	8	5	0	5	1	5	5	5	3	5	4	
2	5	6	5	0	5	1	5	5	5	3	5	4	
2	3	4	3	0	3	1	3	2	3	3	3	4	
2	1	3	1	0	1	1	1	2	1	3	1	4	
2	7	8	7	0	7	1	7	2	7	1	7	0	
2	2	4	4	0	4	1	4	2	4	1	4	0	
3	4	3	9	4	0	3	1	3	5	3	3	3	4	
3	2	3	9	3	0	3	1	3	2	3	1	3	0	
3	5	0	1	5	0	5	1	5	2	5	3	5	4	
3	0	1	3	0	0	0	1	0	2	0	5	0	4	
4	6	5	0	2	5	0	5	1	5	2	5	1	5	0	
2	8	7	8	0	8	1	8	2	8	1	8	0	
2	4	5	5	0	5	1	5	5	5	3	5	4	
2	7	8	7	0	7	1	7	2	7	5	7	4	
4	3	9	5	6	3	0	3	1	3	5	3	3	3	4	
2	9	3	3	0	3	1	3	2	3	5	3	4	
2	9	5	5	0	5	1	5	2	5	5	5	4	
2	4	2	4	0	4	1	4	2	4	3	4	4	
5	2	3	9	8	7	3	0	3	1	3	2	3	3	3	4	
