1932.2	1932.2
1217
3810.46	2266.28
10
0	250	3000
1	328	3000
2	0	3000
3	353	3000
4	518	3000
5	670	3000
6	311	3000
7	0	3000
8	342	3000
9	472	3000
34
0	1	30.147568	131.479641
1	0	33.024778	131.479641
0	2	10.928240	135.308578
2	0	39.053182	135.308578
0	5	96.333870	149.350323
5	0	65.441656	149.350323
1	2	11.099572	146.797369
2	1	11.186086	146.797369
1	3	43.926766	144.244414
3	1	46.206982	144.244414
1	4	24.441998	146.797369
4	1	25.685916	146.797369
2	3	43.639074	135.308578
3	2	52.083042	135.308578
2	4	23.468960	130.202668
4	2	44.536938	130.202668
3	4	31.462606	126.372741
4	3	42.654056	126.372741
3	9	110.077226	116.160923
9	3	109.283252	116.160923
4	5	83.404896	117.437895
5	4	116.427848	117.437895
5	6	122.865900	123.819787
6	5	119.488108	123.819787
5	9	54.921662	140.414487
9	5	61.188458	140.414487
6	7	55.477006	139.138505
7	6	46.636862	139.138505
6	8	24.242460	144.244414
8	6	30.752912	144.244414
7	8	53.272824	135.308578
8	7	44.264484	135.308578
8	9	114.075592	114.884940
9	8	110.502850	114.884940
360
3	3	2	0	3	0	3	1	3	5	3	3	3	4	
2	8	9	8	0	9	1	9	2	9	3	9	4	
2	8	9	8	0	8	1	8	2	8	1	8	0	
2	9	8	9	0	9	1	9	5	9	3	9	4	
4	2	3	9	8	3	0	3	1	3	2	3	5	3	4	
3	5	4	2	5	0	5	1	5	2	5	1	5	0	
2	0	2	0	0	0	1	0	2	0	1	0	0	
4	8	6	5	0	6	0	6	1	6	2	6	5	6	4	
5	1	0	5	6	7	1	0	1	1	1	2	1	5	1	4	
2	8	6	8	0	8	1	8	2	6	5	6	4	
4	3	9	8	7	9	0	9	1	9	2	9	3	9	4	
2	1	2	1	0	1	1	1	2	1	3	1	4	
5	7	8	9	3	1	8	0	8	1	8	5	8	3	8	4	
3	2	4	5	4	0	4	1	4	5	4	3	4	4	
3	9	8	6	9	0	9	1	9	5	9	3	9	4	
2	4	1	1	0	1	1	1	2	1	1	1	0	
2	5	0	5	0	0	1	0	2	0	3	0	4	
3	0	5	4	5	0	5	1	5	2	5	5	5	4	
2	7	6	6	0	6	1	6	2	6	5	6	4	
2	0	1	0	0	0	1	0	2	1	3	1	4	
2	3	9	9	0	9	1	9	2	9	1	9	0	
2	1	0	1	0	1	1	1	5	1	3	0	4	
3	7	6	5	6	0	6	1	6	2	6	3	5	4	
4	0	5	9	8	0	0	0	1	0	2	0	5	0	4	
2	3	4	3	0	4	1	4	2	4	1	4	0	
2	4	3	4	0	4	1	4	2	4	3	4	4	
2	2	4	4	0	4	1	4	2	4	3	4	4	
4	6	5	4	1	5	0	5	1	5	2	5	5	5	4	
3	5	6	7	5	0	5	1	6	5	6	3	6	4	
3	5	4	1	4	0	4	1	4	5	4	3	4	4	
3	0	1	3	1	0	1	1	1	5	1	3	1	4	
4	6	5	4	2	5	0	5	1	5	2	5	3	5	4	
4	4	3	9	8	4	0	4	1	4	5	4	3	4	4	
4	3	9	8	6	3	0	9	1	9	2	9	3	9	4	
2	9	3	9	0	9	1	3	2	3	1	3	0	
3	7	8	9	8	0	8	1	8	5	8	3	8	4	
2	4	2	4	0	4	1	4	5	4	3	4	4	
5	2	3	9	8	7	3	0	3	1	3	2	3	1	3	0	
3	6	5	0	6	0	6	1	6	2	6	1	6	0	
5	7	8	9	3	1	8	0	8	1	8	2	8	5	8	4	
2	9	8	9	0	9	1	9	2	8	3	8	4	
3	5	4	2	5	0	4	1	4	2	4	5	4	4	
2	0	2	0	0	0	1	0	2	0	3	0	4	
4	8	6	5	0	8	0	8	1	8	2	6	1	6	0	
5	1	4	5	6	7	1	0	1	1	1	2	1	1	1	0	
4	7	6	5	4	6	0	6	1	6	2	5	3	5	4	
2	3	1	3	0	3	1	1	5	1	3	1	4	
4	3	9	8	7	3	0	3	1	9	5	9	3	9	4	
2	1	2	1	0	1	1	1	2	1	1	1	0	
3	2	4	5	4	0	4	1	4	2	4	3	4	4	
2	4	1	4	0	4	1	4	2	4	5	4	4	
2	5	0	0	0	0	1	0	2	0	1	0	0	
3	0	5	4	0	0	0	1	0	2	0	1	0	0	
4	6	5	4	3	5	0	5	1	5	2	5	3	5	4	
2	6	8	6	0	6	1	6	2	6	5	6	4	
2	7	6	6	0	6	1	6	5	6	3	6	4	
3	9	8	7	9	0	9	1	9	5	9	3	9	4	
2	0	1	1	0	1	1	1	2	1	1	1	0	
2	3	9	3	0	9	1	9	2	9	3	9	4	
2	1	0	1	0	1	1	1	2	1	3	1	4	
4	0	5	6	8	5	0	5	1	5	2	5	1	5	0	
2	3	4	4	0	4	1	4	2	4	5	4	4	
2	4	3	4	0	3	1	3	2	3	1	3	0	
2	2	4	4	0	4	1	4	5	4	3	4	4	
4	6	5	0	1	6	0	6	1	6	5	6	3	6	4	
4	8	9	5	4	8	0	8	1	8	5	8	3	8	4	
3	5	6	7	5	0	5	1	5	2	5	5	5	4	
3	5	0	1	5	0	5	1	0	2	0	5	0	4	
3	0	1	3	1	0	1	1	1	2	1	3	1	4	
4	4	3	9	8	4	0	4	1	4	2	4	5	4	4	
3	9	5	0	5	0	5	1	5	2	5	5	5	4	
2	7	8	8	0	8	1	8	5	8	3	8	4	
2	2	1	1	0	1	1	1	2	1	5	1	4	
4	3	9	5	6	9	0	9	1	9	2	9	1	9	0	
2	9	3	9	0	3	1	3	2	3	3	3	4	
2	4	2	4	0	4	1	4	2	4	5	4	4	
5	2	3	9	8	7	3	0	3	1	3	2	3	5	3	4	
3	6	5	0	5	0	5	1	5	2	5	3	5	4	
3	8	9	3	8	0	8	1	8	2	8	5	8	4	
2	1	4	4	0	4	1	4	2	4	5	4	4	
5	7	8	9	3	1	8	0	8	1	8	2	8	1	8	0	
2	9	8	9	0	9	1	9	2	9	1	9	0	
3	5	0	2	5	0	5	1	5	5	5	3	0	4	
2	0	2	0	0	0	1	0	5	0	3	0	4	
3	3	9	8	3	0	3	1	3	2	3	3	3	4	
4	8	6	5	0	6	0	6	1	6	2	6	3	6	4	
5	1	4	5	6	7	4	0	4	1	4	2	4	3	4	4	
4	7	6	5	4	6	0	6	1	6	2	6	1	6	0	
3	9	3	1	9	0	3	1	3	2	3	1	3	0	
2	2	0	0	0	0	1	0	2	0	1	0	0	
2	3	1	3	0	1	1	1	2	1	5	1	4	
4	1	3	9	8	1	0	1	1	1	2	1	5	1	4	
4	3	9	8	7	3	0	9	1	9	2	9	5	9	4	
2	1	2	1	0	1	1	1	2	1	5	1	4	
3	2	4	5	4	0	4	1	4	2	4	1	4	0	
4	0	5	6	7	5	0	5	1	5	2	5	5	5	4	
2	4	1	4	0	4	1	4	5	4	3	4	4	
3	0	5	4	0	0	5	1	5	2	5	3	5	4	
4	6	5	4	3	5	0	5	1	5	2	5	1	5	0	
4	8	9	3	2	8	0	8	1	8	2	8	1	8	0	
3	1	0	5	1	0	1	1	1	2	1	1	1	0	
2	7	6	6	0	6	1	6	2	6	3	6	4	
3	9	8	7	9	0	9	1	9	2	9	5	9	4	
2	0	1	1	0	1	1	1	2	1	5	1	4	
2	1	0	0	0	0	1	0	2	0	1	0	0	
3	9	3	2	9	0	9	1	9	2	9	3	9	4	
2	2	3	3	0	3	1	3	2	3	3	3	4	
4	0	5	9	8	0	0	0	1	0	2	0	3	0	4	
3	1	3	9	3	0	3	1	3	2	3	1	3	0	
2	3	4	4	0	4	1	4	5	4	3	4	4	
2	2	4	4	0	4	1	4	2	4	5	4	4	
3	0	5	6	0	0	0	1	5	2	5	1	5	0	
4	6	5	4	1	5	0	5	1	5	2	5	3	5	4	
4	8	9	3	4	9	0	9	1	9	2	9	5	9	4	
2	8	9	8	0	8	1	8	5	8	3	8	4	
3	5	6	7	5	0	5	1	5	2	5	1	5	0	
3	0	1	3	1	0	1	1	1	2	1	1	1	0	
4	8	9	3	1	8	0	8	1	8	2	8	3	9	4	
4	1	0	5	6	1	0	1	1	1	2	1	3	1	4	
4	4	5	9	8	5	0	5	1	5	2	5	1	5	0	
3	9	5	0	9	0	9	1	5	5	5	3	5	4	
2	2	1	1	0	1	1	1	5	1	3	1	4	
5	7	8	9	3	2	8	0	8	1	8	2	8	5	8	4	
5	2	3	9	8	7	3	0	3	1	3	5	3	3	3	4	
3	8	9	5	8	0	8	1	8	5	8	3	8	4	
2	0	5	5	0	5	1	5	2	5	3	5	4	
3	6	5	0	6	0	6	1	6	5	6	3	6	4	
3	8	9	3	8	0	9	1	9	5	9	3	9	4	
2	1	4	1	0	1	1	1	5	4	3	4	4	
5	7	8	9	3	1	8	0	8	1	8	2	8	3	8	4	
2	0	2	0	0	0	1	0	2	0	5	0	4	
3	3	9	8	9	0	9	1	9	2	9	1	9	0	
4	7	6	5	4	5	0	5	1	5	2	5	5	5	4	
3	9	3	1	3	0	3	1	3	2	3	3	3	4	
2	2	0	0	0	0	1	0	2	0	3	0	4	
2	6	8	6	0	6	1	8	5	8	3	8	4	
3	0	5	9	5	0	5	1	5	2	5	3	5	4	
2	3	1	1	0	1	1	1	2	1	1	1	0	
2	6	5	5	0	5	1	5	2	5	5	5	4	
4	1	3	9	8	1	0	1	1	1	5	1	3	1	4	
2	1	2	1	0	1	1	1	5	1	3	1	4	
3	5	9	3	5	0	5	1	5	5	5	3	5	4	
4	0	5	6	7	0	0	0	1	5	5	5	3	5	4	
4	7	8	9	3	8	0	8	1	8	2	8	1	8	0	
4	8	9	3	1	9	0	9	1	9	5	9	3	9	4	
3	6	8	9	8	0	8	1	8	2	8	5	8	4	
4	6	5	4	3	5	0	5	1	5	2	5	5	5	4	
4	8	9	3	2	9	0	9	1	9	2	9	3	9	4	
3	1	4	5	1	0	4	1	4	2	4	3	4	4	
2	7	6	6	0	6	1	6	2	6	1	6	0	
3	9	8	7	9	0	9	1	9	2	9	1	9	0	
3	5	9	8	9	0	9	1	9	2	9	5	9	4	
2	0	1	0	0	0	1	0	5	1	3	1	4	
3	4	2	0	4	0	4	1	4	5	4	3	4	4	
3	9	3	2	3	0	3	1	3	2	3	1	3	0	
2	2	3	3	0	3	1	3	2	3	1	3	0	
3	6	5	4	5	0	5	1	5	2	5	1	5	0	
3	1	3	9	1	0	1	1	1	2	1	3	3	4	
2	5	4	5	0	5	1	5	2	4	5	4	4	
3	0	5	6	0	0	5	1	5	2	5	3	5	4	
4	6	5	4	1	5	0	5	1	5	2	5	1	5	0	
4	8	9	3	4	9	0	9	1	9	2	9	1	9	0	
4	7	6	5	0	6	0	6	1	5	2	5	3	5	4	
3	5	6	7	5	0	5	1	6	2	6	3	6	4	
3	3	9	5	9	0	9	1	9	5	9	3	9	4	
3	7	8	9	8	0	8	1	8	2	8	5	8	4	
4	1	0	5	6	1	0	1	1	1	2	1	1	1	0	
4	4	5	6	8	4	0	5	1	5	2	5	3	5	4	
3	9	5	0	5	0	5	1	5	2	5	3	5	4	
2	2	1	1	0	1	1	1	2	1	3	1	4	
2	5	9	5	0	5	1	9	2	9	1	9	0	
4	4	5	6	7	4	0	5	1	5	2	5	5	5	4	
2	5	0	5	0	5	1	0	5	0	3	0	4	
2	6	7	6	0	6	1	6	2	6	3	6	4	
5	7	8	9	3	2	8	0	8	1	8	5	8	3	8	4	
2	0	5	0	0	5	1	5	2	5	1	5	0	
3	6	5	0	6	0	6	1	6	2	6	5	6	4	
3	8	9	3	9	0	9	1	9	2	9	3	9	4	
2	1	4	4	0	4	1	4	2	4	3	4	4	
2	3	2	3	0	3	1	3	2	3	5	3	4	
3	3	9	8	9	0	9	1	9	2	9	5	9	4	
4	2	0	5	6	0	0	0	1	0	5	0	3	0	4	
4	7	6	5	4	6	0	6	1	6	5	6	3	6	4	
3	9	3	1	9	0	9	1	9	5	9	3	9	4	
2	2	0	0	0	0	1	0	5	0	3	0	4	
3	0	5	9	0	0	5	1	5	2	5	1	5	0	
2	3	1	1	0	1	1	1	2	1	3	1	4	
2	6	5	5	0	5	1	5	5	5	3	5	4	
4	1	3	9	8	1	0	1	1	1	2	1	3	1	4	
3	4	5	6	5	0	5	1	5	2	5	1	5	0	
3	5	4	3	4	0	4	1	4	2	4	5	4	4	
4	0	5	6	7	5	0	5	1	5	2	5	3	5	4	
4	7	8	9	3	8	0	8	1	8	2	8	3	8	4	
3	9	5	4	9	0	5	1	5	2	5	5	5	4	
2	5	6	5	0	5	1	5	2	6	3	6	4	
3	6	8	9	8	0	8	1	8	5	8	3	8	4	
2	1	3	1	0	1	1	1	5	1	3	1	4	
4	6	5	4	3	5	0	5	1	5	5	5	3	5	4	
4	8	9	3	2	9	0	9	1	9	5	9	3	9	4	
3	1	0	5	1	0	1	1	0	5	0	3	0	4	
3	4	3	9	4	0	3	1	3	2	3	3	3	4	
3	9	8	7	9	0	9	1	9	2	9	3	9	4	
3	5	9	8	5	0	5	1	5	5	5	3	5	4	
2	8	9	9	0	9	1	9	2	9	5	9	4	
3	4	2	0	4	0	4	1	4	2	4	5	4	4	
3	2	3	9	3	0	3	1	3	2	3	5	3	4	
3	9	3	2	9	0	9	1	9	2	9	5	9	4	
2	2	3	3	0	3	1	3	2	3	5	3	4	
3	6	5	4	6	0	6	1	6	2	6	3	6	4	
2	8	7	8	0	8	1	8	2	8	5	8	4	
3	1	3	9	1	0	1	1	1	5	1	3	1	4	
2	4	5	5	0	5	1	5	2	5	3	5	4	
2	5	4	4	0	4	1	4	5	4	3	4	4	
3	0	5	6	5	0	5	1	5	5	5	3	5	4	
4	8	6	5	4	8	0	8	1	8	2	6	3	6	4	
4	7	6	5	0	6	0	6	1	6	2	6	1	6	0	
2	9	5	5	0	5	1	5	2	5	1	5	0	
2	6	8	6	0	6	1	8	2	8	3	8	4	
3	7	8	9	8	0	8	1	8	2	8	1	8	0	
4	1	0	5	6	1	0	1	1	1	2	1	5	1	4	
3	9	5	0	9	0	9	1	5	2	5	1	5	0	
3	7	6	5	6	0	6	1	6	2	6	1	6	0	
2	2	1	1	0	1	1	1	2	1	1	1	0	
2	5	9	9	0	9	1	9	2	9	3	9	4	
3	3	1	0	3	0	3	1	3	2	3	3	1	4	
4	4	5	6	7	4	0	4	1	4	5	4	3	4	4	
4	2	3	9	8	3	0	3	1	3	2	3	1	3	0	
2	6	7	6	0	6	1	6	2	6	1	6	0	
2	8	6	6	0	6	1	6	2	6	1	6	0	
5	7	6	5	4	2	6	0	6	1	6	2	6	3	6	4	
3	3	4	5	3	0	3	1	4	2	4	5	4	4	
2	0	5	5	0	5	1	5	2	5	5	5	4	
3	8	9	3	8	0	9	1	9	2	9	1	9	0	
2	1	4	4	0	4	1	4	2	4	1	4	0	
3	9	5	6	5	0	5	1	5	2	5	3	5	4	
2	3	2	3	0	3	1	3	5	3	3	3	4	
3	3	9	8	9	0	9	1	9	5	9	3	9	4	
4	8	9	3	1	9	0	9	1	9	2	9	5	9	4	
4	2	0	5	6	0	0	0	1	0	2	0	5	0	4	
3	9	3	1	9	0	9	1	9	2	9	5	9	4	
2	2	0	0	0	0	1	0	2	0	5	0	4	
3	0	5	9	0	0	0	1	0	2	0	5	0	4	
2	6	5	5	0	5	1	5	2	5	3	5	4	
4	1	3	9	8	3	0	3	1	3	2	3	1	3	0	
3	4	5	6	4	0	4	1	4	2	4	3	4	4	
3	5	4	3	5	0	4	1	4	2	4	1	4	0	
4	0	5	6	7	5	0	5	1	5	2	5	1	5	0	
3	8	6	5	6	0	6	1	6	2	6	3	6	4	
4	7	8	9	3	8	0	8	1	8	5	8	3	8	4	
3	9	3	4	9	0	9	1	9	5	3	3	3	4	
2	5	6	6	0	6	1	6	2	6	1	6	0	
2	4	3	4	0	4	1	4	5	4	3	4	4	
3	6	8	9	6	0	6	1	6	2	6	3	6	4	
2	1	3	1	0	1	1	3	2	3	5	3	4	
4	8	9	3	2	8	0	9	1	9	2	9	5	9	4	
3	1	4	5	1	0	1	1	4	2	4	5	4	4	
3	4	3	9	4	0	3	1	3	2	3	1	3	0	
3	5	9	8	5	0	5	1	9	2	9	3	9	4	
3	4	2	0	4	0	4	1	4	2	4	1	4	0	
3	2	3	9	3	0	3	1	3	5	3	3	3	4	
3	9	3	2	9	0	9	1	9	5	9	3	3	4	
2	2	3	3	0	3	1	3	5	3	3	3	4	
4	6	5	0	2	6	0	6	1	6	5	6	3	6	4	
3	6	5	4	6	0	6	1	6	5	6	3	6	4	
2	8	7	8	0	8	1	8	5	8	3	8	4	
3	1	3	9	1	0	1	1	1	2	1	5	3	4	
2	4	5	5	0	5	1	5	2	5	1	5	0	
2	5	4	4	0	4	1	4	2	4	3	4	4	
3	0	5	6	5	0	5	1	5	2	5	5	5	4	
4	7	6	5	0	6	0	6	1	6	2	6	5	6	4	
2	9	5	9	0	9	1	9	2	9	3	5	4	
3	3	4	5	3	0	4	1	4	2	4	1	4	0	
3	7	8	9	8	0	8	1	8	2	8	3	8	4	
4	1	4	5	6	4	0	4	1	4	5	4	3	4	4	
2	5	9	5	0	9	1	9	5	9	3	9	4	
3	3	2	0	3	0	3	1	3	2	3	1	3	0	
4	4	5	6	7	4	0	4	1	4	2	4	3	4	4	
4	2	3	9	8	3	0	3	1	3	2	3	3	3	4	
2	6	7	6	0	6	1	6	2	6	5	6	4	
2	8	6	8	0	8	1	8	2	6	3	6	4	
5	7	8	9	3	2	8	0	8	1	8	2	8	1	8	0	
2	0	5	5	0	5	1	5	5	5	3	5	4	
3	9	8	6	9	0	8	1	8	2	8	1	8	0	
2	3	2	3	0	3	1	3	2	3	3	3	4	
4	2	4	5	6	4	0	4	1	4	2	4	1	4	0	
2	5	0	0	0	0	1	0	2	0	5	0	4	
3	0	5	9	0	0	0	1	5	5	5	3	5	4	
2	6	5	6	0	6	1	6	2	6	1	6	0	
3	4	5	6	4	0	4	1	4	5	4	3	4	4	
3	5	9	3	5	0	5	1	9	2	9	3	9	4	
2	3	9	3	0	3	1	9	5	9	3	9	4	
3	8	6	5	6	0	6	1	6	2	6	1	6	0	
4	7	8	9	3	8	0	8	1	8	2	8	5	8	4	
3	9	5	4	9	0	5	1	5	2	5	3	5	4	
2	5	6	5	0	5	1	5	2	5	5	5	4	
3	6	5	9	5	0	5	1	5	2	5	1	5	0	
2	1	3	1	0	3	1	3	2	3	1	3	0	
2	7	8	8	0	8	1	8	2	8	3	8	4	
3	4	5	9	5	0	5	1	5	2	5	5	5	4	
3	5	9	8	5	0	5	1	5	2	5	1	5	0	
3	4	5	0	5	0	5	1	5	2	5	3	5	4	
3	2	3	9	3	0	3	1	3	2	3	3	3	4	
3	5	4	1	4	0	4	1	4	2	4	1	4	0	
4	6	5	4	2	6	0	6	1	6	2	5	5	5	4	
3	6	5	4	5	0	5	1	5	2	5	5	5	4	
2	8	7	8	0	8	1	8	2	8	3	8	4	
3	7	6	5	5	0	5	1	5	2	5	5	5	4	
2	4	5	4	0	4	1	4	2	4	5	4	4	
2	5	4	5	0	4	1	4	2	4	1	4	0	
4	3	9	5	6	3	0	3	1	3	2	3	5	3	4	
3	7	6	5	6	0	6	1	6	5	6	3	6	4	
2	9	3	9	0	9	1	9	5	9	3	9	4	
4	7	6	5	0	6	0	6	1	6	5	6	3	6	4	
2	9	5	9	0	9	1	5	5	5	3	5	4	
3	3	4	5	3	0	4	1	4	2	4	3	4	4	
2	6	8	8	0	8	1	8	2	8	1	8	0	
2	4	2	4	0	4	1	4	2	4	1	4	0	
2	5	9	5	0	5	1	5	2	9	5	9	4	
3	3	2	0	3	0	3	1	3	2	3	5	3	4	
4	4	5	6	7	4	0	4	1	5	2	5	1	5	0	
2	9	8	9	0	9	1	9	2	9	5	9	4	
4	2	3	9	8	3	0	3	1	3	5	3	3	3	4	
3	5	4	2	5	0	5	1	5	2	5	3	5	4	
4	8	9	5	0	8	0	8	1	8	5	8	3	8	4	
4	8	9	3	1	8	0	8	1	8	2	8	1	8	0	
5	1	4	5	6	7	1	0	1	1	1	5	1	3	1	4	
2	6	7	6	0	6	1	6	5	6	3	6	4	
2	8	6	8	0	8	1	8	5	8	3	8	4	
4	3	9	8	7	9	0	9	1	9	2	9	1	9	0	
3	2	4	5	4	0	4	1	4	2	4	5	4	4	
3	9	5	6	9	0	9	1	9	2	5	5	5	4	
2	3	2	3	0	3	1	3	2	3	1	3	0	
2	4	1	4	0	4	1	4	2	4	3	4	4	
4	2	0	5	6	0	0	0	1	0	2	0	3	0	4	
2	4	3	4	0	4	1	4	2	4	5	4	4	
3	0	5	4	0	0	0	1	0	5	5	3	5	4	
3	4	5	6	4	0	4	1	4	2	4	5	4	4	
2	3	9	3	0	3	1	9	2	9	5	9	4	
2	1	0	1	0	0	1	0	2	0	5	0	4	
3	8	9	5	8	0	8	1	8	2	8	5	9	4	
3	9	5	4	5	0	5	1	5	2	5	1	5	0	
4	0	5	6	8	0	0	5	1	5	5	5	3	5	4	
2	5	6	5	0	5	1	5	5	5	3	5	4	
2	3	4	3	0	3	1	3	2	3	3	4	4	
2	1	3	1	0	1	1	1	2	1	3	1	4	
2	7	8	8	0	8	1	8	2	8	1	8	0	
2	2	4	4	0	4	1	4	2	4	1	4	0	
3	4	5	9	4	0	4	1	4	5	4	3	4	4	
3	2	3	9	3	0	3	1	3	2	3	1	3	0	
3	5	4	1	5	0	5	1	5	2	5	3	5	4	
3	0	1	3	1	0	1	1	1	2	1	5	1	4	
4	6	5	4	2	5	0	5	1	5	2	5	1	5	0	
2	8	7	8	0	8	1	8	2	8	1	8	0	
2	4	5	4	0	4	1	4	5	4	3	4	4	
2	7	8	8	0	8	1	8	2	8	5	8	4	
4	3	9	5	6	3	0	3	1	3	5	3	3	3	4	
2	9	3	9	0	9	1	9	2	9	5	9	4	
2	9	5	5	0	5	1	5	2	5	5	5	4	
2	4	2	4	0	4	1	4	2	4	3	4	4	
5	2	3	9	8	7	3	0	3	1	3	2	3	3	3	4	
