1932.2	1932.2
1270
2124.84	1131.77
10
0	80	3000
1	313	3000
2	536	3000
3	65	3000
4	168	3000
5	953	3000
6	20	3000
7	304	3000
8	504	3000
9	301	3000
34
0	1	12.437398	131.479641
0	2	33.021192	135.308578
0	5	78.299946	149.350323
1	0	13.883456	131.479641
1	2	11.099572	146.797369
1	3	32.806948	144.244414
1	4	41.606020	146.797369
2	0	53.183064	135.308578
2	1	11.186086	146.797369
2	3	44.935950	135.308578
2	4	34.161804	130.202668
3	1	44.196582	144.244414
3	2	48.203272	135.308578
3	4	15.708318	126.372741
3	9	99.709480	116.160923
4	1	32.309368	146.797369
4	2	52.443358	130.202668
4	3	25.062300	126.372741
4	5	98.784082	117.437895
5	0	56.801954	149.350323
5	4	116.642572	117.437895
5	6	121.876250	123.819787
5	9	72.512586	140.414487
6	5	121.723168	123.819787
6	7	65.299948	139.138505
6	8	24.243292	144.244414
7	6	52.527032	139.138505
7	8	47.382654	135.308578
8	6	37.911226	144.244414
8	7	34.441542	135.308578
8	9	111.840532	114.884940
9	3	104.685746	116.160923
9	5	69.784432	140.414487
9	8	111.492500	114.884940
360
3	3	2	0	3	0	2	1	2	5	2	3	2	4	
2	8	9	8	0	8	1	8	2	8	3	8	4	
2	8	9	8	0	8	1	8	2	8	1	8	0	
2	9	8	9	0	9	1	9	5	8	3	8	4	
4	2	3	9	8	2	0	2	1	2	2	2	5	2	4	
3	5	4	2	5	0	5	1	5	2	5	1	4	0	
2	0	2	2	0	2	1	2	2	2	1	2	0	
4	8	9	5	0	8	0	8	1	8	2	8	5	8	4	
5	1	4	5	6	7	1	0	1	1	1	2	1	5	1	4	
2	8	6	8	0	8	1	8	2	8	5	8	4	
4	3	9	8	7	9	0	9	1	9	2	9	3	9	4	
2	1	2	1	0	2	1	2	2	2	3	2	4	
5	7	6	5	4	1	7	0	7	1	7	5	7	3	7	4	
3	2	4	5	2	0	2	1	2	5	2	3	2	4	
3	9	8	6	9	0	9	1	8	5	8	3	8	4	
2	4	1	1	0	1	1	1	2	1	1	1	0	
2	5	0	5	0	5	1	5	2	5	3	5	4	
3	0	2	4	0	0	2	1	2	2	2	5	2	4	
2	7	6	7	0	7	1	7	2	7	5	7	4	
2	0	1	0	0	1	1	1	2	1	3	1	4	
2	3	9	3	0	9	1	9	2	9	1	9	0	
2	1	0	1	0	1	1	1	5	1	3	1	4	
3	7	6	5	7	0	7	1	7	2	7	3	7	4	
4	0	5	9	8	0	0	5	1	5	2	5	5	5	4	
2	3	4	3	0	3	1	4	2	4	1	4	0	
2	4	3	4	0	4	1	4	2	4	3	4	4	
2	2	4	2	0	2	1	2	2	2	3	2	4	
4	6	5	4	1	5	0	5	1	5	2	5	5	5	4	
3	5	6	7	5	0	5	1	5	5	5	3	5	4	
3	5	4	1	5	0	5	1	5	5	5	3	5	4	
3	0	2	3	0	0	2	1	2	5	2	3	2	4	
4	6	5	4	2	5	0	5	1	5	2	5	3	5	4	
4	4	5	9	8	4	0	5	1	5	5	5	3	5	4	
4	3	9	8	6	9	0	9	1	9	2	9	3	9	4	
2	9	3	3	0	3	1	3	2	3	1	3	0	
3	7	8	9	7	0	7	1	7	5	7	3	7	4	
2	4	2	4	0	4	1	4	5	4	3	2	4	
5	2	3	9	8	7	2	0	2	1	2	2	2	1	3	0	
3	6	5	0	5	0	5	1	5	2	5	1	5	0	
5	7	8	9	3	1	8	0	8	1	8	2	8	5	8	4	
2	9	8	8	0	8	1	8	2	8	3	8	4	
3	5	4	2	5	0	5	1	5	2	5	5	5	4	
2	0	2	0	0	2	1	2	2	2	3	2	4	
4	8	9	5	0	8	0	8	1	8	2	8	1	8	0	
5	1	4	5	6	7	1	0	1	1	1	2	1	1	1	0	
4	7	6	5	4	7	0	7	1	7	2	7	3	7	4	
2	3	1	3	0	3	1	1	5	1	3	1	4	
4	3	9	8	7	9	0	9	1	9	5	9	3	9	4	
2	1	2	1	0	1	1	2	2	2	1	2	0	
3	2	4	5	2	0	2	1	2	2	2	3	2	4	
2	4	1	4	0	4	1	4	2	4	5	4	4	
2	5	0	5	0	5	1	5	2	5	1	5	0	
3	0	2	4	2	0	2	1	2	2	2	1	2	0	
4	6	5	4	3	5	0	5	1	5	2	5	3	5	4	
2	6	8	8	0	8	1	8	2	8	5	8	4	
2	7	6	7	0	7	1	7	5	7	3	7	4	
3	9	8	7	9	0	9	1	9	5	9	3	8	4	
2	0	1	0	0	0	1	1	2	1	1	1	0	
2	3	9	3	0	3	1	9	2	9	3	9	4	
2	1	0	1	0	1	1	1	2	1	3	1	4	
4	0	5	9	8	5	0	5	1	5	2	5	1	5	0	
2	3	4	4	0	4	1	4	2	4	5	4	4	
2	4	3	4	0	4	1	4	2	4	1	4	0	
2	2	4	2	0	2	1	2	5	2	3	4	4	
4	6	5	4	1	5	0	5	1	5	5	5	3	5	4	
4	8	6	5	4	8	0	8	1	8	5	8	3	6	4	
3	5	6	7	5	0	5	1	5	2	5	5	5	4	
3	5	4	1	5	0	5	1	5	2	5	5	5	4	
3	0	2	3	0	0	2	1	2	2	2	3	2	4	
4	4	5	9	8	4	0	5	1	5	2	5	5	5	4	
3	9	5	0	5	0	5	1	5	2	5	5	5	4	
2	7	8	7	0	7	1	7	5	7	3	8	4	
2	2	1	2	0	2	1	2	2	2	5	2	4	
4	3	9	8	6	3	0	9	1	9	2	9	1	9	0	
2	9	3	9	0	9	1	9	2	9	3	9	4	
2	4	2	2	0	2	1	2	2	2	5	2	4	
5	2	4	5	6	7	2	0	2	1	2	2	2	5	2	4	
3	6	5	0	5	0	5	1	5	2	5	3	5	4	
3	8	9	3	8	0	8	1	8	2	8	5	8	4	
2	1	4	1	0	1	1	1	2	1	5	1	4	
5	7	8	9	3	1	8	0	8	1	8	2	8	1	8	0	
2	9	8	8	0	8	1	8	2	8	1	8	0	
3	5	4	2	5	0	5	1	5	5	5	3	5	4	
2	0	2	0	0	2	1	2	5	2	3	2	4	
3	3	9	8	9	0	9	1	9	2	9	3	9	4	
4	8	6	5	0	8	0	8	1	8	2	8	3	6	4	
5	1	4	5	6	7	1	0	1	1	1	2	1	3	1	4	
4	7	6	5	4	7	0	7	1	7	2	7	1	7	0	
3	9	3	1	9	0	9	1	3	2	3	1	3	0	
2	2	0	2	0	2	1	2	2	2	1	0	0	
2	3	1	3	0	1	1	1	2	1	5	1	4	
4	1	3	9	8	1	0	9	1	9	2	9	5	8	4	
4	3	9	8	7	9	0	9	1	9	2	9	5	9	4	
2	1	2	2	0	2	1	2	2	2	5	2	4	
3	2	0	5	2	0	2	1	2	2	2	1	0	0	
4	0	5	6	7	0	0	0	1	5	2	5	5	5	4	
2	4	1	4	0	4	1	4	5	4	3	1	4	
3	0	2	4	2	0	2	1	2	2	2	3	2	4	
4	6	5	4	3	5	0	5	1	5	2	5	1	5	0	
4	8	9	3	2	8	0	8	1	8	2	8	1	9	0	
3	1	0	5	0	0	0	1	0	2	0	1	0	0	
2	7	6	7	0	7	1	7	2	7	3	7	4	
3	9	8	7	9	0	9	1	8	2	8	5	8	4	
2	0	1	1	0	1	1	1	2	1	5	1	4	
2	1	0	0	0	0	1	0	2	0	1	0	0	
3	9	3	2	9	0	9	1	9	2	9	3	9	4	
2	2	3	2	0	2	1	2	2	2	3	2	4	
4	0	5	9	8	0	0	5	1	5	2	5	3	5	4	
3	1	3	9	3	0	3	1	3	2	3	1	3	0	
2	3	4	3	0	3	1	3	5	3	3	4	4	
2	2	4	2	0	2	1	2	2	2	5	4	4	
3	0	5	6	5	0	5	1	5	2	5	1	5	0	
4	6	5	4	1	5	0	5	1	5	2	5	3	5	4	
4	8	6	5	4	8	0	8	1	8	2	8	5	6	4	
2	8	9	8	0	8	1	8	5	8	3	8	4	
3	5	6	7	5	0	5	1	5	2	5	1	5	0	
3	0	2	3	2	0	2	1	2	2	2	1	2	0	
4	8	9	3	1	8	0	8	1	8	2	8	3	8	4	
4	1	4	5	6	1	0	1	1	1	2	1	3	1	4	
4	4	3	9	8	4	0	4	1	4	2	4	1	3	0	
3	9	5	0	9	0	9	1	9	5	9	3	5	4	
2	2	1	2	0	2	1	2	5	2	3	1	4	
5	7	6	5	4	2	7	0	7	1	7	2	7	5	7	4	
5	2	4	5	6	7	2	0	2	1	2	5	2	3	2	4	
3	8	6	5	8	0	8	1	8	5	8	3	6	4	
2	0	5	0	0	5	1	5	2	5	3	5	4	
3	6	5	0	5	0	5	1	5	5	5	3	5	4	
3	8	9	3	8	0	8	1	8	5	8	3	8	4	
2	1	4	1	0	1	1	1	5	1	3	4	4	
5	7	8	9	3	1	7	0	8	1	8	2	8	3	8	4	
2	0	2	0	0	0	1	2	2	2	5	2	4	
3	3	9	8	3	0	3	1	9	2	9	1	9	0	
4	7	6	5	4	7	0	7	1	7	2	7	5	7	4	
3	9	3	1	9	0	9	1	9	2	9	3	9	4	
2	2	0	2	0	2	1	2	2	2	3	2	4	
2	6	8	8	0	8	1	8	5	8	3	8	4	
3	0	5	9	0	0	5	1	5	2	5	3	5	4	
2	3	1	3	0	1	1	1	2	1	1	1	0	
2	6	5	5	0	5	1	5	2	5	5	5	4	
4	1	3	9	8	1	0	1	1	1	5	1	3	1	4	
2	1	2	1	0	1	1	2	5	2	3	2	4	
3	5	9	3	5	0	5	1	5	5	5	3	5	4	
4	0	5	6	7	0	0	5	1	5	5	5	3	5	4	
4	7	8	9	3	7	0	7	1	7	2	7	1	7	0	
4	8	9	3	1	8	0	8	1	8	5	8	3	8	4	
3	6	8	9	8	0	8	1	8	2	8	5	8	4	
4	6	5	4	3	5	0	5	1	5	2	5	5	5	4	
4	8	9	3	2	8	0	8	1	8	2	8	3	8	4	
3	1	4	5	1	0	1	1	4	2	4	3	4	4	
2	7	6	7	0	7	1	7	2	7	1	7	0	
3	9	8	7	8	0	8	1	8	2	8	1	8	0	
3	5	9	8	5	0	5	1	5	2	5	5	5	4	
2	0	1	0	0	0	1	1	5	1	3	1	4	
3	4	1	0	4	0	4	1	1	5	1	3	1	4	
3	9	3	2	9	0	9	1	3	2	3	1	3	0	
2	2	3	2	0	2	1	2	2	3	1	3	0	
3	6	5	4	5	0	5	1	5	2	5	1	5	0	
3	1	3	9	1	0	1	1	1	2	1	3	1	4	
2	5	4	5	0	5	1	5	2	5	5	5	4	
3	0	5	6	5	0	5	1	5	2	5	3	5	4	
4	6	5	4	1	5	0	5	1	5	2	5	1	5	0	
4	8	9	3	4	8	0	8	1	8	2	8	1	8	0	
4	7	6	5	0	7	0	7	1	7	2	7	3	7	4	
3	5	6	7	5	0	5	1	5	2	5	3	5	4	
3	3	4	5	3	0	3	1	4	5	4	3	4	4	
3	7	8	9	7	0	8	1	8	2	8	5	8	4	
4	1	0	5	6	1	0	1	1	1	2	1	1	0	0	
4	4	5	6	8	5	0	5	1	5	2	5	3	5	4	
3	9	5	0	5	0	5	1	5	2	5	3	5	4	
2	2	1	2	0	2	1	2	2	2	3	2	4	
2	5	9	5	0	5	1	5	2	5	1	5	0	
4	4	5	6	7	5	0	5	1	5	2	5	5	5	4	
2	5	0	5	0	5	1	5	5	5	3	5	4	
2	6	7	7	0	7	1	7	2	7	3	7	4	
5	7	6	5	4	2	7	0	7	1	7	5	7	3	7	4	
2	0	5	5	0	5	1	5	2	5	1	5	0	
3	6	5	0	5	0	5	1	5	2	5	5	5	4	
3	8	9	3	8	0	8	1	8	2	8	3	8	4	
2	1	4	1	0	1	1	1	2	1	3	1	4	
2	3	2	2	0	2	1	2	2	2	5	2	4	
3	3	9	8	9	0	9	1	9	2	9	5	9	4	
4	2	4	5	6	2	0	2	1	2	5	2	3	2	4	
4	7	6	5	4	7	0	7	1	7	5	7	3	7	4	
3	9	3	1	9	0	9	1	9	5	9	3	9	4	
2	2	0	2	0	2	1	2	5	2	3	0	4	
3	0	5	9	5	0	5	1	5	2	5	1	5	0	
2	3	1	1	0	1	1	1	2	1	3	1	4	
2	6	5	5	0	5	1	5	5	5	3	5	4	
4	1	3	9	8	1	0	1	1	1	2	1	3	1	4	
3	4	5	6	5	0	5	1	5	2	5	1	5	0	
3	5	9	3	5	0	5	1	5	2	5	5	5	4	
4	0	5	6	7	5	0	5	1	5	2	5	3	5	4	
4	7	8	9	3	7	0	7	1	7	2	8	3	8	4	
3	9	5	4	5	0	5	1	5	2	5	5	5	4	
2	5	6	5	0	5	1	5	2	5	3	5	4	
3	6	8	9	8	0	8	1	8	5	8	3	8	4	
2	1	3	1	0	1	1	1	5	1	3	1	4	
4	6	5	4	3	5	0	5	1	5	5	5	3	5	4	
4	8	9	3	2	8	0	8	1	8	5	8	3	8	4	
3	1	0	5	1	0	1	1	1	5	1	3	0	4	
3	4	5	9	4	0	4	1	4	2	4	3	4	4	
3	9	8	7	9	0	9	1	8	2	8	3	8	4	
3	5	9	8	5	0	5	1	5	5	5	3	5	4	
2	8	9	8	0	8	1	8	2	8	5	8	4	
3	4	2	0	2	0	2	1	2	2	2	5	2	4	
3	2	3	9	2	0	2	1	2	2	2	5	2	4	
3	9	3	2	9	0	9	1	9	2	9	5	9	4	
2	2	3	2	0	2	1	2	2	2	5	2	4	
3	6	5	4	5	0	5	1	5	2	5	3	5	4	
2	8	7	8	0	7	1	7	2	7	5	7	4	
3	1	3	9	1	0	1	1	1	5	1	3	1	4	
2	4	5	4	0	5	1	5	2	5	3	5	4	
2	5	4	5	0	5	1	5	5	5	3	5	4	
3	0	5	6	0	0	0	1	5	5	5	3	5	4	
4	8	6	5	4	8	0	8	1	8	2	8	3	6	4	
4	7	6	5	0	7	0	7	1	7	2	7	1	7	0	
2	9	5	9	0	5	1	5	2	5	1	5	0	
2	6	8	8	0	8	1	8	2	8	3	8	4	
3	7	8	9	7	0	7	1	7	2	7	1	7	0	
4	1	4	5	6	1	0	1	1	1	2	1	5	1	4	
3	9	5	0	9	0	9	1	5	2	5	1	5	0	
3	7	6	5	7	0	7	1	7	2	7	1	7	0	
2	2	1	2	0	2	1	2	2	2	1	2	0	
2	5	9	5	0	5	1	5	2	5	3	5	4	
3	3	2	0	2	0	2	1	2	2	2	3	2	4	
4	4	5	6	7	4	0	4	1	5	5	5	3	5	4	
4	2	3	9	8	2	0	2	1	2	2	2	1	3	0	
2	6	7	7	0	7	1	7	2	7	1	7	0	
2	8	6	8	0	8	1	8	2	8	1	8	0	
5	7	8	9	3	2	8	0	8	1	8	2	8	3	8	4	
3	3	9	5	3	0	9	1	9	2	9	5	9	4	
2	0	5	0	0	5	1	5	2	5	5	5	4	
3	8	9	3	8	0	8	1	8	2	8	1	9	0	
2	1	4	4	0	4	1	4	2	4	1	4	0	
3	9	5	6	9	0	9	1	9	2	5	3	5	4	
2	3	2	3	0	3	1	2	5	2	3	2	4	
3	3	9	8	3	0	3	1	3	5	3	3	9	4	
4	8	9	3	1	8	0	8	1	8	2	8	5	8	4	
4	2	0	5	6	2	0	2	1	2	2	2	5	0	4	
3	9	3	1	9	0	9	1	9	2	9	5	9	4	
2	2	0	2	0	2	1	2	2	2	5	0	4	
3	0	5	9	5	0	5	1	5	2	5	5	5	4	
2	6	5	5	0	5	1	5	2	5	3	5	4	
4	1	3	9	8	1	0	1	1	1	2	1	1	1	0	
3	4	5	6	5	0	5	1	5	2	5	3	5	4	
3	5	4	3	5	0	5	1	4	2	4	1	4	0	
4	0	5	6	7	0	0	0	1	5	2	5	1	5	0	
3	8	6	5	8	0	8	1	8	2	8	3	6	4	
4	7	8	9	3	7	0	7	1	7	5	7	3	8	4	
3	9	5	4	5	0	5	1	5	5	5	3	5	4	
2	5	6	5	0	5	1	5	2	5	1	5	0	
2	4	3	4	0	4	1	4	5	4	3	4	4	
3	6	8	9	8	0	8	1	8	2	8	3	8	4	
2	1	3	1	0	1	1	1	2	1	5	1	4	
4	8	9	3	2	8	0	8	1	8	2	8	5	8	4	
3	1	4	5	1	0	1	1	1	2	1	5	1	4	
3	4	5	9	4	0	5	1	5	2	5	1	5	0	
3	5	9	8	5	0	5	1	5	2	5	3	5	4	
3	4	2	0	2	0	2	1	2	2	2	1	2	0	
3	2	3	9	2	0	2	1	2	5	2	3	2	4	
3	9	3	2	9	0	9	1	9	5	9	3	9	4	
2	2	3	2	0	2	1	2	5	2	3	2	4	
4	6	5	4	2	5	0	5	1	5	5	5	3	5	4	
3	6	5	4	5	0	5	1	5	5	5	3	5	4	
2	8	7	8	0	8	1	8	5	8	3	7	4	
3	1	3	9	1	0	1	1	1	2	1	5	1	4	
2	4	5	5	0	5	1	5	2	5	1	5	0	
2	5	4	5	0	5	1	5	2	5	3	5	4	
3	0	5	6	0	0	5	1	5	2	5	5	5	4	
4	7	6	5	0	7	0	7	1	7	2	7	5	7	4	
2	9	5	9	0	5	1	5	2	5	3	5	4	
3	3	9	5	3	0	3	1	3	2	3	1	3	0	
3	7	8	9	8	0	8	1	8	2	8	3	8	4	
4	1	0	5	6	1	0	1	1	1	5	1	3	0	4	
2	5	9	5	0	5	1	5	5	5	3	5	4	
3	3	2	0	2	0	2	1	2	2	2	1	2	0	
4	4	5	6	7	5	0	5	1	5	2	5	3	5	4	
4	2	3	9	8	2	0	2	1	2	2	2	3	2	4	
2	6	7	7	0	7	1	7	2	7	5	7	4	
2	8	6	8	0	8	1	8	2	8	3	8	4	
5	7	8	9	3	2	7	0	8	1	8	2	8	1	8	0	
2	0	5	0	0	0	1	5	5	5	3	5	4	
3	9	8	6	8	0	8	1	8	2	8	1	8	0	
2	3	2	2	0	2	1	2	2	2	3	2	4	
4	2	0	5	6	2	0	2	1	2	2	0	1	0	0	
2	5	0	5	0	5	1	5	2	5	5	5	4	
3	0	5	9	0	0	5	1	5	5	5	3	5	4	
2	6	5	5	0	5	1	5	2	5	1	5	0	
3	4	5	6	4	0	4	1	4	5	4	3	5	4	
3	5	9	3	5	0	5	1	5	2	5	3	5	4	
2	3	9	3	0	3	1	3	5	3	3	9	4	
3	8	9	5	8	0	8	1	8	2	8	1	8	0	
4	7	8	9	3	7	0	7	1	7	2	7	5	8	4	
3	9	5	4	5	0	5	1	5	2	5	3	5	4	
2	5	6	5	0	5	1	5	2	5	5	5	4	
3	6	8	9	8	0	8	1	8	2	8	1	8	0	
2	1	3	3	0	3	1	3	2	3	1	3	0	
2	7	8	7	0	7	1	7	2	7	3	7	4	
3	4	5	9	4	0	5	1	5	2	5	5	5	4	
3	5	9	8	5	0	5	1	5	2	5	1	9	0	
3	4	2	0	4	0	2	1	2	2	2	3	2	4	
3	2	3	9	2	0	2	1	2	2	2	3	2	4	
3	5	0	1	5	0	5	1	0	2	0	1	0	0	
4	6	5	4	2	5	0	5	1	5	2	5	5	5	4	
3	6	5	4	5	0	5	1	5	2	5	5	5	4	
2	8	7	8	0	8	1	8	2	8	3	8	4	
3	7	6	5	7	0	7	1	7	2	7	5	7	4	
2	4	5	5	0	5	1	5	2	5	5	5	4	
2	5	4	5	0	5	1	5	2	5	1	5	0	
4	3	9	8	6	9	0	9	1	9	2	9	5	9	4	
3	7	6	5	7	0	7	1	7	5	7	3	7	4	
2	9	3	9	0	9	1	9	5	9	3	9	4	
4	7	6	5	0	7	0	7	1	7	5	7	3	7	4	
2	9	5	9	0	9	1	9	5	5	3	5	4	
3	3	4	5	4	0	4	1	4	2	4	3	4	4	
2	6	8	8	0	8	1	8	2	8	1	8	0	
2	4	2	2	0	2	1	2	2	2	1	2	0	
2	5	9	5	0	5	1	5	2	5	5	5	4	
3	3	2	0	2	0	2	1	2	2	2	5	2	4	
4	4	5	6	7	5	0	5	1	5	2	5	1	5	0	
2	9	8	8	0	8	1	8	2	8	5	8	4	
4	2	3	9	8	2	0	2	1	2	5	2	3	2	4	
3	5	4	2	5	0	5	1	5	2	5	3	5	4	
4	8	6	5	0	8	0	8	1	8	5	8	3	6	4	
4	8	9	3	1	8	0	8	1	8	2	8	1	9	0	
5	1	4	5	6	7	1	0	1	1	1	5	1	3	1	4	
2	6	7	7	0	7	1	7	5	7	3	7	4	
2	8	6	8	0	8	1	8	5	8	3	8	4	
4	3	9	8	7	9	0	9	1	9	2	9	1	9	0	
3	2	0	5	2	0	2	1	2	2	2	5	0	4	
3	9	5	6	9	0	9	1	9	2	9	5	5	4	
2	3	2	3	0	2	1	2	2	2	1	2	0	
2	4	1	4	0	4	1	4	2	4	3	4	4	
4	2	0	5	6	2	0	2	1	2	2	2	3	0	4	
2	4	3	4	0	4	1	4	2	4	5	4	4	
3	0	5	4	0	0	0	1	5	5	5	3	5	4	
3	4	5	6	5	0	5	1	5	2	5	5	5	4	
2	3	9	9	0	9	1	9	2	9	5	9	4	
2	1	0	1	0	1	1	1	2	1	5	1	4	
3	8	9	5	8	0	8	1	8	2	8	5	8	4	
3	9	3	4	9	0	9	1	9	2	9	1	3	0	
4	0	5	6	8	0	0	0	1	5	5	5	3	5	4	
2	5	6	5	0	5	1	5	5	5	3	5	4	
2	3	4	4	0	4	1	4	2	4	3	4	4	
2	1	3	1	0	1	1	1	2	1	3	1	4	
2	7	8	7	0	7	1	7	2	7	1	7	0	
2	2	4	2	0	2	1	2	2	2	1	2	0	
3	4	5	9	4	0	4	1	4	5	4	3	4	4	
3	2	3	9	2	0	2	1	2	2	2	1	2	0	
3	5	4	1	5	0	5	1	5	2	5	3	5	4	
3	0	2	3	2	0	2	1	2	2	2	5	2	4	
4	6	5	4	2	5	0	5	1	5	2	5	1	5	0	
2	8	7	7	0	7	1	7	2	7	1	7	0	
2	4	5	4	0	4	1	4	5	4	3	5	4	
2	7	8	7	0	7	1	7	2	7	5	7	4	
4	3	9	8	6	3	0	3	1	9	5	9	3	9	4	
2	9	3	9	0	9	1	9	2	9	5	9	4	
2	9	5	5	0	5	1	5	2	5	5	5	4	
2	4	2	2	0	2	1	2	2	2	3	2	4	
5	2	4	5	6	7	2	0	2	1	2	2	2	3	2	4	
