1932.2	1932.2
807
1650.19	1688.17
10
0	318	3000
1	265	3000
2	315	3000
3	333	3000
4	237	3000
5	373	3000
6	393	3000
7	210	3000
8	353	3000
9	447	3000
34
0	1	27.544406	131.479641
1	0	44.365724	131.479641
0	2	30.991912	135.308578
2	0	66.388842	135.308578
0	5	132.992676	149.350323
5	0	80.884366	149.350323
1	2	11.099572	146.797369
2	1	11.186086	146.797369
1	3	36.152558	144.244414
3	1	34.508862	144.244414
1	4	11.107152	146.797369
4	1	30.219090	146.797369
2	3	40.281604	135.308578
3	2	46.212622	135.308578
2	4	11.276678	130.202668
4	2	42.129594	130.202668
3	4	22.316220	126.372741
4	3	12.567330	126.372741
3	9	100.410844	116.160923
9	3	114.120348	116.160923
4	5	54.394672	117.437895
5	4	94.130242	117.437895
5	6	123.511530	123.819787
6	5	120.611716	123.819787
5	9	85.025656	140.414487
9	5	76.310996	140.414487
6	7	66.608684	139.138505
7	6	64.205402	139.138505
6	8	24.225192	144.244414
8	6	24.776760	144.244414
7	8	35.704284	135.308578
8	7	33.132806	135.308578
8	9	112.951984	114.884940
9	8	109.857220	114.884940
360
3	3	2	0	3	0	3	1	3	5	3	3	3	4	
2	8	9	8	0	8	1	8	2	8	3	8	4	
2	8	9	8	0	8	1	9	2	9	1	9	0	
2	9	8	8	0	8	1	8	5	8	3	8	4	
4	2	3	9	8	2	0	2	1	2	2	2	5	2	4	
3	5	0	2	5	0	5	1	0	2	0	1	0	0	
2	0	2	0	0	0	1	0	2	0	1	0	0	
4	8	9	5	0	8	0	8	1	8	2	8	5	8	4	
5	1	0	5	6	7	1	0	1	1	1	2	1	5	1	4	
2	8	6	8	0	8	1	8	2	8	5	6	4	
4	3	9	8	7	3	0	3	1	3	2	3	3	9	4	
2	1	2	1	0	1	1	1	2	1	3	1	4	
5	7	6	5	4	1	7	0	7	1	7	5	7	3	7	4	
3	2	0	5	0	0	0	1	0	5	0	3	0	4	
3	9	8	6	9	0	8	1	8	5	8	3	8	4	
2	4	1	4	0	4	1	4	2	4	1	4	0	
2	5	0	5	0	5	1	0	2	0	3	0	4	
3	0	5	4	0	0	0	1	0	2	0	5	0	4	
2	7	6	7	0	7	1	7	2	7	5	6	4	
2	0	1	0	0	0	1	0	2	0	3	0	4	
2	3	9	3	0	3	1	9	2	9	1	9	0	
2	1	0	1	0	1	1	1	5	1	3	1	4	
3	7	6	5	7	0	7	1	7	2	7	3	7	4	
4	0	5	9	8	0	0	0	1	0	2	0	5	0	4	
2	3	4	3	0	3	1	3	2	3	1	3	0	
2	4	3	4	0	4	1	4	2	4	3	4	4	
2	2	4	2	0	2	1	2	2	2	3	4	4	
4	6	5	0	1	6	0	6	1	6	2	6	5	6	4	
3	5	6	7	5	0	5	1	5	5	5	3	6	4	
3	5	0	1	5	0	5	1	5	5	0	3	0	4	
3	0	1	3	0	0	0	1	0	5	0	3	0	4	
4	6	5	0	2	6	0	6	1	6	2	6	3	6	4	
4	4	5	9	8	4	0	4	1	4	5	5	3	5	4	
4	3	9	5	6	3	0	3	1	3	2	3	3	3	4	
2	9	3	9	0	9	1	9	2	9	1	9	0	
3	7	8	9	7	0	7	1	7	5	7	3	7	4	
2	4	2	4	0	4	1	4	5	4	3	4	4	
5	2	0	5	6	7	2	0	2	1	2	2	2	1	2	0	
3	6	5	0	6	0	6	1	5	2	5	1	5	0	
5	7	6	5	4	1	7	0	7	1	6	2	6	5	6	4	
2	9	8	9	0	9	1	9	2	9	3	9	4	
3	5	4	2	5	0	5	1	5	2	5	5	5	4	
2	0	2	0	0	0	1	0	2	0	3	0	4	
4	8	6	5	0	8	0	8	1	8	2	8	1	8	0	
5	1	0	5	6	7	1	0	1	1	1	2	1	1	1	0	
4	7	6	5	4	7	0	6	1	6	2	6	3	6	4	
2	3	1	3	0	3	1	3	5	3	3	3	4	
4	3	9	8	7	3	0	3	1	3	5	3	3	3	4	
2	1	2	1	0	1	1	1	2	1	1	1	0	
3	2	0	5	2	0	2	1	2	2	0	3	0	4	
2	4	1	4	0	4	1	4	2	4	5	4	4	
2	5	0	0	0	0	1	0	2	0	1	0	0	
3	0	5	4	0	0	0	1	0	2	0	1	0	0	
4	6	5	9	3	6	0	6	1	6	2	6	3	6	4	
2	6	8	6	0	6	1	6	2	6	5	6	4	
2	7	6	7	0	7	1	7	5	6	3	6	4	
3	9	8	7	9	0	9	1	9	5	9	3	9	4	
2	0	1	0	0	0	1	0	2	0	1	0	0	
2	3	9	3	0	3	1	3	2	3	3	3	4	
2	1	0	1	0	1	1	1	2	1	3	1	4	
4	0	5	9	8	0	0	0	1	0	2	0	1	0	0	
2	3	4	3	0	3	1	3	2	3	5	3	4	
2	4	3	4	0	4	1	3	2	3	1	3	0	
2	2	4	2	0	2	1	2	5	2	3	2	4	
4	6	5	0	1	6	0	6	1	6	5	6	3	6	4	
4	8	9	3	4	9	0	9	1	9	5	9	3	9	4	
3	5	6	7	6	0	6	1	6	2	6	5	6	4	
3	5	4	1	5	0	5	1	5	2	5	5	5	4	
3	0	1	3	0	0	0	1	0	2	0	3	0	4	
4	4	5	9	8	5	0	5	1	5	2	5	5	5	4	
3	9	5	0	9	0	9	1	9	2	9	5	9	4	
2	7	8	7	0	7	1	7	5	7	3	7	4	
2	2	1	2	0	1	1	1	2	1	5	1	4	
4	3	9	8	6	3	0	9	1	9	2	9	1	9	0	
2	9	3	9	0	9	1	9	2	9	3	9	4	
2	4	2	4	0	4	1	4	2	4	5	4	4	
5	2	0	5	6	7	2	0	2	1	2	2	2	5	2	4	
3	6	5	0	6	0	6	1	6	2	6	3	6	4	
3	8	9	3	8	0	8	1	8	2	8	5	8	4	
2	1	4	1	0	1	1	1	2	1	5	1	4	
5	7	8	9	3	1	8	0	8	1	8	2	8	1	8	0	
2	9	8	9	0	9	1	9	2	9	1	9	0	
3	5	4	2	5	0	5	1	5	5	5	3	5	4	
2	0	2	0	0	0	1	0	5	0	3	0	4	
3	3	9	8	3	0	3	1	3	2	3	3	3	4	
4	8	9	5	0	8	0	8	1	8	2	8	3	8	4	
5	1	0	5	6	7	1	0	1	1	1	2	1	3	1	4	
4	7	6	5	4	7	0	7	1	6	2	6	1	6	0	
3	9	3	1	9	0	3	1	3	2	3	1	3	0	
2	2	0	2	0	2	1	2	2	2	1	2	0	
2	3	1	3	0	3	1	3	2	3	5	3	4	
4	1	3	9	8	1	0	1	1	1	2	1	5	1	4	
4	3	9	8	7	3	0	9	1	9	2	9	5	9	4	
2	1	2	1	0	1	1	1	2	2	5	2	4	
3	2	0	5	2	0	2	1	2	2	2	1	2	0	
4	0	5	6	7	0	0	5	1	5	2	5	5	5	4	
2	4	1	4	0	4	1	4	5	4	3	4	4	
3	0	5	4	0	0	0	1	0	2	0	3	0	4	
4	6	5	9	3	6	0	6	1	6	2	6	1	6	0	
4	8	9	3	2	8	0	9	1	9	2	9	1	9	0	
3	1	0	5	1	0	1	1	1	2	1	1	1	0	
2	7	6	7	0	7	1	7	2	7	3	7	4	
3	9	8	7	9	0	9	1	9	2	9	5	8	4	
2	0	1	0	0	0	1	0	2	0	5	0	4	
2	1	0	1	0	1	1	1	2	1	1	1	0	
3	9	3	2	9	0	9	1	9	2	3	3	3	4	
2	2	3	2	0	2	1	2	2	2	3	2	4	
4	0	5	9	8	0	0	0	1	0	2	0	3	0	4	
3	1	3	9	3	0	3	1	3	2	3	1	3	0	
2	3	4	3	0	4	1	4	5	4	3	4	4	
2	2	4	2	0	2	1	2	2	2	5	2	4	
3	0	5	6	0	0	0	1	0	2	0	1	0	0	
4	6	5	0	1	6	0	6	1	6	2	6	3	6	4	
4	8	9	5	4	8	0	8	1	8	2	8	5	8	4	
2	8	9	9	0	9	1	9	5	9	3	9	4	
3	5	6	7	5	0	5	1	5	2	5	1	5	0	
3	0	1	3	0	0	0	1	0	2	0	1	0	0	
4	8	9	3	1	9	0	9	1	9	2	9	3	9	4	
4	1	0	5	6	1	0	1	1	1	2	1	3	1	4	
4	4	3	9	8	3	0	3	1	3	2	3	1	3	0	
3	9	5	0	9	0	5	1	5	5	5	3	5	4	
2	2	1	2	0	2	1	2	5	2	3	2	4	
5	7	6	5	4	2	7	0	7	1	7	2	7	5	7	4	
5	2	0	5	6	7	2	0	2	1	2	5	2	3	2	4	
3	8	9	5	8	0	8	1	8	5	8	3	8	4	
2	0	5	0	0	0	1	0	2	0	3	5	4	
3	6	5	0	6	0	6	1	6	5	6	3	6	4	
3	8	9	3	8	0	8	1	8	5	8	3	9	4	
2	1	4	1	0	1	1	4	5	4	3	4	4	
5	7	6	5	4	1	7	0	7	1	6	2	6	3	6	4	
2	0	2	0	0	0	1	0	2	0	5	0	4	
3	3	9	8	3	0	3	1	3	2	3	1	3	0	
4	7	6	5	4	7	0	7	1	7	2	7	5	7	4	
3	9	3	1	9	0	9	1	9	2	9	3	9	4	
2	2	0	2	0	2	1	2	2	2	3	0	4	
2	6	8	6	0	6	1	6	5	6	3	6	4	
3	0	5	9	0	0	0	1	0	2	0	3	0	4	
2	3	1	3	0	1	1	1	2	1	1	1	0	
2	6	5	6	0	6	1	6	2	6	5	6	4	
4	1	3	9	8	1	0	1	1	1	5	3	3	3	4	
2	1	2	1	0	1	1	1	5	1	3	1	4	
3	5	9	3	5	0	5	1	5	5	5	3	5	4	
4	0	5	6	7	0	0	0	1	0	5	5	3	5	4	
4	7	8	9	3	8	0	8	1	8	2	8	1	8	0	
4	8	9	3	1	8	0	8	1	8	5	8	3	8	4	
3	6	8	9	6	0	6	1	6	2	6	5	6	4	
4	6	5	9	3	6	0	6	1	6	2	6	5	6	4	
4	8	9	3	2	9	0	9	1	9	2	9	3	9	4	
3	1	0	5	1	0	1	1	1	2	1	3	1	4	
2	7	6	6	0	6	1	6	2	6	1	6	0	
3	9	8	7	9	0	8	1	8	2	8	1	8	0	
3	5	9	8	5	0	5	1	5	2	5	5	5	4	
2	0	1	0	0	0	1	0	5	0	3	0	4	
3	4	2	0	2	0	2	1	2	5	2	3	2	4	
3	9	3	2	3	0	3	1	3	2	3	1	3	0	
2	2	3	2	0	2	1	2	2	2	1	2	0	
3	6	5	4	6	0	6	1	5	2	5	1	5	0	
3	1	3	9	1	0	3	1	3	2	3	3	3	4	
2	5	4	5	0	5	1	5	2	5	5	5	4	
3	0	5	6	0	0	0	1	0	2	0	3	0	4	
4	6	5	0	1	6	0	6	1	6	2	6	1	6	0	
4	8	9	5	4	8	0	8	1	8	2	8	1	8	0	
4	7	6	5	0	7	0	7	1	7	2	6	3	6	4	
3	5	6	7	5	0	5	1	5	2	5	3	5	4	
3	3	4	5	3	0	3	1	4	5	4	3	4	4	
3	7	8	9	7	0	8	1	8	2	8	5	8	4	
4	1	0	5	6	1	0	1	1	1	2	1	1	1	0	
4	4	5	6	8	4	0	4	1	4	2	4	3	4	4	
3	9	5	0	9	0	9	1	9	2	9	3	9	4	
2	2	1	2	0	2	1	2	2	2	3	2	4	
2	5	9	5	0	5	1	5	2	5	1	5	0	
4	4	5	6	7	4	0	4	1	4	2	4	5	4	4	
2	5	0	5	0	5	1	5	5	5	3	0	4	
2	6	7	6	0	6	1	6	2	6	3	6	4	
5	7	8	9	3	2	7	0	8	1	8	5	8	3	8	4	
2	0	5	0	0	0	1	0	2	0	1	0	0	
3	6	5	0	6	0	6	1	6	2	6	5	6	4	
3	8	9	3	8	0	8	1	8	2	8	3	8	4	
2	1	4	1	0	1	1	4	2	4	3	4	4	
2	3	2	3	0	3	1	3	2	3	5	3	4	
3	3	9	8	9	0	9	1	9	2	9	5	9	4	
4	2	0	5	6	2	0	2	1	2	5	0	3	0	4	
4	7	6	5	4	7	0	6	1	6	5	6	3	6	4	
3	9	3	1	9	0	9	1	9	5	3	3	3	4	
2	2	0	2	0	0	1	0	5	0	3	0	4	
3	0	5	9	0	0	0	1	5	2	5	1	5	0	
2	3	1	3	0	3	1	3	2	3	3	3	4	
2	6	5	6	0	6	1	5	5	5	3	5	4	
4	1	3	9	8	3	0	3	1	3	2	3	3	3	4	
3	4	5	6	4	0	4	1	4	2	4	1	4	0	
3	5	9	3	5	0	5	1	5	2	5	5	5	4	
4	0	5	6	7	0	0	0	1	0	2	0	3	0	4	
4	7	8	9	3	8	0	8	1	8	2	8	3	8	4	
3	9	3	4	9	0	9	1	9	2	9	5	9	4	
2	5	6	5	0	5	1	5	2	5	3	5	4	
3	6	8	9	6	0	6	1	6	5	6	3	6	4	
2	1	3	1	0	1	1	1	5	1	3	1	4	
4	6	5	9	3	6	0	6	1	6	5	6	3	6	4	
4	8	9	3	2	8	0	8	1	8	5	8	3	8	4	
3	1	0	5	1	0	1	1	1	5	1	3	1	4	
3	4	5	9	4	0	4	1	4	2	4	3	4	4	
3	9	8	7	9	0	9	1	9	2	9	3	9	4	
3	5	9	8	5	0	5	1	5	5	5	3	5	4	
2	8	9	9	0	9	1	9	2	9	5	9	4	
3	4	2	0	4	0	2	1	2	2	2	5	2	4	
3	2	3	9	3	0	3	1	3	2	3	5	3	4	
3	9	3	2	9	0	9	1	9	2	9	5	9	4	
2	2	3	2	0	2	1	2	2	2	5	2	4	
3	6	5	4	6	0	6	1	5	2	5	3	5	4	
2	8	7	8	0	8	1	8	2	8	5	8	4	
3	1	3	9	1	0	1	1	1	5	3	3	3	4	
2	4	5	4	0	4	1	4	2	4	3	4	4	
2	5	4	5	0	5	1	5	5	5	3	4	4	
3	0	5	6	0	0	0	1	0	5	5	3	5	4	
4	8	9	5	4	8	0	8	1	8	2	8	3	8	4	
4	7	6	5	0	6	0	6	1	6	2	6	1	6	0	
2	9	5	9	0	9	1	9	2	9	1	9	0	
2	6	8	6	0	8	1	8	2	8	3	8	4	
3	7	8	9	8	0	8	1	8	2	8	1	8	0	
4	1	0	5	6	1	0	1	1	1	2	1	5	1	4	
3	9	5	0	9	0	9	1	9	2	9	1	9	0	
3	7	6	5	6	0	6	1	6	2	6	1	6	0	
2	2	1	2	0	2	1	2	2	2	1	2	0	
2	5	9	5	0	9	1	9	2	9	3	9	4	
3	3	2	0	3	0	3	1	3	2	3	3	3	4	
4	4	5	6	7	4	0	4	1	4	5	4	3	4	4	
4	2	3	9	8	2	0	2	1	2	2	2	1	2	0	
2	6	7	6	0	6	1	7	2	7	1	7	0	
2	8	6	8	0	6	1	6	2	6	1	6	0	
5	7	6	5	4	2	7	0	7	1	6	2	6	3	6	4	
3	3	9	5	3	0	3	1	3	2	3	5	3	4	
2	0	5	0	0	0	1	0	2	0	5	0	4	
3	8	9	3	8	0	8	1	8	2	8	1	8	0	
2	1	4	4	0	4	1	4	2	4	1	4	0	
3	9	8	6	9	0	9	1	9	2	9	3	9	4	
2	3	2	3	0	3	1	3	5	3	3	3	4	
3	3	9	8	3	0	3	1	3	5	3	3	3	4	
4	8	9	3	1	8	0	8	1	8	2	8	5	8	4	
4	2	0	5	6	2	0	2	1	2	2	2	5	2	4	
3	9	3	1	9	0	9	1	9	2	9	5	9	4	
2	2	0	2	0	2	1	2	2	2	5	2	4	
3	0	5	9	0	0	0	1	0	2	0	5	0	4	
2	6	5	6	0	6	1	6	2	6	3	6	4	
4	1	3	9	8	3	0	3	1	3	2	3	1	3	0	
3	4	5	6	4	0	4	1	5	2	5	3	5	4	
3	5	9	3	5	0	5	1	5	2	5	1	5	0	
4	0	5	6	7	0	0	0	1	0	2	0	1	0	0	
3	8	9	5	8	0	8	1	8	2	8	3	8	4	
4	7	8	9	3	8	0	8	1	8	5	8	3	8	4	
3	9	3	4	9	0	9	1	9	5	9	3	9	4	
2	5	6	5	0	6	1	6	2	6	1	6	0	
2	4	3	4	0	4	1	4	5	4	3	4	4	
3	6	8	9	6	0	6	1	6	2	6	3	6	4	
2	1	3	1	0	1	1	3	2	3	5	3	4	
4	8	9	3	2	8	0	8	1	8	2	8	5	8	4	
3	1	0	5	1	0	1	1	1	2	1	5	1	4	
3	4	5	9	4	0	4	1	4	2	4	1	4	0	
3	5	9	8	5	0	5	1	5	2	5	3	5	4	
3	4	2	0	2	0	2	1	2	2	2	1	2	0	
3	2	3	9	2	0	2	1	2	5	2	3	2	4	
3	9	3	2	9	0	9	1	9	5	9	3	9	4	
2	2	3	2	0	2	1	3	5	3	3	3	4	
4	6	5	0	2	6	0	6	1	6	5	6	3	6	4	
3	6	5	4	6	0	6	1	6	5	6	3	6	4	
2	8	7	8	0	8	1	8	5	8	3	8	4	
3	1	3	9	1	0	1	1	1	2	1	5	1	4	
2	4	5	4	0	4	1	4	2	4	1	4	0	
2	5	4	5	0	5	1	5	2	5	3	5	4	
3	0	5	6	0	0	0	1	0	2	0	5	5	4	
4	7	6	5	0	7	0	7	1	7	2	7	5	7	4	
2	9	5	9	0	9	1	9	2	9	3	9	4	
3	3	9	5	3	0	3	1	3	2	3	1	3	0	
3	7	8	9	7	0	7	1	7	2	8	3	8	4	
4	1	0	5	6	1	0	1	1	1	5	1	3	1	4	
2	5	9	5	0	9	1	9	5	9	3	9	4	
3	3	2	0	3	0	3	1	3	2	3	1	3	0	
4	4	5	6	7	4	0	4	1	4	2	4	3	4	4	
4	2	3	9	8	3	0	3	1	3	2	3	3	3	4	
2	6	7	7	0	7	1	7	2	7	5	7	4	
2	8	6	8	0	8	1	8	2	8	3	8	4	
5	7	8	9	3	2	8	0	8	1	8	2	8	1	8	0	
2	0	5	0	0	0	1	0	5	5	3	5	4	
3	9	8	6	9	0	8	1	8	2	8	1	8	0	
2	3	2	3	0	3	1	3	2	3	3	2	4	
4	2	0	5	6	0	0	0	1	0	2	0	1	0	0	
2	5	0	5	0	5	1	5	2	5	5	5	4	
3	0	5	9	0	0	0	1	5	5	5	3	5	4	
2	6	5	6	0	6	1	6	2	6	1	6	0	
3	4	5	6	4	0	4	1	4	5	4	3	4	4	
3	5	9	3	5	0	5	1	5	2	5	3	5	4	
2	3	9	3	0	3	1	3	5	9	3	9	4	
3	8	9	5	8	0	8	1	8	2	8	1	8	0	
4	7	8	9	3	7	0	7	1	7	2	7	5	7	4	
3	9	3	4	9	0	9	1	9	2	9	3	9	4	
2	5	6	5	0	5	1	5	2	5	5	5	4	
3	6	8	9	6	0	6	1	6	2	6	1	6	0	
2	1	3	1	0	3	1	3	2	3	1	3	0	
2	7	8	7	0	7	1	7	2	7	3	7	4	
3	4	5	9	5	0	5	1	5	2	5	5	5	4	
3	5	9	8	5	0	5	1	5	2	5	1	5	0	
3	4	2	0	4	0	4	1	4	2	4	3	4	4	
3	2	3	9	2	0	2	1	2	2	2	3	2	4	
3	5	4	1	5	0	5	1	5	2	5	1	5	0	
4	6	5	0	2	6	0	6	1	6	2	6	5	6	4	
3	6	5	4	6	0	6	1	6	2	6	5	6	4	
2	8	7	8	0	8	1	8	2	8	3	8	4	
3	7	6	5	7	0	7	1	7	2	7	5	7	4	
2	4	5	5	0	5	1	5	2	5	5	5	4	
2	5	4	5	0	5	1	5	2	5	1	5	0	
4	3	9	5	6	3	0	3	1	3	2	9	5	9	4	
3	7	6	5	7	0	7	1	7	5	7	3	6	4	
2	9	3	3	0	3	1	3	5	3	3	3	4	
4	7	6	5	0	6	0	6	1	6	5	6	3	6	4	
2	9	5	9	0	9	1	9	5	9	3	9	4	
3	3	9	5	3	0	3	1	3	2	3	3	3	4	
2	6	8	6	0	6	1	8	2	8	1	8	0	
2	4	2	4	0	4	1	4	2	4	1	4	0	
2	5	9	5	0	5	1	5	2	9	5	9	4	
3	3	2	0	3	0	3	1	3	2	3	5	3	4	
4	4	5	6	7	4	0	4	1	4	2	4	1	4	0	
2	9	8	9	0	9	1	9	2	9	5	9	4	
4	2	3	9	8	2	0	2	1	2	5	2	3	2	4	
3	5	4	2	5	0	5	1	5	2	5	3	5	4	
4	8	9	5	0	8	0	8	1	8	5	8	3	8	4	
4	8	9	3	1	8	0	8	1	8	2	8	1	8	0	
5	1	0	5	6	7	1	0	1	1	1	5	1	3	1	4	
2	6	7	6	0	6	1	6	5	6	3	6	4	
2	8	6	8	0	8	1	8	5	8	3	6	4	
4	3	9	8	7	9	0	9	1	9	2	9	1	9	0	
3	2	0	5	2	0	2	1	2	2	2	5	2	4	
3	9	8	6	9	0	9	1	9	2	9	5	9	4	
2	3	2	3	0	3	1	3	2	3	1	3	0	
2	4	1	4	0	4	1	1	2	1	3	1	4	
4	2	0	5	6	2	0	2	1	2	2	2	3	2	4	
2	4	3	4	0	4	1	4	2	4	5	3	4	
3	0	5	4	0	0	0	1	0	5	0	3	0	4	
3	4	5	6	4	0	4	1	4	2	4	5	4	4	
2	3	9	3	0	3	1	9	2	9	5	9	4	
2	1	0	1	0	1	1	1	2	1	5	0	4	
3	8	9	5	8	0	8	1	8	2	8	5	8	4	
3	9	3	4	9	0	9	1	9	2	9	1	9	0	
4	0	5	9	8	0	0	0	1	0	5	0	3	0	4	
2	5	6	5	0	6	1	6	5	6	3	6	4	
2	3	4	3	0	3	1	3	2	3	3	3	4	
2	1	3	1	0	1	1	1	2	1	3	1	4	
2	7	8	7	0	7	1	8	2	8	1	8	0	
2	2	4	2	0	2	1	2	2	2	1	2	0	
3	4	5	9	4	0	4	1	4	5	5	3	5	4	
3	2	3	9	2	0	2	1	2	2	2	1	2	0	
3	5	0	1	5	0	5	1	0	2	0	3	0	4	
3	0	2	3	0	0	0	1	2	2	2	5	2	4	
4	6	5	0	2	6	0	6	1	6	2	6	1	6	0	
2	8	7	8	0	8	1	8	2	8	1	8	0	
2	4	5	4	0	4	1	4	5	4	3	4	4	
2	7	8	7	0	7	1	7	2	7	5	7	4	
4	3	9	8	6	3	0	9	1	9	5	9	3	9	4	
2	9	3	9	0	9	1	9	2	9	5	9	4	
2	9	5	9	0	9	1	9	2	9	5	9	4	
2	4	2	4	0	4	1	4	2	4	3	4	4	
5	2	0	5	6	7	2	0	2	1	2	2	2	3	2	4	
