1.9322e+09	1.9322e+09
452
1426.34	1267.9
10
0	324	3000
1	323	3000
2	324	3000
3	327	3000
4	328	3000
5	324	3000
6	322	3000
7	323	3000
8	325	3000
9	324	3000
34
0	1	33274064.000000	131479640.721000
1	0	12516136.000000	131479640.721000
0	2	21901416.000000	135308577.789000
2	0	42350824.000000	135308577.789000
0	5	77105070.000000	149350323.474000
5	0	77523528.000000	149350323.474000
1	2	11099572.000000	146797368.795000
2	1	11186086.000000	146797368.795000
1	3	43926766.000000	144244414.116000
3	1	33185982.000000	144244414.116000
1	4	42956740.000000	146797368.795000
4	1	33586520.000000	146797368.795000
2	3	32507396.000000	135308577.789000
3	2	44893348.000000	135308577.789000
2	4	35314696.000000	130202668.431000
4	2	44765156.000000	130202668.431000
3	4	22282770.000000	126372741.462000
4	3	22208502.000000	126372741.462000
3	9	110068616.000000	116160922.746000
9	3	111461344.000000	116160922.746000
4	5	100624506.000000	117437895.036000
5	4	100150084.000000	117437895.036000
5	6	122835482.000000	123819786.783000
6	5	120078200.000000	123819786.783000
5	9	67565388.000000	140414487.147000
9	5	71024972.000000	140414487.147000
6	7	66608684.000000	139138504.758000
7	6	66847556.000000	139138504.758000
6	8	32044288.000000	144244414.116000
8	6	30096234.000000	144244414.116000
7	8	33062130.000000	135308577.789000
8	7	33132806.000000	135308577.789000
8	9	113485500.000000	114884940.357000
9	8	110533268.000000	114884940.357000
360
3	3	2	0	3	0	3	1	3	5	3	3	3	4	
2	8	9	8	0	8	1	8	2	8	3	8	4	
2	8	9	8	0	8	1	8	2	8	1	8	0	
2	9	8	9	0	9	1	9	5	9	3	9	4	
4	2	3	9	8	2	0	2	1	2	2	2	5	2	4	
3	5	4	2	5	0	5	1	5	2	5	1	5	0	
2	0	2	0	0	0	1	0	2	0	1	0	0	
4	8	9	5	0	8	0	8	1	8	2	8	5	8	4	
5	1	4	5	6	7	1	0	1	1	1	2	1	5	1	4	
2	8	6	8	0	8	1	8	2	8	5	8	4	
4	3	9	8	7	3	0	3	1	3	2	3	3	3	4	
2	1	2	1	0	1	1	1	2	1	3	1	4	
5	7	6	5	4	1	7	0	7	1	7	5	7	3	7	4	
3	2	0	5	2	0	2	1	2	5	2	3	2	4	
3	9	8	6	9	0	9	1	9	5	9	3	9	4	
2	4	1	4	0	4	1	4	2	4	1	4	0	
2	5	0	5	0	5	1	5	2	5	3	5	4	
3	0	5	4	0	0	0	1	0	2	0	5	0	4	
2	7	6	7	0	7	1	7	2	7	5	7	4	
2	0	1	0	0	0	1	0	2	0	3	0	4	
2	3	9	3	0	3	1	3	2	3	1	3	0	
2	1	0	1	0	1	1	1	5	1	3	1	4	
3	7	6	5	7	0	7	1	7	2	7	3	7	4	
4	0	5	9	8	0	0	0	1	0	2	0	5	0	4	
2	3	4	3	0	3	1	3	2	3	1	3	0	
2	4	3	4	0	4	1	4	2	4	3	4	4	
2	2	4	2	0	2	1	2	2	2	3	2	4	
4	6	5	0	1	6	0	6	1	6	2	6	5	6	4	
3	5	6	7	5	0	5	1	5	5	5	3	5	4	
3	5	4	1	5	0	5	1	5	5	5	3	5	4	
3	0	1	3	0	0	0	1	0	5	0	3	0	4	
4	6	5	0	2	6	0	6	1	6	2	6	3	6	4	
4	4	3	9	8	4	0	4	1	4	5	4	3	4	4	
4	3	9	5	6	3	0	3	1	3	2	3	3	3	4	
2	9	3	9	0	9	1	9	2	9	1	9	0	
3	7	8	9	7	0	7	1	7	5	7	3	7	4	
2	4	2	4	0	4	1	4	5	4	3	4	4	
5	2	4	5	6	7	2	0	2	1	2	2	2	1	2	0	
3	6	5	0	6	0	6	1	6	2	6	1	6	0	
5	7	6	5	4	1	7	0	7	1	7	2	7	5	7	4	
2	9	8	9	0	9	1	9	2	9	3	9	4	
3	5	4	2	5	0	5	1	5	2	5	5	5	4	
2	0	2	0	0	0	1	0	2	0	3	0	4	
4	8	9	5	0	8	0	8	1	8	2	8	1	8	0	
5	1	4	5	6	7	1	0	1	1	1	2	1	1	1	0	
4	7	6	5	4	7	0	7	1	7	2	7	3	7	4	
2	3	1	3	0	3	1	3	5	3	3	3	4	
4	3	9	8	7	3	0	3	1	3	5	3	3	3	4	
2	1	2	1	0	1	1	1	2	1	1	1	0	
3	2	4	5	2	0	2	1	2	2	2	3	2	4	
2	4	1	4	0	4	1	4	2	4	5	4	4	
2	5	0	5	0	5	1	5	2	5	1	5	0	
3	0	5	4	0	0	0	1	0	2	0	1	0	0	
4	6	8	9	3	6	0	6	1	6	2	6	3	6	4	
2	6	8	6	0	6	1	6	2	6	5	6	4	
2	7	6	7	0	7	1	7	5	7	3	7	4	
3	9	8	7	9	0	9	1	9	5	9	3	9	4	
2	0	1	0	0	0	1	0	2	0	1	0	0	
2	3	9	3	0	3	1	3	2	3	3	3	4	
2	1	0	1	0	1	1	1	2	1	3	1	4	
4	0	5	9	8	0	0	0	1	0	2	0	1	0	0	
2	3	4	3	0	3	1	3	2	3	5	3	4	
2	4	3	4	0	4	1	4	2	4	1	4	0	
2	2	4	2	0	2	1	2	5	2	3	2	4	
4	6	5	0	1	6	0	6	1	6	5	6	3	6	4	
4	8	9	5	4	8	0	8	1	8	5	8	3	8	4	
3	5	6	7	5	0	5	1	5	2	5	5	5	4	
3	5	4	1	5	0	5	1	5	2	5	5	5	4	
3	0	1	3	0	0	0	1	0	2	0	3	0	4	
4	4	3	9	8	4	0	4	1	4	2	4	5	4	4	
3	9	5	0	9	0	9	1	9	2	9	5	9	4	
2	7	8	7	0	7	1	7	5	7	3	7	4	
2	2	1	2	0	2	1	2	2	2	5	2	4	
4	3	9	5	6	3	0	3	1	3	2	3	1	3	0	
2	9	3	9	0	9	1	9	2	9	3	9	4	
2	4	2	4	0	4	1	4	2	4	5	4	4	
5	2	4	5	6	7	2	0	2	1	2	2	2	5	2	4	
3	6	5	0	6	0	6	1	6	2	6	3	6	4	
3	8	9	3	8	0	8	1	8	2	8	5	8	4	
2	1	4	1	0	1	1	1	2	1	5	1	4	
5	7	6	5	4	1	7	0	7	1	7	2	7	1	7	0	
2	9	8	9	0	9	1	9	2	9	1	9	0	
3	5	4	2	5	0	5	1	5	5	5	3	5	4	
2	0	2	0	0	0	1	0	5	0	3	0	4	
3	3	9	8	3	0	3	1	3	2	3	3	3	4	
4	8	9	5	0	8	0	8	1	8	2	8	3	8	4	
5	1	4	5	6	7	1	0	1	1	1	2	1	3	1	4	
4	7	6	5	4	7	0	7	1	7	2	7	1	7	0	
3	9	3	1	9	0	9	1	9	2	9	1	9	0	
2	2	0	2	0	2	1	2	2	2	1	2	0	
2	3	1	3	0	3	1	3	2	3	5	3	4	
4	1	3	9	8	1	0	1	1	1	2	1	5	1	4	
4	3	9	8	7	3	0	3	1	3	2	3	5	3	4	
2	1	2	1	0	1	1	1	2	1	5	1	4	
3	2	0	5	2	0	2	1	2	2	2	1	2	0	
4	0	5	6	7	0	0	0	1	0	2	0	5	0	4	
2	4	1	4	0	4	1	4	5	4	3	4	4	
3	0	5	4	0	0	0	1	0	2	0	3	0	4	
4	6	8	9	3	6	0	6	1	6	2	6	1	6	0	
4	8	9	3	2	8	0	8	1	8	2	8	1	8	0	
3	1	4	5	1	0	1	1	1	2	1	1	1	0	
2	7	6	7	0	7	1	7	2	7	3	7	4	
3	9	8	7	9	0	9	1	9	2	9	5	9	4	
2	0	1	0	0	0	1	0	2	0	5	0	4	
2	1	0	1	0	1	1	1	2	1	1	1	0	
3	9	3	2	9	0	9	1	9	2	9	3	9	4	
2	2	3	2	0	2	1	2	2	2	3	2	4	
4	0	5	9	8	0	0	0	1	0	2	0	3	0	4	
3	1	3	9	1	0	1	1	1	2	1	1	1	0	
2	3	4	3	0	3	1	3	5	3	3	3	4	
2	2	4	2	0	2	1	2	2	2	5	2	4	
3	0	5	6	0	0	0	1	0	2	0	1	0	0	
4	6	5	0	1	6	0	6	1	6	2	6	3	6	4	
4	8	9	5	4	8	0	8	1	8	2	8	5	8	4	
2	8	9	8	0	8	1	8	5	8	3	8	4	
3	5	6	7	5	0	5	1	5	2	5	1	5	0	
3	0	1	3	0	0	0	1	0	2	0	1	0	0	
4	8	9	3	1	8	0	8	1	8	2	8	3	8	4	
4	1	4	5	6	1	0	1	1	1	2	1	3	1	4	
4	4	3	9	8	4	0	4	1	4	2	4	1	4	0	
3	9	5	0	9	0	9	1	9	5	9	3	9	4	
2	2	1	2	0	2	1	2	5	2	3	2	4	
5	7	6	5	4	2	7	0	7	1	7	2	7	5	7	4	
5	2	4	5	6	7	2	0	2	1	2	5	2	3	2	4	
3	8	9	5	8	0	8	1	8	5	8	3	8	4	
2	0	5	0	0	0	1	0	2	0	3	0	4	
3	6	5	0	6	0	6	1	6	5	6	3	6	4	
3	8	9	3	8	0	8	1	8	5	8	3	8	4	
2	1	4	1	0	1	1	1	5	1	3	1	4	
5	7	6	5	4	1	7	0	7	1	7	2	7	3	7	4	
2	0	2	0	0	0	1	0	2	0	5	0	4	
3	3	9	8	3	0	3	1	3	2	3	1	3	0	
4	7	6	5	4	7	0	7	1	7	2	7	5	7	4	
3	9	3	1	9	0	9	1	9	2	9	3	9	4	
2	2	0	2	0	2	1	2	2	2	3	2	4	
2	6	8	6	0	6	1	6	5	6	3	6	4	
3	0	5	9	0	0	0	1	0	2	0	3	0	4	
2	3	1	3	0	3	1	3	2	3	1	3	0	
2	6	5	6	0	6	1	6	2	6	5	6	4	
4	1	3	9	8	1	0	1	1	1	5	1	3	1	4	
2	1	2	1	0	1	1	1	5	1	3	1	4	
3	5	9	3	5	0	5	1	5	5	5	3	5	4	
4	0	5	6	7	0	0	0	1	0	5	0	3	0	4	
4	7	8	9	3	7	0	7	1	7	2	7	1	7	0	
4	8	9	3	1	8	0	8	1	8	5	8	3	8	4	
3	6	8	9	6	0	6	1	6	2	6	5	6	4	
4	6	8	9	3	6	0	6	1	6	2	6	5	6	4	
4	8	9	3	2	8	0	8	1	8	2	8	3	8	4	
3	1	4	5	1	0	1	1	1	2	1	3	1	4	
2	7	6	7	0	7	1	7	2	7	1	7	0	
3	9	8	7	9	0	9	1	9	2	9	1	9	0	
3	5	9	8	5	0	5	1	5	2	5	5	5	4	
2	0	1	0	0	0	1	0	5	0	3	0	4	
3	4	2	0	4	0	4	1	4	5	4	3	4	4	
3	9	3	2	9	0	9	1	9	2	9	1	9	0	
2	2	3	2	0	2	1	2	2	2	1	2	0	
3	6	5	4	6	0	6	1	6	2	6	1	6	0	
3	1	3	9	1	0	1	1	1	2	1	3	1	4	
2	5	4	5	0	5	1	5	2	5	5	5	4	
3	0	5	6	0	0	0	1	0	2	0	3	0	4	
4	6	5	0	1	6	0	6	1	6	2	6	1	6	0	
4	8	9	5	4	8	0	8	1	8	2	8	1	8	0	
4	7	6	5	0	7	0	7	1	7	2	7	3	7	4	
3	5	6	7	5	0	5	1	5	2	5	3	5	4	
3	3	9	5	3	0	3	1	3	5	3	3	3	4	
3	7	8	9	7	0	7	1	7	2	7	5	7	4	
4	1	0	5	6	1	0	1	1	1	2	1	1	1	0	
4	4	3	9	8	4	0	4	1	4	2	4	3	4	4	
3	9	5	0	9	0	9	1	9	2	9	3	9	4	
2	2	1	2	0	2	1	2	2	2	3	2	4	
2	5	9	5	0	5	1	5	2	5	1	5	0	
4	4	5	6	7	4	0	4	1	4	2	4	5	4	4	
2	5	0	5	0	5	1	5	5	5	3	5	4	
2	6	7	6	0	6	1	6	2	6	3	6	4	
5	7	6	5	4	2	7	0	7	1	7	5	7	3	7	4	
2	0	5	0	0	0	1	0	2	0	1	0	0	
3	6	5	0	6	0	6	1	6	2	6	5	6	4	
3	8	9	3	8	0	8	1	8	2	8	3	8	4	
2	1	4	1	0	1	1	1	2	1	3	1	4	
2	3	2	3	0	3	1	3	2	3	5	3	4	
3	3	9	8	3	0	3	1	3	2	3	5	3	4	
4	2	0	5	6	2	0	2	1	2	5	2	3	2	4	
4	7	6	5	4	7	0	7	1	7	5	7	3	7	4	
3	9	3	1	9	0	9	1	9	5	9	3	9	4	
2	2	0	2	0	2	1	2	5	2	3	2	4	
3	0	5	9	0	0	0	1	0	2	0	1	0	0	
2	3	1	3	0	3	1	3	2	3	3	3	4	
2	6	5	6	0	6	1	6	5	6	3	6	4	
4	1	3	9	8	1	0	1	1	1	2	1	3	1	4	
3	4	5	6	4	0	4	1	4	2	4	1	4	0	
3	5	9	3	5	0	5	1	5	2	5	5	5	4	
4	0	5	6	7	0	0	0	1	0	2	0	3	0	4	
4	7	8	9	3	7	0	7	1	7	2	7	3	7	4	
3	9	3	4	9	0	9	1	9	2	9	5	9	4	
2	5	6	5	0	5	1	5	2	5	3	5	4	
3	6	8	9	6	0	6	1	6	5	6	3	6	4	
2	1	3	1	0	1	1	1	5	1	3	1	4	
4	6	5	9	3	6	0	6	1	6	5	6	3	6	4	
4	8	9	3	2	8	0	8	1	8	5	8	3	8	4	
3	1	4	5	1	0	1	1	1	5	1	3	1	4	
3	4	5	9	4	0	4	1	4	2	4	3	4	4	
3	9	8	7	9	0	9	1	9	2	9	3	9	4	
3	5	9	8	5	0	5	1	5	5	5	3	5	4	
2	8	9	8	0	8	1	8	2	8	5	8	4	
3	4	2	0	4	0	4	1	4	2	4	5	4	4	
3	2	3	9	2	0	2	1	2	2	2	5	2	4	
3	9	3	2	9	0	9	1	9	2	9	5	9	4	
2	2	3	2	0	2	1	2	2	2	5	2	4	
3	6	5	4	6	0	6	1	6	2	6	3	6	4	
2	8	7	8	0	8	1	8	2	8	5	8	4	
3	1	3	9	1	0	1	1	1	5	1	3	1	4	
2	4	5	4	0	4	1	4	2	4	3	4	4	
2	5	4	5	0	5	1	5	5	5	3	5	4	
3	0	5	6	0	0	0	1	0	5	0	3	0	4	
4	8	9	5	4	8	0	8	1	8	2	8	3	8	4	
4	7	6	5	0	7	0	7	1	7	2	7	1	7	0	
2	9	5	9	0	9	1	9	2	9	1	9	0	
2	6	8	6	0	6	1	6	2	6	3	6	4	
3	7	8	9	7	0	7	1	7	2	7	1	7	0	
4	1	4	5	6	1	0	1	1	1	2	1	5	1	4	
3	9	5	0	9	0	9	1	9	2	9	1	9	0	
3	7	6	5	7	0	7	1	7	2	7	1	7	0	
2	2	1	2	0	2	1	2	2	2	1	2	0	
2	5	9	5	0	5	1	5	2	5	3	5	4	
3	3	2	0	3	0	3	1	3	2	3	3	3	4	
4	4	5	6	7	4	0	4	1	4	5	4	3	4	4	
4	2	3	9	8	2	0	2	1	2	2	2	1	2	0	
2	6	7	6	0	6	1	6	2	6	1	6	0	
2	8	6	8	0	8	1	8	2	8	1	8	0	
5	7	6	5	4	2	7	0	7	1	7	2	7	3	7	4	
3	3	9	5	3	0	3	1	3	2	3	5	3	4	
2	0	5	0	0	0	1	0	2	0	5	0	4	
3	8	9	3	8	0	8	1	8	2	8	1	8	0	
2	1	4	1	0	1	1	1	2	1	1	1	0	
3	9	8	6	9	0	9	1	9	2	9	3	9	4	
2	3	2	3	0	3	1	3	5	3	3	3	4	
3	3	9	8	3	0	3	1	3	5	3	3	3	4	
4	8	9	3	1	8	0	8	1	8	2	8	5	8	4	
4	2	0	5	6	2	0	2	1	2	2	2	5	2	4	
3	9	3	1	9	0	9	1	9	2	9	5	9	4	
2	2	0	2	0	2	1	2	2	2	5	2	4	
3	0	5	9	0	0	0	1	0	2	0	5	0	4	
2	6	5	6	0	6	1	6	2	6	3	6	4	
4	1	3	9	8	1	0	1	1	1	2	1	1	1	0	
3	4	5	6	4	0	4	1	4	2	4	3	4	4	
3	5	9	3	5	0	5	1	5	2	5	1	5	0	
4	0	5	6	7	0	0	0	1	0	2	0	1	0	0	
3	8	9	5	8	0	8	1	8	2	8	3	8	4	
4	7	8	9	3	7	0	7	1	7	5	7	3	7	4	
3	9	3	4	9	0	9	1	9	5	9	3	9	4	
2	5	6	5	0	5	1	5	2	5	1	5	0	
2	4	3	4	0	4	1	4	5	4	3	4	4	
3	6	8	9	6	0	6	1	6	2	6	3	6	4	
2	1	3	1	0	1	1	1	2	1	5	1	4	
4	8	9	3	2	8	0	8	1	8	2	8	5	8	4	
3	1	4	5	1	0	1	1	1	2	1	5	1	4	
3	4	5	9	4	0	4	1	4	2	4	1	4	0	
3	5	9	8	5	0	5	1	5	2	5	3	5	4	
3	4	2	0	4	0	4	1	4	2	4	1	4	0	
3	2	3	9	2	0	2	1	2	5	2	3	2	4	
3	9	3	2	9	0	9	1	9	5	9	3	9	4	
2	2	3	2	0	2	1	2	5	2	3	2	4	
4	6	5	0	2	6	0	6	1	6	5	6	3	6	4	
3	6	5	4	6	0	6	1	6	5	6	3	6	4	
2	8	7	8	0	8	1	8	5	8	3	8	4	
3	1	3	9	1	0	1	1	1	2	1	5	1	4	
2	4	5	4	0	4	1	4	2	4	1	4	0	
2	5	4	5	0	5	1	5	2	5	3	5	4	
3	0	5	6	0	0	0	1	0	2	0	5	0	4	
4	7	6	5	0	7	0	7	1	7	2	7	5	7	4	
2	9	5	9	0	9	1	9	2	9	3	9	4	
3	3	9	5	3	0	3	1	3	2	3	1	3	0	
3	7	8	9	7	0	7	1	7	2	7	3	7	4	
4	1	4	5	6	1	0	1	1	1	5	1	3	1	4	
2	5	9	5	0	5	1	5	5	5	3	5	4	
3	3	2	0	3	0	3	1	3	2	3	1	3	0	
4	4	5	6	7	4	0	4	1	4	2	4	3	4	4	
4	2	3	9	8	2	0	2	1	2	2	2	3	2	4	
2	6	7	6	0	6	1	6	2	6	5	6	4	
2	8	6	8	0	8	1	8	2	8	3	8	4	
5	7	6	5	4	2	7	0	7	1	7	2	7	1	7	0	
2	0	5	0	0	0	1	0	5	0	3	0	4	
3	9	8	6	9	0	9	1	9	2	9	1	9	0	
2	3	2	3	0	3	1	3	2	3	3	3	4	
4	2	4	5	6	2	0	2	1	2	2	2	1	2	0	
2	5	0	5	0	5	1	5	2	5	5	5	4	
3	0	5	9	0	0	0	1	0	5	0	3	0	4	
2	6	5	6	0	6	1	6	2	6	1	6	0	
3	4	5	6	4	0	4	1	4	5	4	3	4	4	
3	5	9	3	5	0	5	1	5	2	5	3	5	4	
2	3	9	3	0	3	1	3	5	3	3	3	4	
3	8	9	5	8	0	8	1	8	2	8	1	8	0	
4	7	8	9	3	7	0	7	1	7	2	7	5	7	4	
3	9	3	4	9	0	9	1	9	2	9	3	9	4	
2	5	6	5	0	5	1	5	2	5	5	5	4	
3	6	5	9	6	0	6	1	6	2	6	1	6	0	
2	1	3	1	0	1	1	1	2	1	1	1	0	
2	7	8	7	0	7	1	7	2	7	3	7	4	
3	4	5	9	4	0	4	1	4	2	4	5	4	4	
3	5	9	8	5	0	5	1	5	2	5	1	5	0	
3	4	2	0	4	0	4	1	4	2	4	3	4	4	
3	2	3	9	2	0	2	1	2	2	2	3	2	4	
3	5	4	1	5	0	5	1	5	2	5	1	5	0	
4	6	5	0	2	6	0	6	1	6	2	6	5	6	4	
3	6	5	4	6	0	6	1	6	2	6	5	6	4	
2	8	7	8	0	8	1	8	2	8	3	8	4	
3	7	6	5	7	0	7	1	7	2	7	5	7	4	
2	4	5	4	0	4	1	4	2	4	5	4	4	
2	5	4	5	0	5	1	5	2	5	1	5	0	
4	3	9	5	6	3	0	3	1	3	2	3	5	3	4	
3	7	6	5	7	0	7	1	7	5	7	3	7	4	
2	9	3	9	0	9	1	9	5	9	3	9	4	
4	7	6	5	0	7	0	7	1	7	5	7	3	7	4	
2	9	5	9	0	9	1	9	5	9	3	9	4	
3	3	9	5	3	0	3	1	3	2	3	3	3	4	
2	6	8	6	0	6	1	6	2	6	1	6	0	
2	4	2	4	0	4	1	4	2	4	1	4	0	
2	5	9	5	0	5	1	5	2	5	5	5	4	
3	3	2	0	3	0	3	1	3	2	3	5	3	4	
4	4	5	6	7	4	0	4	1	4	2	4	1	4	0	
2	9	8	9	0	9	1	9	2	9	5	9	4	
4	2	3	9	8	2	0	2	1	2	5	2	3	2	4	
3	5	4	2	5	0	5	1	5	2	5	3	5	4	
4	8	6	5	0	8	0	8	1	8	5	8	3	8	4	
4	8	9	3	1	8	0	8	1	8	2	8	1	8	0	
5	1	4	5	6	7	1	0	1	1	1	5	1	3	1	4	
2	6	7	6	0	6	1	6	5	6	3	6	4	
2	8	6	8	0	8	1	8	5	8	3	8	4	
4	3	9	8	7	3	0	3	1	3	2	3	1	3	0	
3	2	4	5	2	0	2	1	2	2	2	5	2	4	
3	9	8	6	9	0	9	1	9	2	9	5	9	4	
2	3	2	3	0	3	1	3	2	3	1	3	0	
2	4	1	4	0	4	1	4	2	4	3	4	4	
4	2	4	5	6	2	0	2	1	2	2	2	3	2	4	
2	4	3	4	0	4	1	4	2	4	5	4	4	
3	0	5	4	0	0	0	1	0	5	0	3	0	4	
3	4	5	6	4	0	4	1	4	2	4	5	4	4	
2	3	9	3	0	3	1	3	2	3	5	3	4	
2	1	0	1	0	1	1	1	2	1	5	1	4	
3	8	6	5	8	0	8	1	8	2	8	5	8	4	
3	9	3	4	9	0	9	1	9	2	9	1	9	0	
4	0	5	9	8	0	0	0	1	0	5	0	3	0	4	
2	5	6	5	0	5	1	5	5	5	3	5	4	
2	3	4	3	0	3	1	3	2	3	3	3	4	
2	1	3	1	0	1	1	1	2	1	3	1	4	
2	7	8	7	0	7	1	7	2	7	1	7	0	
2	2	4	2	0	2	1	2	2	2	1	2	0	
3	4	5	9	4	0	4	1	4	5	4	3	4	4	
3	2	3	9	2	0	2	1	2	2	2	1	2	0	
3	5	4	1	5	0	5	1	5	2	5	3	5	4	
3	0	1	3	0	0	0	1	0	2	0	5	0	4	
4	6	5	0	2	6	0	6	1	6	2	6	1	6	0	
2	8	7	8	0	8	1	8	2	8	1	8	0	
2	4	5	4	0	4	1	4	5	4	3	4	4	
2	7	8	7	0	7	1	7	2	7	5	7	4	
4	3	9	5	6	3	0	3	1	3	5	3	3	3	4	
2	9	3	9	0	9	1	9	2	9	5	9	4	
2	9	5	9	0	9	1	9	2	9	5	9	4	
2	4	2	4	0	4	1	4	2	4	3	4	4	
5	2	4	5	6	7	2	0	2	1	2	2	2	3	2	4	
