1932.2	1954.36
2140
46759.5	22952.2
10
0	0	3000
1	421	3000
2	469	3000
3	567	3000
4	0	3000
5	1120	3000
6	0	3000
7	0	3000
8	667	3000
9	0	3000
34
0	1	12.433814	131.479641
1	0	22.191984	131.479641
0	2	30.414024	135.308578
2	0	22.206440	135.308578
0	5	56.927658	149.350323
5	0	55.487010	149.350323
1	2	11.099572	146.797369
2	1	11.186086	146.797369
1	3	37.478460	144.244414
3	1	51.905370	144.244414
1	4	40.938348	146.797369
4	1	36.916532	146.797369
2	3	44.348204	135.308578
3	2	40.528434	135.308578
2	4	52.117998	130.202668
4	2	49.117188	130.202668
3	4	22.282770	126.372741
4	3	32.062970	126.372741
3	9	114.149866	116.160923
9	3	114.650098	116.160923
4	5	107.011792	117.437895
5	4	109.288972	117.437895
5	6	119.472180	123.819787
6	5	118.724690	123.819787
5	9	75.348314	140.414487
9	5	77.690602	140.414487
6	7	50.195640	139.138505
7	6	41.358064	139.138505
6	8	25.427436	144.244414
8	6	34.565622	144.244414
7	8	58.551622	135.308578
8	7	49.545850	135.308578
8	9	114.839010	114.884940
9	8	113.896570	114.884940
360
3	3	2	0	2	0	2	1	2	5	2	3	2	4	
2	8	9	8	0	8	1	8	2	8	3	8	4	
2	8	9	8	0	8	1	8	2	8	1	8	0	
2	9	8	8	0	8	1	8	5	8	3	8	4	
4	2	3	9	8	2	0	2	1	2	2	2	5	2	4	
3	5	4	2	5	0	5	1	5	2	5	1	5	0	
2	0	2	2	0	2	1	2	2	2	1	2	0	
4	8	9	5	0	8	0	8	1	8	2	8	5	8	4	
5	1	4	5	6	7	1	0	1	1	1	2	1	5	1	4	
2	8	6	8	0	8	1	8	2	8	5	8	4	
4	3	9	8	7	8	0	8	1	8	2	8	3	8	4	
2	1	2	1	0	1	1	2	2	2	3	2	4	
5	7	8	9	3	1	8	0	8	1	8	5	8	3	8	4	
3	2	4	5	2	0	2	1	2	5	2	3	2	4	
3	9	8	6	8	0	8	1	8	5	8	3	8	4	
2	4	1	1	0	1	1	1	2	1	1	1	0	
2	5	0	5	0	5	1	5	2	5	3	5	4	
3	0	2	4	2	0	2	1	2	2	2	5	2	4	
3	7	8	6	8	0	8	1	8	2	8	5	8	4	
2	0	1	1	0	1	1	1	2	1	3	1	4	
2	3	9	3	0	3	1	3	2	3	1	3	0	
2	1	0	1	0	1	1	1	5	1	3	1	4	
3	7	6	5	5	0	5	1	5	2	5	3	5	4	
4	0	5	9	8	5	0	5	1	5	2	5	5	5	4	
2	3	4	3	0	3	1	3	2	3	1	3	0	
2	4	3	3	0	3	1	3	2	3	3	3	4	
2	2	4	2	0	2	1	2	2	2	3	2	4	
4	6	5	4	1	5	0	5	1	5	2	5	5	5	4	
3	5	6	7	5	0	5	1	5	5	5	3	5	4	
3	5	4	1	5	0	5	1	5	5	5	3	5	4	
3	0	2	3	2	0	2	1	2	5	2	3	2	4	
4	6	5	4	2	5	0	5	1	5	2	5	3	5	4	
4	4	5	6	8	5	0	5	1	5	5	5	3	5	4	
4	3	9	8	6	3	0	3	1	3	2	3	3	3	4	
2	9	3	3	0	3	1	3	2	3	1	3	0	
3	7	8	9	8	0	8	1	8	5	8	3	8	4	
2	4	2	2	0	2	1	2	5	2	3	2	4	
5	2	4	5	6	7	2	0	2	1	2	2	2	1	2	0	
3	6	5	0	5	0	5	1	5	2	5	1	5	0	
5	7	8	9	3	1	8	0	8	1	8	2	8	5	8	4	
2	9	8	8	0	8	1	8	2	8	3	8	4	
3	5	4	2	5	0	5	1	5	2	5	5	5	4	
2	0	2	2	0	2	1	2	2	2	3	2	4	
4	8	9	5	0	8	0	8	1	8	2	8	1	8	0	
5	1	3	9	8	7	1	0	1	1	1	2	1	1	3	0	
4	7	6	5	4	5	0	5	1	5	2	5	3	5	4	
2	3	1	3	0	3	1	1	5	1	3	1	4	
4	3	9	8	7	3	0	3	1	3	5	3	3	3	4	
2	1	2	1	0	1	1	1	2	1	1	1	0	
3	2	4	5	2	0	2	1	2	2	2	3	2	4	
2	4	1	1	0	1	1	1	2	1	5	1	4	
2	5	0	5	0	5	1	5	2	5	1	5	0	
3	0	5	4	5	0	5	1	5	2	5	1	5	0	
4	6	5	4	3	5	0	5	1	5	2	5	3	5	4	
2	6	8	8	0	8	1	8	2	8	5	8	4	
3	7	8	6	8	0	8	1	8	5	8	3	8	4	
3	9	8	7	8	0	8	1	8	5	8	3	8	4	
2	0	1	1	0	1	1	1	2	1	1	1	0	
2	3	9	3	0	3	1	3	2	3	3	3	4	
2	1	0	1	0	1	1	1	2	1	3	1	4	
4	0	5	9	8	5	0	5	1	5	2	5	1	5	0	
2	3	4	3	0	3	1	3	2	3	5	3	4	
2	4	3	3	0	3	1	3	2	3	1	3	0	
2	2	4	2	0	2	1	2	5	2	3	2	4	
4	6	5	4	1	5	0	5	1	5	5	5	3	5	4	
4	8	9	5	4	8	0	8	1	8	5	8	3	8	4	
3	5	6	7	5	0	5	1	5	2	5	5	5	4	
3	5	4	1	5	0	5	1	5	2	5	5	5	4	
3	0	2	3	2	0	2	1	2	2	2	3	2	4	
4	4	3	9	8	3	0	3	1	3	2	3	5	3	4	
3	9	5	0	5	0	5	1	5	2	5	5	5	4	
2	7	8	8	0	8	1	8	5	8	3	8	4	
2	2	1	2	0	2	1	2	2	2	5	1	4	
4	3	9	8	6	3	0	3	1	3	2	3	1	3	0	
2	9	3	3	0	3	1	3	2	3	3	3	4	
2	4	2	2	0	2	1	2	2	2	5	2	4	
5	2	4	5	6	7	2	0	2	1	2	2	2	5	2	4	
3	6	5	0	5	0	5	1	5	2	5	3	5	4	
3	8	9	3	3	0	3	1	3	2	3	5	3	4	
2	1	4	1	0	1	1	1	2	1	5	1	4	
5	7	8	9	3	1	8	0	8	1	8	2	8	1	8	0	
2	9	8	8	0	8	1	8	2	8	1	8	0	
3	5	4	2	5	0	5	1	5	5	5	3	5	4	
2	0	2	2	0	2	1	2	5	2	3	2	4	
3	3	9	8	3	0	3	1	3	2	3	3	3	4	
4	8	9	5	0	8	0	8	1	8	2	8	3	8	4	
5	1	3	9	8	7	3	0	3	1	3	2	3	3	3	4	
4	7	6	5	4	5	0	5	1	5	2	5	1	5	0	
3	9	3	1	3	0	1	1	1	2	1	1	1	0	
2	2	0	2	0	2	1	2	2	2	1	2	0	
2	3	1	3	0	3	1	1	2	1	5	1	4	
4	1	3	9	8	3	0	3	1	3	2	3	5	3	4	
4	3	9	8	7	3	0	3	1	3	2	3	5	3	4	
2	1	2	1	0	1	1	1	2	1	5	1	4	
3	2	4	5	2	0	2	1	2	2	2	1	2	0	
4	0	5	6	7	5	0	5	1	5	2	5	5	5	4	
2	4	1	1	0	1	1	1	5	1	3	1	4	
3	0	2	4	2	0	2	1	2	2	2	3	2	4	
4	6	5	4	3	5	0	5	1	5	2	5	1	5	0	
4	8	9	3	2	8	0	8	1	8	2	8	1	8	0	
3	1	4	5	1	0	1	1	1	2	1	1	1	0	
3	7	8	6	8	0	8	1	8	2	8	3	8	4	
3	9	8	7	8	0	8	1	8	2	8	5	8	4	
2	0	1	1	0	1	1	1	2	1	5	1	4	
2	1	0	1	0	1	1	1	2	1	1	1	0	
3	9	3	2	3	0	3	1	3	2	3	3	3	4	
2	2	3	3	0	3	1	3	2	3	3	3	4	
4	0	5	9	8	5	0	5	1	5	2	5	3	5	4	
3	1	3	9	1	0	1	1	1	2	1	1	1	0	
2	3	4	3	0	3	1	3	5	3	3	3	4	
2	2	4	2	0	2	1	2	2	2	5	2	4	
3	0	5	6	5	0	5	1	5	2	5	1	5	0	
4	6	5	4	1	5	0	5	1	5	2	5	3	5	4	
4	8	9	5	4	8	0	8	1	8	2	8	5	8	4	
2	8	9	8	0	8	1	8	5	8	3	8	4	
3	5	6	7	5	0	5	1	5	2	5	1	5	0	
3	0	1	3	1	0	1	1	1	2	1	1	1	0	
4	8	9	3	1	8	0	8	1	8	2	8	3	8	4	
4	1	4	5	6	1	0	1	1	1	2	1	3	1	4	
4	4	5	6	8	5	0	5	1	5	2	5	1	5	0	
3	9	5	0	5	0	5	1	5	5	5	3	5	4	
2	2	1	2	0	2	1	2	5	2	3	2	4	
5	7	6	5	4	2	5	0	5	1	5	2	5	5	5	4	
5	2	3	9	8	7	2	0	3	1	3	5	3	3	3	4	
3	8	9	5	8	0	8	1	8	5	8	3	8	4	
2	0	5	5	0	5	1	5	2	5	3	5	4	
3	6	5	0	5	0	5	1	5	5	5	3	5	4	
3	8	9	3	3	0	3	1	3	5	3	3	3	4	
2	1	4	1	0	1	1	1	5	1	3	1	4	
5	7	8	9	3	1	8	0	8	1	8	2	8	3	8	4	
2	0	2	2	0	2	1	2	2	2	5	2	4	
3	3	9	8	8	0	8	1	8	2	8	1	8	0	
4	7	6	5	4	5	0	5	1	5	2	5	5	5	4	
3	9	3	1	3	0	1	1	1	2	1	3	1	4	
2	2	0	2	0	2	1	2	2	2	3	2	4	
2	6	8	8	0	8	1	8	5	8	3	8	4	
3	0	5	9	5	0	5	1	5	2	5	3	5	4	
2	3	1	1	0	1	1	1	2	1	1	1	0	
2	6	5	5	0	5	1	5	2	5	5	5	4	
4	1	3	9	8	3	0	3	1	3	5	3	3	3	4	
2	1	2	1	0	1	1	1	5	2	3	2	4	
3	5	9	3	5	0	5	1	5	5	5	3	5	4	
4	0	5	6	7	5	0	5	1	5	5	5	3	5	4	
4	7	8	9	3	8	0	8	1	8	2	8	1	8	0	
4	8	9	3	1	3	0	3	1	3	5	3	3	3	4	
3	6	5	9	5	0	5	1	5	2	5	5	5	4	
4	6	5	4	3	5	0	5	1	5	2	5	5	5	4	
4	8	9	3	2	3	0	3	1	3	2	3	3	3	4	
3	1	4	5	1	0	1	1	1	2	1	3	1	4	
3	7	8	6	8	0	8	1	8	2	8	1	8	0	
3	9	8	7	8	0	8	1	8	2	8	1	8	0	
3	5	9	8	5	0	5	1	5	2	5	5	5	4	
2	0	1	1	0	1	1	1	5	1	3	1	4	
3	4	2	0	2	0	2	1	2	5	2	3	2	4	
3	9	3	2	3	0	3	1	3	2	3	1	3	0	
2	2	3	3	0	3	1	3	2	3	1	3	0	
3	6	5	4	5	0	5	1	5	2	5	1	5	0	
3	1	3	9	1	0	1	1	1	2	1	3	1	4	
2	5	4	5	0	5	1	5	2	5	5	5	4	
3	0	5	6	5	0	5	1	5	2	5	3	5	4	
4	6	5	4	1	5	0	5	1	5	2	5	1	5	0	
4	8	9	5	4	8	0	8	1	8	2	8	1	8	0	
4	7	6	5	0	5	0	5	1	5	2	5	3	5	4	
3	5	6	7	5	0	5	1	5	2	5	3	5	4	
3	3	9	5	3	0	3	1	3	5	3	3	3	4	
3	7	8	9	8	0	8	1	8	2	8	5	8	4	
4	1	4	5	6	1	0	1	1	1	2	1	1	1	0	
4	4	5	6	8	5	0	5	1	5	2	5	3	5	4	
3	9	5	0	5	0	5	1	5	2	5	3	5	4	
2	2	1	1	0	1	1	1	2	1	3	1	4	
2	5	9	5	0	5	1	5	2	5	1	5	0	
4	4	5	6	7	5	0	5	1	5	2	5	5	5	4	
2	5	0	5	0	5	1	5	5	5	3	5	4	
3	6	8	7	8	0	8	1	8	2	8	3	8	4	
5	7	8	9	3	2	8	0	8	1	8	5	8	3	8	4	
2	0	5	5	0	5	1	5	2	5	1	5	0	
3	6	5	0	5	0	5	1	5	2	5	5	5	4	
3	8	9	3	8	0	8	1	8	2	8	3	8	4	
2	1	4	1	0	1	1	1	2	1	3	1	4	
2	3	2	2	0	2	1	2	2	2	5	2	4	
3	3	9	8	3	0	3	1	3	2	8	5	8	4	
4	2	4	5	6	2	0	2	1	2	5	2	3	2	4	
4	7	6	5	4	5	0	5	1	5	5	5	3	5	4	
3	9	3	1	3	0	1	1	1	5	1	3	1	4	
2	2	0	2	0	2	1	2	5	2	3	2	4	
3	0	5	9	5	0	5	1	5	2	5	1	5	0	
2	3	1	3	0	3	1	3	2	1	3	1	4	
2	6	5	5	0	5	1	5	5	5	3	5	4	
4	1	3	9	8	1	0	1	1	3	2	3	3	3	4	
3	4	5	6	5	0	5	1	5	2	5	1	5	0	
3	5	9	3	5	0	5	1	5	2	5	5	5	4	
4	0	5	6	7	5	0	5	1	5	2	5	3	5	4	
4	7	8	9	3	8	0	8	1	8	2	8	3	8	4	
3	9	3	4	3	0	3	1	3	2	3	5	3	4	
2	5	6	5	0	5	1	5	2	5	3	5	4	
3	6	5	9	5	0	5	1	5	5	5	3	5	4	
2	1	3	3	0	3	1	3	5	3	3	3	4	
4	6	8	9	3	8	0	8	1	8	5	8	3	8	4	
4	8	9	3	2	8	0	8	1	8	5	8	3	8	4	
3	1	4	5	1	0	1	1	1	5	1	3	1	4	
3	4	3	9	3	0	3	1	3	2	3	3	3	4	
3	9	8	7	8	0	8	1	8	2	8	3	8	4	
3	5	9	8	5	0	5	1	5	5	5	3	5	4	
2	8	9	8	0	8	1	8	2	8	5	8	4	
3	4	2	0	2	0	2	1	2	2	2	5	2	4	
3	2	3	9	3	0	3	1	3	2	3	5	3	4	
3	9	3	2	3	0	2	1	2	2	2	5	2	4	
2	2	3	2	0	2	1	2	2	2	5	2	4	
3	6	5	4	5	0	5	1	5	2	5	3	5	4	
2	8	7	8	0	8	1	8	2	8	5	8	4	
3	1	3	9	3	0	3	1	3	5	3	3	3	4	
2	4	5	5	0	5	1	5	2	5	3	5	4	
2	5	4	5	0	5	1	5	5	5	3	5	4	
3	0	5	6	5	0	5	1	5	5	5	3	5	4	
4	8	9	5	4	8	0	8	1	8	2	8	3	8	4	
4	7	6	5	0	5	0	5	1	5	2	5	1	5	0	
2	9	5	5	0	5	1	5	2	5	1	5	0	
2	6	8	8	0	8	1	8	2	8	3	8	4	
3	7	8	9	8	0	8	1	8	2	8	1	8	0	
4	1	4	5	6	1	0	1	1	1	2	1	5	1	4	
3	9	5	0	5	0	5	1	5	2	5	1	5	0	
3	7	6	5	5	0	5	1	5	2	5	1	5	0	
2	2	1	1	0	1	1	1	2	1	1	1	0	
2	5	9	5	0	5	1	5	2	5	3	5	4	
3	3	2	0	3	0	3	1	3	2	3	3	3	4	
4	4	5	6	7	5	0	5	1	5	5	5	3	5	4	
4	2	3	9	8	2	0	2	1	2	2	2	1	2	0	
3	6	8	7	8	0	8	1	8	2	8	1	8	0	
2	8	6	8	0	8	1	8	2	8	1	8	0	
5	7	8	9	3	2	8	0	8	1	8	2	8	3	8	4	
3	3	9	5	3	0	3	1	3	2	3	5	3	4	
2	0	5	5	0	5	1	5	2	5	5	5	4	
3	8	9	3	3	0	3	1	3	2	3	1	3	0	
2	1	4	1	0	1	1	1	2	1	1	1	0	
3	9	5	6	5	0	5	1	5	2	5	3	5	4	
2	3	2	3	0	3	1	2	5	2	3	2	4	
3	3	9	8	3	0	3	1	3	5	3	3	3	4	
4	8	9	3	1	8	0	8	1	8	2	8	5	8	4	
4	2	4	5	6	2	0	2	1	2	2	2	5	2	4	
3	9	3	1	1	0	1	1	1	2	1	5	1	4	
2	2	0	2	0	2	1	2	2	2	5	2	4	
3	0	5	9	5	0	5	1	5	2	5	5	5	4	
2	6	5	5	0	5	1	5	2	5	3	5	4	
4	1	3	9	8	1	0	1	1	1	2	1	1	1	0	
3	4	5	6	5	0	5	1	5	2	5	3	5	4	
3	5	9	3	5	0	5	1	5	2	5	1	5	0	
4	0	5	6	7	5	0	5	1	5	2	5	1	5	0	
3	8	9	5	8	0	8	1	8	2	8	3	8	4	
4	7	8	9	3	8	0	8	1	8	5	8	3	8	4	
3	9	3	4	3	0	3	1	3	5	3	3	3	4	
2	5	6	5	0	5	1	5	2	5	1	5	0	
2	4	3	3	0	3	1	3	5	3	3	3	4	
3	6	5	9	5	0	5	1	5	2	5	3	5	4	
2	1	3	1	0	3	1	3	2	3	5	3	4	
4	8	9	3	2	8	0	3	1	3	2	3	5	3	4	
3	1	4	5	1	0	1	1	1	2	1	5	1	4	
3	4	5	9	5	0	5	1	5	2	5	1	5	0	
3	5	9	8	5	0	5	1	5	2	5	3	5	4	
3	4	1	0	1	0	1	1	1	2	1	1	1	0	
3	2	3	9	2	0	2	1	2	5	2	3	2	4	
3	9	3	2	3	0	3	1	3	5	3	3	3	4	
2	2	3	2	0	2	1	2	5	2	3	2	4	
4	6	5	4	2	5	0	5	1	5	5	5	3	5	4	
3	6	5	4	5	0	5	1	5	5	5	3	5	4	
2	8	7	8	0	8	1	8	5	8	3	8	4	
3	1	3	9	1	0	1	1	1	2	1	5	3	4	
2	4	5	5	0	5	1	5	2	5	1	5	0	
2	5	4	5	0	5	1	5	2	5	3	5	4	
3	0	5	6	5	0	5	1	5	2	5	5	5	4	
4	7	6	5	0	5	0	5	1	5	2	5	5	5	4	
2	9	5	5	0	5	1	5	2	5	3	5	4	
3	3	9	5	3	0	3	1	3	2	3	1	3	0	
3	7	8	9	8	0	8	1	8	2	8	3	8	4	
4	1	4	5	6	1	0	1	1	1	5	1	3	1	4	
2	5	9	5	0	5	1	5	5	5	3	5	4	
3	3	2	0	2	0	2	1	2	2	2	1	2	0	
4	4	5	6	7	5	0	5	1	5	2	5	3	5	4	
4	2	3	9	8	2	0	2	1	2	2	2	3	2	4	
3	6	8	7	8	0	8	1	8	2	8	5	8	4	
2	8	6	8	0	8	1	8	2	8	3	8	4	
5	7	8	9	3	2	8	0	8	1	8	2	8	1	8	0	
2	0	5	5	0	5	1	5	5	5	3	5	4	
3	9	8	6	8	0	8	1	8	2	8	1	8	0	
2	3	2	3	0	3	1	3	2	3	3	2	4	
4	2	4	5	6	2	0	2	1	2	2	2	1	2	0	
2	5	0	5	0	5	1	5	2	5	5	5	4	
3	0	5	9	5	0	5	1	5	5	5	3	5	4	
2	6	5	5	0	5	1	5	2	5	1	5	0	
3	4	5	6	5	0	5	1	5	5	5	3	5	4	
3	5	9	3	5	0	5	1	5	2	5	3	5	4	
2	3	9	3	0	3	1	3	5	3	3	3	4	
3	8	9	5	8	0	8	1	8	2	8	1	8	0	
4	7	8	9	3	8	0	8	1	8	2	8	5	8	4	
3	9	3	4	3	0	3	1	3	2	3	3	3	4	
2	5	6	5	0	5	1	5	2	5	5	5	4	
3	6	5	9	5	0	5	1	5	2	5	1	5	0	
2	1	3	3	0	3	1	3	2	3	1	3	0	
2	7	8	8	0	8	1	8	2	8	3	8	4	
3	4	5	9	5	0	5	1	5	2	5	5	5	4	
3	5	9	8	5	0	5	1	5	2	5	1	5	0	
3	4	1	0	1	0	1	1	1	2	1	3	1	4	
3	2	3	9	2	0	2	1	2	2	3	3	3	4	
3	5	4	1	5	0	5	1	5	2	5	1	5	0	
4	6	5	4	2	5	0	5	1	5	2	5	5	5	4	
3	6	5	4	5	0	5	1	5	2	5	5	5	4	
2	8	7	8	0	8	1	8	2	8	3	8	4	
3	7	6	5	5	0	5	1	5	2	5	5	5	4	
2	4	5	5	0	5	1	5	2	5	5	5	4	
2	5	4	5	0	5	1	5	2	5	1	5	0	
4	3	9	5	6	3	0	3	1	3	2	3	5	3	4	
3	7	6	5	5	0	5	1	5	5	5	3	5	4	
2	9	3	3	0	3	1	3	5	3	3	3	4	
4	7	6	5	0	5	0	5	1	5	5	5	3	5	4	
2	9	5	5	0	5	1	5	5	5	3	5	4	
3	3	9	5	3	0	3	1	3	2	3	3	3	4	
2	6	8	8	0	8	1	8	2	8	1	8	0	
2	4	2	2	0	2	1	2	2	2	1	2	0	
2	5	9	5	0	5	1	5	2	5	5	5	4	
3	3	1	0	1	0	1	1	1	2	1	5	1	4	
4	4	5	6	7	5	0	5	1	5	2	5	1	5	0	
2	9	8	8	0	8	1	8	2	8	5	8	4	
4	2	3	9	8	2	0	2	1	2	5	2	3	2	4	
3	5	4	2	5	0	5	1	5	2	5	3	5	4	
4	8	9	5	0	8	0	8	1	8	5	8	3	8	4	
4	8	9	3	1	3	0	3	1	3	2	3	1	3	0	
5	1	3	9	8	7	1	0	3	1	3	5	3	3	3	4	
3	6	8	7	8	0	8	1	8	5	8	3	8	4	
2	8	6	8	0	8	1	8	5	8	3	8	4	
4	3	9	8	7	8	0	8	1	8	2	8	1	8	0	
3	2	4	5	2	0	2	1	2	2	2	5	2	4	
3	9	8	6	8	0	8	1	8	2	8	5	8	4	
2	3	2	3	0	3	1	3	2	3	1	3	0	
2	4	1	1	0	1	1	1	2	1	3	1	4	
4	2	4	5	6	2	0	2	1	2	2	2	3	2	4	
2	4	3	3	0	3	1	3	2	3	5	3	4	
3	0	5	4	5	0	5	1	5	5	5	3	5	4	
3	4	5	6	5	0	5	1	5	2	5	5	5	4	
2	3	9	3	0	3	1	3	2	3	5	3	4	
2	1	0	1	0	1	1	1	2	1	5	1	4	
3	8	9	5	8	0	8	1	8	2	8	5	8	4	
3	9	3	4	3	0	3	1	3	2	3	1	3	0	
4	0	5	9	8	5	0	5	1	5	5	5	3	5	4	
2	5	6	5	0	5	1	5	5	5	3	5	4	
2	3	4	3	0	3	1	3	2	3	3	3	4	
2	1	3	1	0	1	1	1	2	1	3	3	4	
2	7	8	8	0	8	1	8	2	8	1	8	0	
2	2	4	2	0	2	1	2	2	2	1	2	0	
3	4	3	9	3	0	3	1	3	5	3	3	3	4	
3	2	3	9	3	0	3	1	3	2	3	1	3	0	
3	5	4	1	5	0	5	1	5	2	5	3	5	4	
3	0	2	3	2	0	2	1	2	2	2	5	2	4	
4	6	5	4	2	5	0	5	1	5	2	5	1	5	0	
2	8	7	8	0	8	1	8	2	8	1	8	0	
2	4	5	5	0	5	1	5	5	5	3	5	4	
2	7	8	8	0	8	1	8	2	8	5	8	4	
4	3	9	5	6	3	0	3	1	3	5	3	3	3	4	
2	9	3	3	0	3	1	3	2	3	5	3	4	
2	9	5	5	0	5	1	5	2	5	5	5	4	
2	4	2	2	0	2	1	2	2	2	3	2	4	
5	2	3	9	8	7	2	0	3	1	3	2	3	3	3	4	
