1932.2	1932.2
1288
4393.77	2575.04
10
0	0	3000
1	411	3000
2	338	3000
3	557	3000
4	0	3000
5	877	3000
6	443	3000
7	0	3000
8	618	3000
9	0	3000
34
0	1	33.274064	131.479641
1	0	18.866664	131.479641
0	2	21.901416	135.308578
2	0	22.189840	135.308578
0	5	66.636534	149.350323
5	0	80.865448	149.350323
1	2	11.099572	146.797369
2	1	11.186086	146.797369
1	3	51.553518	144.244414
3	1	51.905370	144.244414
1	4	36.671748	146.797369
4	1	22.559420	146.797369
2	3	40.315138	135.308578
3	2	48.392754	135.308578
2	4	36.633730	130.202668
4	2	30.231542	130.202668
3	4	11.041938	126.372741
4	3	22.459356	126.372741
3	9	115.873586	116.160923
9	3	112.558928	116.160923
4	5	108.629992	117.437895
5	4	99.052500	117.437895
5	6	123.213036	123.819787
6	5	120.811820	123.819787
5	9	61.361278	140.414487
9	5	69.172182	140.414487
6	7	51.174190	139.138505
7	6	44.628762	139.138505
6	8	37.997544	144.244414
8	6	43.189856	144.244414
7	8	55.280924	135.308578
8	7	48.567300	135.308578
8	9	112.751880	114.884940
9	8	110.155714	114.884940
360
3	3	2	0	3	0	3	1	3	5	3	3	3	4	
2	8	9	8	0	8	1	8	2	8	3	8	4	
2	8	9	8	0	8	1	8	2	8	1	8	0	
2	9	8	8	0	8	1	8	5	8	3	8	4	
4	2	3	9	8	3	0	3	1	3	2	3	5	3	4	
3	5	4	2	5	0	5	1	5	2	5	1	5	0	
2	0	2	2	0	2	1	2	2	2	1	2	0	
4	8	6	5	0	8	0	8	1	8	2	8	5	8	4	
5	1	3	9	8	7	1	0	1	1	1	2	1	5	1	4	
2	8	6	8	0	8	1	8	2	8	5	8	4	
4	3	9	8	7	3	0	3	1	3	2	3	3	3	4	
2	1	2	2	0	2	1	2	2	2	3	2	4	
5	7	8	9	3	1	8	0	8	1	8	5	8	3	8	4	
3	2	4	5	2	0	2	1	2	5	2	3	2	4	
3	9	5	6	5	0	5	1	5	5	5	3	5	4	
2	4	1	1	0	1	1	1	2	1	1	1	0	
2	5	0	5	0	5	1	5	2	5	3	5	4	
3	0	5	4	5	0	5	1	5	2	5	5	5	4	
2	7	6	6	0	6	1	6	2	6	5	6	4	
2	0	1	1	0	1	1	1	2	1	3	1	4	
2	3	9	3	0	3	1	3	2	3	1	3	0	
2	1	0	1	0	1	1	1	5	1	3	1	4	
3	7	6	5	6	0	6	1	6	2	6	3	6	4	
4	0	5	6	8	5	0	5	1	5	2	5	5	5	4	
2	3	4	3	0	3	1	3	2	3	1	3	0	
2	4	3	3	0	3	1	3	2	3	3	3	4	
2	2	4	2	0	2	1	2	2	2	3	2	4	
4	6	5	0	1	6	0	6	1	6	2	6	5	6	4	
3	5	6	7	6	0	6	1	6	5	6	3	6	4	
3	5	4	1	5	0	5	1	5	5	5	3	5	4	
3	0	1	3	1	0	1	1	1	5	1	3	1	4	
4	6	5	0	2	6	0	6	1	6	2	6	3	6	4	
4	4	5	9	8	5	0	5	1	5	5	5	3	5	4	
4	3	9	5	6	3	0	3	1	3	2	3	3	3	4	
2	9	3	3	0	3	1	3	2	3	1	3	0	
3	7	8	9	8	0	8	1	8	5	8	3	8	4	
2	4	2	2	0	2	1	2	5	2	3	2	4	
5	2	4	5	6	7	2	0	2	1	2	2	2	1	2	0	
3	6	5	0	6	0	6	1	6	2	6	1	6	0	
5	7	8	9	3	1	8	0	8	1	8	2	8	5	8	4	
2	9	8	8	0	8	1	8	2	8	3	8	4	
3	5	4	2	5	0	5	1	5	2	5	5	5	4	
2	0	2	2	0	2	1	2	2	2	3	2	4	
4	8	6	5	0	8	0	8	1	6	2	6	1	6	0	
5	1	4	5	6	7	1	0	1	1	1	2	1	1	1	0	
4	7	6	5	4	6	0	6	1	6	2	6	3	6	4	
2	3	1	3	0	3	1	3	5	3	3	3	4	
4	3	9	8	7	3	0	3	1	3	5	3	3	3	4	
2	1	2	1	0	1	1	1	2	1	1	1	0	
3	2	4	5	2	0	2	1	2	2	2	3	2	4	
2	4	1	1	0	1	1	1	2	1	5	1	4	
2	5	0	5	0	5	1	5	2	5	1	5	0	
3	0	5	4	5	0	5	1	5	2	5	1	5	0	
4	6	5	4	3	5	0	5	1	5	2	5	3	5	4	
2	6	8	6	0	8	1	8	2	8	5	8	4	
2	7	6	6	0	6	1	6	5	6	3	6	4	
3	9	8	7	8	0	8	1	8	5	8	3	8	4	
2	0	1	1	0	1	1	1	2	1	1	1	0	
2	3	9	3	0	3	1	3	2	3	3	3	4	
2	1	0	1	0	1	1	1	2	1	3	1	4	
4	0	5	6	8	5	0	5	1	5	2	5	1	5	0	
2	3	4	3	0	3	1	3	2	3	5	3	4	
2	4	3	3	0	3	1	3	2	3	1	3	0	
2	2	4	2	0	2	1	2	5	2	3	2	4	
4	6	5	0	1	6	0	6	1	6	5	6	3	6	4	
4	8	6	5	4	8	0	8	1	8	5	8	3	6	4	
3	5	6	7	5	0	5	1	5	2	5	5	5	4	
3	5	4	1	5	0	5	1	5	2	5	5	5	4	
3	0	1	3	1	0	1	1	1	2	1	3	1	4	
4	4	5	9	8	5	0	5	1	5	2	5	5	5	4	
3	9	5	0	5	0	5	1	5	2	5	5	5	4	
2	7	8	8	0	8	1	8	5	8	3	8	4	
2	2	1	2	0	2	1	2	2	1	5	1	4	
4	3	9	5	6	3	0	3	1	3	2	3	1	3	0	
2	9	3	3	0	3	1	3	2	3	3	3	4	
2	4	2	2	0	2	1	2	2	2	5	2	4	
5	2	3	9	8	7	2	0	2	1	2	2	2	5	2	4	
3	6	5	0	6	0	5	1	5	2	5	3	5	4	
3	8	9	3	8	0	8	1	8	2	8	5	8	4	
2	1	4	1	0	1	1	1	2	1	5	1	4	
5	7	8	9	3	1	8	0	8	1	8	2	8	1	8	0	
2	9	8	8	0	8	1	8	2	8	1	8	0	
3	5	4	2	5	0	5	1	5	5	5	3	5	4	
2	0	2	2	0	2	1	2	5	2	3	2	4	
3	3	9	8	3	0	3	1	3	2	3	3	3	4	
4	8	6	5	0	8	0	8	1	8	2	8	3	8	4	
5	1	4	5	6	7	1	0	1	1	1	2	1	3	1	4	
4	7	6	5	4	6	0	6	1	6	2	6	1	6	0	
3	9	3	1	3	0	3	1	3	2	3	1	3	0	
2	2	0	2	0	2	1	2	2	2	1	2	0	
2	3	1	1	0	1	1	1	2	1	5	1	4	
4	1	3	9	8	1	0	1	1	1	2	1	5	1	4	
4	3	9	8	7	3	0	3	1	3	2	3	5	3	4	
2	1	2	2	0	2	1	2	2	2	5	2	4	
3	2	4	5	2	0	2	1	2	2	2	1	2	0	
4	0	5	6	7	5	0	5	1	5	2	5	5	5	4	
2	4	1	1	0	1	1	1	5	1	3	1	4	
3	0	5	4	5	0	5	1	5	2	5	3	5	4	
4	6	8	9	3	6	0	6	1	6	2	6	1	6	0	
4	8	9	3	2	8	0	8	1	8	2	8	1	8	0	
3	1	4	5	1	0	1	1	1	2	1	1	1	0	
2	7	6	6	0	6	1	6	2	6	3	6	4	
3	9	8	7	8	0	8	1	8	2	8	5	8	4	
2	0	1	1	0	1	1	1	2	1	5	1	4	
2	1	0	1	0	1	1	1	2	1	1	1	0	
3	9	3	2	3	0	3	1	3	2	3	3	3	4	
2	2	3	3	0	3	1	3	2	3	3	3	4	
4	0	5	6	8	5	0	5	1	5	2	5	3	5	4	
3	1	3	9	1	0	1	1	1	2	1	1	1	0	
2	3	4	3	0	3	1	3	5	3	3	3	4	
2	2	4	2	0	2	1	2	2	2	5	2	4	
3	0	5	6	5	0	5	1	5	2	5	1	5	0	
4	6	5	0	1	6	0	6	1	6	2	6	3	6	4	
4	8	6	5	4	8	0	8	1	8	2	8	5	8	4	
2	8	9	8	0	8	1	8	5	8	3	8	4	
3	5	6	7	6	0	6	1	6	2	6	1	6	0	
3	0	1	3	1	0	1	1	1	2	1	1	1	0	
4	8	9	3	1	8	0	8	1	8	2	8	3	8	4	
4	1	4	5	6	1	0	1	1	1	2	1	3	1	4	
4	4	5	9	8	5	0	5	1	5	2	5	1	5	0	
3	9	5	0	5	0	5	1	5	5	5	3	5	4	
2	2	1	1	0	1	1	1	5	1	3	1	4	
5	7	8	9	3	2	8	0	8	1	8	2	8	5	8	4	
5	2	3	9	8	7	2	0	2	1	2	5	2	3	2	4	
3	8	6	5	8	0	6	1	6	5	6	3	6	4	
2	0	5	5	0	5	1	5	2	5	3	5	4	
3	6	5	0	6	0	6	1	6	5	6	3	6	4	
3	8	9	3	8	0	8	1	8	5	8	3	8	4	
2	1	4	1	0	1	1	1	5	1	3	1	4	
5	7	8	9	3	1	8	0	8	1	8	2	8	3	8	4	
2	0	2	2	0	2	1	2	2	2	5	2	4	
3	3	9	8	3	0	3	1	3	2	3	1	3	0	
4	7	6	5	4	6	0	6	1	6	2	6	5	6	4	
3	9	3	1	3	0	3	1	3	2	3	3	3	4	
2	2	0	2	0	2	1	2	2	2	3	2	4	
2	6	8	6	0	6	1	8	5	8	3	8	4	
3	0	5	9	5	0	5	1	5	2	5	3	5	4	
2	3	1	3	0	3	1	3	2	3	1	3	0	
2	6	5	6	0	6	1	6	2	6	5	6	4	
4	1	3	9	8	3	0	3	1	3	5	3	3	3	4	
2	1	2	2	0	2	1	2	5	2	3	2	4	
3	5	9	3	5	0	5	1	5	5	5	3	5	4	
4	0	5	6	7	5	0	5	1	5	5	5	3	5	4	
4	7	8	9	3	8	0	8	1	8	2	8	1	8	0	
4	8	9	3	1	8	0	8	1	8	5	8	3	8	4	
3	6	8	9	6	0	6	1	6	2	6	5	6	4	
4	6	5	4	3	6	0	5	1	5	2	5	5	5	4	
4	8	9	3	2	8	0	8	1	8	2	8	3	8	4	
3	1	4	5	1	0	1	1	1	2	1	3	1	4	
2	7	6	6	0	6	1	6	2	6	1	6	0	
3	9	8	7	8	0	8	1	8	2	8	1	8	0	
3	5	9	8	5	0	5	1	5	2	5	5	5	4	
2	0	1	1	0	1	1	1	5	1	3	1	4	
3	4	5	0	5	0	5	1	5	5	5	3	5	4	
3	9	3	2	3	0	3	1	3	2	3	1	3	0	
2	2	3	2	0	2	1	2	2	2	1	2	0	
3	6	5	4	6	0	6	1	6	2	6	1	6	0	
3	1	3	9	1	0	3	1	3	2	3	3	3	4	
2	5	4	5	0	5	1	5	2	5	5	5	4	
3	0	5	6	5	0	5	1	5	2	5	3	5	4	
4	6	5	0	1	6	0	6	1	6	2	6	1	6	0	
4	8	9	5	4	8	0	8	1	8	2	8	1	8	0	
4	7	6	5	0	6	0	6	1	6	2	5	3	5	4	
3	5	6	7	5	0	5	1	5	2	5	3	5	4	
3	3	9	5	3	0	3	1	3	5	3	3	3	4	
3	7	8	9	8	0	8	1	8	2	8	5	8	4	
4	1	4	5	6	1	0	1	1	1	2	1	1	1	0	
4	4	5	9	8	5	0	5	1	5	2	5	3	5	4	
3	9	5	0	5	0	5	1	5	2	5	3	5	4	
2	2	1	1	0	1	1	1	2	1	3	1	4	
2	5	9	5	0	5	1	5	2	5	1	5	0	
4	4	5	6	7	5	0	5	1	5	2	5	5	5	4	
2	5	0	5	0	5	1	5	5	5	3	5	4	
2	6	7	6	0	6	1	6	2	6	3	6	4	
5	7	8	9	3	2	8	0	8	1	8	5	8	3	8	4	
2	0	5	5	0	5	1	5	2	5	1	5	0	
3	6	5	0	6	0	6	1	6	2	6	5	6	4	
3	8	9	3	8	0	8	1	8	2	8	3	8	4	
2	1	4	1	0	1	1	1	2	1	3	1	4	
2	3	2	3	0	3	1	3	2	3	5	3	4	
3	3	9	8	3	0	3	1	3	2	8	5	8	4	
4	2	4	5	6	2	0	2	1	2	5	2	3	2	4	
4	7	6	5	4	6	0	6	1	6	5	6	3	6	4	
3	9	3	1	3	0	3	1	3	5	3	3	3	4	
2	2	0	2	0	2	1	2	5	2	3	2	4	
3	0	5	9	5	0	5	1	5	2	5	1	5	0	
2	3	1	1	0	1	1	1	2	1	3	1	4	
2	6	5	6	0	6	1	6	5	6	3	6	4	
4	1	3	9	8	3	0	3	1	3	2	3	3	3	4	
3	4	5	6	5	0	5	1	5	2	5	1	5	0	
3	5	9	3	5	0	5	1	5	2	5	5	5	4	
4	0	5	6	7	5	0	5	1	5	2	5	3	5	4	
4	7	8	9	3	8	0	8	1	8	2	8	3	8	4	
3	9	5	4	5	0	5	1	5	2	5	5	5	4	
2	5	6	6	0	6	1	6	2	6	3	6	4	
3	6	8	9	6	0	6	1	6	5	6	3	6	4	
2	1	3	3	0	3	1	3	5	3	3	3	4	
4	6	5	4	3	6	0	6	1	5	5	5	3	5	4	
4	8	9	3	2	8	0	8	1	8	5	8	3	8	4	
3	1	4	5	1	0	1	1	1	5	1	3	1	4	
3	4	5	9	5	0	5	1	5	2	5	3	5	4	
3	9	8	7	8	0	8	1	8	2	8	3	8	4	
3	5	9	8	5	0	5	1	5	5	5	3	5	4	
2	8	9	8	0	8	1	8	2	8	5	8	4	
3	4	2	0	2	0	2	1	2	2	2	5	2	4	
3	2	3	9	3	0	3	1	3	2	3	5	3	4	
3	9	3	2	3	0	3	1	3	2	3	5	3	4	
2	2	3	3	0	3	1	3	2	3	5	3	4	
3	6	5	4	6	0	6	1	5	2	5	3	5	4	
2	8	7	8	0	8	1	8	2	8	5	8	4	
3	1	3	9	3	0	3	1	3	5	3	3	3	4	
2	4	5	5	0	5	1	5	2	5	3	5	4	
2	5	4	5	0	5	1	5	5	5	3	5	4	
3	0	5	6	5	0	5	1	5	5	5	3	5	4	
4	8	9	5	4	8	0	8	1	8	2	8	3	8	4	
4	7	6	5	0	6	0	6	1	6	2	6	1	6	0	
2	9	5	5	0	5	1	5	2	5	1	5	0	
2	6	8	6	0	6	1	8	2	8	3	8	4	
3	7	8	9	8	0	8	1	8	2	8	1	8	0	
4	1	4	5	6	1	0	1	1	1	2	1	5	1	4	
3	9	5	0	5	0	5	1	5	2	5	1	5	0	
3	7	6	5	6	0	6	1	6	2	6	1	6	0	
2	2	1	2	0	2	1	2	2	2	1	2	0	
2	5	9	5	0	5	1	5	2	5	3	5	4	
3	3	2	0	2	0	2	1	2	2	2	3	2	4	
4	4	5	6	7	6	0	6	1	6	5	6	3	6	4	
4	2	3	9	8	2	0	2	1	2	2	2	1	2	0	
2	6	7	6	0	6	1	6	2	6	1	6	0	
2	8	6	6	0	6	1	6	2	6	1	6	0	
5	7	8	9	3	2	8	0	8	1	8	2	8	3	8	4	
3	3	9	5	3	0	3	1	3	2	3	5	3	4	
2	0	5	5	0	5	1	5	2	5	5	5	4	
3	8	9	3	8	0	8	1	8	2	8	1	8	0	
2	1	4	1	0	1	1	1	2	1	1	1	0	
3	9	8	6	8	0	8	1	8	2	8	3	8	4	
2	3	2	3	0	3	1	3	5	3	3	3	4	
3	3	9	8	3	0	3	1	3	5	3	3	3	4	
4	8	9	3	1	8	0	8	1	8	2	8	5	8	4	
4	2	4	5	6	2	0	2	1	2	2	2	5	2	4	
3	9	3	1	3	0	3	1	3	2	3	5	3	4	
2	2	0	2	0	2	1	2	2	2	5	2	4	
3	0	5	9	5	0	5	1	5	2	5	5	5	4	
2	6	5	6	0	6	1	6	2	6	3	6	4	
4	1	3	9	8	1	0	1	1	1	2	1	1	1	0	
3	4	5	6	5	0	5	1	5	2	5	3	5	4	
3	5	9	3	5	0	5	1	5	2	5	1	5	0	
4	0	5	6	7	5	0	5	1	5	2	5	1	5	0	
3	8	6	5	6	0	6	1	6	2	6	3	6	4	
4	7	8	9	3	8	0	8	1	8	5	8	3	8	4	
3	9	5	4	5	0	5	1	5	5	5	3	5	4	
2	5	6	6	0	6	1	6	2	6	1	6	0	
2	4	3	3	0	3	1	3	5	3	3	3	4	
3	6	8	9	6	0	6	1	6	2	6	3	8	4	
2	1	3	3	0	3	1	3	2	3	5	3	4	
4	8	9	3	2	8	0	8	1	8	2	8	5	8	4	
3	1	4	5	1	0	1	1	1	2	1	5	1	4	
3	4	3	9	3	0	3	1	3	2	3	1	3	0	
3	5	6	8	5	0	6	1	6	2	6	3	6	4	
3	4	5	0	5	0	5	1	5	2	5	1	5	0	
3	2	3	9	3	0	3	1	3	5	3	3	3	4	
3	9	3	2	3	0	3	1	3	5	3	3	3	4	
2	2	3	3	0	3	1	3	5	3	3	3	4	
4	6	5	0	2	6	0	6	1	6	5	6	3	6	4	
3	6	5	4	6	0	6	1	6	5	6	3	6	4	
2	8	7	8	0	8	1	8	5	8	3	8	4	
3	1	3	9	1	0	1	1	1	2	1	5	3	4	
2	4	5	5	0	5	1	5	2	5	1	5	0	
2	5	4	5	0	5	1	5	2	5	3	5	4	
3	0	5	6	5	0	5	1	5	2	5	5	5	4	
4	7	6	5	0	6	0	6	1	6	2	6	5	6	4	
2	9	5	5	0	5	1	5	2	5	3	5	4	
3	3	9	5	3	0	3	1	3	2	3	1	3	0	
3	7	8	9	8	0	8	1	8	2	8	3	8	4	
4	1	4	5	6	1	0	1	1	1	5	1	3	1	4	
2	5	9	5	0	5	1	5	5	5	3	5	4	
3	3	2	0	3	0	3	1	3	2	3	1	3	0	
4	4	5	6	7	5	0	5	1	5	2	5	3	5	4	
4	2	3	9	8	3	0	3	1	3	2	3	3	3	4	
2	6	7	6	0	6	1	6	2	6	5	6	4	
2	8	6	6	0	6	1	6	2	6	3	6	4	
5	7	8	9	3	2	8	0	8	1	8	2	8	1	8	0	
2	0	5	5	0	5	1	5	5	5	3	5	4	
3	9	5	6	5	0	5	1	5	2	5	1	5	0	
2	3	2	2	0	2	1	2	2	2	3	2	4	
4	2	4	5	6	2	0	2	1	2	2	2	1	2	0	
2	5	0	5	0	5	1	5	2	5	5	5	4	
3	0	5	9	5	0	5	1	5	5	5	3	5	4	
2	6	5	6	0	6	1	6	2	6	1	6	0	
3	4	5	6	5	0	5	1	5	5	5	3	5	4	
3	5	9	3	5	0	5	1	5	2	5	3	5	4	
2	3	9	3	0	3	1	3	5	3	3	3	4	
3	8	6	5	8	0	8	1	6	2	6	1	6	0	
4	7	8	9	3	8	0	8	1	8	2	8	5	8	4	
3	9	5	4	5	0	5	1	5	2	5	3	5	4	
2	5	6	5	0	5	1	5	2	5	5	5	4	
3	6	8	9	6	0	6	1	6	2	6	1	6	0	
2	1	3	1	0	1	1	1	2	1	1	1	0	
2	7	8	8	0	8	1	8	2	8	3	8	4	
3	4	5	9	5	0	5	1	5	2	5	5	5	4	
3	5	6	8	5	0	6	1	6	2	6	1	6	0	
3	4	5	0	5	0	5	1	5	2	5	3	5	4	
3	2	3	9	3	0	3	1	3	2	3	3	3	4	
3	5	4	1	5	0	5	1	5	2	5	1	5	0	
4	6	5	0	2	6	0	6	1	6	2	6	5	6	4	
3	6	5	4	6	0	6	1	6	2	6	5	6	4	
2	8	7	8	0	8	1	8	2	8	3	8	4	
3	7	6	5	6	0	6	1	6	2	5	5	5	4	
2	4	5	5	0	5	1	5	2	5	5	5	4	
2	5	4	5	0	5	1	5	2	5	1	5	0	
4	3	9	5	6	3	0	3	1	3	2	3	5	3	4	
3	7	6	5	6	0	6	1	6	5	6	3	6	4	
2	9	3	3	0	3	1	3	5	3	3	3	4	
4	7	6	5	0	6	0	6	1	6	5	6	3	6	4	
2	9	5	5	0	5	1	5	5	5	3	5	4	
3	3	9	5	3	0	3	1	3	2	3	3	3	4	
2	6	8	6	0	6	1	8	2	8	1	8	0	
2	4	2	2	0	2	1	2	2	2	1	2	0	
2	5	9	5	0	5	1	5	2	5	5	5	4	
3	3	1	0	1	0	1	1	1	2	1	5	1	4	
4	4	5	6	7	5	0	5	1	5	2	5	1	5	0	
2	9	8	8	0	8	1	8	2	8	5	8	4	
4	2	3	9	8	3	0	3	1	3	5	3	3	3	4	
3	5	4	2	5	0	5	1	5	2	5	3	5	4	
4	8	9	5	0	8	0	8	1	8	5	8	3	8	4	
4	8	9	3	1	8	0	8	1	8	2	8	1	8	0	
5	1	4	5	6	7	1	0	1	1	1	5	1	3	1	4	
2	6	7	6	0	6	1	6	5	6	3	6	4	
2	8	6	8	0	8	1	8	5	8	3	8	4	
4	3	9	8	7	3	0	3	1	3	2	3	1	3	0	
3	2	4	5	2	0	2	1	2	2	2	5	2	4	
3	9	8	6	8	0	8	1	8	2	8	5	8	4	
2	3	2	3	0	3	1	3	2	3	1	3	0	
2	4	1	1	0	1	1	1	2	1	3	1	4	
4	2	4	5	6	2	0	2	1	2	2	2	3	2	4	
2	4	3	3	0	3	1	3	2	3	5	3	4	
3	0	5	4	5	0	5	1	5	5	5	3	5	4	
3	4	5	6	5	0	5	1	5	2	5	5	5	4	
2	3	9	3	0	3	1	3	2	3	5	3	4	
2	1	0	1	0	1	1	1	2	1	5	1	4	
3	8	9	5	8	0	8	1	8	2	8	5	8	4	
3	9	5	4	5	0	5	1	5	2	5	1	5	0	
4	0	5	6	8	5	0	5	1	5	5	5	3	5	4	
2	5	6	5	0	5	1	5	5	5	3	5	4	
2	3	4	3	0	3	1	3	2	3	3	3	4	
2	1	3	3	0	3	1	3	2	3	3	3	4	
2	7	8	8	0	8	1	8	2	8	1	8	0	
2	2	4	2	0	2	1	2	2	2	1	2	0	
3	4	5	9	5	0	5	1	5	5	5	3	5	4	
3	2	3	9	2	0	2	1	2	2	2	1	2	0	
3	5	4	1	5	0	5	1	5	2	5	3	5	4	
3	0	1	3	1	0	1	1	1	2	1	5	1	4	
4	6	5	0	2	6	0	6	1	6	2	6	1	6	0	
2	8	7	8	0	8	1	8	2	8	1	8	0	
2	4	5	5	0	5	1	5	5	5	3	5	4	
2	7	8	8	0	8	1	8	2	8	5	8	4	
4	3	9	5	6	3	0	3	1	3	5	3	3	3	4	
2	9	3	3	0	3	1	3	2	3	5	3	4	
2	9	5	5	0	5	1	5	2	5	5	5	4	
2	4	2	2	0	2	1	2	2	2	3	2	4	
5	2	4	5	6	7	2	0	2	1	2	2	2	3	2	4	
