1932.2	1932.2
565
1714.49	1394.35
10
0	315	3000
1	283	3000
2	318	3000
3	317	3000
4	397	3000
5	295	3000
6	369	3000
7	268	3000
8	329	3000
9	353	3000
34
0	1	33.274064	131.479641
1	0	14.510036	131.479641
0	2	29.765736	135.308578
2	0	40.340474	135.308578
0	5	77.088620	149.350323
5	0	85.387848	149.350323
1	2	11.099572	146.797369
2	1	11.186086	146.797369
1	3	43.926766	144.244414
3	1	35.179882	144.244414
1	4	42.956740	146.797369
4	1	33.586520	146.797369
2	3	32.507396	135.308578
3	2	42.899448	135.308578
2	4	35.331146	130.202668
4	2	36.900836	130.202668
3	4	22.282770	126.372741
4	3	22.208502	126.372741
3	9	110.068616	116.160923
9	3	111.461344	116.160923
4	5	100.640956	117.437895
5	4	92.285764	117.437895
5	6	120.824282	123.819787
6	5	122.493120	123.819787
5	9	68.218114	140.414487
9	5	67.251578	140.414487
6	7	66.608684	139.138505
7	6	66.847556	139.138505
6	8	31.391562	144.244414
8	6	33.869628	144.244414
7	8	33.062130	135.308578
8	7	33.132806	135.308578
8	9	111.070580	114.884940
9	8	112.544468	114.884940
360
3	3	2	0	3	0	3	1	3	5	3	3	3	4	
2	8	9	8	0	8	1	8	2	8	3	9	4	
2	8	9	8	0	8	1	8	2	8	1	8	0	
2	9	8	9	0	9	1	9	5	9	3	9	4	
4	2	3	9	8	2	0	2	1	2	2	2	5	2	4	
3	5	4	2	5	0	5	1	5	2	5	1	5	0	
2	0	2	0	0	0	1	0	2	0	1	0	0	
4	8	6	5	0	8	0	8	1	8	2	8	5	8	4	
5	1	4	5	6	7	1	0	1	1	1	2	1	5	1	4	
2	8	6	8	0	8	1	8	2	8	5	8	4	
4	3	9	8	7	3	0	3	1	3	2	3	3	3	4	
2	1	2	1	0	1	1	1	2	1	3	1	4	
5	7	6	5	4	1	7	0	7	1	7	5	7	3	7	4	
3	2	0	5	2	0	2	1	2	5	2	3	2	4	
3	9	8	6	9	0	9	1	9	5	9	3	9	4	
2	4	1	4	0	4	1	4	2	4	1	4	0	
2	5	0	5	0	5	1	5	2	5	3	5	4	
3	0	5	4	0	0	0	1	0	2	0	5	0	4	
2	7	6	7	0	6	1	6	2	6	5	6	4	
2	0	1	0	0	0	1	1	2	1	3	1	4	
2	3	9	3	0	3	1	3	2	3	1	3	0	
2	1	0	1	0	1	1	1	5	1	3	1	4	
3	7	6	5	7	0	7	1	7	2	7	3	7	4	
4	0	5	9	8	0	0	0	1	0	2	0	5	0	4	
2	3	4	3	0	3	1	3	2	3	1	3	0	
2	4	3	4	0	4	1	4	2	4	3	4	4	
2	2	4	2	0	2	1	2	2	2	3	2	4	
4	6	5	0	1	6	0	6	1	6	2	6	5	6	4	
3	5	6	7	5	0	5	1	5	5	5	3	5	4	
3	5	4	1	5	0	5	1	5	5	5	3	5	4	
3	0	1	3	0	0	0	1	0	5	0	3	0	4	
4	6	5	0	2	6	0	6	1	6	2	6	3	6	4	
4	4	3	9	8	4	0	4	1	4	5	4	3	4	4	
4	3	9	8	6	3	0	9	1	9	2	9	3	9	4	
2	9	3	9	0	9	1	9	2	9	1	9	0	
3	7	8	9	7	0	7	1	7	5	7	3	7	4	
2	4	2	4	0	4	1	4	5	4	3	4	4	
5	2	4	5	6	7	2	0	2	1	2	2	2	1	2	0	
3	6	5	0	6	0	6	1	6	2	6	1	6	0	
5	7	6	5	4	1	7	0	7	1	7	2	7	5	7	4	
2	9	8	9	0	9	1	9	2	9	3	9	4	
3	5	4	2	5	0	5	1	5	2	5	5	5	4	
2	0	2	0	0	0	1	0	2	0	3	2	4	
4	8	9	5	0	8	0	8	1	8	2	8	1	8	0	
5	1	4	5	6	7	1	0	1	1	1	2	1	1	1	0	
4	7	6	5	4	7	0	7	1	7	2	7	3	7	4	
2	3	1	3	0	3	1	3	5	3	3	3	4	
4	3	9	8	7	3	0	3	1	3	5	3	3	3	4	
2	1	2	1	0	1	1	1	2	1	1	1	0	
3	2	4	5	2	0	2	1	2	2	2	3	2	4	
2	4	1	4	0	4	1	4	2	4	5	4	4	
2	5	0	5	0	5	1	5	2	5	1	5	0	
3	0	5	4	0	0	0	1	0	2	0	1	0	0	
4	6	8	9	3	6	0	6	1	6	2	6	3	6	4	
2	6	8	6	0	6	1	8	2	8	5	8	4	
2	7	6	7	0	7	1	7	5	7	3	7	4	
3	9	8	7	9	0	9	1	9	5	9	3	9	4	
2	0	1	0	0	0	1	0	2	0	1	0	0	
2	3	9	3	0	3	1	3	2	3	3	3	4	
2	1	0	1	0	1	1	1	2	1	3	1	4	
4	0	5	9	8	0	0	0	1	0	2	0	1	0	0	
2	3	4	3	0	3	1	3	2	4	5	4	4	
2	4	3	4	0	4	1	4	2	4	1	4	0	
2	2	4	2	0	2	1	2	5	2	3	2	4	
4	6	5	0	1	6	0	6	1	6	5	6	3	6	4	
4	8	9	5	4	8	0	8	1	8	5	8	3	8	4	
3	5	6	7	5	0	5	1	5	2	5	5	5	4	
3	5	4	1	5	0	5	1	5	2	5	5	4	4	
3	0	1	3	0	0	0	1	0	2	0	3	0	4	
4	4	3	9	8	4	0	4	1	4	2	4	5	4	4	
3	9	5	0	9	0	9	1	9	2	9	5	9	4	
2	7	8	7	0	7	1	7	5	7	3	7	4	
2	2	1	2	0	2	1	2	2	2	5	2	4	
4	3	9	5	6	3	0	3	1	3	2	3	1	3	0	
2	9	3	9	0	9	1	9	2	9	3	9	4	
2	4	2	4	0	4	1	4	2	4	5	4	4	
5	2	4	5	6	7	2	0	2	1	2	2	2	5	2	4	
3	6	5	0	6	0	5	1	5	2	5	3	5	4	
3	8	9	3	8	0	8	1	8	2	8	5	8	4	
2	1	4	1	0	1	1	1	2	4	5	4	4	
5	7	6	5	4	1	7	0	7	1	7	2	7	1	7	0	
2	9	8	9	0	9	1	9	2	9	1	9	0	
3	5	4	2	5	0	5	1	5	5	5	3	5	4	
2	0	2	0	0	0	1	0	5	0	3	0	4	
3	3	9	8	3	0	3	1	3	2	3	3	3	4	
4	8	9	5	0	8	0	8	1	8	2	8	3	8	4	
5	1	4	5	6	7	1	0	1	1	1	2	1	3	1	4	
4	7	6	5	4	7	0	7	1	7	2	7	1	7	0	
3	9	3	1	9	0	9	1	9	2	9	1	9	0	
2	2	0	2	0	2	1	2	2	2	1	2	0	
2	3	1	3	0	3	1	3	2	3	5	3	4	
4	1	3	9	8	1	0	1	1	1	2	1	5	1	4	
4	3	9	8	7	3	0	3	1	3	2	3	5	3	4	
2	1	2	1	0	1	1	1	2	1	5	1	4	
3	2	0	5	2	0	2	1	2	2	2	1	2	0	
4	0	5	6	7	0	0	0	1	0	2	0	5	0	4	
2	4	1	4	0	4	1	4	5	4	3	4	4	
3	0	5	4	0	0	0	1	0	2	0	3	0	4	
4	6	8	9	3	6	0	6	1	6	2	6	1	6	0	
4	8	9	3	2	8	0	8	1	8	2	8	1	8	0	
3	1	4	5	1	0	1	1	1	2	1	1	1	0	
2	7	6	7	0	7	1	7	2	7	3	7	4	
3	9	8	7	9	0	9	1	9	2	8	5	8	4	
2	0	1	0	0	0	1	0	2	0	5	0	4	
2	1	0	1	0	1	1	1	2	1	1	1	0	
3	9	3	2	9	0	9	1	9	2	9	3	9	4	
2	2	3	2	0	2	1	3	2	3	3	3	4	
4	0	5	9	8	0	0	0	1	0	2	0	3	0	4	
3	1	3	9	1	0	1	1	1	2	1	1	1	0	
2	3	4	3	0	3	1	3	5	3	3	3	4	
2	2	4	2	0	2	1	2	2	2	5	2	4	
3	0	5	6	0	0	0	1	0	2	0	1	0	0	
4	6	5	0	1	6	0	6	1	6	2	6	3	6	4	
4	8	9	5	4	8	0	8	1	8	2	8	5	8	4	
2	8	9	8	0	8	1	8	5	8	3	8	4	
3	5	6	7	5	0	5	1	5	2	5	1	5	0	
3	0	1	3	0	0	0	1	0	2	0	1	0	0	
4	8	9	3	1	8	0	8	1	8	2	8	3	8	4	
4	1	4	5	6	1	0	1	1	1	2	1	3	4	4	
4	4	3	9	8	4	0	4	1	4	2	4	1	4	0	
3	9	5	0	9	0	9	1	9	5	9	3	9	4	
2	2	1	2	0	2	1	2	5	2	3	2	4	
5	7	6	5	0	2	6	0	6	1	6	2	6	5	6	4	
5	2	4	5	6	7	2	0	2	1	2	5	2	3	2	4	
3	8	9	5	8	0	8	1	8	5	8	3	8	4	
2	0	5	5	0	5	1	5	2	5	3	5	4	
3	6	5	0	6	0	6	1	6	5	6	3	6	4	
3	8	9	3	8	0	8	1	8	5	8	3	8	4	
2	1	4	1	0	1	1	1	5	1	3	1	4	
5	7	6	5	4	1	7	0	7	1	7	2	7	3	6	4	
2	0	2	0	0	0	1	0	2	0	5	0	4	
3	3	9	8	3	0	3	1	3	2	3	1	3	0	
4	7	6	5	4	6	0	6	1	6	2	6	5	6	4	
3	9	3	1	9	0	9	1	9	2	9	3	9	4	
2	2	0	2	0	0	1	0	2	0	3	0	4	
2	6	8	6	0	6	1	6	5	6	3	6	4	
3	0	5	9	0	0	0	1	0	2	0	3	0	4	
2	3	1	3	0	3	1	3	2	3	1	3	0	
2	6	5	6	0	6	1	6	2	6	5	6	4	
4	1	3	9	8	1	0	1	1	1	5	1	3	1	4	
2	1	2	1	0	1	1	1	5	1	3	1	4	
3	5	9	3	5	0	5	1	5	5	5	3	5	4	
4	0	5	6	7	0	0	0	1	0	5	0	3	0	4	
4	7	8	9	3	7	0	7	1	7	2	7	1	7	0	
4	8	9	3	1	8	0	8	1	8	5	8	3	8	4	
3	6	8	9	6	0	6	1	6	2	6	5	6	4	
4	6	8	9	3	6	0	6	1	6	2	6	5	6	4	
4	8	9	3	2	8	0	8	1	8	2	8	3	8	4	
3	1	4	5	1	0	1	1	1	2	1	3	1	4	
2	7	6	7	0	7	1	7	2	7	1	7	0	
3	9	8	7	8	0	8	1	8	2	8	1	8	0	
3	5	9	8	5	0	5	1	5	2	5	5	5	4	
2	0	1	0	0	0	1	0	5	0	3	0	4	
3	4	2	0	4	0	4	1	4	5	4	3	4	4	
3	9	3	2	9	0	9	1	9	2	9	1	9	0	
2	2	3	2	0	2	1	2	2	2	1	2	0	
3	6	5	4	6	0	6	1	6	2	6	1	6	0	
3	1	3	9	1	0	1	1	1	2	1	3	1	4	
2	5	4	4	0	4	1	4	2	4	5	4	4	
3	0	5	6	0	0	0	1	0	2	0	3	0	4	
4	6	5	0	1	6	0	6	1	6	2	6	1	6	0	
4	8	9	5	4	8	0	8	1	8	2	8	1	8	0	
4	7	6	5	0	7	0	6	1	6	2	6	3	6	4	
3	5	6	7	5	0	5	1	5	2	5	3	5	4	
3	3	9	5	3	0	3	1	3	5	3	3	3	4	
3	7	8	9	7	0	7	1	7	2	7	5	7	4	
4	1	0	5	6	1	0	1	1	1	2	1	1	1	0	
4	4	3	9	8	4	0	4	1	4	2	4	3	4	4	
3	9	5	0	9	0	9	1	9	2	9	3	9	4	
2	2	1	2	0	2	1	2	2	2	3	2	4	
2	5	9	5	0	5	1	5	2	5	1	5	0	
4	4	5	6	7	4	0	4	1	4	2	4	5	4	4	
2	5	0	5	0	5	1	5	5	5	3	5	4	
2	6	7	6	0	6	1	6	2	6	3	6	4	
5	7	6	5	4	2	7	0	7	1	7	5	7	3	7	4	
2	0	5	0	0	0	1	0	2	0	1	0	0	
3	6	5	0	6	0	6	1	6	2	6	5	6	4	
3	8	9	3	8	0	8	1	8	2	8	3	8	4	
2	1	4	1	0	1	1	1	2	1	3	1	4	
2	3	2	3	0	3	1	2	2	2	5	2	4	
3	3	9	8	3	0	3	1	3	2	3	5	3	4	
4	2	4	5	6	2	0	2	1	2	5	2	3	2	4	
4	7	6	5	4	7	0	7	1	7	5	7	3	7	4	
3	9	3	1	9	0	9	1	9	5	9	3	9	4	
2	2	0	2	0	2	1	2	5	2	3	2	4	
3	0	5	9	0	0	0	1	0	2	0	1	0	0	
2	3	1	3	0	3	1	3	2	3	3	3	4	
2	6	5	6	0	6	1	6	5	6	3	6	4	
4	1	3	9	8	3	0	3	1	3	2	3	3	3	4	
3	4	5	6	4	0	4	1	4	2	4	1	4	0	
3	5	9	3	5	0	5	1	9	2	9	5	9	4	
4	0	5	6	7	0	0	0	1	0	2	0	3	0	4	
4	7	8	9	3	7	0	7	1	7	2	7	3	7	4	
3	9	3	4	9	0	9	1	9	2	9	5	9	4	
2	5	6	5	0	5	1	5	2	6	3	6	4	
3	6	8	9	6	0	6	1	6	5	6	3	6	4	
2	1	3	1	0	1	1	1	5	1	3	1	4	
4	6	8	9	3	6	0	6	1	6	5	6	3	6	4	
4	8	9	3	2	8	0	8	1	8	5	8	3	8	4	
3	1	4	5	1	0	1	1	1	5	1	3	1	4	
3	4	5	9	4	0	4	1	4	2	4	3	4	4	
3	9	8	7	9	0	9	1	9	2	9	3	9	4	
3	5	9	8	5	0	5	1	5	5	5	3	5	4	
2	8	9	8	0	9	1	9	2	9	5	9	4	
3	4	2	0	4	0	4	1	4	2	4	5	4	4	
3	2	3	9	2	0	2	1	2	2	2	5	2	4	
3	9	3	2	9	0	9	1	9	2	9	5	9	4	
2	2	3	2	0	2	1	3	2	3	5	3	4	
3	6	5	4	6	0	6	1	6	2	6	3	6	4	
2	8	7	8	0	8	1	7	2	7	5	7	4	
3	1	3	9	1	0	1	1	1	5	1	3	1	4	
2	4	5	4	0	4	1	4	2	4	3	4	4	
2	5	4	5	0	5	1	5	5	5	3	5	4	
3	0	5	6	0	0	0	1	0	5	0	3	0	4	
4	8	6	5	4	8	0	8	1	8	2	8	3	8	4	
4	7	6	5	0	7	0	7	1	7	2	7	1	7	0	
2	9	5	9	0	9	1	9	2	9	1	9	0	
2	6	8	6	0	8	1	8	2	8	3	8	4	
3	7	8	9	7	0	7	1	7	2	7	1	7	0	
4	1	4	5	6	1	0	1	1	1	2	1	5	1	4	
3	9	5	0	9	0	9	1	9	2	9	1	9	0	
3	7	6	5	7	0	7	1	7	2	7	1	7	0	
2	2	1	2	0	2	1	2	2	2	1	2	0	
2	5	9	5	0	9	1	9	2	9	3	9	4	
3	3	1	0	3	0	3	1	3	2	3	3	1	4	
4	4	5	6	7	4	0	4	1	4	5	4	3	4	4	
4	2	3	9	8	2	0	2	1	2	2	2	1	2	0	
2	6	7	6	0	6	1	6	2	6	1	6	0	
2	8	6	8	0	8	1	8	2	8	1	8	0	
5	7	6	5	4	2	6	0	6	1	6	2	6	3	6	4	
3	3	9	5	3	0	3	1	3	2	3	5	3	4	
2	0	5	0	0	0	1	0	2	0	5	0	4	
3	8	9	3	8	0	8	1	8	2	8	1	8	0	
2	1	4	1	0	1	1	1	2	1	1	1	0	
3	9	8	6	9	0	9	1	9	2	9	3	9	4	
2	3	2	3	0	3	1	3	5	3	3	3	4	
3	3	9	8	3	0	3	1	3	5	3	3	3	4	
4	8	9	3	1	8	0	8	1	8	2	8	5	8	4	
4	2	0	5	6	2	0	2	1	2	2	2	5	2	4	
3	9	3	1	9	0	9	1	9	2	9	5	9	4	
2	2	0	2	0	2	1	2	2	2	5	2	4	
3	0	5	9	0	0	0	1	0	2	0	5	0	4	
2	6	5	6	0	6	1	6	2	6	3	6	4	
4	1	3	9	8	1	0	1	1	1	2	1	1	1	0	
3	4	5	6	4	0	4	1	4	2	4	3	4	4	
3	5	9	3	5	0	5	1	5	2	5	1	9	0	
4	0	5	6	7	0	0	0	1	0	2	0	1	0	0	
3	8	9	5	8	0	8	1	8	2	8	3	8	4	
4	7	8	9	3	7	0	7	1	7	5	7	3	7	4	
3	9	3	4	9	0	9	1	9	5	9	3	9	4	
2	5	6	5	0	5	1	5	2	5	1	5	0	
2	4	3	4	0	4	1	4	5	4	3	4	4	
3	6	5	9	6	0	6	1	6	2	6	3	6	4	
2	1	3	1	0	1	1	1	2	1	5	1	4	
4	8	9	3	2	8	0	8	1	8	2	8	5	8	4	
3	1	4	5	1	0	1	1	4	2	4	5	4	4	
3	4	5	9	4	0	4	1	4	2	4	1	4	0	
3	5	9	8	5	0	5	1	5	2	5	3	5	4	
3	4	2	0	4	0	4	1	4	2	4	1	4	0	
3	2	3	9	2	0	2	1	2	5	2	3	2	4	
3	9	3	2	9	0	9	1	9	5	9	3	9	4	
2	2	3	2	0	2	1	2	5	2	3	2	4	
4	6	5	0	2	6	0	6	1	6	5	6	3	6	4	
3	6	5	4	6	0	6	1	6	5	6	3	6	4	
2	8	7	8	0	8	1	8	5	8	3	8	4	
3	1	3	9	1	0	1	1	1	2	1	5	1	4	
2	4	5	4	0	4	1	4	2	4	1	4	0	
2	5	4	5	0	5	1	5	2	5	3	5	4	
3	0	5	6	0	0	0	1	0	2	0	5	0	4	
4	7	6	5	0	7	0	7	1	7	2	7	5	7	4	
2	9	5	9	0	9	1	9	2	5	3	5	4	
3	3	9	5	3	0	3	1	3	2	3	1	3	0	
3	7	8	9	7	0	7	1	7	2	7	3	7	4	
4	1	4	5	6	1	0	1	1	1	5	1	3	1	4	
2	5	9	5	0	5	1	5	5	5	3	5	4	
3	3	2	0	3	0	3	1	3	2	3	1	3	0	
4	4	5	6	7	4	0	4	1	4	2	4	3	4	4	
4	2	3	9	8	2	0	2	1	2	2	2	3	2	4	
2	6	7	6	0	6	1	6	2	6	5	6	4	
2	8	6	8	0	8	1	8	2	8	3	8	4	
5	7	6	5	4	2	7	0	7	1	7	2	7	1	7	0	
2	0	5	0	0	0	1	0	5	0	3	0	4	
3	9	8	6	9	0	9	1	9	2	9	1	9	0	
2	3	2	3	0	3	1	3	2	3	3	3	4	
4	2	4	5	6	2	0	2	1	2	2	2	1	2	0	
2	5	0	5	0	5	1	5	2	5	5	5	4	
3	0	5	9	0	0	0	1	0	5	0	3	0	4	
2	6	5	6	0	6	1	6	2	6	1	6	0	
3	4	5	6	4	0	4	1	4	5	4	3	4	4	
3	5	9	3	5	0	5	1	5	2	5	3	5	4	
2	3	9	3	0	3	1	3	5	3	3	3	4	
3	8	9	5	8	0	8	1	8	2	8	1	8	0	
4	7	8	9	3	7	0	7	1	7	2	7	5	7	4	
3	9	3	4	9	0	9	1	9	2	9	3	9	4	
2	5	6	5	0	5	1	5	2	5	5	5	4	
3	6	8	9	6	0	6	1	6	2	6	1	6	0	
2	1	3	1	0	1	1	1	2	1	1	1	0	
2	7	8	7	0	7	1	7	2	7	3	7	4	
3	4	5	9	4	0	4	1	4	2	4	5	4	4	
3	5	9	8	5	0	5	1	5	2	5	1	5	0	
3	4	2	0	4	0	4	1	4	2	4	3	4	4	
3	2	3	9	2	0	2	1	2	2	2	3	2	4	
3	5	4	1	5	0	5	1	5	2	5	1	5	0	
4	6	5	0	2	6	0	6	1	6	2	6	5	6	4	
3	6	5	4	6	0	6	1	6	2	6	5	6	4	
2	8	7	8	0	8	1	8	2	8	3	8	4	
3	7	6	5	7	0	7	1	7	2	7	5	7	4	
2	4	5	4	0	4	1	4	2	4	5	4	4	
2	5	4	5	0	5	1	5	2	5	1	5	0	
4	3	9	5	6	3	0	3	1	3	2	3	5	3	4	
3	7	6	5	7	0	7	1	7	5	7	3	7	4	
2	9	3	9	0	9	1	9	5	9	3	9	4	
4	7	6	5	0	7	0	7	1	7	5	7	3	7	4	
2	9	5	9	0	9	1	9	5	9	3	9	4	
3	3	9	5	3	0	3	1	3	2	3	3	3	4	
2	6	8	6	0	6	1	6	2	6	1	6	0	
2	4	2	4	0	4	1	4	2	4	1	4	0	
2	5	9	5	0	5	1	5	2	5	5	5	4	
3	3	2	0	3	0	3	1	3	2	3	5	3	4	
4	4	5	6	7	4	0	4	1	4	2	4	1	4	0	
2	9	8	9	0	9	1	9	2	9	5	9	4	
4	2	3	9	8	2	0	2	1	2	5	2	3	2	4	
3	5	4	2	5	0	5	1	5	2	5	3	5	4	
4	8	9	5	0	8	0	8	1	8	5	8	3	8	4	
4	8	9	3	1	8	0	8	1	8	2	8	1	8	0	
5	1	4	5	6	7	1	0	1	1	1	5	1	3	1	4	
2	6	7	6	0	6	1	6	5	6	3	6	4	
2	8	6	8	0	8	1	8	5	8	3	8	4	
4	3	9	8	7	3	0	3	1	3	2	3	1	3	0	
3	2	4	5	2	0	2	1	2	2	2	5	2	4	
3	9	8	6	9	0	9	1	9	2	9	5	9	4	
2	3	2	3	0	3	1	3	2	3	1	3	0	
2	4	1	4	0	4	1	4	2	4	3	4	4	
4	2	4	5	6	2	0	2	1	2	2	2	3	2	4	
2	4	3	4	0	4	1	4	2	4	5	4	4	
3	0	5	4	0	0	0	1	0	5	0	3	0	4	
3	4	5	6	4	0	4	1	4	2	4	5	5	4	
2	3	9	3	0	9	1	9	2	9	5	9	4	
2	1	0	1	0	1	1	1	2	1	5	1	4	
3	8	9	5	8	0	8	1	8	2	8	5	8	4	
3	9	3	4	9	0	9	1	9	2	9	1	9	0	
4	0	5	9	8	0	0	0	1	0	5	0	3	0	4	
2	5	6	5	0	5	1	5	5	5	3	5	4	
2	3	4	3	0	3	1	3	2	3	3	3	4	
2	1	3	1	0	1	1	3	2	3	3	3	4	
2	7	8	7	0	7	1	7	2	7	1	7	0	
2	2	4	2	0	2	1	2	2	2	1	2	0	
3	4	5	9	4	0	4	1	4	5	4	3	4	4	
3	2	3	9	2	0	2	1	2	2	2	1	2	0	
3	5	4	1	5	0	5	1	5	2	5	3	5	4	
3	0	1	3	0	0	0	1	0	2	0	5	0	4	
4	6	5	0	2	6	0	6	1	6	2	6	1	6	0	
2	8	7	8	0	8	1	8	2	8	1	8	0	
2	4	5	4	0	4	1	4	5	4	3	4	4	
2	7	8	7	0	7	1	7	2	7	5	7	4	
4	3	9	5	6	3	0	3	1	3	5	3	3	3	4	
2	9	3	9	0	9	1	3	2	3	5	3	4	
2	9	5	9	0	9	1	9	2	9	5	9	4	
2	4	2	4	0	4	1	4	2	4	3	4	4	
5	2	4	5	6	7	2	0	2	1	2	2	2	3	2	4	
