2506.56	2506.56
1184
185.317	178.842
15
0	364	1821
1	364	1431
2	364	1271
3	362	1029
4	362	1433
5	364	1225
6	364	1768
7	364	1608
8	364	1297
9	364	1525
10	364	974
11	364	814
12	364	1591
13	364	1494
14	364	1086
44
0	5	92.933376	94.942746
5	0	91.680660	94.942746
0	6	80.600966	97.708373
6	0	83.386350	97.708373
0	7	88.946024	107.847469
7	0	87.312360	107.847469
1	2	37.692694	106.004333
2	1	38.125488	106.004333
1	4	9.724902	104.160274
4	1	4.387588	104.160274
1	5	52.328662	106.004333
5	1	57.037692	106.004333
2	4	46.277498	97.708373
4	2	45.283526	97.708373
2	7	93.144520	94.021178
7	2	93.538186	94.021178
3	4	41.814754	91.255735
4	3	47.681438	91.255735
3	5	73.323256	83.881529
5	3	68.127546	83.881529
5	12	83.489014	84.803282
12	5	80.837060	84.803282
6	9	88.487924	89.412137
9	6	89.307516	89.412137
6	13	88.823778	101.395569
13	6	91.537240	101.395569
7	8	80.142102	100.473078
8	7	77.303694	100.473078
7	14	41.105594	104.160274
14	7	42.714476	104.160274
8	9	52.430518	97.708373
9	8	53.815566	97.708373
8	11	41.511414	82.959776
11	8	39.674018	82.959776
8	14	25.301872	88.490385
14	8	23.679350	88.490385
9	11	25.509810	103.238705
11	9	27.774218	103.238705
10	12	28.499850	97.708373
12	10	30.314560	97.708373
10	13	38.144628	93.099610
13	10	36.823680	93.099610
12	13	43.739132	90.333982
13	12	42.240864	90.333982
840
4	10	12	5	3	10	0	10	1	10	5	10	3	10	4	
3	14	7	2	14	0	14	1	14	5	14	3	14	4	
3	3	5	0	3	0	3	1	3	5	3	3	3	4	
2	8	9	8	0	8	1	8	2	8	3	8	4	
4	14	7	2	4	14	0	14	1	14	5	14	3	14	4	
3	2	7	14	2	0	2	1	2	2	2	5	2	4	
4	9	6	13	12	9	0	9	1	9	5	9	3	9	4	
2	12	5	12	0	12	1	12	2	12	1	12	0	
3	2	7	8	2	0	2	1	2	2	2	5	2	4	
3	5	1	2	5	0	5	1	5	2	5	1	5	0	
5	13	12	5	3	4	13	0	13	1	13	2	13	3	13	4	
3	0	7	2	0	0	0	1	0	2	0	1	0	0	
4	4	3	5	12	4	0	4	1	4	5	4	3	4	4	
2	6	13	6	0	6	1	6	2	6	3	6	4	
3	8	7	0	8	0	8	1	8	2	8	5	8	4	
3	1	2	7	1	0	1	1	1	2	1	5	1	4	
3	8	9	6	8	0	8	1	8	2	8	5	8	4	
5	3	4	2	7	14	3	0	3	1	3	2	3	5	3	4	
2	8	7	8	0	8	1	8	5	8	3	8	4	
2	10	12	10	0	10	1	10	2	10	3	10	4	
4	3	4	2	7	3	0	3	1	3	2	3	3	3	4	
4	7	0	6	13	7	0	7	1	7	5	7	3	7	4	
4	14	7	2	1	14	0	14	1	14	5	14	3	14	4	
5	11	9	6	0	5	11	0	11	1	11	2	11	1	11	0	
2	1	2	1	0	1	1	1	2	1	3	1	4	
4	4	3	5	12	4	0	4	1	4	2	4	1	4	0	
3	7	2	1	7	0	7	1	7	5	7	3	7	4	
3	2	1	5	2	0	2	1	2	5	2	3	2	4	
2	9	6	9	0	9	1	9	5	9	3	9	4	
5	1	2	7	8	11	1	0	1	1	1	2	1	5	1	4	
4	11	8	7	0	11	0	11	1	11	2	11	1	11	0	
6	14	7	0	5	12	10	14	0	14	1	14	2	14	3	14	4	
2	4	1	4	0	4	1	4	2	4	1	4	0	
4	12	5	0	7	12	0	12	1	12	2	12	3	12	4	
2	5	0	5	0	5	1	5	2	5	3	5	4	
4	0	5	3	4	0	0	0	1	0	2	0	5	0	4	
2	11	9	11	0	11	1	11	2	11	1	11	0	
4	10	13	6	9	10	0	10	1	10	2	10	5	10	4	
2	9	8	9	0	9	1	9	5	9	3	9	4	
5	11	9	6	13	12	11	0	11	1	11	2	11	5	11	4	
3	7	0	6	7	0	7	1	7	2	7	5	7	4	
2	14	7	14	0	14	1	14	2	14	5	14	4	
4	13	6	9	11	13	0	13	1	13	5	13	3	13	4	
4	2	7	8	11	2	0	2	1	2	5	2	3	2	4	
3	6	13	10	6	0	6	1	6	5	6	3	6	4	
3	13	12	5	13	0	13	1	13	5	13	3	13	4	
3	0	5	1	0	0	0	1	0	2	0	3	0	4	
5	3	5	0	6	9	3	0	3	1	3	2	3	1	3	0	
4	3	5	12	10	3	0	3	1	3	2	3	5	3	4	
3	1	5	0	1	0	1	1	1	5	1	3	1	4	
3	7	0	5	7	0	7	1	7	2	7	3	7	4	
5	5	0	7	8	11	5	0	5	1	5	5	5	3	5	4	
3	0	7	8	0	0	0	1	0	2	0	5	0	4	
3	0	7	14	0	0	0	1	0	2	0	5	0	4	
2	3	4	3	0	3	1	3	2	3	1	3	0	
4	11	8	7	2	11	0	11	1	11	2	11	3	11	4	
2	14	8	14	0	14	1	14	2	14	1	14	0	
2	4	3	4	0	4	1	4	2	4	3	4	4	
2	2	4	2	0	2	1	2	2	2	3	2	4	
3	10	13	6	10	0	10	1	10	2	10	1	10	0	
3	13	6	0	13	0	13	1	13	2	13	5	13	4	
4	0	6	13	10	0	0	0	1	0	2	0	5	0	4	
4	6	0	5	1	6	0	6	1	6	2	6	5	6	4	
3	9	8	7	9	0	9	1	9	5	9	3	9	4	
5	8	9	6	13	10	8	0	8	1	8	2	8	3	8	4	
5	12	13	6	9	8	12	0	12	1	12	5	12	3	12	4	
4	14	7	0	5	14	0	14	1	14	2	14	1	14	0	
3	5	0	7	5	0	5	1	5	5	5	3	5	4	
3	12	13	6	12	0	12	1	12	5	12	3	12	4	
2	6	0	6	0	6	1	6	2	6	5	6	4	
2	5	1	5	0	5	1	5	5	5	3	5	4	
2	10	13	10	0	10	1	10	2	10	5	10	4	
4	13	12	5	3	13	0	13	1	13	2	13	3	13	4	
2	11	8	11	0	11	1	11	2	11	5	11	4	
4	6	0	7	2	6	0	6	1	6	2	6	3	6	4	
4	4	2	7	8	4	0	4	1	4	5	4	3	4	4	
4	9	6	13	10	9	0	9	1	9	2	9	1	9	0	
2	13	12	13	0	13	1	13	2	13	5	13	4	
2	10	13	10	0	10	1	10	2	10	3	10	4	
4	3	5	0	6	3	0	3	1	3	2	3	3	3	4	
5	7	0	6	13	10	7	0	7	1	7	2	7	1	7	0	
5	9	6	0	5	3	9	0	9	1	9	2	9	1	9	0	
3	12	5	3	12	0	12	1	12	2	12	5	12	4	
2	5	12	5	0	5	1	5	2	5	5	5	4	
3	7	8	9	7	0	7	1	7	5	7	3	7	4	
4	11	9	6	13	11	0	11	1	11	5	11	3	11	4	
3	0	6	13	0	0	0	1	0	5	0	3	0	4	
5	8	9	6	13	12	8	0	8	1	8	2	8	1	8	0	
3	14	8	11	14	0	14	1	14	2	14	3	14	4	
2	4	2	4	0	4	1	4	5	4	3	4	4	
3	12	5	0	12	0	12	1	12	2	12	3	12	4	
2	2	7	2	0	2	1	2	2	2	1	2	0	
5	14	8	9	6	13	14	0	14	1	14	2	14	5	14	4	
4	13	12	5	1	13	0	13	1	13	2	13	1	13	0	
2	6	0	6	0	6	1	6	2	6	1	6	0	
5	14	7	0	5	3	14	0	14	1	14	5	14	3	14	4	
3	14	7	2	14	0	14	1	14	2	14	5	14	4	
2	8	9	8	0	8	1	8	2	8	1	8	0	
3	6	13	12	6	0	6	1	6	2	6	5	6	4	
3	2	7	14	2	0	2	1	2	2	2	1	2	0	
4	10	12	5	1	10	0	10	1	10	2	10	5	10	4	
4	3	5	12	10	3	0	3	1	3	5	3	3	3	4	
2	9	8	9	0	9	1	9	2	9	3	9	4	
2	3	5	3	0	3	1	3	2	3	5	3	4	
3	5	1	2	5	0	5	1	5	2	5	5	5	4	
5	13	12	5	3	4	13	0	13	1	13	2	13	1	13	0	
3	0	7	2	0	0	0	1	0	2	0	3	0	4	
2	6	13	6	0	6	1	6	2	6	1	6	0	
3	8	7	0	8	0	8	1	8	2	8	1	8	0	
3	11	9	6	11	0	11	1	11	2	11	5	11	4	
3	1	2	7	1	0	1	1	1	2	1	1	1	0	
3	7	2	4	7	0	7	1	7	2	7	3	7	4	
3	3	4	2	3	0	3	1	3	2	3	5	3	4	
5	10	12	5	1	2	10	0	10	1	10	5	10	3	10	4	
3	3	5	1	3	0	3	1	3	5	3	3	3	4	
2	10	12	10	0	10	1	10	5	10	3	10	4	
3	13	6	9	13	0	13	1	13	5	13	3	13	4	
4	7	0	6	13	7	0	7	1	7	2	7	5	7	4	
5	11	8	7	0	5	11	0	11	1	11	2	11	3	11	4	
2	1	2	1	0	1	1	1	2	1	1	1	0	
4	4	3	5	12	4	0	4	1	4	2	4	3	4	4	
4	12	5	1	2	12	0	12	1	12	2	12	1	12	0	
3	2	1	5	2	0	2	1	2	2	2	3	2	4	
3	5	12	13	5	0	5	1	5	2	5	1	5	0	
4	5	0	7	14	5	0	5	1	5	5	5	3	5	4	
5	11	9	6	13	10	11	0	11	1	11	2	11	5	11	4	
3	13	6	9	13	0	13	1	13	2	13	5	13	4	
5	1	2	7	8	11	1	0	1	1	1	2	1	1	1	0	
2	8	11	8	0	8	1	8	2	8	3	8	4	
2	4	1	4	0	4	1	4	2	4	5	4	4	
3	14	8	9	14	0	14	1	14	2	14	5	14	4	
4	12	5	0	7	12	0	12	1	12	2	12	1	12	0	
2	5	0	5	0	5	1	5	2	5	1	5	0	
5	13	6	0	7	2	13	0	13	1	13	2	13	3	13	4	
4	0	5	3	4	0	0	0	1	0	2	0	1	0	0	
3	7	8	11	7	0	7	1	7	5	7	3	7	4	
4	6	0	5	3	6	0	6	1	6	2	6	3	6	4	
2	11	9	11	0	11	1	11	2	11	3	11	4	
3	10	12	5	10	0	10	1	10	2	10	5	10	4	
3	7	0	6	7	0	7	1	7	5	7	3	7	4	
5	12	5	0	7	14	12	0	12	1	12	2	12	1	12	0	
2	14	7	14	0	14	1	14	5	14	3	14	4	
4	13	6	9	11	13	0	13	1	13	2	13	5	13	4	
3	6	13	10	6	0	6	1	6	2	6	5	6	4	
3	13	12	5	13	0	13	1	13	2	13	5	13	4	
3	0	5	1	0	0	0	1	0	2	0	1	0	0	
5	3	5	0	6	9	3	0	3	1	3	2	3	3	3	4	
3	11	8	7	11	0	11	1	11	2	11	1	11	0	
3	1	5	0	1	0	1	1	1	2	1	3	1	4	
4	4	2	7	14	4	0	4	1	4	2	4	1	4	0	
5	5	0	7	8	11	5	0	5	1	5	2	5	5	5	4	
5	13	6	9	8	14	13	0	13	1	13	2	13	3	13	4	
3	0	7	8	0	0	0	1	0	2	0	1	0	0	
2	3	4	3	0	3	1	3	2	3	5	3	4	
4	11	8	7	2	11	0	11	1	11	2	11	1	11	0	
2	14	8	14	0	14	1	14	2	14	3	14	4	
5	2	1	5	12	10	2	0	2	1	2	5	2	3	2	4	
2	4	3	4	0	4	1	4	2	4	1	4	0	
3	12	5	1	12	0	12	1	12	2	12	3	12	4	
2	2	4	2	0	2	1	2	5	2	3	2	4	
4	5	0	7	14	5	0	5	1	5	2	5	3	5	4	
3	10	13	6	10	0	10	1	10	2	10	3	10	4	
3	13	6	0	13	0	13	1	13	5	13	3	13	4	
4	6	0	5	1	6	0	6	1	6	5	6	3	6	4	
4	8	7	2	4	8	0	8	1	8	5	8	3	8	4	
4	14	7	0	5	14	0	14	1	14	2	14	5	14	4	
5	8	9	6	13	10	8	0	8	1	8	5	8	3	8	4	
5	12	13	6	9	8	12	0	12	1	12	2	12	5	12	4	
3	5	0	7	5	0	5	1	5	2	5	5	5	4	
3	12	13	6	12	0	12	1	12	2	12	5	12	4	
2	5	1	5	0	5	1	5	2	5	5	5	4	
5	10	13	6	9	8	10	0	10	1	10	2	10	1	10	0	
3	0	5	3	0	0	0	1	0	2	0	3	0	4	
6	3	4	2	7	8	11	3	0	3	1	3	2	3	1	3	0	
4	4	2	7	8	4	0	4	1	4	2	4	5	4	4	
2	12	13	12	0	12	1	12	2	12	3	12	4	
2	7	8	7	0	7	1	7	5	7	3	7	4	
2	2	1	2	0	2	1	2	2	2	5	2	4	
4	9	6	13	10	9	0	9	1	9	2	9	5	9	4	
2	13	12	13	0	13	1	13	5	13	3	13	4	
2	10	13	10	0	10	1	10	2	10	1	10	0	
4	3	5	0	6	3	0	3	1	3	2	3	1	3	0	
4	9	6	13	12	9	0	9	1	9	2	9	5	9	4	
5	11	8	7	2	4	11	0	11	1	11	2	11	3	11	4	
2	8	11	8	0	8	1	8	5	8	3	8	4	
5	4	3	5	12	13	4	0	4	1	4	2	4	3	4	4	
5	9	6	0	5	3	9	0	9	1	9	2	9	3	9	4	
3	12	5	3	12	0	12	1	12	5	12	3	12	4	
2	5	12	5	0	5	1	5	5	5	3	5	4	
5	10	12	5	3	4	10	0	10	1	10	2	10	1	10	0	
4	1	5	12	13	1	0	1	1	1	2	1	5	1	4	
4	11	9	6	13	11	0	11	1	11	2	11	5	11	4	
5	8	9	6	13	12	8	0	8	1	8	2	8	3	8	4	
3	14	8	11	14	0	14	1	14	2	14	1	14	0	
5	2	7	0	6	13	2	0	2	1	2	2	2	5	2	4	
2	4	2	4	0	4	1	4	2	4	5	4	4	
3	9	6	13	9	0	9	1	9	2	9	1	9	0	
2	2	7	2	0	2	1	2	2	2	5	2	4	
4	13	12	5	1	13	0	13	1	13	2	13	3	13	4	
2	6	0	6	0	6	1	6	2	6	3	6	4	
2	11	8	11	0	11	1	11	2	11	3	11	4	
3	14	7	2	14	0	14	1	14	2	14	1	14	0	
4	6	0	7	2	6	0	6	1	6	5	6	3	6	4	
2	1	4	1	0	1	1	1	2	1	5	1	4	
3	7	2	1	7	0	7	1	7	2	7	1	7	0	
3	2	7	14	2	0	2	1	2	2	2	3	2	4	
2	9	8	9	0	9	1	9	2	9	1	9	0	
3	0	5	12	0	0	0	1	0	5	0	3	0	4	
3	5	1	2	5	0	5	1	5	5	5	3	5	4	
5	10	13	6	9	11	10	0	10	1	10	2	10	3	10	4	
3	0	7	2	0	0	0	1	0	5	0	3	0	4	
5	3	4	2	7	8	3	0	3	1	3	2	3	3	3	4	
3	8	7	0	8	0	8	1	8	2	8	3	8	4	
3	11	9	6	11	0	11	1	11	5	11	3	11	4	
3	3	5	12	3	0	3	1	3	5	3	3	3	4	
3	1	2	7	1	0	1	1	1	2	1	3	1	4	
3	7	2	4	7	0	7	1	7	2	7	1	7	0	
5	9	6	0	5	1	9	0	9	1	9	2	9	1	9	0	
3	2	7	0	2	0	2	1	2	2	2	1	2	0	
2	12	5	12	0	12	1	12	5	12	3	12	4	
5	10	12	5	1	2	10	0	10	1	10	2	10	5	10	4	
2	9	8	9	0	9	1	9	2	9	5	9	4	
2	10	12	10	0	10	1	10	2	10	5	10	4	
4	1	2	7	8	1	0	1	1	1	2	1	5	1	4	
4	3	4	2	7	3	0	3	1	3	2	3	5	3	4	
4	7	0	6	13	7	0	7	1	7	2	7	1	7	0	
2	8	14	8	0	8	1	8	2	8	1	8	0	
3	14	8	9	14	0	14	1	14	2	14	3	14	4	
5	1	5	0	6	9	1	0	1	1	1	2	1	5	1	4	
4	12	5	1	2	12	0	12	1	12	2	12	3	12	4	
3	2	1	5	2	0	2	1	2	2	2	1	2	0	
3	5	12	13	5	0	5	1	5	2	5	3	5	4	
5	10	13	6	0	7	10	0	10	1	10	2	10	3	10	4	
2	0	7	0	0	0	1	0	2	0	5	0	4	
5	11	9	6	13	10	11	0	11	1	11	5	11	3	11	4	
5	1	2	7	8	11	1	0	1	1	1	2	1	3	1	4	
2	8	11	8	0	8	1	8	2	8	1	8	0	
4	2	1	5	12	2	0	2	1	2	2	2	1	2	0	
2	4	1	4	0	4	1	4	5	4	3	4	4	
3	9	8	14	9	0	9	1	9	2	9	3	9	4	
5	9	8	7	2	4	9	0	9	1	9	5	9	3	9	4	
5	13	6	0	7	2	13	0	13	1	13	2	13	1	13	0	
4	0	5	3	4	0	0	0	1	0	2	0	3	0	4	
4	6	0	5	3	6	0	6	1	6	2	6	1	6	0	
3	8	7	2	8	0	8	1	8	2	8	1	8	0	
2	1	5	1	0	1	1	1	2	1	1	1	0	
3	7	0	6	7	0	7	1	7	2	7	3	7	4	
5	12	5	0	7	14	12	0	12	1	12	2	12	3	12	4	
4	13	6	9	11	13	0	13	1	13	2	13	1	13	0	
4	0	7	8	11	0	0	0	1	0	2	0	5	0	4	
3	6	13	10	6	0	6	1	6	2	6	1	6	0	
3	0	5	1	0	0	0	1	0	2	0	5	0	4	
2	7	0	7	0	7	1	7	2	7	5	7	4	
3	11	8	7	11	0	11	1	11	2	11	3	11	4	
3	1	5	0	1	0	1	1	1	2	1	1	1	0	
4	4	2	7	14	4	0	4	1	4	2	4	3	4	4	
4	9	8	7	2	9	0	9	1	9	2	9	3	9	4	
5	9	8	7	2	4	9	0	9	1	9	2	9	5	9	4	
3	2	4	3	2	0	2	1	2	2	2	3	2	4	
5	8	7	2	4	3	8	0	8	1	8	5	8	3	8	4	
5	5	0	7	8	11	5	0	5	1	5	2	5	1	5	0	
5	13	6	9	8	14	13	0	13	1	13	2	13	1	13	0	
3	0	7	8	0	0	0	1	0	2	0	3	0	4	
4	2	1	5	12	2	0	2	1	2	5	2	3	2	4	
5	1	5	0	6	9	1	0	1	1	1	2	1	1	1	0	
3	6	0	7	6	0	6	1	6	5	6	3	6	4	
4	8	9	6	13	8	0	8	1	8	2	8	3	8	4	
2	14	8	14	0	14	1	14	5	14	3	14	4	
5	2	1	5	12	10	2	0	2	1	2	2	2	5	2	4	
3	12	5	1	12	0	12	1	12	2	12	1	12	0	
2	2	4	2	0	2	1	2	2	2	5	2	4	
4	5	0	7	14	5	0	5	1	5	2	5	1	5	0	
3	13	6	0	13	0	13	1	13	2	13	3	13	4	
2	0	6	0	0	0	1	0	2	0	1	0	0	
6	11	8	7	2	4	3	11	0	11	1	11	2	11	5	11	4	
4	6	0	5	1	6	0	6	1	6	2	6	3	6	4	
4	8	7	2	4	8	0	8	1	8	2	8	5	8	4	
2	8	9	8	0	8	1	8	5	8	3	8	4	
5	8	9	6	13	10	8	0	8	1	8	2	8	5	8	4	
5	12	13	6	9	8	12	0	12	1	12	2	12	1	12	0	
3	5	0	7	5	0	5	1	5	2	5	1	5	0	
5	10	13	6	9	8	10	0	10	1	10	2	10	3	10	4	
3	0	5	3	0	0	0	1	0	2	0	1	0	0	
6	3	4	2	7	8	11	3	0	3	1	3	2	3	3	3	4	
4	8	7	2	1	8	0	8	1	8	2	8	3	8	4	
2	12	10	12	0	12	1	12	2	12	5	12	4	
4	1	5	0	6	1	0	1	1	1	2	1	3	1	4	
2	6	9	6	0	6	1	6	5	6	3	6	4	
4	4	2	7	8	4	0	4	1	4	2	4	1	4	0	
2	12	13	12	0	12	1	12	2	12	1	12	0	
2	2	1	2	0	2	1	2	5	2	3	2	4	
4	9	6	13	10	9	0	9	1	9	5	9	3	9	4	
2	13	12	13	0	13	1	13	2	13	3	13	4	
4	0	6	13	10	0	0	0	1	0	2	0	1	0	0	
5	13	6	0	7	2	13	0	13	1	13	5	13	3	13	4	
3	6	13	12	6	0	6	1	6	5	6	3	6	4	
5	11	8	7	2	4	11	0	11	1	11	2	11	1	11	0	
5	4	3	5	12	13	4	0	4	1	4	2	4	1	4	0	
3	12	5	3	12	0	12	1	12	2	12	3	12	4	
2	5	12	5	0	5	1	5	2	5	3	5	4	
5	10	12	5	3	4	10	0	10	1	10	2	10	3	10	4	
4	6	0	5	3	6	0	6	1	6	5	6	3	6	4	
4	11	9	6	13	11	0	11	1	11	2	11	1	11	0	
4	1	5	12	10	1	0	1	1	1	2	1	3	1	4	
2	7	2	7	0	7	1	7	2	7	5	7	4	
3	14	8	11	14	0	14	1	14	2	14	5	14	4	
5	2	7	0	6	13	2	0	2	1	2	5	2	3	2	4	
3	9	6	13	9	0	9	1	9	2	9	3	9	4	
4	13	6	0	7	13	0	13	1	13	5	13	3	13	4	
2	2	7	2	0	2	1	2	5	2	3	2	4	
4	7	0	5	12	7	0	7	1	7	5	7	3	7	4	
4	6	9	8	14	6	0	6	1	6	5	6	3	6	4	
4	8	7	0	5	8	0	8	1	8	5	8	3	8	4	
4	13	12	5	1	13	0	13	1	13	5	13	3	13	4	
2	0	5	0	0	0	1	0	2	0	3	0	4	
4	3	5	12	13	3	0	3	1	3	2	3	1	3	0	
2	11	8	11	0	11	1	11	2	11	1	11	0	
3	14	7	2	14	0	14	1	14	2	14	3	14	4	
2	1	4	1	0	1	1	1	5	1	3	1	4	
3	7	2	1	7	0	7	1	7	2	7	3	7	4	
2	7	0	7	0	7	1	7	5	7	3	7	4	
3	0	5	12	0	0	0	1	0	2	0	5	0	4	
3	7	8	11	7	0	7	1	7	2	7	5	7	4	
5	12	5	0	7	14	12	0	12	1	12	2	12	5	12	4	
5	10	13	6	9	11	10	0	10	1	10	2	10	1	10	0	
3	0	7	2	0	0	0	1	0	2	0	5	0	4	
5	3	4	2	7	8	3	0	3	1	3	2	3	1	3	0	
2	7	14	7	0	7	1	7	2	7	5	7	4	
3	11	9	6	11	0	11	1	11	2	11	3	11	4	
5	14	7	0	5	12	14	0	14	1	14	2	14	1	14	0	
3	7	2	4	7	0	7	1	7	2	7	5	7	4	
5	9	6	0	5	1	9	0	9	1	9	2	9	3	9	4	
2	13	6	13	0	13	1	13	5	13	3	13	4	
3	2	7	0	2	0	2	1	2	2	2	3	2	4	
4	4	3	5	12	4	0	4	1	4	2	4	5	4	4	
5	10	12	5	1	2	10	0	10	1	10	2	10	1	10	0	
3	6	9	8	6	0	6	1	6	5	6	3	6	4	
3	0	6	9	0	0	0	1	0	2	0	3	0	4	
3	3	5	1	3	0	3	1	3	2	3	1	3	0	
3	6	0	5	6	0	6	1	6	2	6	5	6	4	
3	7	0	5	7	0	7	1	7	5	7	3	7	4	
4	7	0	6	13	7	0	7	1	7	2	7	3	7	4	
2	8	14	8	0	8	1	8	2	8	3	8	4	
4	12	5	3	4	12	0	12	1	12	5	12	3	12	4	
3	14	8	9	14	0	14	1	14	2	14	1	14	0	
2	5	3	5	0	5	1	5	5	5	3	5	4	
4	12	5	1	2	12	0	12	1	12	5	12	3	12	4	
3	5	12	13	5	0	5	1	5	5	5	3	5	4	
5	10	13	6	0	7	10	0	10	1	10	2	10	1	10	0	
2	0	7	0	0	0	1	0	5	0	3	0	4	
5	11	9	6	13	10	11	0	11	1	11	2	11	3	11	4	
3	14	7	0	14	0	14	1	14	2	14	1	14	0	
4	7	0	5	3	7	0	7	1	7	2	7	1	7	0	
4	2	1	5	12	2	0	2	1	2	2	2	3	2	4	
4	8	7	2	1	8	0	8	1	8	5	8	3	8	4	
3	9	8	14	9	0	9	1	9	2	9	1	9	0	
4	13	6	9	8	13	0	13	1	13	2	13	5	13	4	
2	5	0	5	0	5	1	5	5	5	3	5	4	
2	6	9	6	0	6	1	6	2	6	5	6	4	
4	10	13	6	9	10	0	10	1	10	2	10	3	10	4	
4	3	5	12	10	3	0	3	1	3	2	3	3	3	4	
3	8	7	2	8	0	8	1	8	2	8	3	8	4	
2	1	5	1	0	1	1	1	2	1	3	1	4	
3	7	0	6	7	0	7	1	7	2	7	1	7	0	
3	9	8	7	9	0	9	1	9	2	9	1	9	0	
4	1	5	0	6	1	0	1	1	1	5	1	3	1	4	
4	5	0	7	8	5	0	5	1	5	2	5	5	5	4	
4	13	6	9	11	13	0	13	1	13	2	13	3	13	4	
4	0	6	9	11	0	0	0	1	0	5	0	3	0	4	
3	6	13	10	6	0	6	1	6	2	6	3	6	4	
5	11	8	7	2	1	11	0	11	1	11	5	11	3	11	4	
3	6	9	8	6	0	6	1	6	2	6	5	6	4	
4	4	3	5	0	4	0	4	1	4	5	4	3	4	4	
2	13	10	13	0	13	1	13	5	13	3	13	4	
3	11	8	7	11	0	11	1	11	5	11	3	11	4	
4	4	2	7	14	4	0	4	1	4	5	4	3	4	4	
4	9	8	7	2	9	0	9	1	9	2	9	1	9	0	
3	2	4	3	2	0	2	1	2	2	2	1	2	0	
5	5	0	7	8	11	5	0	5	1	5	2	5	3	5	4	
3	10	12	5	10	0	10	1	10	2	10	3	10	4	
5	6	0	5	3	4	6	0	6	1	6	2	6	1	6	0	
5	1	5	0	6	9	1	0	1	1	1	2	1	3	1	4	
3	6	9	11	6	0	6	1	6	5	6	3	6	4	
4	8	9	6	13	8	0	8	1	8	2	8	1	8	0	
5	12	13	6	9	11	12	0	12	1	12	2	12	5	12	4	
2	14	8	14	0	14	1	14	2	14	5	14	4	
5	2	1	5	12	10	2	0	2	1	2	2	2	1	2	0	
3	5	1	4	5	0	5	1	5	2	5	5	5	4	
4	9	6	13	12	9	0	9	1	9	2	9	3	9	4	
4	1	2	7	8	1	0	1	1	1	5	1	3	1	4	
4	5	0	7	14	5	0	5	1	5	2	5	5	5	4	
3	13	6	0	13	0	13	1	13	2	13	1	13	0	
2	0	6	0	0	0	1	0	2	0	3	0	4	
4	6	0	5	1	6	0	6	1	6	2	6	1	6	0	
4	8	7	2	4	8	0	8	1	8	2	8	1	8	0	
5	14	7	0	5	3	14	0	14	1	14	2	14	3	14	4	
2	7	0	7	0	7	1	7	2	7	3	7	4	
5	12	13	6	9	8	12	0	12	1	12	2	12	3	12	4	
4	1	5	12	13	1	0	1	1	1	5	1	3	1	4	
3	5	0	7	5	0	5	1	5	2	5	3	5	4	
3	13	6	9	13	0	13	1	13	2	13	1	13	0	
3	6	9	8	6	0	6	1	6	2	6	1	6	0	
4	3	5	12	13	3	0	3	1	3	2	3	5	3	4	
6	3	4	2	7	8	11	3	0	3	1	3	5	3	3	3	4	
4	8	7	2	1	8	0	8	1	8	2	8	1	8	0	
2	1	2	1	0	1	1	1	5	1	3	1	4	
4	1	5	0	6	1	0	1	1	1	2	1	1	1	0	
4	4	2	7	8	4	0	4	1	4	2	4	3	4	4	
3	9	6	0	9	0	9	1	9	2	9	3	9	4	
2	2	1	2	0	2	1	2	2	2	3	2	4	
4	5	0	6	9	5	0	5	1	5	2	5	1	5	0	
2	13	12	13	0	13	1	13	2	13	1	13	0	
4	0	6	13	10	0	0	0	1	0	2	0	3	0	4	
5	13	6	9	8	14	13	0	13	1	13	5	13	3	13	4	
3	11	8	14	11	0	11	1	11	2	11	5	11	4	
4	7	0	5	12	7	0	7	1	7	2	7	3	7	4	
5	11	8	7	2	4	11	0	11	1	11	2	11	5	11	4	
5	4	3	5	12	13	4	0	4	1	4	2	4	5	4	4	
3	12	5	3	12	0	12	1	12	2	12	1	12	0	
2	5	12	5	0	5	1	5	2	5	1	5	0	
5	10	12	5	3	4	10	0	10	1	10	5	10	3	10	4	
4	7	0	5	12	7	0	7	1	7	2	7	5	7	4	
3	6	0	7	6	0	6	1	6	2	6	3	6	4	
4	11	9	6	13	11	0	11	1	11	2	11	3	11	4	
4	1	5	12	10	1	0	1	1	1	2	1	1	1	0	
2	7	2	7	0	7	1	7	5	7	3	7	4	
2	12	10	12	0	12	1	12	2	12	1	12	0	
3	14	8	11	14	0	14	1	14	5	14	3	14	4	
5	2	7	0	6	13	2	0	2	1	2	2	2	3	2	4	
3	9	6	13	9	0	9	1	9	5	9	3	9	4	
4	13	6	0	7	13	0	13	1	13	2	13	5	13	4	
4	6	0	7	14	6	0	6	1	6	2	6	5	6	4	
4	13	12	5	1	13	0	13	1	13	2	13	5	13	4	
2	0	5	0	0	0	1	0	2	0	1	0	0	
4	3	5	12	13	3	0	3	1	3	2	3	3	3	4	
5	8	7	2	4	3	8	0	8	1	8	2	8	3	8	4	
5	1	5	0	6	9	1	0	1	1	1	5	1	3	1	4	
2	1	4	1	0	1	1	1	2	1	3	1	4	
5	4	3	5	12	10	4	0	4	1	4	2	4	1	4	0	
2	13	10	13	0	13	1	13	2	13	3	13	4	
3	0	5	12	0	0	0	1	0	2	0	1	0	0	
3	6	9	11	6	0	6	1	6	2	6	3	6	4	
4	1	2	7	14	1	0	1	1	1	5	1	3	1	4	
5	10	13	6	9	11	10	0	10	1	10	2	10	5	10	4	
5	3	5	0	7	8	3	0	3	1	3	2	3	5	3	4	
2	7	14	7	0	7	1	7	5	7	3	7	4	
3	11	9	6	11	0	11	1	11	2	11	1	11	0	
5	14	7	0	5	12	14	0	14	1	14	2	14	3	14	4	
4	2	7	0	6	2	0	2	1	2	5	2	3	2	4	
3	7	2	4	7	0	7	1	7	5	7	3	7	4	
5	9	6	0	5	1	9	0	9	1	9	5	9	3	9	4	
3	2	7	0	2	0	2	1	2	5	2	3	2	4	
3	5	12	10	5	0	5	1	5	2	5	3	5	4	
5	10	12	5	1	2	10	0	10	1	10	2	10	3	10	4	
3	0	6	9	0	0	0	1	0	2	0	1	0	0	
3	3	5	1	3	0	3	1	3	2	3	3	3	4	
3	6	0	5	6	0	6	1	6	5	6	3	6	4	
4	1	2	7	8	1	0	1	1	1	2	1	3	1	4	
5	4	3	5	0	6	4	0	4	1	4	2	4	1	4	0	
2	8	14	8	0	8	1	8	5	8	3	8	4	
4	12	5	3	4	12	0	12	1	12	2	12	5	12	4	
3	5	1	4	5	0	5	1	5	5	5	3	5	4	
2	5	3	5	0	5	1	5	2	5	5	5	4	
4	12	5	1	2	12	0	12	1	12	2	12	5	12	4	
3	5	12	13	5	0	5	1	5	2	5	5	5	4	
5	10	13	6	0	7	10	0	10	1	10	2	10	5	10	4	
3	12	5	1	12	0	12	1	12	5	12	3	12	4	
2	0	7	0	0	0	1	0	2	0	3	0	4	
5	11	9	6	13	10	11	0	11	1	11	2	11	1	11	0	
3	14	7	0	14	0	14	1	14	2	14	3	14	4	
4	7	0	5	3	7	0	7	1	7	2	7	3	7	4	
4	12	13	6	9	12	0	12	1	12	2	12	3	12	4	
3	9	6	0	9	0	9	1	9	2	9	5	9	4	
3	5	0	6	5	0	5	1	5	2	5	3	5	4	
3	9	8	14	9	0	9	1	9	2	9	5	9	4	
4	13	6	9	8	13	0	13	1	13	5	13	3	13	4	
3	6	0	7	6	0	6	1	6	2	6	5	6	4	
4	10	13	6	9	10	0	10	1	10	2	10	1	10	0	
3	1	5	3	1	0	1	1	1	5	1	3	1	4	
4	3	5	12	10	3	0	3	1	3	2	3	1	3	0	
3	8	7	2	8	0	8	1	8	5	8	3	8	4	
2	1	5	1	0	1	1	1	5	1	3	1	4	
5	4	2	7	8	9	4	0	4	1	4	2	4	3	4	4	
3	9	8	7	9	0	9	1	9	2	9	3	9	4	
2	9	11	9	0	9	1	9	5	9	3	9	4	
4	1	5	12	10	1	0	1	1	1	5	1	3	1	4	
4	5	0	7	8	5	0	5	1	5	5	5	3	5	4	
4	10	13	6	0	10	0	10	1	10	2	10	1	10	0	
4	0	6	9	11	0	0	0	1	0	2	0	3	0	4	
2	8	9	8	0	8	1	8	2	8	5	8	4	
5	11	8	7	2	1	11	0	11	1	11	2	11	5	11	4	
4	4	3	5	0	4	0	4	1	4	2	4	5	4	4	
2	10	13	10	0	10	1	10	5	10	3	10	4	
3	11	8	7	11	0	11	1	11	2	11	5	11	4	
4	2	7	8	9	2	0	2	1	2	2	2	5	2	4	
4	4	2	7	14	4	0	4	1	4	2	4	5	4	4	
4	9	8	7	2	9	0	9	1	9	2	9	5	9	4	
3	2	4	3	2	0	2	1	2	2	2	5	2	4	
3	10	12	5	10	0	10	1	10	2	10	1	10	0	
2	12	10	12	0	12	1	12	5	12	3	12	4	
5	6	0	5	3	4	6	0	6	1	6	2	6	3	6	4	
5	11	9	6	13	12	11	0	11	1	11	2	11	3	11	4	
5	4	2	7	8	11	4	0	4	1	4	2	4	5	4	4	
4	14	8	9	6	14	0	14	1	14	2	14	1	14	0	
3	4	3	5	4	0	4	1	4	2	4	3	4	4	
4	8	9	6	13	8	0	8	1	8	2	8	5	8	4	
5	12	13	6	9	11	12	0	12	1	12	5	12	3	12	4	
5	2	1	5	12	10	2	0	2	1	2	2	2	3	2	4	
5	13	6	0	7	2	13	0	13	1	13	2	13	5	13	4	
4	9	6	13	12	9	0	9	1	9	2	9	1	9	0	
5	3	5	0	6	9	3	0	3	1	3	2	3	5	3	4	
2	0	6	0	0	0	1	0	5	0	3	0	4	
3	3	5	12	3	0	3	1	3	2	3	3	3	4	
4	8	7	2	4	8	0	8	1	8	2	8	3	8	4	
5	14	7	0	5	3	14	0	14	1	14	2	14	1	14	0	
3	7	2	1	7	0	7	1	7	2	7	5	7	4	
2	7	0	7	0	7	1	7	2	7	1	7	0	
4	9	6	0	5	9	0	9	1	9	2	9	1	9	0	
5	4	2	7	8	11	4	0	4	1	4	5	4	3	4	4	
4	6	0	5	3	6	0	6	1	6	2	6	5	6	4	
3	13	6	9	13	0	13	1	13	2	13	3	13	4	
3	6	9	8	6	0	6	1	6	2	6	3	6	4	
5	10	13	6	9	8	10	0	10	1	10	2	10	5	10	4	
3	1	5	12	1	0	1	1	1	2	1	5	1	4	
6	3	5	0	7	8	11	3	0	3	1	3	2	3	5	3	4	
3	7	8	9	7	0	7	1	7	2	7	1	7	0	
5	14	8	9	6	13	14	0	14	1	14	2	14	3	14	4	
3	9	6	0	9	0	9	1	9	2	9	1	9	0	
4	8	7	0	5	8	0	8	1	8	2	8	5	8	4	
3	0	5	3	0	0	0	1	0	5	0	3	0	4	
2	2	1	2	0	2	1	2	2	2	1	2	0	
2	8	11	8	0	8	1	8	2	8	5	8	4	
4	5	0	6	9	5	0	5	1	5	2	5	3	5	4	
4	10	12	5	3	10	0	10	1	10	2	10	3	10	4	
4	0	6	13	10	0	0	0	1	0	5	0	3	0	4	
3	3	5	0	3	0	3	1	3	2	3	3	3	4	
3	11	8	14	11	0	11	1	11	5	11	3	11	4	
4	7	0	5	12	7	0	7	1	7	2	7	1	7	0	
5	11	8	7	2	4	11	0	11	1	11	5	11	3	11	4	
3	2	7	8	2	0	2	1	2	2	2	1	2	0	
6	10	13	6	9	8	14	10	0	10	1	10	2	10	5	10	4	
5	12	5	0	7	14	12	0	12	1	12	5	12	3	12	4	
5	10	12	5	3	4	10	0	10	1	10	2	10	5	10	4	
3	5	0	6	5	0	5	1	5	5	5	3	5	4	
3	6	0	7	6	0	6	1	6	2	6	1	6	0	
3	8	9	6	8	0	8	1	8	2	8	1	8	0	
4	14	7	2	1	14	0	14	1	14	2	14	3	14	4	
2	13	6	13	0	13	1	13	2	13	5	13	4	
4	12	13	6	9	12	0	12	1	12	5	12	3	12	4	
2	7	2	7	0	7	1	7	2	7	3	7	4	
2	12	10	12	0	12	1	12	2	12	3	12	4	
5	2	7	0	6	13	2	0	2	1	2	2	2	1	2	0	
4	14	7	2	1	14	0	14	1	14	2	14	5	14	4	
3	9	6	13	9	0	9	1	9	2	9	5	9	4	
4	13	6	0	7	13	0	13	1	13	2	13	1	13	0	
4	6	9	8	14	6	0	6	1	6	2	6	1	6	0	
2	0	5	0	0	0	1	0	2	0	5	0	4	
5	8	7	2	4	3	8	0	8	1	8	2	8	1	8	0	
2	1	4	1	0	1	1	1	2	1	1	1	0	
5	4	3	5	12	10	4	0	4	1	4	2	4	3	4	4	
2	9	6	9	0	9	1	9	2	9	3	9	4	
6	14	7	0	5	12	10	14	0	14	1	14	5	14	3	14	4	
2	13	10	13	0	13	1	13	2	13	1	13	0	
3	0	5	12	0	0	0	1	0	2	0	3	0	4	
3	6	9	11	6	0	6	1	6	2	6	1	6	0	
5	10	13	6	9	11	10	0	10	1	10	5	10	3	10	4	
4	1	5	12	13	1	0	1	1	1	2	1	1	1	0	
5	3	4	2	7	8	3	0	3	1	3	5	3	3	3	4	
2	7	14	7	0	7	1	7	2	7	3	7	4	
4	8	7	2	1	8	0	8	1	8	2	8	5	8	4	
5	14	7	0	5	12	14	0	14	1	14	5	14	3	14	4	
4	2	7	0	6	2	0	2	1	2	2	2	5	2	4	
5	9	6	0	5	1	9	0	9	1	9	2	9	5	9	4	
3	2	7	0	2	0	2	1	2	2	2	5	2	4	
3	5	12	10	5	0	5	1	5	2	5	1	5	0	
3	0	6	9	0	0	0	1	0	2	0	5	0	4	
3	6	0	5	6	0	6	1	6	2	6	3	6	4	
4	1	2	7	8	1	0	1	1	1	2	1	1	1	0	
5	4	3	5	0	6	4	0	4	1	4	2	4	3	4	4	
2	8	14	8	0	8	1	8	2	8	5	8	4	
4	12	5	3	4	12	0	12	1	12	2	12	1	12	0	
4	2	7	8	11	2	0	2	1	2	2	2	3	2	4	
2	5	3	5	0	5	1	5	2	5	1	5	0	
5	10	13	6	0	7	10	0	10	1	10	5	10	3	10	4	
2	13	10	13	0	13	1	13	2	13	5	13	4	
2	0	7	0	0	0	1	0	2	0	1	0	0	
4	8	7	0	5	8	0	8	1	8	2	8	3	8	4	
3	3	5	1	3	0	3	1	3	2	3	5	3	4	
3	14	7	0	14	0	14	1	14	5	14	3	14	4	
4	7	0	5	3	7	0	7	1	7	5	7	3	7	4	
4	12	13	6	9	12	0	12	1	12	2	12	1	12	0	
4	2	1	5	12	2	0	2	1	2	2	2	5	2	4	
3	5	0	6	5	0	5	1	5	2	5	1	5	0	
3	9	8	14	9	0	9	1	9	5	9	3	9	4	
4	13	6	9	8	13	0	13	1	13	2	13	3	13	4	
3	0	7	14	0	0	0	1	0	2	0	1	0	0	
2	4	3	4	0	4	1	4	5	4	3	4	4	
2	6	9	6	0	6	1	6	2	6	3	6	4	
3	6	9	11	6	0	6	1	6	2	6	5	6	4	
3	1	5	3	1	0	1	1	1	2	1	5	1	4	
3	8	7	2	8	0	8	1	8	2	8	5	8	4	
2	1	5	1	0	1	1	1	2	1	5	1	4	
5	4	2	7	8	9	4	0	4	1	4	2	4	1	4	0	
4	5	0	7	8	5	0	5	1	5	2	5	3	5	4	
4	10	13	6	0	10	0	10	1	10	2	10	3	10	4	
4	0	6	9	11	0	0	0	1	0	2	0	1	0	0	
5	11	8	7	2	1	11	0	11	1	11	2	11	1	11	0	
4	1	2	7	14	1	0	1	1	1	2	1	3	1	4	
6	14	7	0	6	13	10	14	0	14	1	14	2	14	5	14	4	
4	4	3	5	0	4	0	4	1	4	2	4	1	4	0	
4	2	7	8	9	2	0	2	1	2	5	2	3	2	4	
4	9	8	7	2	9	0	9	1	9	5	9	3	9	4	
4	13	12	5	3	13	0	13	1	13	5	13	3	13	4	
3	2	4	3	2	0	2	1	2	5	2	3	2	4	
2	6	0	6	0	6	1	6	5	6	3	6	4	
2	1	2	1	0	1	1	1	2	1	5	1	4	
5	6	0	7	2	4	6	0	6	1	6	5	6	3	6	4	
5	11	9	6	13	12	11	0	11	1	11	2	11	1	11	0	
4	14	8	9	6	14	0	14	1	14	2	14	3	14	4	
3	4	3	5	4	0	4	1	4	2	4	1	4	0	
4	8	9	6	13	8	0	8	1	8	5	8	3	8	4	
5	12	13	6	9	11	12	0	12	1	12	2	12	3	12	4	
3	5	1	4	5	0	5	1	5	2	5	3	5	4	
5	13	6	9	8	14	13	0	13	1	13	2	13	5	13	4	
2	0	6	0	0	0	1	0	2	0	5	0	4	
3	3	5	12	3	0	3	1	3	2	3	1	3	0	
5	7	0	6	13	10	7	0	7	1	7	2	7	5	7	4	
5	14	7	0	5	3	14	0	14	1	14	2	14	5	14	4	
6	11	8	7	2	4	3	11	0	11	1	11	5	11	3	11	4	
5	4	2	7	8	11	4	0	4	1	4	2	4	3	4	4	
4	9	6	0	5	9	0	9	1	9	2	9	3	9	4	
3	4	2	7	4	0	4	1	4	5	4	3	4	4	
6	10	13	6	9	8	14	10	0	10	1	10	2	10	1	10	0	
3	0	6	13	0	0	0	1	0	2	0	3	0	4	
2	3	5	3	0	3	1	3	2	3	1	3	0	
3	1	5	12	1	0	1	1	1	5	1	3	1	4	
3	7	8	9	7	0	7	1	7	2	7	3	7	4	
3	12	5	0	12	0	12	1	12	5	12	3	12	4	
5	14	8	9	6	13	14	0	14	1	14	2	14	1	14	0	
4	5	0	6	9	5	0	5	1	5	5	5	3	5	4	
4	10	12	5	3	10	0	10	1	10	2	10	1	10	0	
4	14	8	9	6	14	0	14	1	14	2	14	5	14	4	
3	3	5	0	3	0	3	1	3	2	3	1	3	0	
5	4	3	5	12	13	4	0	4	1	4	5	4	3	4	4	
3	11	8	14	11	0	11	1	11	2	11	3	11	4	
4	14	7	2	4	14	0	14	1	14	2	14	1	14	0	
3	4	2	7	4	0	4	1	4	2	4	3	4	4	
3	2	7	8	2	0	2	1	2	2	2	3	2	4	
4	1	2	7	14	1	0	1	1	1	2	1	5	1	4	
5	13	12	5	3	4	13	0	13	1	13	2	13	5	13	4	
2	6	13	6	0	6	1	6	2	6	5	6	4	
5	3	4	2	7	14	3	0	3	1	3	2	3	3	3	4	
3	8	9	6	8	0	8	1	8	2	8	3	8	4	
4	14	7	2	1	14	0	14	1	14	2	14	1	14	0	
2	7	2	7	0	7	1	7	2	7	1	7	0	
2	9	11	9	0	9	1	9	2	9	1	9	0	
4	13	6	0	7	13	0	13	1	13	2	13	3	13	4	
4	6	9	8	14	6	0	6	1	6	2	6	3	6	4	
5	11	9	6	0	5	11	0	11	1	11	5	11	3	11	4	
2	0	5	0	0	0	1	0	5	0	3	0	4	
3	7	8	11	7	0	7	1	7	2	7	1	7	0	
5	4	3	5	12	10	4	0	4	1	4	5	4	3	4	4	
2	9	6	9	0	9	1	9	2	9	1	9	0	
3	12	5	1	12	0	12	1	12	2	12	5	12	4	
4	11	9	6	0	11	0	11	1	11	5	11	3	11	4	
4	10	12	5	1	10	0	10	1	10	2	10	3	10	4	
4	3	5	12	13	3	0	3	1	3	5	3	3	3	4	
3	3	4	2	3	0	3	1	3	2	3	3	3	4	
4	1	5	12	13	1	0	1	1	1	2	1	3	1	4	
2	7	14	7	0	7	1	7	2	7	1	7	0	
4	12	5	0	7	12	0	12	1	12	2	12	5	12	4	
5	14	7	0	5	12	14	0	14	1	14	2	14	5	14	4	
4	2	7	0	6	2	0	2	1	2	2	2	1	2	0	
2	5	0	5	0	5	1	5	2	5	5	5	4	
5	3	4	2	7	14	3	0	3	1	3	5	3	3	3	4	
3	5	12	10	5	0	5	1	5	2	5	5	5	4	
2	11	9	11	0	11	1	11	5	11	3	11	4	
3	0	6	9	0	0	0	1	0	5	0	3	0	4	
3	6	0	5	6	0	6	1	6	2	6	1	6	0	
2	14	7	14	0	14	1	14	2	14	3	14	4	
5	4	3	5	0	6	4	0	4	1	4	5	4	3	4	4	
4	1	5	12	10	1	0	1	1	1	2	1	5	1	4	
4	12	5	3	4	12	0	12	1	12	2	12	3	12	4	
4	2	7	8	11	2	0	2	1	2	2	2	1	2	0	
2	5	3	5	0	5	1	5	2	5	3	5	4	
3	13	12	5	13	0	13	1	13	2	13	1	13	0	
3	6	13	12	6	0	6	1	6	2	6	1	6	0	
4	14	7	2	4	14	0	14	1	14	2	14	5	14	4	
4	8	7	0	5	8	0	8	1	8	2	8	1	8	0	
3	14	7	0	14	0	14	1	14	2	14	5	14	4	
4	7	0	5	3	7	0	7	1	7	2	7	5	7	4	
5	9	8	7	2	4	9	0	9	1	9	2	9	3	9	4	
2	9	11	9	0	9	1	9	2	9	5	9	4	
3	5	0	6	5	0	5	1	5	2	5	5	5	4	
4	13	6	9	8	13	0	13	1	13	2	13	1	13	0	
3	0	7	14	0	0	0	1	0	2	0	3	0	4	
2	6	9	6	0	6	1	6	2	6	1	6	0	
4	11	8	7	2	11	0	11	1	11	2	11	5	11	4	
3	1	5	3	1	0	1	1	1	2	1	1	1	0	
2	7	8	7	0	7	1	7	2	7	3	7	4	
4	10	13	6	9	10	0	10	1	10	5	10	3	10	4	
2	12	5	12	0	12	1	12	2	12	5	12	4	
5	11	9	6	13	12	11	0	11	1	11	5	11	3	11	4	
5	4	2	7	8	9	4	0	4	1	4	2	4	5	4	4	
5	3	5	0	6	9	3	0	3	1	3	5	3	3	3	4	
3	10	13	6	10	0	10	1	10	5	10	3	10	4	
4	5	0	7	8	5	0	5	1	5	2	5	1	5	0	
4	10	13	6	0	10	0	10	1	10	5	10	3	10	4	
5	11	8	7	2	1	11	0	11	1	11	2	11	3	11	4	
4	1	2	7	14	1	0	1	1	1	2	1	1	1	0	
4	4	3	5	0	4	0	4	1	4	2	4	3	4	4	
3	12	13	6	12	0	12	1	12	2	12	1	12	0	
4	2	7	8	9	2	0	2	1	2	2	2	3	2	4	
2	5	1	5	0	5	1	5	2	5	1	5	0	
4	13	12	5	3	13	0	13	1	13	2	13	5	13	4	
4	6	0	7	2	6	0	6	1	6	2	6	5	6	4	
5	6	0	7	2	4	6	0	6	1	6	2	6	5	6	4	
2	8	7	8	0	8	1	8	2	8	3	8	4	
3	7	0	5	7	0	7	1	7	2	7	5	7	4	
3	4	3	5	4	0	4	1	4	2	4	5	4	4	
5	12	13	6	9	11	12	0	12	1	12	2	12	1	12	0	
3	5	1	4	5	0	5	1	5	2	5	1	5	0	
6	10	13	6	9	8	14	10	0	10	1	10	5	10	3	10	4	
2	13	6	13	0	13	1	13	2	13	3	13	4	
3	0	5	1	0	0	0	1	0	5	0	3	0	4	
4	3	5	0	6	3	0	3	1	3	2	3	5	3	4	
3	3	5	12	3	0	3	1	3	2	3	5	3	4	
5	7	0	6	13	10	7	0	7	1	7	5	7	3	7	4	
5	9	6	0	5	3	9	0	9	1	9	5	9	3	9	4	
3	9	8	7	9	0	9	1	9	2	9	5	9	4	
5	4	2	7	8	11	4	0	4	1	4	2	4	1	4	0	
4	9	6	0	5	9	0	9	1	9	5	9	3	9	4	
6	10	13	6	9	8	14	10	0	10	1	10	2	10	3	10	4	
3	0	6	13	0	0	0	1	0	2	0	1	0	0	
2	3	5	3	0	3	1	3	2	3	3	3	4	
4	12	13	6	9	12	0	12	1	12	2	12	5	12	4	
6	11	8	7	2	4	3	11	0	11	1	11	2	11	1	11	0	
2	11	8	11	0	11	1	11	5	11	3	11	4	
3	1	5	12	1	0	1	1	1	2	1	3	1	4	
2	3	5	3	0	3	1	3	5	3	3	3	4	
2	4	2	4	0	4	1	4	2	4	1	4	0	
3	12	5	0	12	0	12	1	12	2	12	5	12	4	
5	10	13	6	9	8	10	0	10	1	10	5	10	3	10	4	
4	5	0	6	9	5	0	5	1	5	2	5	5	5	4	
4	10	12	5	3	10	0	10	1	10	2	10	5	10	4	
3	3	5	0	3	0	3	1	3	2	3	5	3	4	
3	11	8	14	11	0	11	1	11	2	11	1	11	0	
4	14	7	2	4	14	0	14	1	14	2	14	3	14	4	
3	2	7	14	2	0	2	1	2	5	2	3	2	4	
3	4	2	7	4	0	4	1	4	2	4	1	4	0	
2	12	5	12	0	12	1	12	2	12	3	12	4	
3	2	7	8	2	0	2	1	2	5	2	3	2	4	
3	5	1	2	5	0	5	1	5	2	5	3	5	4	
5	13	12	5	3	4	13	0	13	1	13	5	13	3	13	4	
2	6	13	6	0	6	1	6	5	6	3	6	4	
3	8	7	0	8	0	8	1	8	5	8	3	8	4	
3	7	8	9	7	0	7	1	7	2	7	5	7	4	
3	1	2	7	1	0	1	1	1	5	1	3	1	4	
5	3	4	2	7	14	3	0	3	1	3	2	3	1	3	0	
3	8	9	6	8	0	8	1	8	5	8	3	8	4	
2	9	11	9	0	9	1	9	2	9	3	9	4	
2	10	12	10	0	10	1	10	2	10	1	10	0	
4	3	4	2	7	3	0	3	1	3	2	3	1	3	0	
5	14	8	9	6	13	14	0	14	1	14	5	14	3	14	4	
5	11	9	6	0	5	11	0	11	1	11	2	11	5	11	4	
3	7	8	11	7	0	7	1	7	2	7	3	7	4	
3	2	1	5	2	0	2	1	2	2	2	5	2	4	
5	4	3	5	12	10	4	0	4	1	4	2	4	5	4	4	
2	9	6	9	0	9	1	9	2	9	5	9	4	
4	10	12	5	1	10	0	10	1	10	5	10	3	10	4	
2	12	13	12	0	12	1	12	2	12	5	12	4	
4	10	12	5	1	10	0	10	1	10	2	10	1	10	0	
5	1	2	7	8	11	1	0	1	1	1	5	1	3	1	4	
3	3	4	2	3	0	3	1	3	2	3	1	3	0	
4	11	8	7	0	11	0	11	1	11	2	11	3	11	4	
6	14	7	0	5	12	10	14	0	14	1	14	2	14	1	14	0	
2	4	1	4	0	4	1	4	2	4	3	4	4	
4	12	5	0	7	12	0	12	1	12	5	12	3	12	4	
4	2	7	0	6	2	0	2	1	2	2	2	3	2	4	
2	4	3	4	0	4	1	4	2	4	5	4	4	
3	3	4	2	3	0	3	1	3	5	3	3	3	4	
4	0	5	3	4	0	0	0	1	0	5	0	3	0	4	
3	5	12	10	5	0	5	1	5	5	5	3	5	4	
2	11	9	11	0	11	1	11	2	11	5	11	4	
4	11	8	7	0	11	0	11	1	11	2	11	5	11	4	
2	14	7	14	0	14	1	14	2	14	1	14	0	
5	4	3	5	0	6	4	0	4	1	4	2	4	5	4	4	
4	3	4	2	7	3	0	3	1	3	5	3	3	3	4	
4	2	7	8	11	2	0	2	1	2	2	2	5	2	4	
3	13	12	5	13	0	13	1	13	2	13	3	13	4	
3	9	6	0	9	0	9	1	9	5	9	3	9	4	
3	6	13	12	6	0	6	1	6	2	6	3	6	4	
3	1	5	0	1	0	1	1	1	2	1	5	1	4	
3	7	0	5	7	0	7	1	7	2	7	1	7	0	
2	12	13	12	0	12	1	12	5	12	3	12	4	
5	9	8	7	2	4	9	0	9	1	9	2	9	1	9	0	
3	0	7	8	0	0	0	1	0	5	0	3	0	4	
3	14	8	9	14	0	14	1	14	5	14	3	14	4	
3	0	7	14	0	0	0	1	0	5	0	3	0	4	
2	3	4	3	0	3	1	3	2	3	3	3	4	
2	8	7	8	0	8	1	8	2	8	5	8	4	
4	11	8	7	2	11	0	11	1	11	5	11	3	11	4	
3	1	5	3	1	0	1	1	1	2	1	3	1	4	
2	7	8	7	0	7	1	7	2	7	1	7	0	
3	10	12	5	10	0	10	1	10	5	10	3	10	4	
2	2	4	2	0	2	1	2	2	2	1	2	0	
5	4	2	7	8	9	4	0	4	1	4	5	4	3	4	4	
3	10	13	6	10	0	10	1	10	2	10	5	10	4	
4	10	13	6	0	10	0	10	1	10	2	10	5	10	4	
4	1	5	0	6	1	0	1	1	1	2	1	5	1	4	
5	8	9	6	13	12	8	0	8	1	8	2	8	5	8	4	
5	8	9	6	13	12	8	0	8	1	8	5	8	3	8	4	
5	8	9	6	13	10	8	0	8	1	8	2	8	1	8	0	
4	14	7	0	5	14	0	14	1	14	2	14	3	14	4	
3	4	2	7	4	0	4	1	4	2	4	5	4	4	
3	12	13	6	12	0	12	1	12	2	12	3	12	4	
4	2	7	8	9	2	0	2	1	2	2	2	1	2	0	
2	5	1	5	0	5	1	5	2	5	3	5	4	
4	13	12	5	3	13	0	13	1	13	2	13	1	13	0	
3	0	5	3	0	0	0	1	0	2	0	5	0	4	
4	6	0	7	2	6	0	6	1	6	2	6	1	6	0	
2	8	7	8	0	8	1	8	2	8	1	8	0	
3	4	3	5	4	0	4	1	4	5	4	3	4	4	
4	9	6	13	10	9	0	9	1	9	2	9	3	9	4	
4	14	8	9	6	14	0	14	1	14	5	14	3	14	4	
2	13	6	13	0	13	1	13	2	13	1	13	0	
2	7	8	7	0	7	1	7	2	7	5	7	4	
2	3	4	3	0	3	1	3	5	3	3	3	4	
4	3	5	0	6	3	0	3	1	3	5	3	3	3	4	
5	8	7	2	4	3	8	0	8	1	8	2	8	5	8	4	
5	7	0	6	13	10	7	0	7	1	7	2	7	3	7	4	
5	9	6	0	5	3	9	0	9	1	9	2	9	5	9	4	
4	14	7	0	5	14	0	14	1	14	5	14	3	14	4	
4	9	6	0	5	9	0	9	1	9	2	9	5	9	4	
3	0	6	13	0	0	0	1	0	2	0	5	0	4	
6	11	8	7	2	4	3	11	0	11	1	11	2	11	3	11	4	
3	1	5	12	1	0	1	1	1	2	1	1	1	0	
2	4	2	4	0	4	1	4	2	4	3	4	4	
3	12	5	0	12	0	12	1	12	2	12	1	12	0	
2	2	7	2	0	2	1	2	2	2	3	2	4	
