817.486	817.486
1960
95666.6	12076
50
0	185	1303
1	173	1335
2	127	1288
3	168	996
4	186	1190
5	381	1748
6	209	1372
7	37	928
8	66	836
9	83	963
10	358	1846
11	124	1042
12	60	999
13	374	1844
14	113	1335
15	74	999
16	207	1417
17	76	1095
18	325	1693
19	188	1105
20	118	887
21	254	1318
22	275	1370
23	214	1246
24	268	1181
25	498	1859
26	133	944
27	125	988
28	375	1562
29	155	1006
30	124	1067
31	374	1444
32	195	1285
33	134	783
34	222	1067
35	89	1028
36	135	639
37	209	1640
38	182	1127
39	99	944
40	39	797
41	77	787
42	143	1180
43	200	1383
44	321	1342
45	165	1446
46	162	1219
47	149	980
48	202	1143
49	650	1722
176
0	29	0.719158	39.917770
29	0	1.589260	39.917770
0	46	5.903184	41.080453
46	0	6.404322	41.080453
0	48	6.659216	45.343521
48	0	5.309596	45.343521
1	34	4.190684	44.568378
34	1	0.870240	44.568378
1	47	3.608666	43.793297
47	1	2.859770	43.793297
1	49	4.833306	44.568378
49	1	8.818002	44.568378
2	8	0.476322	41.080453
8	2	0.924798	41.080453
2	31	5.907866	39.530230
31	2	5.529874	39.530230
2	37	6.894588	38.367609
37	2	5.565958	38.367609
3	11	1.780484	35.267162
11	3	2.237050	35.267162
3	20	1.448568	35.654702
20	3	2.319272	35.654702
3	31	3.829828	37.592466
31	3	4.032828	37.592466
3	32	1.776922	42.630677
32	3	2.028488	42.630677
3	43	3.933920	42.243074
43	3	1.741938	42.243074
4	5	3.490434	43.793297
5	4	4.174658	43.793297
4	22	6.340094	41.080453
22	4	4.943324	41.080453
4	35	0.923950	34.879622
35	4	0.241338	34.879622
4	44	7.884478	37.204926
44	4	8.311118	37.204926
5	21	5.062294	43.405757
21	5	5.182318	43.405757
5	22	3.959208	41.080453
22	5	5.258598	41.080453
5	25	11.697108	39.142689
25	5	10.630534	39.142689
5	32	5.888428	37.980006
32	5	6.062300	37.980006
6	7	4.048232	45.343521
7	6	4.147200	45.343521
6	22	8.692354	38.367609
22	6	6.438136	38.367609
6	38	4.400850	35.654702
38	6	6.181472	35.654702
7	15	2.966238	42.630677
15	7	1.702262	42.630677
8	11	0.361186	35.654702
11	8	0.719288	35.654702
8	13	3.325604	39.917770
13	8	3.300068	39.917770
9	16	3.349052	37.592466
16	9	4.032540	37.592466
9	23	1.135590	44.568378
23	9	0.900222	44.568378
9	33	1.564382	46.118601
33	9	1.336816	46.118601
10	14	9.789426	39.530230
14	10	6.792224	39.530230
10	25	10.567140	39.530230
25	10	13.542578	39.530230
10	35	5.108958	41.855534
35	10	5.230212	41.855534
10	44	2.335728	46.118601
44	10	3.561758	46.118601
11	13	3.097008	45.343521
13	11	4.115094	45.343521
11	31	0.375936	39.917770
31	11	1.395082	39.917770
12	14	2.146762	41.080453
14	12	4.085944	41.080453
12	29	2.930660	35.267162
29	12	1.403384	35.267162
13	25	9.969244	43.405757
25	13	11.127882	43.405757
13	31	6.231104	38.367609
31	13	5.772150	38.367609
13	49	12.383946	36.042305
49	13	12.416938	36.042305
14	48	5.427516	43.018217
48	14	5.213736	43.018217
15	27	4.230850	46.118601
27	15	3.309718	46.118601
16	18	7.364164	40.305373
18	16	5.772898	40.305373
16	19	2.669190	37.592466
19	16	2.594306	37.592466
16	28	5.231826	37.980006
28	16	6.851360	37.980006
17	24	5.573744	40.305373
24	17	4.169076	40.305373
17	30	1.983318	36.817386
30	17	2.309178	36.817386
18	19	2.494078	34.879622
19	18	3.291480	34.879622
18	25	9.782026	43.793297
25	18	6.966144	43.793297
18	49	15.256626	41.080453
49	18	13.655826	41.080453
19	25	3.370830	35.267162
25	19	3.399990	35.267162
19	44	3.938536	42.630677
44	19	3.393646	42.630677
20	43	2.461216	44.955981
43	20	3.117098	44.955981
21	22	4.977688	36.042305
22	21	7.089316	36.042305
21	27	4.539976	35.654702
27	21	3.263086	35.654702
21	43	4.515006	42.630677
43	21	4.268238	42.630677
22	39	1.999740	41.080453
39	22	2.881530	41.080453
23	24	4.284298	35.267162
24	23	5.840918	35.267162
23	28	8.399610	40.692913
28	23	7.221634	40.692913
23	42	1.406834	40.692913
42	23	0.734080	40.692913
24	33	2.880730	40.305373
33	24	3.027184	40.305373
24	42	6.587068	45.343521
42	24	4.246218	45.343521
24	45	8.176568	44.955981
45	24	9.740614	44.955981
26	30	3.361948	36.817386
30	26	3.182498	36.817386
26	34	3.606700	41.080453
34	26	3.981238	41.080453
27	43	4.189862	38.367609
43	27	3.937994	38.367609
28	29	6.035552	39.917770
29	28	6.155644	39.917770
28	44	10.334330	41.467993
44	28	9.741478	41.467993
28	46	3.520132	44.180837
46	28	3.988482	44.180837
30	45	5.141324	40.692913
45	30	5.729534	40.692913
31	32	4.501732	39.530230
32	31	6.152892	39.530230
32	43	2.303962	40.692913
43	32	3.633300	40.692913
34	37	5.082782	40.305373
37	34	4.590226	40.305373
34	40	2.898294	45.343521
40	34	0.295974	45.343521
34	41	0.399554	40.305373
41	34	0.446464	40.305373
35	39	4.068730	40.305373
39	35	2.530298	40.305373
36	38	1.128226	36.042305
38	36	1.195320	36.042305
36	48	2.749568	42.630677
48	36	3.249894	42.630677
37	41	4.063726	37.592466
41	37	6.741300	37.592466
37	49	12.229538	41.855534
49	37	7.115920	41.855534
38	39	2.057566	37.204926
39	38	2.183484	37.204926
38	48	4.938306	37.980006
48	38	6.304052	37.980006
40	41	3.143886	37.980006
41	40	0.000450	37.980006
42	46	6.078430	44.180837
46	42	4.064600	44.180837
45	47	1.402504	36.042305
47	45	2.202052	36.042305
45	49	9.804298	39.142689
49	45	11.888298	39.142689
1960
7	26	30	45	24	23	28	44	30	0	24	1	28	2	44	3	44	4	
5	10	25	13	31	3	10	0	10	1	10	5	3	3	3	4	
7	0	48	38	6	22	21	27	38	0	22	1	21	2	21	1	27	0	
3	37	49	18	37	0	37	1	49	2	18	5	18	4	
6	48	38	6	22	21	27	38	0	22	1	21	5	21	3	27	4	
8	43	32	5	25	19	16	9	33	5	0	25	1	19	5	16	3	33	4	
5	27	21	5	25	10	25	0	25	1	25	2	10	3	10	4	
6	30	45	24	42	46	0	24	0	46	1	0	2	0	1	0	0	
5	14	10	25	13	31	25	0	13	1	31	2	31	5	31	4	
5	7	6	22	4	44	6	0	6	1	6	2	6	1	44	0	
4	38	6	22	4	22	0	22	1	22	2	22	5	4	4	
3	25	10	14	25	0	10	1	10	2	10	1	14	0	
2	28	16	28	0	28	1	16	2	16	3	16	4	
5	49	18	25	5	21	49	0	49	1	25	5	25	3	21	4	
5	42	24	45	49	13	49	0	49	1	13	2	13	5	13	4	
2	3	20	3	0	3	1	3	5	20	3	20	4	
8	30	45	49	13	25	10	35	39	13	0	25	1	10	2	10	5	39	4	
8	48	14	10	25	13	49	37	41	10	0	10	1	10	2	13	5	13	4	
8	23	28	44	4	22	6	7	15	28	0	44	1	44	2	6	1	7	0	
7	44	19	18	49	1	34	40	18	0	49	1	49	2	49	3	34	4	
4	31	32	43	27	31	0	31	1	31	2	31	5	32	4	
5	18	49	13	31	3	49	0	13	1	13	2	3	1	3	0	
4	21	43	3	11	43	0	43	1	43	2	43	3	11	4	
2	8	11	11	0	11	1	11	5	11	3	11	4	
7	42	24	45	30	26	34	40	45	0	30	1	26	5	26	3	34	4	
3	45	49	18	18	0	18	1	18	2	18	3	18	4	
5	35	10	25	13	31	31	0	31	1	31	5	31	3	31	4	
8	35	10	25	18	49	37	34	26	10	0	10	1	25	2	18	5	26	4	
4	19	16	28	23	28	0	28	1	23	5	23	3	23	4	
4	49	45	24	23	49	0	49	1	23	5	23	3	23	4	
7	22	5	25	18	49	1	47	22	0	18	1	18	2	18	3	47	4	
7	9	16	19	44	10	35	39	16	0	44	1	10	2	10	1	39	0	
6	43	32	5	25	10	14	5	0	5	1	25	2	25	1	25	0	
4	46	28	44	4	28	0	44	1	44	2	4	3	4	4	
2	36	48	36	0	36	1	36	2	48	5	48	4	
2	20	43	20	0	20	1	20	2	43	1	43	0	
5	13	25	19	16	28	19	0	19	1	19	2	19	3	28	4	
4	47	45	30	26	47	0	47	1	26	2	26	3	26	4	
5	34	37	2	31	32	34	0	34	1	34	2	2	1	32	0	
3	11	3	20	11	0	11	1	20	2	20	1	20	0	
7	1	47	45	24	42	46	0	45	0	46	1	0	5	0	3	0	4	
6	32	5	25	10	14	48	5	0	5	1	5	2	10	3	48	4	
5	25	13	49	1	47	25	0	49	1	49	2	49	1	47	0	
7	15	27	21	5	25	18	16	15	0	15	1	15	2	5	3	18	4	
6	36	48	14	10	44	19	36	0	36	1	36	2	10	1	19	0	
6	39	22	21	43	3	11	43	0	43	1	43	2	3	3	11	4	
3	23	28	44	44	0	44	1	44	5	44	3	44	4	
7	29	28	44	4	22	21	27	29	0	44	1	44	2	44	5	44	4	
3	13	31	32	13	0	13	1	31	2	31	1	32	0	
8	6	22	5	32	31	2	37	41	22	0	31	1	31	2	31	3	2	4	
7	40	41	37	2	31	3	20	37	0	3	1	20	5	20	3	20	4	
9	24	45	49	13	31	32	43	27	15	13	0	13	1	43	2	43	3	43	4	
7	27	21	22	4	44	28	23	27	0	27	1	22	2	4	1	23	0	
6	48	14	10	25	13	8	25	0	25	1	25	2	13	3	8	4	
7	4	44	19	18	49	37	41	19	0	19	1	19	2	49	1	49	0	
9	7	6	22	4	44	28	23	24	17	6	0	6	1	28	2	28	3	17	4	
3	38	39	35	38	0	38	1	39	2	35	1	35	0	
5	3	31	13	25	18	3	0	3	1	31	5	13	3	13	4	
4	18	49	37	34	34	0	34	1	34	2	34	1	34	0	
5	5	25	13	49	1	5	0	25	1	1	5	1	3	1	4	
5	16	18	49	45	30	16	0	16	1	16	2	18	3	30	4	
5	0	48	14	10	25	0	0	0	1	0	5	48	3	48	4	
5	22	6	38	48	14	22	0	22	1	6	2	48	5	14	4	
7	43	32	31	13	49	1	47	31	0	31	1	13	2	13	1	47	0	
5	27	43	3	11	8	27	0	27	1	43	2	3	5	8	4	
6	17	24	23	28	44	4	44	0	44	1	44	2	4	3	4	4	
6	20	3	31	13	25	10	31	0	13	1	13	2	10	1	10	0	
5	41	37	49	18	19	19	0	19	1	19	2	19	3	19	4	
2	44	19	44	0	44	1	44	5	44	3	19	4	
4	28	44	4	22	44	0	44	1	4	2	4	5	22	4	
3	21	5	32	21	0	21	1	32	5	32	3	32	4	
8	42	46	0	48	38	6	7	15	46	0	46	1	46	2	46	3	7	4	
2	32	31	32	0	32	1	32	2	32	5	31	4	
3	16	18	49	16	0	16	1	49	5	49	3	49	4	
5	19	44	10	14	48	19	0	19	1	44	2	10	3	48	4	
7	15	27	43	32	31	13	49	27	0	32	1	32	2	13	5	49	4	
2	26	34	26	0	26	1	26	5	34	3	34	4	
2	10	25	25	0	25	1	25	2	25	3	25	4	
3	13	49	1	13	0	13	1	1	2	1	1	1	0	
3	44	28	46	46	0	46	1	46	2	46	5	46	4	
3	3	31	13	31	0	31	1	31	5	31	3	13	4	
4	21	5	25	13	21	0	21	1	25	2	25	5	13	4	
6	8	13	25	19	16	9	13	0	13	1	13	2	25	1	19	0	
3	11	13	49	11	0	11	1	13	2	13	3	13	4	
5	14	10	25	5	21	25	0	25	1	5	5	5	3	21	4	
6	35	10	44	28	23	24	44	0	28	1	28	2	24	3	24	4	
7	38	39	22	5	32	31	2	22	0	22	1	32	2	31	1	31	0	
3	25	5	4	25	0	25	1	25	2	25	5	4	4	
2	9	33	9	0	9	1	9	5	33	3	33	4	
7	43	32	5	25	10	14	12	32	0	32	1	32	5	32	3	25	4	
4	2	37	34	40	2	0	2	1	2	2	37	3	34	4	
2	33	24	33	0	33	1	33	2	33	1	24	0	
6	20	3	31	2	37	41	20	0	20	1	3	5	31	3	2	4	
4	13	49	45	30	49	0	45	1	30	2	30	5	30	4	
7	3	32	5	4	44	28	46	32	0	5	1	5	2	5	3	44	4	
5	6	22	21	43	20	6	0	6	1	22	2	22	1	20	0	
2	17	24	17	0	17	1	24	5	24	3	24	4	
5	37	49	18	19	44	37	0	37	1	18	2	44	3	44	4	
7	27	43	32	31	2	37	41	27	0	32	1	31	2	31	3	2	4	
4	1	34	37	2	37	0	37	1	37	2	2	1	2	0	
5	4	44	10	14	12	44	0	44	1	44	2	44	3	12	4	
5	25	13	49	37	41	25	0	49	1	49	5	49	3	49	4	
7	31	13	25	10	44	28	29	31	0	25	1	25	2	25	1	29	0	
3	18	16	9	18	0	18	1	18	2	18	5	9	4	
7	36	48	0	46	42	24	17	36	0	36	1	36	5	0	3	17	4	
2	42	46	46	0	46	1	46	2	46	5	46	4	
7	26	34	37	49	18	25	5	26	0	5	1	5	2	5	1	5	0	
4	13	49	1	34	49	0	1	1	1	5	1	3	34	4	
6	19	16	9	33	24	17	19	0	19	1	19	2	19	5	16	4	
4	6	22	21	43	43	0	43	1	43	2	43	5	43	4	
5	40	41	37	49	18	37	0	18	1	18	2	18	1	18	0	
4	24	45	49	13	45	0	49	1	13	2	13	5	13	4	
7	46	28	16	18	49	37	2	49	0	37	1	37	5	2	3	2	4	
4	48	38	6	22	48	0	48	1	38	2	38	5	6	4	
7	7	6	22	4	44	28	23	6	0	28	1	23	2	23	5	23	4	
4	41	37	2	8	41	0	41	1	2	5	2	3	8	4	
6	18	25	10	14	48	36	18	0	10	1	10	5	14	3	36	4	
5	11	13	49	45	30	11	0	11	1	13	2	13	5	30	4	
6	34	37	49	18	16	28	49	0	18	1	16	5	16	3	28	4	
6	48	14	10	25	13	8	25	0	25	1	25	5	13	3	8	4	
5	22	5	25	13	8	22	0	25	1	25	2	13	3	8	4	
8	17	24	23	28	44	4	22	6	24	0	28	1	44	2	44	5	22	4	
5	39	35	10	25	13	10	0	10	1	10	5	25	3	13	4	
5	23	28	44	4	22	28	0	44	1	44	2	4	3	22	4	
3	16	28	29	16	0	16	1	28	5	29	3	29	4	
4	41	37	49	45	41	0	41	1	37	2	37	5	45	4	
5	44	28	23	24	17	28	0	28	1	28	2	28	1	17	0	
6	34	37	49	13	25	5	13	0	13	1	13	5	13	3	25	4	
7	21	5	25	13	49	1	34	21	0	21	1	21	2	25	1	34	0	
7	8	13	25	10	14	48	36	25	0	10	1	10	2	14	3	36	4	
6	1	49	13	25	10	35	13	0	13	1	25	2	25	1	25	0	
6	32	5	4	44	28	29	5	0	4	1	4	2	4	3	29	4	
9	38	48	14	10	25	13	49	37	41	14	0	14	1	14	2	10	5	10	4	
6	12	14	10	25	13	31	14	0	13	1	31	2	31	1	31	0	
3	46	0	29	46	0	46	1	46	2	46	1	29	0	
5	33	24	45	49	37	33	0	49	1	49	2	37	3	37	4	
9	26	30	17	24	42	46	0	48	36	46	0	0	1	0	2	0	1	36	0	
5	10	25	5	21	27	10	0	10	1	10	2	5	5	5	4	
4	16	28	23	24	16	0	16	1	28	5	24	3	24	4	
8	0	48	38	6	22	5	32	3	48	0	48	1	5	2	3	3	3	4	
2	3	11	3	0	3	1	3	2	3	1	11	0	
4	24	23	28	44	24	0	28	1	28	2	44	3	44	4	
5	14	12	29	28	23	28	0	28	1	23	2	23	1	23	0	
4	38	48	14	12	38	0	38	1	48	5	48	3	48	4	
4	25	5	22	6	25	0	25	1	25	2	25	3	6	4	
6	2	37	49	18	16	9	2	0	2	1	2	5	49	3	18	4	
3	28	23	24	28	0	28	1	23	2	24	1	24	0	
5	49	18	16	28	29	49	0	49	1	18	2	18	3	28	4	
5	5	22	39	38	36	5	0	5	1	22	2	22	1	39	0	
4	26	30	17	24	26	0	26	1	30	2	17	3	24	4	
5	3	32	5	4	44	32	0	5	1	5	2	4	5	44	4	
6	37	49	18	16	28	46	18	0	18	1	16	2	16	5	16	4	
8	17	24	23	28	44	10	35	39	24	0	28	1	10	2	10	3	39	4	
6	48	14	10	25	18	49	10	0	10	1	10	2	49	1	49	0	
5	4	5	32	31	2	4	0	32	1	32	2	31	5	31	4	
4	44	10	14	48	44	0	44	1	10	2	10	1	48	0	
4	31	13	25	19	31	0	25	1	19	5	19	3	19	4	
4	18	25	13	11	18	0	13	1	11	2	11	3	11	4	
3	21	43	3	43	0	43	1	3	2	3	1	3	0	
3	8	11	3	8	0	8	1	8	2	11	5	3	4	
7	42	23	28	44	4	5	32	42	0	23	1	23	2	44	3	4	4	
10	26	34	37	49	13	25	5	22	6	7	26	0	5	1	5	5	5	3	6	4	
7	16	19	44	4	22	6	7	16	0	16	1	44	2	44	1	6	0	
6	19	25	5	21	27	15	25	0	5	1	5	2	5	3	15	4	
3	43	21	22	43	0	43	1	21	2	21	3	21	4	
7	2	37	49	18	16	28	46	49	0	49	1	16	5	16	3	16	4	
7	36	48	14	10	25	13	8	36	0	36	1	36	5	13	3	8	4	
6	20	3	32	5	4	35	3	0	5	1	5	2	5	3	5	4	
6	41	37	49	18	25	10	25	0	25	1	25	2	10	1	10	0	
4	47	1	49	18	47	0	47	1	47	5	49	3	18	4	
6	11	13	25	19	16	28	13	0	25	1	25	2	25	3	28	4	
4	1	49	13	8	1	0	1	1	49	2	49	5	8	4	
5	35	10	44	28	46	44	0	44	1	44	2	44	5	44	4	
4	25	10	35	39	39	0	39	1	39	2	39	5	39	4	
3	9	16	28	9	0	9	1	9	2	9	1	28	0	
7	12	14	10	25	13	8	2	13	0	13	1	13	2	8	3	2	4	
4	2	37	49	18	2	0	2	1	2	2	18	5	18	4	
5	39	35	10	44	19	10	0	10	1	10	2	10	1	19	0	
8	23	28	44	4	22	21	43	20	28	0	21	1	21	2	21	5	20	4	
7	29	28	44	4	5	32	3	29	0	32	1	32	5	3	3	3	4	
7	2	31	32	43	27	15	7	43	0	43	1	43	5	43	3	15	4	
5	13	49	1	34	40	49	0	1	1	1	2	1	3	34	4	
7	2	31	32	5	22	6	38	31	0	5	1	5	2	22	5	38	4	
9	34	37	2	31	32	5	22	6	7	34	0	31	1	31	2	5	1	6	0	
7	37	2	31	32	43	27	15	37	0	31	1	43	2	43	3	43	4	
8	24	42	46	0	48	38	6	7	42	0	0	1	0	5	0	3	38	4	
4	8	2	37	34	8	0	8	1	8	2	8	5	34	4	
5	48	0	46	28	16	0	0	28	1	28	2	28	1	16	0	
6	4	44	19	16	9	33	16	0	16	1	16	2	16	3	33	4	
5	7	6	22	5	25	6	0	5	1	5	2	5	1	25	0	
5	38	39	22	21	43	43	0	43	1	43	2	43	3	43	4	
5	6	38	48	14	10	6	0	6	1	38	2	14	5	10	4	
5	18	16	28	23	42	16	0	16	1	16	2	23	5	42	4	
3	2	37	49	2	0	2	1	2	2	49	1	49	0	
2	5	25	5	0	5	1	25	2	25	3	25	4	
8	36	48	0	46	42	24	45	47	48	0	42	1	42	2	42	1	47	0	
6	29	28	44	4	5	32	29	0	44	1	44	2	44	3	4	4	
6	16	28	46	0	48	38	28	0	46	1	46	2	46	1	38	0	
7	0	46	28	16	18	49	1	28	0	49	1	1	2	1	5	1	4	
2	24	42	24	0	24	1	24	2	24	5	42	4	
6	27	15	7	6	38	48	27	0	15	1	15	2	48	1	48	0	
2	30	26	30	0	30	1	30	2	30	3	26	4	
6	17	24	23	28	29	12	24	0	23	1	28	5	28	3	28	4	
6	41	37	2	31	3	43	41	0	41	1	37	2	37	1	31	0	
6	2	31	32	5	22	39	31	0	5	1	5	2	5	3	5	4	
5	44	4	22	21	27	44	0	44	1	44	2	44	5	27	4	
5	28	23	24	17	30	23	0	24	1	24	5	24	3	30	4	
7	21	5	25	13	49	45	24	25	0	45	1	45	2	24	5	24	4	
4	5	22	39	38	5	0	5	1	38	5	38	3	38	4	
5	33	24	23	28	29	33	0	33	1	33	5	23	3	29	4	
3	39	38	48	39	0	39	1	38	5	48	3	48	4	
6	40	41	37	2	31	11	40	0	40	1	40	2	31	3	11	4	
8	15	27	43	32	31	2	37	41	27	0	32	1	32	5	31	3	2	4	
7	33	9	16	19	44	10	35	9	0	19	1	44	5	35	3	35	4	
3	17	24	33	17	0	17	1	17	2	33	5	33	4	
6	10	44	28	23	24	17	10	0	10	1	44	5	44	3	17	4	
2	21	5	21	0	21	1	5	5	5	3	5	4	
4	8	13	49	1	13	0	49	1	1	2	1	3	1	4	
4	14	10	25	13	10	0	25	1	25	2	25	5	13	4	
4	45	24	23	28	45	0	45	1	28	2	28	1	28	0	
8	2	31	13	25	10	14	48	36	31	0	13	1	13	2	14	5	36	4	
4	38	48	14	10	38	0	38	1	48	2	48	5	10	4	
7	22	4	44	28	23	24	17	4	0	44	1	28	2	28	1	17	0	
2	43	20	43	0	43	1	43	2	20	5	20	4	
6	49	18	25	5	21	27	49	0	21	1	21	5	21	3	27	4	
5	33	24	42	46	0	33	0	46	1	0	2	0	3	0	4	
3	36	48	14	36	0	36	1	36	2	14	1	14	0	
8	20	3	31	13	49	45	24	33	31	0	49	1	49	2	33	5	33	4	
2	26	30	26	0	26	1	26	5	26	3	30	4	
7	0	48	14	10	25	5	32	0	0	0	1	0	2	48	3	32	4	
5	47	1	49	18	16	47	0	47	1	47	2	49	1	18	0	
6	34	26	30	45	24	42	34	0	24	1	24	2	24	3	42	4	
8	37	49	18	25	10	14	48	36	18	0	18	1	18	5	14	3	36	4	
3	32	43	21	21	0	21	1	21	5	21	3	21	4	
2	14	48	48	0	48	1	48	5	48	3	48	4	
5	1	49	18	25	10	25	0	25	1	25	2	10	3	10	4	
5	32	5	22	6	38	5	0	5	1	5	5	5	3	22	4	
3	35	4	44	35	0	35	1	35	2	35	3	44	4	
5	25	19	16	9	33	19	0	16	1	16	2	16	3	33	4	
5	9	33	24	17	30	9	0	9	1	33	5	24	3	30	4	
4	31	3	43	21	31	0	21	1	21	2	21	5	21	4	
6	15	7	6	38	48	14	6	0	38	1	38	2	48	1	14	0	
4	2	31	3	20	3	0	3	1	20	2	20	3	20	4	
5	42	46	0	48	38	46	0	46	1	46	5	46	3	38	4	
5	29	28	44	4	5	29	0	44	1	44	2	4	1	5	0	
5	13	49	45	24	42	42	0	42	1	42	2	42	5	42	4	
3	19	16	9	19	0	19	1	19	5	19	3	9	4	
3	37	49	1	37	0	37	1	49	2	1	5	1	4	
6	24	45	49	18	25	5	49	0	49	1	49	2	25	1	25	0	
7	27	21	22	4	44	28	29	27	0	27	1	4	2	4	3	29	4	
7	48	0	46	42	24	17	30	0	0	42	1	42	5	42	3	30	4	
6	7	15	27	43	32	31	15	0	32	1	31	5	31	3	31	4	
8	41	37	49	18	16	28	29	0	49	0	49	1	49	2	18	5	18	4	
5	25	19	16	28	29	19	0	19	1	16	5	16	3	29	4	
3	18	19	44	18	0	18	1	19	2	44	3	44	4	
5	49	18	19	44	4	49	0	44	1	44	2	4	1	4	0	
7	36	48	0	46	42	24	45	48	0	24	1	24	5	24	3	45	4	
7	29	28	16	18	49	1	34	29	0	29	1	49	2	49	5	34	4	
5	12	14	10	44	4	14	0	14	1	44	5	4	3	4	4	
4	32	31	13	49	13	0	13	1	13	2	13	5	49	4	
7	30	45	49	13	31	3	20	49	0	3	1	20	2	20	5	20	4	
7	17	24	23	28	44	10	14	24	0	28	1	28	2	28	1	28	0	
8	20	43	21	22	6	38	48	0	20	0	38	1	38	2	0	3	0	4	
4	23	24	17	30	23	0	23	1	23	5	24	3	30	4	
2	41	37	41	0	41	1	41	5	41	3	37	4	
3	44	19	25	44	0	44	1	44	2	25	3	25	4	
4	34	37	49	13	34	0	49	1	13	2	13	5	13	4	
8	21	5	25	18	49	37	34	26	21	0	21	1	18	2	18	3	26	4	
5	11	31	2	37	34	31	0	31	1	34	2	34	5	34	4	
6	42	23	28	44	19	25	42	0	25	1	25	2	25	1	25	0	
3	45	49	1	49	0	49	1	1	2	1	3	1	4	
4	35	10	25	13	10	0	10	1	10	2	10	5	13	4	
6	19	44	10	14	48	38	19	0	19	1	44	2	38	1	38	0	
7	40	41	37	49	18	16	9	49	0	49	1	49	2	49	5	18	4	
9	15	27	21	5	25	18	49	1	47	18	0	18	1	18	2	18	1	47	0	
6	46	28	44	4	22	21	44	0	4	1	21	2	21	3	21	4	
3	33	24	45	33	0	33	1	33	2	24	1	45	0	
3	10	44	19	10	0	10	1	44	2	19	1	19	0	
2	13	11	11	0	11	1	11	2	11	3	11	4	
7	0	48	14	10	25	13	11	0	0	0	1	0	5	48	3	11	4	
3	34	1	49	34	0	34	1	34	5	34	3	49	4	
6	24	42	46	0	48	36	42	0	0	1	0	2	0	1	36	0	
6	11	3	43	27	15	7	11	0	11	1	11	5	43	3	15	4	
6	14	48	38	6	7	15	14	0	14	1	48	2	38	3	7	4	
2	45	30	30	0	30	1	30	5	30	3	30	4	
5	1	47	45	24	23	1	0	1	1	47	2	24	1	24	0	
6	38	39	22	21	43	20	21	0	21	1	21	2	21	3	20	4	
4	22	4	44	19	22	0	22	1	4	5	44	3	19	4	
3	28	29	0	28	0	28	1	29	2	29	5	0	4	
7	12	14	10	25	5	32	43	14	0	5	1	5	2	43	1	43	0	
6	33	24	45	49	37	2	33	0	37	1	37	2	2	5	2	4	
6	26	34	37	49	18	16	26	0	49	1	49	2	18	1	18	0	
2	0	46	0	0	0	1	0	2	46	5	46	4	
7	3	32	5	22	6	38	36	32	0	5	1	5	2	5	1	22	0	
8	6	22	5	25	13	49	45	30	6	0	6	1	49	2	49	3	30	4	
8	37	2	31	32	5	22	6	38	37	0	32	1	5	2	22	1	38	0	
4	17	24	45	47	17	0	17	1	17	2	24	1	47	0	
4	34	37	2	31	34	0	37	1	2	2	2	5	31	4	
8	4	5	25	18	49	37	34	26	4	0	4	1	25	5	25	3	26	4	
5	48	0	46	28	23	0	0	46	1	46	2	46	5	28	4	
5	7	6	38	48	0	6	0	6	1	6	2	0	3	0	4	
4	28	44	4	35	28	0	28	1	28	2	44	1	44	0	
3	31	32	43	31	0	31	1	31	2	31	3	32	4	
7	15	7	6	38	48	14	12	6	0	48	1	48	5	48	3	48	4	
4	49	45	24	33	49	0	49	1	45	2	45	3	24	4	
7	16	18	25	5	21	27	15	16	0	16	1	25	2	25	3	15	4	
6	19	25	5	22	6	7	25	0	25	1	25	2	25	1	6	0	
7	43	32	31	13	49	45	30	31	0	31	1	49	5	49	3	30	4	
3	20	43	27	43	0	43	1	27	5	27	3	27	4	
3	41	37	2	41	0	41	1	37	2	2	3	2	4	
6	47	1	49	18	25	10	47	0	18	1	25	2	10	5	10	4	
6	49	18	25	5	22	6	49	0	49	1	25	5	25	3	22	4	
4	14	48	0	46	14	0	0	1	0	2	0	5	46	4	
3	1	49	37	1	0	1	1	1	2	37	5	37	4	
6	45	49	13	31	3	20	49	0	3	1	20	5	20	3	20	4	
8	23	28	44	4	22	6	7	15	28	0	44	1	44	2	6	5	7	4	
8	9	16	18	25	5	32	43	20	16	0	25	1	25	2	25	3	20	4	
3	12	14	10	12	0	12	1	12	2	14	1	10	0	
3	46	0	48	46	0	46	1	46	2	46	1	48	0	
5	20	43	21	22	6	20	0	43	1	21	2	21	5	22	4	
2	23	28	28	0	28	1	28	2	28	1	28	0	
5	13	25	10	14	48	13	0	13	1	10	5	10	3	48	4	
8	34	37	2	31	3	43	27	15	34	0	34	1	34	2	37	3	31	4	
8	37	49	18	25	5	22	6	7	18	0	18	1	18	2	18	1	6	0	
3	11	3	32	11	0	11	1	11	2	11	3	32	4	
8	42	23	28	44	4	22	21	27	42	0	4	1	4	5	4	3	27	4	
5	48	0	46	42	24	0	0	24	1	24	2	24	5	24	4	
2	32	3	32	0	32	1	3	2	3	1	3	0	
5	35	10	25	13	11	10	0	13	1	11	2	11	3	11	4	
6	19	44	10	14	48	36	19	0	19	1	44	5	14	3	14	4	
4	25	5	21	27	25	0	25	1	5	2	21	5	27	4	
3	46	28	23	46	0	46	1	46	2	23	5	23	4	
7	5	25	13	49	45	24	17	5	0	5	1	5	2	49	1	17	0	
3	36	38	39	36	0	36	1	36	2	39	3	39	4	
8	29	28	16	18	49	1	34	40	29	0	29	1	49	5	49	3	34	4	
5	0	46	28	23	9	0	0	0	1	23	2	9	1	9	0	
5	3	31	13	49	1	31	0	13	1	1	2	1	3	1	4	
3	6	22	5	6	0	6	1	5	5	5	3	5	4	
5	24	17	30	26	34	24	0	24	1	24	5	24	3	34	4	
4	30	45	49	18	45	0	18	1	18	2	18	1	18	0	
8	17	24	45	49	13	11	3	20	45	0	49	1	49	2	49	5	49	4	
2	48	36	48	0	48	1	48	2	36	1	36	0	
7	41	37	49	13	25	10	35	49	0	49	1	49	2	49	5	49	4	
5	28	44	4	22	6	4	0	4	1	4	2	4	3	22	4	
8	12	14	10	25	13	49	37	41	14	0	13	1	13	5	13	3	13	4	
2	13	31	13	0	13	1	13	5	31	3	31	4	
8	45	49	18	25	5	22	6	7	25	0	5	1	5	5	5	3	6	4	
7	6	22	4	44	28	23	24	44	0	44	1	44	2	24	5	24	4	
6	40	41	37	2	31	3	40	0	40	1	40	5	2	3	3	4	
3	24	17	30	24	0	24	1	24	2	24	5	30	4	
5	17	30	26	34	41	34	0	34	1	34	5	34	3	41	4	
4	28	16	9	33	28	0	28	1	28	5	9	3	33	4	
4	18	25	5	21	18	0	18	1	5	2	5	1	21	0	
4	11	13	49	1	11	0	49	1	1	2	1	5	1	4	
7	45	24	42	46	0	48	36	45	0	0	1	0	2	0	3	36	4	
4	16	18	49	13	16	0	49	1	13	2	13	5	13	4	
6	38	48	14	10	25	18	14	0	25	1	18	5	18	3	18	4	
3	2	37	41	41	0	41	1	41	5	41	3	41	4	
3	22	5	25	22	0	22	1	22	2	5	3	25	4	
4	9	16	18	49	49	0	49	1	49	2	49	1	49	0	
10	40	41	37	49	13	25	10	14	48	38	49	0	49	1	49	2	25	5	25	4	
6	43	32	5	4	44	28	28	0	28	1	28	2	28	1	28	0	
6	33	24	45	49	13	8	33	0	13	1	13	5	13	3	8	4	
5	20	3	31	13	25	31	0	31	1	31	2	31	1	13	0	
3	23	9	33	23	0	23	1	23	2	33	3	33	4	
5	10	25	18	49	45	10	0	10	1	49	5	49	3	45	4	
9	0	46	42	24	17	30	26	34	40	42	0	24	1	26	2	26	1	34	0	
5	47	1	49	13	8	47	0	47	1	47	2	49	3	8	4	
4	34	37	49	18	18	0	18	1	18	2	18	1	18	0	
5	21	5	25	18	49	21	0	21	1	21	5	49	3	49	4	
8	14	10	25	13	49	1	34	40	14	0	14	1	10	2	25	3	34	4	
6	32	5	4	44	28	46	5	0	44	1	44	2	44	3	44	4	
6	9	16	18	25	5	22	9	0	9	1	22	2	22	5	22	4	
4	31	13	49	45	31	0	31	1	13	5	13	3	45	4	
3	15	7	6	15	0	15	1	15	2	7	3	6	4	
6	2	37	49	18	16	28	49	0	49	1	16	2	16	1	28	0	
4	39	35	10	25	35	0	10	1	10	2	10	3	25	4	
4	10	25	13	8	10	0	10	1	10	2	13	5	8	4	
8	0	48	38	6	22	21	43	20	0	0	0	1	0	2	22	3	20	4	
4	37	49	13	25	37	0	37	1	49	5	49	3	49	4	
3	27	21	5	27	0	27	1	5	2	5	1	5	0	
4	33	24	45	30	33	0	33	1	33	2	30	5	30	4	
5	30	17	24	33	9	30	0	30	1	30	2	30	5	33	4	
5	32	31	13	49	1	49	0	49	1	1	5	1	3	1	4	
4	7	6	38	39	7	0	7	1	7	2	6	3	38	4	
3	25	5	21	25	0	25	1	25	2	25	3	21	4	
8	47	1	49	13	25	5	21	27	47	0	47	1	47	5	21	3	27	4	
6	49	18	16	28	29	12	49	0	49	1	18	2	28	3	28	4	
8	36	48	14	10	25	13	49	37	14	0	10	1	49	2	37	5	37	4	
4	29	28	46	42	29	0	29	1	28	2	42	1	42	0	
3	16	28	44	16	0	16	1	28	2	44	3	44	4	
2	3	31	31	0	31	1	31	2	31	5	31	4	
2	6	7	6	0	6	1	6	2	6	1	7	0	
6	30	45	49	18	19	44	49	0	49	1	49	5	49	3	19	4	
7	17	24	23	28	44	4	22	24	0	28	1	44	2	4	3	22	4	
8	48	14	10	25	18	49	1	34	25	0	18	1	18	5	49	3	34	4	
6	23	28	44	4	22	6	28	0	44	1	44	2	4	5	22	4	
6	2	31	32	5	22	39	31	0	5	1	5	5	5	3	5	4	
2	31	2	31	0	31	1	2	2	2	1	2	0	
3	42	24	17	24	0	24	1	24	2	17	3	17	4	
4	45	24	33	9	45	0	45	1	45	2	33	1	33	0	
3	35	4	5	35	0	35	1	35	5	35	3	5	4	
5	19	18	49	45	30	19	0	49	1	49	2	49	3	30	4	
4	22	6	38	36	22	0	22	1	6	2	6	1	36	0	
3	40	34	1	40	0	40	1	40	2	34	1	1	0	
6	46	28	44	19	25	13	44	0	44	1	25	5	25	3	13	4	
5	34	37	2	31	32	34	0	34	1	34	2	2	5	32	4	
3	13	25	19	13	0	13	1	13	2	25	1	25	0	
2	47	45	47	0	47	1	47	2	47	1	45	0	
4	18	16	9	23	18	0	18	1	18	5	18	3	16	4	
6	8	13	49	45	24	23	49	0	45	1	23	2	23	1	23	0	
5	11	3	43	27	15	11	0	11	1	11	2	43	3	15	4	
7	45	24	42	46	0	48	38	46	0	46	1	46	2	0	5	38	4	
4	1	49	13	31	1	0	1	1	49	2	49	5	13	4	
5	38	48	0	46	28	38	0	38	1	0	2	28	1	28	0	
3	22	21	27	22	0	22	1	21	2	21	5	27	4	
6	28	16	19	25	13	8	28	0	19	1	19	5	13	3	8	4	
2	15	27	15	0	15	1	15	2	27	1	27	0	
6	33	9	16	19	25	10	33	0	33	1	33	2	33	1	9	0	
5	36	38	6	22	4	36	0	36	1	36	2	38	3	4	4	
6	39	22	5	32	31	2	22	0	32	1	32	5	31	3	31	4	
6	23	28	44	10	35	39	28	0	44	1	10	2	10	5	39	4	
6	10	25	18	49	1	47	10	0	10	1	18	2	18	1	47	0	
2	6	38	6	0	6	1	38	2	38	1	38	0	
4	4	5	25	18	4	0	25	1	18	2	18	3	18	4	
7	35	10	25	18	49	1	34	10	0	10	1	25	2	49	1	34	0	
6	28	44	4	22	21	43	28	0	28	1	28	2	4	3	43	4	
5	31	13	25	10	35	31	0	35	1	35	2	35	1	35	0	
5	15	27	21	22	4	21	0	21	1	22	2	22	5	4	4	
3	49	37	41	41	0	41	1	41	2	41	1	41	0	
4	5	25	13	8	5	0	5	1	5	2	13	3	8	4	
5	39	22	5	32	31	39	0	39	1	31	2	31	5	31	4	
7	29	0	48	38	6	7	15	29	0	38	1	38	2	38	3	7	4	
3	16	9	23	16	0	16	1	16	5	16	3	23	4	
5	0	46	28	16	18	0	0	0	1	28	2	16	5	18	4	
6	40	41	37	2	31	32	40	0	40	1	40	2	2	1	32	0	
5	43	21	22	39	38	43	0	43	1	38	2	38	5	38	4	
3	27	43	3	27	0	27	1	3	5	3	3	3	4	
5	30	45	49	13	11	49	0	49	1	11	2	11	3	11	4	
6	20	3	31	13	25	19	31	0	13	1	19	2	19	5	19	4	
2	44	4	44	0	44	1	4	2	4	5	4	4	
5	49	18	25	10	14	49	0	49	1	25	2	25	5	25	4	
3	14	48	38	38	0	38	1	38	5	38	3	38	4	
6	32	31	2	37	34	40	32	0	32	1	31	5	31	3	34	4	
4	16	28	23	42	16	0	16	1	28	2	28	5	42	4	
4	23	28	44	4	28	0	44	1	44	2	4	3	4	4	
2	10	14	10	0	10	1	10	2	10	1	14	0	
4	44	10	35	39	39	0	39	1	39	2	39	1	39	0	
7	31	13	25	10	14	48	0	31	0	25	1	25	5	25	3	25	4	
3	37	2	31	37	0	37	1	37	2	37	5	31	4	
3	21	43	20	43	0	43	1	43	2	20	1	20	0	
5	42	23	28	16	19	42	0	16	1	16	2	16	5	19	4	
3	32	3	11	32	0	32	1	32	2	32	3	11	4	
5	35	4	5	32	3	35	0	35	1	35	2	35	1	4	0	
3	19	16	28	19	0	19	1	19	2	19	5	28	4	
2	25	19	25	0	25	1	25	5	25	3	19	4	
7	9	16	18	49	1	34	40	16	0	49	1	49	2	49	3	34	4	
7	15	27	43	32	31	2	37	27	0	32	1	32	2	31	3	31	4	
7	46	0	48	38	6	7	15	46	0	38	1	38	2	38	1	7	0	
3	33	24	23	33	0	33	1	33	2	24	3	23	4	
4	13	25	5	21	13	0	13	1	13	5	5	3	21	4	
6	0	46	42	24	45	49	42	0	24	1	49	2	49	3	49	4	
4	3	31	13	25	31	0	31	1	31	2	31	1	13	0	
5	6	22	5	25	13	6	0	6	1	22	2	22	5	13	4	
7	4	44	28	23	24	45	47	28	0	28	1	23	2	23	3	47	4	
5	8	13	25	5	21	13	0	13	1	13	5	25	3	21	4	
4	30	17	24	42	30	0	30	1	30	2	30	5	42	4	
6	14	10	25	18	49	1	10	0	25	1	1	2	1	1	1	0	
4	1	49	13	25	25	0	25	1	25	2	25	3	25	4	
4	25	10	14	48	25	0	10	1	10	2	10	3	48	4	
6	46	28	44	4	5	32	44	0	44	1	44	5	44	3	4	4	
4	28	44	10	14	28	0	28	1	28	2	10	1	14	0	
6	12	29	28	16	18	49	28	0	28	1	16	2	16	5	49	4	
9	36	48	0	46	42	24	45	30	26	48	0	24	1	26	2	26	5	26	4	
4	39	38	48	0	38	0	48	1	48	2	0	1	0	0	
7	26	34	37	49	18	25	10	26	0	49	1	18	2	10	3	10	4	
8	29	28	44	4	5	32	43	20	29	0	5	1	32	5	20	3	20	4	
4	6	22	5	32	22	0	5	1	32	5	32	3	32	4	
8	40	41	37	2	31	3	43	27	37	0	31	1	31	2	31	5	31	4	
6	24	23	28	44	4	22	24	0	44	1	44	5	4	3	22	4	
4	17	30	45	49	17	0	17	1	49	2	49	3	49	4	
5	48	38	6	7	15	48	0	48	1	6	2	6	1	7	0	
5	7	6	38	48	14	6	0	6	1	6	2	48	1	14	0	
6	28	16	18	49	37	41	28	0	28	1	18	2	49	5	49	4	
4	18	16	28	29	29	0	29	1	29	2	29	3	29	4	
3	5	25	10	5	0	5	1	5	2	10	5	10	4	
6	11	13	25	18	16	9	13	0	18	1	18	5	18	3	18	4	
5	45	49	18	19	44	49	0	49	1	18	5	44	3	44	4	
5	29	28	16	18	49	29	0	29	1	18	2	49	5	49	4	
5	16	18	25	5	21	16	0	16	1	5	2	5	1	21	0	
6	22	5	25	18	49	1	22	0	22	1	1	5	1	3	1	4	
6	43	21	22	6	38	36	43	0	22	1	22	2	22	3	22	4	
8	20	3	31	13	49	45	24	17	31	0	49	1	49	2	49	3	17	4	
6	23	24	45	49	37	41	49	0	49	1	49	2	49	1	49	0	
5	10	25	13	49	37	25	0	49	1	49	2	37	5	37	4	
6	41	37	2	31	3	20	41	0	41	1	37	2	37	1	3	0	
2	44	10	10	0	10	1	10	2	10	3	10	4	
2	34	26	34	0	34	1	34	2	26	5	26	4	
7	21	5	25	18	49	37	41	21	0	21	1	18	2	49	3	49	4	
5	14	10	25	5	32	14	0	14	1	10	2	32	1	32	0	
3	32	5	22	5	0	5	1	22	2	22	1	22	0	
4	12	29	28	16	16	0	16	1	16	2	16	3	16	4	
2	46	42	42	0	42	1	42	2	42	3	42	4	
3	26	30	45	45	0	45	1	45	2	45	5	45	4	
4	10	14	48	0	10	0	48	1	48	5	0	3	0	4	
5	44	19	18	49	37	44	0	44	1	19	5	37	3	37	4	
3	0	29	28	0	0	0	1	0	2	28	1	28	0	
5	37	34	26	30	17	37	0	37	1	37	2	17	3	17	4	
2	21	22	21	0	21	1	21	5	22	3	22	4	
5	27	21	5	25	13	25	0	25	1	25	2	25	5	13	4	
4	14	12	29	28	28	0	28	1	28	2	28	3	28	4	
6	32	5	25	18	16	9	5	0	5	1	5	2	18	5	18	4	
9	7	6	22	5	25	13	49	1	47	6	0	5	1	13	2	13	1	47	0	
4	38	39	22	5	22	0	22	1	5	2	5	3	5	4	
2	25	13	25	0	25	1	25	2	25	1	13	0	
3	9	23	42	23	0	23	1	23	2	23	5	42	4	
6	2	31	32	5	4	35	2	0	2	1	31	2	31	1	32	0	
3	5	32	43	43	0	43	1	43	2	43	3	43	4	
7	39	35	10	25	18	49	37	10	0	10	1	10	2	37	3	37	4	
7	3	31	13	49	45	24	23	13	0	45	1	23	5	23	3	23	4	
3	6	7	15	6	0	6	1	6	2	15	3	15	4	
7	27	21	22	4	44	28	46	27	0	27	1	22	2	22	1	22	0	
8	30	45	24	42	46	0	48	36	46	0	0	1	0	2	0	3	36	4	
6	14	10	25	13	31	3	10	0	13	1	13	5	3	3	3	4	
4	48	0	46	42	48	0	46	1	46	2	42	3	42	4	
5	4	5	25	13	11	4	0	13	1	11	2	11	1	11	0	
3	49	18	19	49	0	49	1	19	2	19	5	19	4	
4	41	37	49	13	37	0	49	1	13	2	13	5	13	4	
5	31	2	37	34	26	31	0	31	1	31	2	31	3	2	4	
5	18	16	28	29	0	16	0	16	1	16	2	28	1	28	0	
6	8	13	25	10	14	12	25	0	25	1	10	5	10	3	12	4	
6	42	24	45	49	37	41	45	0	49	1	49	5	49	3	49	4	
8	26	30	45	24	23	28	29	12	30	0	24	1	24	2	23	5	23	4	
5	29	28	44	4	22	29	0	44	1	44	2	4	1	22	0	
4	19	25	5	22	5	0	5	1	22	5	22	3	22	4	
6	40	41	37	49	13	25	25	0	25	1	25	2	25	3	25	4	
6	43	32	31	13	49	1	13	0	49	1	1	2	1	1	1	0	
5	46	28	44	4	5	44	0	44	1	44	2	4	5	5	4	
5	48	14	10	25	13	14	0	14	1	25	5	25	3	13	4	
6	7	6	38	48	14	12	6	0	48	1	48	5	48	3	48	4	
5	13	31	32	43	27	32	0	32	1	32	2	43	5	27	4	
4	47	1	49	37	47	0	47	1	47	2	37	5	37	4	
4	18	49	13	31	18	0	18	1	49	2	49	5	13	4	
6	11	13	49	45	24	23	49	0	45	1	23	2	23	1	23	0	
4	45	24	42	46	45	0	45	1	45	2	42	1	46	0	
8	1	49	18	25	5	22	6	7	1	0	1	1	25	5	5	3	6	4	
4	22	5	32	3	22	0	32	1	32	2	3	1	3	0	
6	9	16	18	49	13	11	9	0	9	1	11	2	11	3	11	4	
5	36	48	0	46	28	36	0	36	1	36	2	28	1	28	0	
3	39	35	10	39	0	39	1	35	2	10	5	10	4	
4	23	24	45	47	23	0	23	1	23	5	24	3	47	4	
3	10	35	39	10	0	10	1	35	2	35	3	39	4	
7	41	37	49	18	25	5	22	49	0	25	1	25	5	5	3	5	4	
8	47	1	49	13	25	5	22	6	47	0	47	1	47	2	25	1	22	0	
5	6	38	48	0	46	6	0	6	1	38	2	48	5	46	4	
4	24	23	28	16	24	0	24	1	24	2	28	5	16	4	
4	8	11	3	43	8	0	8	1	8	2	11	1	43	0	
8	1	49	18	25	10	14	48	36	1	0	1	1	25	2	14	3	36	4	
5	4	44	28	23	42	28	0	28	1	28	2	23	1	42	0	
5	38	39	22	5	32	22	0	22	1	22	2	22	1	32	0	
6	12	14	48	38	6	22	12	0	12	1	12	2	38	5	6	4	
6	2	31	32	5	22	6	31	0	5	1	5	2	5	3	22	4	
6	5	25	10	14	48	0	5	0	5	1	5	5	25	3	48	4	
4	26	34	1	47	26	0	26	1	26	2	34	3	47	4	
5	16	19	25	13	31	19	0	25	1	31	2	31	5	31	4	
7	0	46	42	24	45	30	26	42	0	45	1	26	5	26	3	26	4	
4	27	43	3	11	27	0	27	1	43	2	43	3	11	4	
3	38	6	7	38	0	38	1	38	2	7	5	7	4	
4	44	10	14	12	44	0	44	1	10	5	10	3	12	4	
2	28	23	23	0	23	1	23	2	23	3	23	4	
5	49	18	25	5	22	49	0	49	1	22	2	22	1	22	0	
7	21	5	25	18	49	1	47	21	0	21	1	18	5	18	3	47	4	
5	5	25	18	49	45	5	0	18	1	49	2	49	5	45	4	
4	39	22	21	43	43	0	43	1	43	2	43	5	43	4	
5	27	21	22	4	44	27	0	27	1	22	5	22	3	22	4	
2	17	24	17	0	17	1	24	2	24	1	24	0	
5	4	44	28	23	9	28	0	28	1	23	5	9	3	9	4	
5	10	35	39	38	6	10	0	10	1	35	2	6	5	6	4	
6	44	19	18	49	1	47	49	0	49	1	49	2	49	3	47	4	
5	31	13	49	45	24	49	0	45	1	45	2	24	5	24	4	
5	37	49	45	24	23	45	0	45	1	23	5	23	3	23	4	
6	21	5	25	10	14	12	21	0	21	1	10	2	10	3	12	4	
4	8	13	25	10	13	0	13	1	13	2	10	1	10	0	
8	42	23	28	44	4	22	21	43	42	0	44	1	4	2	22	1	43	0	
8	14	10	25	18	49	37	34	26	10	0	25	1	18	5	18	3	26	4	
4	45	49	18	19	49	0	18	1	19	2	19	3	19	4	
6	19	25	13	31	3	20	13	0	3	1	20	2	20	1	20	0	
5	22	4	44	28	46	4	0	44	1	44	2	44	3	44	4	
6	9	16	18	25	5	32	9	0	9	1	32	5	32	3	32	4	
3	43	27	15	43	0	43	1	43	5	15	3	15	4	
3	2	37	41	41	0	41	1	41	2	41	5	41	4	
6	33	24	45	49	13	31	33	0	49	1	31	2	31	1	31	0	
8	20	3	31	13	49	45	24	42	31	0	24	1	24	5	24	3	42	4	
5	23	28	46	0	48	23	0	23	1	28	2	28	3	28	4	
6	13	25	18	16	28	29	13	0	13	1	16	2	16	3	16	4	
8	47	1	49	13	31	3	43	27	47	0	47	1	47	2	13	3	27	4	
5	37	2	31	3	43	37	0	37	1	37	2	37	5	2	4	
2	4	44	4	0	4	1	44	5	44	3	44	4	
3	30	26	34	34	0	34	1	34	5	34	3	34	4	
6	25	18	49	37	34	40	37	0	37	1	37	5	37	3	34	4	
5	9	16	19	25	5	25	0	5	1	5	2	5	5	5	4	
10	15	27	43	3	11	13	49	45	24	17	27	0	13	1	13	2	13	3	17	4	
6	36	48	14	10	25	18	36	0	36	1	36	5	25	3	25	4	
6	39	22	5	25	13	8	25	0	25	1	25	2	13	3	8	4	
4	26	34	37	2	26	0	26	1	26	2	2	1	2	0	
2	29	28	28	0	28	1	28	2	28	5	28	4	
5	13	49	45	24	33	49	0	45	1	45	5	33	3	33	4	
7	47	45	24	23	28	44	4	45	0	23	1	28	5	4	3	4	4	
9	6	22	5	25	18	49	1	34	40	22	0	49	1	49	2	49	3	34	4	
3	37	2	8	37	0	37	1	37	2	37	1	8	0	
6	24	23	28	44	10	14	24	0	24	1	24	2	28	3	44	4	
4	8	2	37	41	8	0	8	1	37	5	37	3	41	4	
8	34	26	30	17	24	42	46	0	34	0	46	1	0	2	0	5	0	4	
5	48	0	46	28	23	0	0	46	1	46	2	46	3	28	4	
7	48	38	39	22	21	43	20	22	0	21	1	21	2	21	5	20	4	
3	7	6	22	6	0	6	1	6	2	6	3	6	4	
8	41	37	2	31	32	43	27	15	2	0	2	1	43	5	43	3	43	4	
3	18	49	37	37	0	37	1	37	5	37	3	37	4	
2	2	8	2	0	2	1	2	2	2	5	8	4	
4	5	32	31	2	5	0	31	1	2	2	2	1	2	0	
3	16	28	29	16	0	16	1	28	2	29	3	29	4	
6	22	4	44	28	16	9	4	0	44	1	44	2	44	5	28	4	
3	24	45	49	24	0	24	1	49	5	49	3	49	4	
5	47	1	49	18	19	47	0	47	1	47	5	49	3	18	4	
6	30	45	24	23	28	29	24	0	23	1	23	2	23	1	29	0	
7	17	24	23	28	44	4	5	24	0	28	1	44	2	44	3	5	4	
3	23	24	17	23	0	23	1	23	2	17	5	17	4	
6	41	37	49	18	19	44	49	0	49	1	49	2	44	3	44	4	
3	44	19	18	44	0	44	1	19	2	19	1	18	0	
5	28	44	4	22	21	4	0	4	1	21	2	21	5	21	4	
3	34	37	2	34	0	34	1	34	5	2	3	2	4	
7	21	5	25	18	16	9	33	21	0	21	1	18	2	18	1	33	0	
5	42	46	0	48	14	0	0	48	1	48	2	48	3	14	4	
3	19	18	49	19	0	19	1	18	2	49	3	49	4	
5	12	29	28	23	24	28	0	23	1	23	2	24	1	24	0	
7	46	42	24	17	30	26	34	24	0	24	1	34	2	34	1	34	0	
7	33	24	42	46	0	48	36	33	0	0	1	0	2	0	5	36	4	
3	17	30	26	17	0	17	1	17	5	26	3	26	4	
5	10	44	28	23	24	10	0	10	1	28	2	24	3	24	4	
5	44	19	18	49	45	44	0	44	1	19	2	49	5	45	4	
5	46	28	44	10	35	44	0	44	1	44	2	35	5	35	4	
5	21	5	25	10	14	21	0	21	1	21	2	21	5	25	4	
7	14	10	25	5	32	43	20	10	0	5	1	32	2	20	1	20	0	
6	45	49	18	25	5	21	49	0	49	1	25	2	25	5	21	4	
3	35	10	25	25	0	25	1	25	2	25	3	25	4	
6	38	48	14	10	25	13	14	0	14	1	14	5	25	3	13	4	
8	22	5	25	18	49	1	34	40	22	0	22	1	49	2	49	5	34	4	
6	9	16	18	49	1	34	9	0	9	1	9	2	9	1	34	0	
4	2	31	32	43	2	0	31	1	31	2	31	3	32	4	
3	5	4	35	5	0	5	1	5	2	5	1	35	0	
7	39	35	10	25	18	49	45	10	0	10	1	10	2	49	1	45	0	
6	26	34	37	49	18	25	26	0	49	1	18	2	25	5	25	4	
4	0	48	38	39	48	0	38	1	38	2	39	1	39	0	
6	3	31	13	49	1	47	3	0	3	1	31	2	13	3	47	4	
2	34	37	37	0	37	1	37	2	37	1	37	0	
3	37	49	45	37	0	37	1	49	2	45	3	45	4	
4	4	5	32	3	4	0	4	1	4	2	3	3	3	4	
6	25	10	44	28	23	42	25	0	10	1	10	2	23	1	42	0	
4	31	13	49	18	13	0	18	1	18	5	18	3	18	4	
8	15	7	6	22	4	44	28	23	28	0	28	1	23	2	23	5	23	4	
3	42	24	33	24	0	24	1	24	2	33	5	33	4	
8	26	30	45	24	23	28	44	4	30	0	24	1	28	5	4	3	4	4	
6	29	28	23	24	17	30	29	0	29	1	23	2	24	3	30	4	
4	19	44	10	14	10	0	10	1	10	2	10	5	14	4	
7	3	32	5	25	10	14	48	32	0	5	1	5	5	10	3	48	4	
5	37	49	18	25	10	25	0	25	1	25	5	10	3	10	4	
7	43	32	5	25	19	16	9	32	0	32	1	32	2	32	5	25	4	
5	27	21	5	25	18	18	0	18	1	18	2	18	1	18	0	
5	48	38	6	22	21	48	0	48	1	38	2	38	5	21	4	
6	20	3	32	5	4	44	3	0	32	1	5	2	5	5	44	4	
5	7	15	27	43	20	15	0	15	1	27	2	27	5	20	4	
6	41	37	49	18	16	9	49	0	49	1	49	2	18	1	18	0	
6	47	45	24	23	28	29	47	0	47	1	47	5	45	3	29	4	
5	18	25	10	35	39	18	0	18	1	18	2	35	1	39	0	
6	3	32	5	22	39	38	32	0	22	1	38	5	38	3	38	4	
2	46	0	46	0	46	1	46	5	0	3	0	4	
5	22	21	43	3	11	43	0	43	1	43	2	3	3	11	4	
7	9	16	18	49	13	31	3	9	0	9	1	49	2	3	1	3	0	
7	12	14	10	25	5	32	3	14	0	25	1	25	2	3	5	3	4	
8	43	21	22	4	44	28	23	42	43	0	22	1	44	2	23	1	42	0	
5	30	45	49	13	31	49	0	49	1	49	5	49	3	49	4	
7	6	22	5	25	13	49	45	6	0	6	1	22	5	22	3	45	4	
5	5	22	39	38	36	5	0	5	1	22	2	22	5	39	4	
4	20	43	27	15	20	0	20	1	20	2	15	1	15	0	
7	41	37	49	18	16	28	46	49	0	16	1	16	2	16	5	16	4	
5	13	25	10	35	39	13	0	13	1	13	2	10	5	39	4	
7	34	37	49	18	19	44	4	19	0	44	1	44	2	4	1	4	0	
5	3	31	13	49	45	3	0	3	1	31	5	49	3	45	4	
5	24	45	49	13	8	45	0	49	1	49	5	49	3	8	4	
5	8	13	25	10	35	25	0	35	1	35	2	35	3	35	4	
3	42	46	0	46	0	46	1	0	2	0	5	0	4	
5	1	49	18	19	44	1	0	1	1	18	5	44	3	44	4	
5	32	5	4	44	28	5	0	44	1	28	2	28	3	28	4	
5	19	18	49	1	47	19	0	49	1	49	2	49	5	47	4	
7	12	29	28	23	24	17	30	28	0	28	1	23	5	24	3	30	4	
6	2	31	13	25	10	14	31	0	13	1	25	2	25	1	25	0	
7	33	24	42	46	0	48	38	33	0	46	1	46	2	46	3	38	4	
10	36	48	14	10	25	13	49	1	34	40	36	0	36	1	36	2	10	1	34	0	
4	13	25	5	4	13	0	13	1	13	2	5	1	4	0	
8	0	48	14	10	25	13	31	2	25	0	25	1	25	2	25	3	31	4	
9	40	41	37	49	13	25	10	14	48	49	0	49	1	49	5	49	3	48	4	
4	41	34	1	47	41	0	41	1	41	2	41	5	47	4	
7	24	45	49	13	31	3	43	49	0	49	1	49	2	49	3	43	4	
5	33	9	16	18	25	33	0	33	1	33	2	33	5	9	4	
7	17	24	45	49	13	31	3	45	0	13	1	13	5	3	3	3	4	
5	35	10	44	28	23	28	0	28	1	23	2	23	5	23	4	
4	38	6	7	15	38	0	38	1	38	2	38	1	7	0	
5	25	5	22	6	7	5	0	22	1	22	2	22	3	6	4	
6	28	16	18	25	13	31	25	0	13	1	31	5	31	3	31	4	
8	12	29	28	16	18	49	1	34	28	0	18	1	18	2	49	5	34	4	
3	49	45	30	49	0	49	1	30	2	30	3	30	4	
5	5	25	13	49	37	5	0	49	1	49	5	37	3	37	4	
8	26	34	37	2	31	3	43	27	26	0	26	1	26	2	37	3	31	4	
9	34	37	49	18	25	10	14	48	36	25	0	25	1	25	2	14	3	36	4	
7	0	46	42	24	45	49	37	42	0	24	1	49	5	37	3	37	4	
8	6	22	4	44	28	23	24	17	22	0	44	1	28	2	28	1	17	0	
9	40	41	37	49	13	25	10	14	12	49	0	10	1	10	2	10	5	12	4	
7	17	24	45	49	13	31	32	45	0	31	1	32	2	32	3	32	4	
6	4	44	19	18	49	1	19	0	49	1	1	2	1	5	1	4	
6	10	25	18	49	45	30	10	0	10	1	18	5	49	3	30	4	
5	31	13	49	18	16	31	0	31	1	49	2	18	1	18	0	
3	18	25	10	18	0	18	1	18	2	10	3	10	4	
3	21	5	4	21	0	21	1	21	5	21	3	4	4	
6	42	23	28	44	10	35	42	0	23	1	23	2	28	3	44	4	
7	45	49	13	25	5	21	27	49	0	21	1	21	2	21	1	27	0	
6	16	18	25	5	22	6	16	0	16	1	25	5	5	3	22	4	
5	19	44	10	14	12	19	0	19	1	44	2	44	3	12	4	
4	40	34	1	47	40	0	40	1	40	2	34	1	47	0	
7	43	21	22	4	44	28	23	43	0	22	1	22	2	4	3	23	4	
6	27	21	5	25	18	16	27	0	27	1	21	5	25	3	25	4	
9	33	9	16	19	44	4	22	6	7	9	0	44	1	44	2	44	5	6	4	
6	20	3	31	2	37	34	31	0	2	1	34	2	34	3	34	4	
5	47	1	49	18	19	47	0	47	1	47	2	49	1	18	0	
6	37	49	13	25	10	35	37	0	37	1	49	5	13	3	13	4	
7	11	13	25	19	44	28	29	13	0	25	1	25	2	25	3	29	4	
5	14	10	25	18	49	14	0	14	1	10	5	49	3	49	4	
4	32	5	22	39	22	0	22	1	22	5	22	3	39	4	
3	25	5	32	32	0	32	1	32	2	32	5	32	4	
5	35	39	38	48	0	39	0	39	1	39	5	0	3	0	4	
4	9	23	28	29	23	0	23	1	28	5	29	3	29	4	
7	12	29	28	16	18	49	1	28	0	49	1	1	2	1	3	1	4	
7	43	32	31	2	37	34	40	31	0	31	1	31	5	31	3	34	4	
8	15	27	21	5	25	18	16	9	15	0	15	1	15	2	18	1	18	0	
5	2	31	32	5	21	2	0	2	1	31	2	31	5	21	4	
4	20	3	31	13	31	0	31	1	31	5	31	3	13	4	
4	10	25	18	49	10	0	10	1	18	2	49	1	49	0	
4	13	49	37	41	13	0	13	1	49	2	37	3	41	4	
3	6	38	48	6	0	6	1	48	2	48	1	48	0	
7	37	49	45	24	42	46	0	24	0	46	1	0	2	0	3	0	4	
7	24	23	28	44	4	22	6	24	0	24	1	24	2	28	1	22	0	
6	8	13	49	45	24	33	49	0	45	1	45	2	33	5	33	4	
6	1	47	45	24	42	46	1	0	1	1	47	2	45	1	24	0	
3	4	5	32	4	0	4	1	5	2	32	3	32	4	
4	35	39	38	48	39	0	39	1	39	2	48	1	48	0	
5	38	48	0	46	42	38	0	38	1	48	2	0	3	42	4	
4	25	19	16	28	19	0	19	1	19	5	19	3	28	4	
3	31	13	49	31	0	31	1	13	2	13	1	13	0	
7	15	27	43	32	31	2	37	27	0	32	1	32	5	31	3	31	4	
3	18	49	45	18	0	18	1	49	2	45	5	45	4	
7	2	31	13	25	10	14	48	31	0	13	1	13	5	25	3	48	4	
7	5	25	18	49	45	30	26	5	0	18	1	26	2	26	3	26	4	
4	36	48	0	46	36	0	36	1	0	5	0	3	46	4	
5	29	28	23	24	33	29	0	29	1	23	2	23	3	33	4	
5	13	25	5	22	6	13	0	13	1	13	5	25	3	22	4	
5	3	43	21	22	6	3	0	21	1	21	2	21	1	21	0	
5	24	45	49	37	41	45	0	49	1	49	2	49	5	49	4	
7	30	45	49	18	25	5	21	49	0	49	1	25	2	25	3	21	4	
5	17	30	45	49	13	45	0	49	1	13	2	13	1	13	0	
5	23	28	16	19	25	28	0	25	1	25	5	25	3	25	4	
9	41	37	49	18	25	10	14	48	36	49	0	25	1	25	5	14	3	36	4	
4	25	18	49	1	49	0	49	1	1	2	1	5	1	4	
2	28	29	29	0	29	1	29	2	29	1	29	0	
6	42	46	0	48	38	6	46	0	46	1	46	2	46	1	6	0	
5	45	24	42	46	0	45	0	46	1	0	2	0	5	0	4	
5	19	18	49	37	41	19	0	49	1	49	2	49	1	49	0	
5	6	22	5	25	19	6	0	6	1	22	5	22	3	22	4	
7	40	41	37	49	13	25	10	49	0	49	1	49	2	10	3	10	4	
2	4	35	4	0	4	1	4	2	35	5	35	4	
4	17	30	26	34	34	0	34	1	34	2	34	5	34	4	
4	10	25	19	16	10	0	10	1	16	2	16	1	16	0	
3	0	29	12	0	0	0	1	0	5	12	3	12	4	
6	2	31	13	25	10	14	31	0	13	1	25	5	25	3	25	4	
5	18	25	10	14	12	18	0	18	1	18	2	25	5	12	4	
3	21	22	6	21	0	22	1	6	2	6	1	6	0	
7	8	13	25	10	14	48	0	13	0	13	1	13	2	25	3	25	4	
6	11	3	43	21	22	6	3	0	21	1	21	5	21	3	21	4	
5	45	24	23	28	29	45	0	45	1	45	5	45	3	29	4	
7	35	10	44	28	23	24	17	28	0	28	1	28	2	28	1	17	0	
4	38	39	22	21	39	0	22	1	21	2	21	5	21	4	
5	22	5	25	19	16	22	0	19	1	16	5	16	3	16	4	
5	40	34	26	30	45	34	0	26	1	26	5	26	3	45	4	
4	12	14	48	36	48	0	48	1	48	2	36	1	36	0	
5	33	24	45	47	1	33	0	47	1	47	2	1	3	1	4	
5	48	14	10	44	19	14	0	14	1	10	5	10	3	19	4	
6	0	46	42	24	45	47	42	0	42	1	42	2	42	3	42	4	
5	3	43	21	22	39	3	0	22	1	22	2	22	1	39	0	
4	34	26	30	45	34	0	34	1	26	2	26	3	45	4	
6	32	31	13	49	45	30	13	0	13	1	49	2	49	5	30	4	
4	11	3	43	27	11	0	11	1	11	2	43	5	27	4	
4	1	49	13	11	49	0	11	1	11	2	11	3	11	4	
4	32	31	2	37	32	0	32	1	2	2	2	1	37	0	
6	35	10	25	18	49	45	10	0	18	1	49	2	49	3	45	4	
5	25	18	49	37	34	34	0	34	1	34	2	34	3	34	4	
6	31	13	49	45	24	42	49	0	24	1	24	2	24	5	42	4	
6	2	37	49	45	24	23	49	0	45	1	23	2	23	3	23	4	
2	39	22	39	0	39	1	39	2	22	1	22	0	
4	16	28	29	0	16	0	16	1	28	2	28	5	0	4	
2	37	2	37	0	37	1	2	2	2	5	2	4	
8	43	32	31	13	49	45	24	17	31	0	31	1	13	5	13	3	17	4	
8	27	43	32	31	2	37	34	26	31	0	31	1	31	2	31	3	26	4	
3	48	0	29	48	0	48	1	48	2	48	1	29	0	
7	20	43	21	22	6	38	36	20	0	43	1	21	5	21	3	22	4	
4	4	22	6	38	6	0	6	1	6	2	6	5	38	4	
6	7	6	22	4	44	28	6	0	6	1	6	2	6	1	22	0	
5	25	13	49	45	30	25	0	49	1	49	2	49	1	30	0	
4	18	49	1	47	18	0	18	1	49	2	49	3	47	4	
4	49	18	25	5	49	0	5	1	5	5	5	3	5	4	
5	16	19	44	10	35	16	0	16	1	44	2	35	1	35	0	
4	3	32	5	4	3	0	3	1	3	5	32	3	4	4	
7	9	16	19	25	5	21	27	16	0	21	1	21	2	21	5	27	4	
4	30	17	24	23	30	0	30	1	30	2	30	5	23	4	
5	20	43	27	15	7	20	0	20	1	20	2	27	3	15	4	
6	23	24	45	49	13	31	24	0	49	1	31	2	31	1	31	0	
9	41	37	2	31	32	5	22	6	38	41	0	41	1	37	2	37	1	32	0	
4	13	49	1	47	13	0	13	1	49	5	49	3	47	4	
4	44	28	23	24	28	0	28	1	23	2	24	3	24	4	
2	31	11	31	0	31	1	31	2	31	5	11	4	
2	21	27	21	0	21	1	21	2	21	3	27	4	
2	42	24	42	0	42	1	42	5	42	3	24	4	
4	45	49	37	2	37	0	37	1	37	2	2	3	2	4	
3	32	5	4	5	0	5	1	5	2	5	1	4	0	
2	35	10	35	0	35	1	35	2	35	5	10	4	
5	19	44	10	35	39	19	0	19	1	44	5	10	3	39	4	
8	46	28	44	4	5	32	3	20	44	0	44	1	44	2	44	3	44	4	
6	36	38	6	22	5	32	36	0	36	1	36	2	22	5	32	4	
5	29	0	48	38	39	29	0	29	1	29	5	29	3	38	4	
5	13	25	10	14	12	25	0	10	1	10	2	10	3	12	4	
4	0	48	14	10	48	0	14	1	14	2	14	1	10	0	
4	47	45	24	42	47	0	47	1	24	2	42	3	42	4	
8	34	37	49	13	25	10	14	48	49	0	49	1	49	2	25	1	48	0	
6	24	23	28	44	10	35	24	0	24	1	24	5	35	3	35	4	
5	8	13	49	45	30	49	0	49	1	49	2	49	5	30	4	
5	11	13	25	5	4	13	0	5	1	5	2	5	1	4	0	
4	1	49	18	16	1	0	1	1	18	5	18	3	18	4	
6	38	48	0	46	28	23	38	0	38	1	46	2	46	3	28	4	
6	28	44	4	22	6	7	28	0	28	1	28	2	44	5	6	4	
5	12	29	28	23	42	12	0	12	1	12	5	28	3	42	4	
7	36	38	6	22	5	32	3	36	0	36	1	36	2	3	1	3	0	
6	3	31	2	37	34	26	3	0	3	1	31	2	31	5	31	4	
5	0	46	42	24	45	42	0	24	1	24	2	24	5	45	4	
4	6	22	5	25	6	0	6	1	22	2	22	3	25	4	
8	40	41	37	49	18	19	44	4	19	0	44	1	44	5	4	3	4	4	
5	24	45	49	13	31	49	0	49	1	31	2	31	3	31	4	
5	17	30	26	34	40	30	0	26	1	26	5	26	3	34	4	
3	4	5	25	4	0	4	1	4	2	4	1	25	0	
5	35	39	22	21	43	43	0	43	1	43	2	43	5	43	4	
4	2	37	49	45	2	0	2	1	2	2	37	3	45	4	
6	28	16	18	49	37	34	34	0	34	1	34	5	34	3	34	4	
5	31	2	37	34	40	31	0	37	1	37	2	37	3	34	4	
3	49	1	34	49	0	49	1	49	2	49	3	34	4	
5	39	22	21	43	20	21	0	21	1	21	5	21	3	20	4	
6	45	49	18	25	10	35	18	0	35	1	35	2	35	5	35	4	
7	29	28	44	19	25	13	8	29	0	19	1	19	2	13	1	8	0	
5	16	19	44	10	14	44	0	44	1	44	2	10	3	14	4	
7	22	5	25	18	49	45	30	22	0	18	1	18	2	49	5	30	4	
9	40	41	37	49	13	25	10	35	39	49	0	25	1	10	2	10	3	39	4	
7	3	31	13	49	45	24	42	13	0	24	1	24	2	24	5	42	4	
3	43	3	31	43	0	43	1	43	2	31	1	31	0	
8	27	21	22	4	44	28	23	24	21	0	4	1	4	2	24	5	24	4	
9	33	9	16	19	25	5	21	27	15	33	0	33	1	33	5	33	3	15	4	
7	20	3	31	2	37	34	26	20	0	20	1	3	2	31	1	26	0	
5	10	44	28	23	42	28	0	28	1	28	5	23	3	42	4	
5	41	37	2	31	3	2	0	31	1	31	2	3	3	3	4	
5	44	4	5	32	3	32	0	32	1	32	5	3	3	3	4	
5	21	22	6	38	48	21	0	22	1	22	5	48	3	48	4	
7	14	10	25	13	49	37	41	14	0	14	1	10	2	25	5	25	4	
6	32	31	13	49	1	47	13	0	49	1	49	2	49	5	47	4	
3	16	9	33	16	0	16	1	16	5	16	3	33	4	
6	9	16	18	25	5	21	9	0	9	1	9	2	9	3	21	4	
2	41	40	41	0	41	1	41	5	40	3	40	4	
6	43	21	22	6	38	48	43	0	6	1	6	2	48	5	48	4	
8	15	27	21	5	25	18	49	1	5	0	25	1	1	2	1	5	1	4	
5	33	24	45	30	26	33	0	33	1	33	5	30	3	26	4	
4	20	43	21	5	20	0	43	1	5	2	5	5	5	4	
5	10	44	28	23	9	28	0	28	1	23	2	9	3	9	4	
2	13	49	49	0	49	1	49	2	49	1	49	0	
6	44	19	18	49	45	30	44	0	44	1	18	2	49	5	30	4	
7	34	37	49	18	25	10	14	25	0	25	1	25	2	25	3	25	4	
4	37	49	45	24	49	0	45	1	45	5	24	3	24	4	
6	21	5	4	44	28	29	21	0	21	1	21	2	21	5	29	4	
6	11	13	49	45	24	33	49	0	49	1	49	2	33	3	33	4	
8	6	22	4	44	28	23	24	17	6	0	6	1	22	5	22	3	22	4	
3	32	31	2	32	0	32	1	2	5	2	3	2	4	
5	35	10	25	13	8	10	0	10	1	10	2	10	3	8	4	
5	25	5	21	43	20	25	0	25	1	25	2	25	5	20	4	
8	15	27	43	32	31	2	37	34	27	0	31	1	34	2	34	1	34	0	
4	49	13	31	3	49	0	49	1	49	2	3	5	3	4	
7	33	24	45	30	26	34	40	33	0	24	1	26	2	26	1	34	0	
2	36	38	38	0	38	1	38	2	38	3	38	4	
7	29	28	16	18	49	37	41	29	0	29	1	18	2	49	1	49	0	
4	13	25	10	14	13	0	13	1	13	2	25	5	25	4	
6	3	31	13	49	45	30	3	0	3	1	31	2	13	3	30	4	
3	6	22	4	6	0	6	1	4	2	4	1	4	0	
2	24	33	24	0	24	1	24	2	24	1	33	0	
2	30	45	45	0	45	1	45	5	45	3	45	4	
5	14	10	25	13	8	14	0	14	1	14	2	14	5	8	4	
3	1	49	18	1	0	1	1	18	2	18	1	18	0	
4	28	44	4	5	28	0	28	1	28	2	44	3	5	4	
2	31	13	31	0	31	1	31	2	31	1	13	0	
8	36	48	14	10	25	13	49	1	36	0	36	1	36	5	10	3	10	4	
4	42	24	17	30	24	0	24	1	24	2	17	5	30	4	
8	26	34	37	49	18	25	5	21	26	0	49	1	25	2	25	1	21	0	
4	19	16	9	33	16	0	16	1	9	2	9	5	33	4	
4	6	7	15	27	6	0	6	1	7	2	15	5	27	4	
4	40	41	37	2	40	0	40	1	40	2	2	1	2	0	
4	24	23	28	29	24	0	24	1	24	2	23	5	28	4	
4	46	28	16	18	16	0	16	1	16	5	16	3	18	4	
7	30	45	24	42	46	0	48	46	0	46	1	46	2	46	5	46	4	
3	17	24	42	42	0	42	1	42	2	42	1	42	0	
3	48	38	6	48	0	48	1	38	2	6	5	6	4	
6	18	49	13	31	3	20	13	0	3	1	20	5	20	3	20	4	
5	8	13	49	45	24	49	0	45	1	45	2	24	1	24	0	
5	11	13	25	10	14	13	0	10	1	10	2	10	5	14	4	
3	45	49	37	49	0	49	1	37	2	37	3	37	4	
4	29	28	44	10	29	0	29	1	44	5	10	3	10	4	
5	19	25	13	8	2	13	0	13	1	13	2	8	1	2	0	
6	22	4	44	28	23	24	22	0	22	1	44	2	24	3	24	4	
3	40	41	37	40	0	40	1	40	2	41	5	41	4	
4	12	29	28	44	44	0	44	1	44	2	44	5	44	4	
2	33	9	33	0	33	1	33	2	9	1	9	0	
6	23	42	46	0	48	38	46	0	0	1	0	2	0	3	38	4	
2	10	44	44	0	44	1	44	2	44	1	44	0	
7	41	37	49	18	16	28	29	49	0	28	1	28	2	29	5	29	4	
5	44	19	18	49	1	19	0	49	1	1	2	1	1	1	0	
5	47	45	24	33	9	47	0	47	1	24	2	33	3	33	4	
7	34	37	49	18	25	5	21	18	0	18	1	25	5	25	3	21	4	
6	14	10	25	5	32	43	10	0	5	1	5	2	43	3	43	4	
3	4	44	19	19	0	19	1	19	2	19	5	19	4	
6	35	10	25	13	49	37	10	0	10	1	25	2	37	1	37	0	
5	28	46	0	48	36	46	0	0	1	0	2	0	5	36	4	
7	12	14	48	38	6	7	15	48	0	38	1	38	2	38	1	7	0	
2	15	7	15	0	15	1	15	2	7	3	7	4	
4	46	42	24	45	46	0	46	1	42	2	24	1	45	0	
8	39	35	10	25	13	49	45	30	10	0	10	1	10	2	25	3	30	4	
4	10	25	13	11	25	0	13	1	11	2	11	5	11	4	
5	16	18	49	13	8	16	0	16	1	16	5	18	3	8	4	
5	0	29	28	16	19	16	0	16	1	16	2	16	3	19	4	
3	37	34	26	37	0	37	1	37	2	26	1	26	0	
5	27	43	32	31	2	27	0	27	1	43	5	31	3	31	4	
5	11	13	49	1	47	11	0	11	1	13	2	13	5	47	4	
4	7	6	38	36	6	0	6	1	36	2	36	3	36	4	
3	25	5	22	25	0	25	1	22	2	22	3	22	4	
4	15	27	43	32	32	0	32	1	32	5	32	3	32	4	
2	49	13	13	0	13	1	13	2	13	3	13	4	
4	5	32	43	20	5	0	5	1	32	2	20	1	20	0	
8	39	35	10	25	13	49	1	34	10	0	10	1	13	2	13	1	34	0	
6	16	18	25	5	32	43	16	0	16	1	5	2	43	3	43	4	
6	3	32	5	4	44	28	32	0	44	1	28	2	28	5	28	4	
3	2	37	49	2	0	2	1	2	2	49	5	49	4	
3	9	16	19	9	0	9	1	9	5	9	3	19	4	
4	27	21	22	39	21	0	22	1	22	2	22	5	39	4	
3	30	45	47	30	0	30	1	45	2	47	1	47	0	
3	17	24	23	17	0	17	1	17	2	23	3	23	4	
6	48	0	46	42	24	33	0	0	46	1	42	2	33	1	33	0	
4	44	4	5	32	44	0	44	1	32	2	32	1	32	0	
2	31	3	3	0	3	1	3	5	3	3	3	4	
4	21	5	25	19	21	0	25	1	19	2	19	1	19	0	
4	42	23	28	16	42	0	28	1	28	2	16	3	16	4	
5	26	30	45	24	23	26	0	26	1	23	5	23	3	23	4	
8	7	15	27	43	3	31	2	37	15	0	15	1	27	2	43	5	31	4	
6	32	5	25	10	14	12	5	0	5	1	5	2	25	5	12	4	
4	19	25	13	31	31	0	31	1	31	2	31	3	31	4	
9	26	30	17	24	42	46	0	48	38	42	0	46	1	0	2	0	5	38	4	
5	9	23	24	45	47	23	0	23	1	45	2	47	5	47	4	
6	32	5	4	44	28	29	5	0	4	1	4	5	4	3	29	4	
4	43	21	22	6	43	0	43	1	21	2	21	3	21	4	
4	46	0	29	12	46	0	46	1	0	2	12	1	12	0	
4	13	11	3	20	13	0	13	1	13	5	11	3	11	4	
2	46	28	46	0	46	1	46	2	46	5	28	4	
3	47	1	34	47	0	47	1	47	5	1	3	34	4	
5	8	13	25	5	22	25	0	5	1	22	5	22	3	22	4	
6	11	13	25	10	14	12	13	0	10	1	10	2	10	3	12	4	
6	5	25	18	49	45	24	5	0	45	1	45	5	24	3	24	4	
4	14	48	38	6	14	0	14	1	14	2	14	1	6	0	
4	1	47	45	24	24	0	24	1	24	2	24	5	24	4	
5	19	16	28	29	0	28	0	28	1	28	5	28	3	28	4	
5	9	23	28	29	12	28	0	29	1	29	2	12	1	12	0	
6	36	38	6	7	15	27	36	0	36	1	36	2	7	3	7	4	
5	39	22	21	43	3	3	0	3	1	3	2	3	1	3	0	
6	23	28	46	0	48	36	46	0	0	1	0	2	0	5	36	4	
4	29	28	44	19	29	0	29	1	28	5	44	3	19	4	
9	47	1	49	13	11	3	43	27	15	47	0	47	1	47	2	11	5	11	4	
6	34	26	30	45	24	23	34	0	45	1	23	2	23	1	23	0	
2	24	23	23	0	23	1	23	5	23	3	23	4	
6	17	24	42	46	0	48	17	0	17	1	17	2	46	5	46	4	
2	48	0	48	0	48	1	0	2	0	1	0	0	
6	4	44	28	23	24	17	28	0	28	1	28	2	28	3	17	4	
8	7	6	22	5	25	18	16	9	6	0	6	1	6	2	6	1	18	0	
3	28	46	42	28	0	28	1	46	2	46	3	42	4	
5	12	14	10	25	13	14	0	25	1	25	5	25	3	13	4	
5	18	49	45	30	26	49	0	45	1	45	2	30	5	26	4	
4	2	37	34	1	34	0	34	1	34	2	34	1	1	0	
5	5	25	19	16	9	5	0	5	1	5	2	25	3	25	4	
5	39	35	10	44	28	10	0	10	1	28	2	28	5	28	4	
6	45	49	13	31	3	43	49	0	49	1	13	5	31	3	43	4	
3	29	0	48	29	0	29	1	29	2	29	3	48	4	
5	16	18	25	5	22	16	0	16	1	16	2	18	1	18	0	
5	0	46	42	24	17	46	0	42	1	42	2	17	5	17	4	
2	22	6	22	0	22	1	22	5	22	3	6	4	
7	27	21	22	6	38	48	0	21	0	38	1	38	2	0	1	0	0	
6	30	45	49	18	25	10	25	0	25	1	25	2	10	3	10	4	
7	41	37	2	31	3	43	27	41	0	41	1	37	2	37	1	31	0	
5	44	19	25	13	11	25	0	13	1	11	2	11	5	11	4	
8	21	5	25	13	49	1	34	40	21	0	21	1	21	2	25	5	34	4	
2	5	22	22	0	22	1	22	5	22	3	22	4	
4	39	22	5	32	22	0	5	1	32	5	32	3	32	4	
5	16	18	49	37	41	16	0	16	1	16	2	18	5	49	4	
3	5	22	39	5	0	5	1	22	2	22	5	39	4	
5	23	28	44	4	5	28	0	44	1	44	2	4	3	5	4	
5	10	25	18	49	1	10	0	10	1	1	5	1	3	1	4	
5	44	10	14	48	38	38	0	38	1	38	5	38	3	38	4	
4	37	49	18	16	37	0	37	1	18	2	18	5	18	4	
3	8	13	49	49	0	49	1	49	2	49	3	49	4	
5	11	31	2	37	41	41	0	41	1	41	2	41	1	41	0	
3	14	12	29	12	0	12	1	12	2	29	5	29	4	
6	45	24	23	28	29	12	45	0	45	1	28	2	28	1	28	0	
4	32	5	25	10	5	0	5	1	5	2	10	3	10	4	
7	22	4	44	19	16	9	33	22	0	22	1	4	2	16	1	33	0	
6	9	16	18	49	37	41	9	0	9	1	9	2	9	3	49	4	
4	43	21	22	4	43	0	43	1	22	2	22	5	4	4	
3	2	31	32	2	0	31	1	31	2	31	1	32	0	
3	33	9	16	33	0	33	1	33	2	9	3	16	4	
5	20	3	31	13	49	3	0	13	1	13	2	13	5	49	4	
4	13	25	5	22	5	0	5	1	22	2	22	1	22	0	
2	0	48	0	0	0	1	48	2	48	3	48	4	
6	47	1	49	13	31	32	47	0	31	1	32	2	32	1	32	0	
8	27	21	5	25	18	16	9	33	27	0	27	1	21	2	25	1	33	0	
4	30	26	34	37	30	0	30	1	26	2	34	5	37	4	
3	14	48	0	14	0	14	1	48	5	0	3	0	4	
3	1	34	26	1	0	1	1	34	2	26	3	26	4	
5	38	48	14	10	25	38	0	38	1	48	2	48	1	25	0	
3	25	13	49	25	0	25	1	25	2	13	3	49	4	
6	9	23	28	29	12	14	23	0	23	1	28	5	29	3	14	4	
3	31	32	5	31	0	31	1	5	2	5	5	5	4	
9	15	27	43	3	11	13	49	45	30	27	0	13	1	49	2	49	1	30	0	
5	36	48	14	10	25	36	0	36	1	36	2	14	5	25	4	
6	42	23	28	44	4	22	42	0	23	1	23	5	4	3	22	4	
5	26	34	37	49	13	26	0	37	1	13	2	13	3	13	4	
6	29	28	44	4	22	21	29	0	4	1	21	2	21	1	21	0	
2	19	25	19	0	19	1	19	5	19	3	25	4	
4	6	22	39	35	39	0	39	1	39	2	35	1	35	0	
2	37	49	37	0	37	1	37	2	49	5	49	4	
7	24	45	49	18	25	5	21	49	0	18	1	25	2	25	1	21	0	
2	48	14	14	0	14	1	14	5	14	3	14	4	
2	7	15	7	0	7	1	7	5	15	3	15	4	
6	31	32	5	22	6	38	31	0	31	1	5	2	22	1	38	0	
3	18	16	28	18	0	18	1	18	2	18	3	28	4	
3	2	31	3	2	0	2	1	3	5	3	3	3	4	
5	8	13	25	18	16	18	0	18	1	18	2	18	5	18	4	
5	22	39	38	48	0	39	0	38	1	38	2	0	1	0	0	
5	47	45	24	23	28	45	0	23	1	28	5	28	3	28	4	
5	43	32	31	2	37	31	0	31	1	31	2	31	3	31	4	
7	30	45	24	23	28	44	4	24	0	24	1	28	2	4	5	4	4	
7	20	3	31	13	49	18	16	31	0	49	1	49	2	18	3	18	4	
3	23	42	46	23	0	23	1	42	5	46	3	46	4	
7	41	37	49	18	25	5	21	49	0	18	1	25	5	25	3	21	4	
4	44	28	23	9	28	0	28	1	28	2	28	3	28	4	
2	47	1	47	0	47	1	47	2	1	1	1	0	
7	34	37	49	18	16	28	29	18	0	28	1	28	2	29	5	29	4	
7	21	5	4	44	28	23	42	21	0	21	1	21	2	23	3	42	4	
5	8	13	25	19	44	19	0	19	1	19	2	44	1	44	0	
3	42	23	9	42	0	42	1	42	2	9	1	9	0	
2	28	44	44	0	44	1	44	5	44	3	44	4	
4	12	29	28	23	29	0	28	1	23	2	23	3	23	4	
6	46	28	16	18	49	37	46	0	46	1	46	2	37	3	37	4	
4	5	21	27	15	27	0	27	1	27	5	15	3	15	4	
6	23	24	45	49	13	11	24	0	49	1	49	2	11	5	11	4	
5	10	25	13	31	3	10	0	10	1	10	2	3	1	3	0	
7	0	48	38	6	22	21	27	38	0	22	1	21	5	21	3	27	4	
3	37	49	18	37	0	37	1	49	2	18	3	18	4	
5	27	21	5	25	10	25	0	25	1	25	2	10	5	10	4	
5	14	10	25	13	31	25	0	13	1	31	2	31	3	31	4	
6	45	49	18	25	10	14	25	0	25	1	25	5	25	3	25	4	
7	35	10	25	18	49	45	30	10	0	10	1	25	2	49	1	30	0	
4	38	6	22	4	22	0	22	1	22	2	22	3	4	4	
3	22	4	35	22	0	22	1	22	5	22	3	35	4	
2	28	16	28	0	28	1	16	2	16	5	16	4	
5	49	18	25	5	21	49	0	49	1	25	2	25	1	21	0	
3	5	4	44	5	0	5	1	5	2	5	3	44	4	
6	39	38	48	0	46	42	48	0	48	1	48	2	0	3	42	4	
2	3	20	3	0	3	1	3	2	20	1	20	0	
4	6	38	48	14	6	0	6	1	38	2	48	3	14	4	
8	27	43	3	31	13	49	1	47	27	0	27	1	31	5	31	3	47	4	
8	30	45	49	13	25	10	35	39	49	0	49	1	49	2	49	3	39	4	
6	17	24	45	49	13	31	45	0	49	1	31	2	31	1	31	0	
8	48	14	10	25	13	49	37	41	10	0	10	1	10	2	13	3	13	4	
3	4	44	10	44	0	44	1	44	5	10	3	10	4	
5	38	39	22	21	27	27	0	27	1	27	5	27	3	27	4	
7	44	19	18	49	1	34	40	18	0	49	1	49	2	49	5	34	4	
4	31	32	43	27	31	0	31	1	31	2	31	3	32	4	
7	15	27	21	5	4	44	28	28	0	28	1	28	5	28	3	28	4	
4	21	43	3	11	43	0	43	1	43	2	43	5	11	4	
7	42	24	45	30	26	34	40	45	0	30	1	26	2	26	1	34	0	
6	6	22	5	25	18	49	6	0	6	1	22	5	22	3	22	4	
9	26	34	37	2	31	32	43	27	15	26	0	31	1	43	2	43	5	43	4	
4	19	16	28	23	28	0	28	1	23	2	23	1	23	0	
7	9	16	19	44	10	35	39	16	0	44	1	10	5	10	3	39	4	
6	40	34	26	30	17	24	34	0	26	1	30	2	30	3	24	4	
6	43	32	5	25	10	14	5	0	5	1	25	5	25	3	25	4	
3	4	5	32	4	0	4	1	5	2	32	5	32	4	
2	20	43	20	0	20	1	20	5	43	3	43	4	
5	13	25	19	16	28	19	0	19	1	19	2	19	5	28	4	
4	47	45	30	26	47	0	47	1	26	2	26	5	26	4	
7	31	32	5	22	6	38	36	31	0	31	1	32	5	32	3	22	4	
6	32	5	25	10	14	48	5	0	5	1	5	2	10	5	48	4	
5	25	13	49	1	47	25	0	49	1	49	5	49	3	47	4	
5	9	23	28	44	4	44	0	44	1	44	2	4	3	4	4	
5	43	21	22	39	35	39	0	39	1	39	2	35	5	35	4	
6	36	48	14	10	44	19	36	0	36	1	36	5	10	3	19	4	
4	20	43	21	22	20	0	43	1	21	2	21	5	22	4	
3	23	28	44	44	0	44	1	44	2	44	1	44	0	
4	10	35	39	38	39	0	39	1	38	2	38	3	38	4	
3	13	31	32	13	0	13	1	31	5	31	3	32	4	
9	47	1	49	13	25	5	22	6	7	47	0	47	1	47	5	25	3	6	4	
4	34	37	2	31	34	0	37	1	2	2	2	3	31	4	
9	24	45	49	13	11	3	43	27	15	13	0	13	1	13	2	11	5	11	4	
6	8	13	49	45	24	42	49	0	24	1	24	5	24	3	42	4	
6	42	24	45	49	13	11	42	0	49	1	49	5	11	3	11	4	
6	48	14	10	25	13	8	25	0	25	1	25	2	13	5	8	4	
4	32	5	25	19	5	0	5	1	5	2	5	1	25	0	
9	7	6	22	4	44	28	23	24	17	6	0	6	1	28	2	28	5	17	4	
6	12	14	10	25	5	21	14	0	25	1	25	2	25	5	21	4	
4	18	49	37	34	34	0	34	1	34	5	34	3	34	4	
6	2	37	49	18	16	9	2	0	2	1	2	2	49	3	18	4	
5	5	25	13	49	1	5	0	25	1	1	2	1	1	1	0	
6	26	30	17	24	42	46	26	0	26	1	17	2	42	3	46	4	
5	0	48	14	10	25	0	0	0	1	0	2	48	1	48	0	
5	27	43	3	11	8	27	0	27	1	43	2	3	3	8	4	
5	30	26	34	37	2	30	0	30	1	26	2	34	1	37	0	
6	17	24	23	28	44	4	44	0	44	1	44	2	4	5	4	4	
4	35	4	44	28	35	0	35	1	28	5	28	3	28	4	
5	41	37	49	18	19	19	0	19	1	19	2	19	5	19	4	
3	25	13	8	25	0	25	1	13	2	13	1	13	0	
4	28	44	4	22	44	0	44	1	4	2	4	3	22	4	
5	5	4	44	28	46	5	0	44	1	44	2	44	5	44	4	
9	39	35	10	25	18	49	1	34	40	25	0	49	1	49	2	49	5	34	4	
3	16	18	49	16	0	16	1	49	2	49	1	49	0	
7	46	28	44	19	25	13	31	19	0	13	1	31	5	31	3	31	4	
6	6	22	5	25	13	8	25	0	25	1	25	2	13	5	8	4	
6	17	24	45	49	13	25	45	0	49	1	49	5	49	3	13	4	
5	23	24	45	49	13	49	0	49	1	13	2	13	1	13	0	
2	10	25	25	0	25	1	25	2	25	5	25	4	
8	41	37	49	18	25	10	14	48	49	0	25	1	25	2	25	1	48	0	
3	44	28	46	46	0	46	1	46	2	46	3	46	4	
4	28	16	18	49	28	0	18	1	18	5	49	3	49	4	
9	48	14	10	25	18	49	37	34	40	37	0	37	1	37	2	37	3	34	4	
3	18	25	5	18	0	18	1	18	2	25	1	5	0	
4	21	5	25	13	21	0	21	1	25	2	25	3	13	4	
3	11	13	49	11	0	11	1	13	2	13	5	13	4	
6	45	49	13	31	3	20	49	0	3	1	20	2	20	3	20	4	
7	38	39	22	5	32	31	2	22	0	22	1	32	5	31	3	31	4	
7	22	5	25	18	49	37	41	22	0	18	1	18	2	49	3	49	4	
2	9	33	9	0	9	1	9	2	33	1	33	0	
8	40	41	37	49	13	25	5	22	49	0	25	1	25	2	5	5	5	4	
7	43	32	5	25	10	14	12	32	0	32	1	32	2	32	1	25	0	
5	46	0	48	38	6	46	0	46	1	46	2	46	3	6	4	
2	33	24	33	0	33	1	33	5	33	3	24	4	
6	20	3	31	2	37	41	20	0	20	1	3	2	31	1	2	0	
4	23	24	45	49	24	0	45	1	49	2	49	3	49	4	
4	13	49	45	30	49	0	45	1	30	2	30	3	30	4	
3	47	45	24	47	0	47	1	47	2	24	3	24	4	
5	37	49	18	19	44	37	0	37	1	18	2	44	5	44	4	
7	27	43	32	31	2	37	41	27	0	32	1	31	2	31	5	2	4	
4	11	13	25	18	13	0	25	1	18	2	18	1	18	0	
5	4	44	10	14	12	44	0	44	1	44	2	44	5	12	4	
5	25	13	49	37	41	25	0	49	1	49	2	49	1	49	0	
7	9	23	28	44	4	22	6	23	0	23	1	4	2	4	5	22	4	
7	31	13	25	10	44	28	29	31	0	25	1	25	5	25	3	29	4	
4	15	7	6	22	15	0	15	1	15	2	7	3	6	4	
7	36	48	0	46	42	24	17	36	0	36	1	36	2	0	1	17	0	
7	39	35	10	44	28	16	9	10	0	10	1	44	2	44	3	28	4	
7	26	34	37	49	18	25	5	26	0	5	1	5	5	5	3	5	4	
4	13	49	1	34	49	0	1	1	1	2	1	1	34	0	
4	6	22	21	43	43	0	43	1	43	2	43	3	43	4	
5	37	49	18	16	9	37	0	37	1	49	5	49	3	49	4	
4	24	45	49	13	45	0	49	1	13	2	13	3	13	4	
2	27	21	27	0	27	1	27	2	27	1	21	0	
4	48	38	6	22	48	0	48	1	38	2	38	3	6	4	
7	4	44	28	23	24	45	47	28	0	28	1	23	2	23	1	47	0	
7	7	6	22	4	44	28	23	6	0	28	1	23	2	23	3	23	4	
7	38	48	0	46	42	24	45	48	0	24	1	24	2	24	1	45	0	
6	18	25	10	14	48	36	18	0	10	1	10	2	14	1	36	0	
3	2	31	11	2	0	31	1	31	2	31	5	11	4	
6	26	34	37	2	31	32	26	0	26	1	26	2	37	5	32	4	
2	16	28	16	0	16	1	28	2	28	3	28	4	
4	3	43	27	15	3	0	3	1	27	2	15	5	15	4	
5	3	31	2	37	41	41	0	41	1	41	2	41	5	41	4	
6	43	32	31	13	49	45	13	0	13	1	13	2	13	1	45	0	
5	30	45	24	23	28	30	0	30	1	45	5	28	3	28	4	
8	17	24	23	28	44	4	22	6	24	0	28	1	44	2	44	3	22	4	
4	20	3	11	8	20	0	20	1	3	2	3	1	8	0	
5	23	28	44	4	22	28	0	44	1	44	2	4	5	22	4	
4	7	6	38	48	6	0	6	1	6	5	48	3	48	4	
4	41	37	49	45	41	0	41	1	37	2	37	3	45	4	
2	25	10	10	0	10	1	10	5	10	3	10	4	
7	8	13	25	10	14	48	36	25	0	10	1	10	2	14	5	36	4	
5	42	24	45	47	1	45	0	47	1	47	2	1	3	1	4	
6	1	49	13	25	10	35	13	0	13	1	25	5	25	3	25	4	
5	2	37	34	1	47	34	0	34	1	34	2	34	5	47	4	
4	19	16	28	46	19	0	19	1	19	2	19	3	16	4	
6	12	14	10	25	13	31	14	0	13	1	31	5	31	3	31	4	
3	46	0	29	46	0	46	1	46	5	46	3	29	4	
5	10	25	5	21	27	10	0	10	1	10	2	5	3	5	4	
3	13	11	3	13	0	13	1	13	2	11	1	3	0	
8	0	48	38	6	22	5	32	3	48	0	48	1	5	2	3	5	3	4	
6	18	25	5	22	6	7	18	0	18	1	18	5	25	3	6	4	
4	24	23	28	44	24	0	28	1	28	2	44	5	44	4	
7	8	13	25	5	22	6	7	25	0	25	1	5	2	5	1	6	0	
4	32	5	25	18	5	0	5	1	5	5	5	3	18	4	
6	45	49	18	25	5	22	49	0	49	1	25	2	5	5	5	4	
2	34	40	34	0	34	1	34	5	40	3	40	4	
3	35	4	22	35	0	35	1	35	2	35	3	22	4	
4	38	48	14	12	38	0	38	1	48	2	48	1	48	0	
3	22	21	43	43	0	43	1	43	2	43	5	43	4	
3	28	23	24	28	0	28	1	23	5	24	3	24	4	
4	12	14	10	35	12	0	12	1	12	2	14	3	35	4	
6	2	37	49	45	24	42	49	0	24	1	24	2	24	3	42	4	
5	33	24	45	30	26	33	0	33	1	33	2	30	1	26	0	
3	0	48	38	0	0	0	1	0	5	38	3	38	4	
5	3	32	5	4	44	32	0	5	1	5	2	4	3	44	4	
2	6	22	6	0	6	1	6	2	6	1	22	0	
6	37	49	18	16	28	46	18	0	18	1	16	2	16	3	16	4	
5	11	13	25	18	16	13	0	25	1	25	5	25	3	18	4	
8	17	24	23	28	44	10	35	39	24	0	28	1	10	2	10	5	39	4	
7	1	49	18	16	28	29	12	1	0	1	1	49	2	49	1	18	0	
5	4	5	32	31	2	4	0	32	1	32	2	31	3	31	4	
4	44	10	14	48	44	0	44	1	10	5	10	3	48	4	
4	31	13	25	19	31	0	25	1	19	2	19	1	19	0	
4	15	27	43	20	43	0	43	1	43	2	20	5	20	4	
3	21	43	3	43	0	43	1	3	5	3	3	3	4	
5	39	38	6	7	15	39	0	39	1	38	2	38	5	7	4	
10	26	34	37	2	31	3	43	27	15	7	26	0	26	1	26	2	37	1	15	0	
7	29	28	16	19	25	13	31	29	0	13	1	31	2	31	3	31	4	
7	16	19	44	4	22	6	7	16	0	16	1	44	5	44	3	6	4	
6	40	41	37	49	18	16	49	0	49	1	49	2	18	1	18	0	
3	43	21	22	43	0	43	1	21	2	21	5	21	4	
5	27	21	5	25	19	19	0	19	1	19	5	19	3	19	4	
6	20	3	32	5	4	35	3	0	5	1	5	2	5	5	5	4	
6	4	44	28	23	24	45	28	0	28	1	24	5	24	3	45	4	
8	38	48	0	46	42	24	45	47	48	0	42	1	42	5	42	3	47	4	
6	16	18	49	37	34	26	16	0	16	1	16	2	18	5	26	4	
4	22	5	25	10	22	0	22	1	22	2	10	3	10	4	
3	9	16	28	9	0	9	1	9	5	9	3	28	4	
7	20	3	32	5	25	10	14	3	0	32	1	5	5	5	3	25	4	
8	23	28	44	4	22	21	43	20	28	0	21	1	21	2	21	3	20	4	
5	13	49	1	34	40	49	0	1	1	1	2	1	5	34	4	
3	44	28	23	28	0	28	1	23	2	23	1	23	0	
7	37	2	31	32	43	27	15	37	0	31	1	43	2	43	5	43	4	
5	21	22	6	38	36	21	0	6	1	6	2	6	1	36	0	
4	8	2	37	34	8	0	8	1	8	2	8	3	34	4	
7	42	24	45	49	13	31	3	45	0	13	1	13	2	3	5	3	4	
3	1	47	45	1	0	1	1	1	2	45	1	45	0	
3	32	43	27	43	0	43	1	27	2	27	3	27	4	
5	7	6	22	5	25	6	0	5	1	5	5	5	3	25	4	
2	19	44	19	0	19	1	19	2	19	5	44	4	
4	21	22	6	7	21	0	21	1	21	5	21	3	6	4	
2	12	29	12	0	12	1	12	2	29	1	29	0	
7	46	28	44	19	25	13	31	19	0	13	1	31	2	31	1	31	0	
7	4	44	28	23	24	45	47	28	0	28	1	23	5	23	3	47	4	
8	33	9	16	19	25	10	35	39	9	0	9	1	10	2	10	3	39	4	
8	36	48	0	46	42	24	45	47	48	0	42	1	42	5	42	3	47	4	
9	26	30	17	24	42	46	0	48	38	42	0	0	1	0	2	0	1	38	0	
6	29	28	44	4	5	32	29	0	44	1	44	2	44	5	4	4	
3	13	25	5	13	0	13	1	13	5	25	3	25	4	
7	0	46	28	16	18	49	1	28	0	49	1	1	2	1	3	1	4	
7	3	31	13	25	18	16	9	13	0	25	1	25	2	18	1	18	0	
2	24	42	24	0	24	1	24	2	24	3	42	4	
4	8	13	25	5	25	0	5	1	5	5	5	3	5	4	
2	30	26	30	0	30	1	30	2	30	5	26	4	
7	14	12	29	28	23	24	17	29	0	28	1	28	2	28	1	17	0	
6	35	39	22	21	43	20	22	0	22	1	21	2	21	5	20	4	
6	41	37	2	31	3	43	41	0	41	1	37	5	37	3	31	4	
5	25	10	14	48	0	25	0	14	1	14	2	14	3	48	4	
5	28	23	24	17	30	23	0	24	1	24	2	24	1	30	0	
6	12	29	28	23	24	33	28	0	23	1	23	2	23	5	33	4	
3	49	13	31	49	0	49	1	49	2	31	3	31	4	
4	5	22	39	38	5	0	5	1	38	2	38	1	38	0	
4	36	48	14	10	36	0	36	1	36	2	14	5	10	4	
3	39	38	48	39	0	39	1	38	2	48	1	48	0	
5	2	31	13	25	19	31	0	25	1	19	5	19	3	19	4	
6	6	22	5	25	19	16	22	0	19	1	16	5	16	3	16	4	
6	40	41	37	2	31	11	40	0	40	1	40	2	31	5	11	4	
3	17	24	33	17	0	17	1	17	2	33	3	33	4	
6	1	49	18	25	10	14	49	0	25	1	25	5	25	3	25	4	
3	18	25	13	18	0	18	1	18	2	13	3	13	4	
2	21	5	21	0	21	1	5	2	5	1	5	0	
6	42	24	45	30	26	34	45	0	30	1	34	2	34	3	34	4	
6	1	47	45	24	42	46	1	0	1	1	47	2	45	5	24	4	
6	29	28	16	18	49	1	29	0	49	1	1	2	1	5	1	4	
4	16	19	25	5	19	0	5	1	5	2	5	1	5	0	
3	19	25	13	25	0	25	1	25	2	25	3	13	4	
7	22	4	44	28	23	24	17	4	0	44	1	28	5	28	3	17	4	
8	40	34	26	30	17	24	42	46	34	0	26	1	24	5	42	3	46	4	
2	43	20	43	0	43	1	43	2	20	3	20	4	
5	33	24	42	46	0	33	0	46	1	0	2	0	5	0	4	
8	20	3	31	13	49	45	24	33	31	0	49	1	49	2	33	3	33	4	
4	35	39	38	48	39	0	39	1	39	2	48	5	48	4	
7	41	37	49	18	19	44	4	49	0	44	1	44	2	4	1	4	0	
7	0	48	14	10	25	5	32	0	0	0	1	0	2	48	5	32	4	
6	34	26	30	45	24	42	34	0	24	1	24	2	24	5	42	4	
6	11	13	49	37	34	26	49	0	37	1	37	2	26	3	26	4	
2	14	48	48	0	48	1	48	2	48	1	48	0	
5	32	5	22	6	38	5	0	5	1	5	2	5	1	22	0	
5	9	33	24	17	30	9	0	9	1	33	2	24	1	30	0	
3	12	29	0	12	0	12	1	12	2	29	3	29	4	
6	15	7	6	38	48	14	6	0	38	1	38	5	48	3	14	4	
8	39	35	10	44	28	23	24	17	10	0	10	1	28	2	28	1	17	0	
3	10	14	48	10	0	10	1	10	5	48	3	48	4	
5	13	49	45	24	42	42	0	42	1	42	2	42	3	42	4	
4	44	4	5	21	44	0	5	1	5	5	5	3	21	4	
6	34	37	49	18	16	9	49	0	49	1	49	2	49	1	18	0	
3	37	49	1	37	0	37	1	49	2	1	3	1	4	
4	21	22	6	38	21	0	6	1	6	5	6	3	38	4	
7	27	21	22	4	44	28	29	27	0	27	1	4	2	4	5	29	4	
7	11	13	25	10	14	48	38	13	0	10	1	10	2	38	1	38	0	
7	48	0	46	42	24	17	30	0	0	42	1	42	2	42	1	30	0	
3	4	22	39	4	0	4	1	4	2	22	3	39	4	
6	7	15	27	43	32	31	15	0	32	1	31	2	31	1	31	0	
4	16	19	25	5	19	0	5	1	5	5	5	3	5	4	
5	25	19	16	28	29	19	0	19	1	16	2	16	1	29	0	
3	15	27	43	15	0	15	1	15	2	27	5	27	4	
5	49	18	19	44	4	49	0	44	1	44	5	4	3	4	4	
3	5	21	27	27	0	27	1	27	2	27	3	27	4	
7	36	48	0	46	42	24	45	48	0	24	1	24	2	24	1	45	0	
8	7	6	22	5	25	18	49	45	6	0	6	1	6	5	6	3	45	4	
7	29	28	16	18	49	1	34	29	0	29	1	49	2	49	3	34	4	
6	16	28	46	0	48	36	28	0	0	1	0	2	0	1	36	0	
5	3	43	27	15	7	3	0	27	1	27	5	27	3	15	4	
7	30	45	49	13	31	3	20	49	0	3	1	20	2	20	3	20	4	
4	14	10	44	19	10	0	44	1	44	5	44	3	19	4	
8	20	43	21	22	6	38	48	0	20	0	38	1	38	2	0	5	0	4	
2	41	37	41	0	41	1	41	2	41	1	37	0	
4	25	13	8	2	25	0	25	1	13	2	8	5	2	4	
4	31	13	25	10	31	0	31	1	25	2	10	3	10	4	
3	49	18	25	25	0	25	1	25	2	25	5	25	4	
6	42	23	28	44	19	25	42	0	25	1	25	5	25	3	25	4	
6	26	30	17	24	23	28	23	0	23	1	28	2	28	5	28	4	
6	19	44	10	14	48	38	19	0	19	1	44	5	38	3	38	4	
7	40	41	37	49	18	16	9	49	0	49	1	49	2	49	3	18	4	
6	46	28	44	4	22	21	44	0	4	1	21	2	21	5	21	4	
2	13	11	11	0	11	1	11	2	11	5	11	4	
6	18	25	5	21	27	15	18	0	18	1	18	2	25	5	15	4	
6	24	42	46	0	48	36	42	0	0	1	0	5	0	3	36	4	
3	8	2	31	8	0	8	1	31	2	31	3	31	4	
6	11	3	43	27	15	7	11	0	11	1	11	2	43	1	15	0	
5	42	46	0	48	36	0	0	0	1	0	2	0	5	36	4	
2	45	30	30	0	30	1	30	2	30	1	30	0	
5	1	47	45	24	23	1	0	1	1	47	5	24	3	24	4	
4	19	25	13	11	25	0	13	1	11	2	11	5	11	4	
4	22	4	44	19	22	0	22	1	4	2	44	1	19	0	
7	12	14	10	25	5	32	43	14	0	5	1	5	5	43	3	43	4	
6	33	24	45	49	37	2	33	0	37	1	37	2	2	3	2	4	
4	36	48	14	12	36	0	36	1	36	2	48	1	12	0	
8	41	37	49	18	25	5	22	6	49	0	18	1	5	5	5	3	22	4	
2	0	46	0	0	0	1	0	2	46	3	46	4	
7	47	1	49	18	25	5	22	47	0	25	1	25	2	5	1	5	0	
6	34	37	49	18	19	44	49	0	49	1	49	2	49	3	19	4	
5	11	13	49	45	24	49	0	45	1	45	2	24	5	24	4	
4	17	24	45	47	17	0	17	1	17	5	24	3	47	4	
8	4	5	25	18	49	37	34	26	4	0	4	1	25	2	25	1	26	0	
6	35	10	44	28	23	42	44	0	28	1	28	2	23	3	42	4	
3	25	10	35	35	0	35	1	35	2	35	3	35	4	
4	28	44	4	35	28	0	28	1	28	5	44	3	44	4	
5	12	14	48	38	6	48	0	38	1	38	2	6	5	6	4	
7	15	7	6	38	48	14	12	6	0	48	1	48	2	48	1	48	0	
5	2	31	32	5	22	2	0	2	1	31	2	31	3	5	4	
6	39	35	10	44	28	23	10	0	10	1	44	5	44	3	23	4	
6	29	0	48	38	6	7	29	0	29	1	29	2	29	1	38	0	
7	16	18	25	5	21	27	15	16	0	16	1	25	2	25	5	15	4	
5	34	37	2	31	11	34	0	34	1	34	5	31	3	11	4	
6	24	45	49	13	31	3	49	0	13	1	13	2	3	1	3	0	
7	11	13	25	10	14	48	36	13	0	25	1	10	5	14	3	36	4	
6	4	5	32	31	2	37	4	0	31	1	31	2	31	5	31	4	
8	1	49	18	25	5	22	6	38	1	0	1	1	25	5	22	3	38	4	
4	18	16	28	46	46	0	46	1	46	2	46	3	46	4	
6	49	18	25	5	22	6	49	0	49	1	25	2	25	1	22	0	
5	5	4	44	28	29	5	0	44	1	44	2	29	5	29	4	
5	16	18	49	37	34	34	0	34	1	34	5	34	3	34	4	
8	9	16	18	25	5	32	43	20	16	0	25	1	25	2	25	5	20	4	
6	17	24	45	49	13	8	45	0	13	1	13	2	13	1	8	0	
5	20	43	21	22	6	20	0	43	1	21	2	21	3	22	4	
5	44	19	25	13	31	25	0	13	1	31	2	31	3	31	4	
3	31	11	8	31	0	31	1	31	2	31	5	11	4	
8	37	49	18	25	5	22	6	7	18	0	18	1	18	5	18	3	6	4	
5	21	5	4	44	28	21	0	21	1	28	2	28	3	28	4	
8	42	23	28	44	4	22	21	27	42	0	4	1	4	2	4	1	27	0	
5	45	49	13	31	3	49	0	49	1	13	2	3	3	3	4	
2	32	3	32	0	32	1	3	5	3	3	3	4	
6	19	44	10	14	48	36	19	0	19	1	44	2	14	1	14	0	
8	15	27	21	5	25	18	49	45	15	0	15	1	15	2	49	1	45	0	
3	46	28	23	46	0	46	1	46	2	23	3	23	4	
4	33	24	45	47	33	0	33	1	33	2	24	1	47	0	
3	36	38	39	36	0	36	1	36	2	39	5	39	4	
6	34	37	2	31	3	43	34	0	34	1	34	5	37	3	43	4	
4	10	25	5	21	10	0	10	1	5	2	5	1	21	0	
7	47	1	49	13	31	3	43	47	0	47	1	47	2	13	3	43	4	
5	24	17	30	26	34	24	0	24	1	24	2	24	1	34	0	
7	8	13	25	19	44	28	29	13	0	13	1	13	2	25	5	29	4	
4	30	45	49	18	45	0	18	1	18	5	18	3	18	4	
6	14	12	29	28	16	9	29	0	29	1	29	2	28	3	28	4	
5	1	47	45	24	17	1	0	1	1	47	2	45	1	45	0	
3	38	6	22	38	0	38	1	38	2	38	3	22	4	
8	12	14	10	25	13	49	37	41	14	0	13	1	13	2	13	1	13	0	
8	36	48	14	10	25	13	31	2	36	0	36	1	36	5	10	3	31	4	
5	26	34	37	49	18	26	0	34	1	18	2	18	1	18	0	
6	49	18	25	10	35	39	49	0	49	1	10	2	10	5	39	4	
7	6	38	48	0	46	42	24	38	0	0	1	42	2	42	3	42	4	
3	24	17	30	24	0	24	1	24	2	24	3	30	4	
3	30	45	49	30	0	30	1	49	2	49	3	49	4	
5	17	30	26	34	41	34	0	34	1	34	2	34	1	41	0	
4	48	38	6	7	48	0	48	1	38	2	38	3	38	4	
2	7	6	7	0	7	1	7	2	7	3	6	4	
4	28	16	9	33	28	0	28	1	28	2	9	1	33	0	
4	31	2	37	41	31	0	31	1	31	2	31	3	41	4	
4	18	25	5	21	18	0	18	1	5	5	5	3	21	4	
5	49	18	25	10	35	49	0	35	1	35	2	35	3	35	4	
7	45	24	42	46	0	48	36	45	0	0	1	0	2	0	5	36	4	
4	29	28	23	9	29	0	29	1	28	5	9	3	9	4	
4	48	0	46	28	0	0	28	1	28	5	28	3	28	4	
4	16	18	49	13	16	0	49	1	13	2	13	3	13	4	
3	19	25	5	25	0	5	1	5	2	5	1	5	0	
3	22	5	25	22	0	22	1	22	2	5	5	25	4	
10	40	41	37	49	13	25	10	14	48	38	49	0	49	1	49	2	25	3	25	4	
4	24	45	47	1	24	0	24	1	47	5	1	3	1	4	
4	30	45	49	13	45	0	49	1	13	2	13	1	13	0	
3	23	9	33	23	0	23	1	23	2	33	5	33	4	
6	41	37	49	18	16	28	18	0	18	1	16	2	16	3	28	4	
6	7	6	38	48	0	29	6	0	48	1	48	5	48	3	29	4	
6	44	19	25	13	31	2	25	0	25	1	25	2	25	1	31	0	
4	34	37	49	18	18	0	18	1	18	5	18	3	18	4	
5	18	25	10	14	48	18	0	18	1	18	2	25	5	48	4	
5	21	5	25	18	49	21	0	21	1	21	2	49	1	49	0	
6	9	16	18	25	5	22	9	0	9	1	22	2	22	3	22	4	
6	12	14	10	25	13	8	14	0	25	1	25	2	13	1	8	0	
3	15	7	6	15	0	15	1	15	2	7	5	6	4	
6	17	24	23	28	44	10	24	0	23	1	44	5	10	3	10	4	
4	39	35	10	25	35	0	10	1	10	2	10	5	25	4	
6	23	24	45	49	37	2	24	0	37	1	37	2	2	1	2	0	
4	10	25	13	8	10	0	10	1	10	2	13	3	8	4	
3	44	28	29	29	0	29	1	29	2	29	5	29	4	
8	0	48	38	6	22	21	43	20	0	0	0	1	0	2	22	5	20	4	
4	37	49	13	25	37	0	37	1	49	2	49	1	49	0	
7	21	5	25	18	49	45	30	21	0	21	1	18	2	49	5	30	4	
3	27	21	5	27	0	27	1	5	5	5	3	5	4	
7	11	13	25	19	44	28	46	13	0	25	1	44	2	44	3	44	4	
5	45	49	18	25	5	49	0	5	1	5	2	5	5	5	4	
5	32	31	13	49	1	49	0	49	1	1	2	1	1	1	0	
6	35	10	44	28	16	9	44	0	44	1	44	2	28	3	28	4	
6	15	7	6	38	39	35	6	0	6	1	6	5	35	3	35	4	
6	49	18	16	28	29	12	49	0	49	1	18	2	28	5	28	4	
3	5	25	19	5	0	19	1	19	2	19	1	19	0	
8	36	48	14	10	25	13	49	37	14	0	10	1	49	2	37	3	37	4	
4	10	44	28	23	10	0	10	1	44	5	44	3	23	4	
3	16	28	44	16	0	16	1	28	2	44	5	44	4	
2	3	31	31	0	31	1	31	2	31	3	31	4	
5	27	15	7	6	38	27	0	15	1	15	2	6	3	38	4	
6	30	45	49	18	19	44	49	0	49	1	49	2	49	1	19	0	
5	14	10	25	13	11	10	0	13	1	11	2	11	5	11	4	
8	48	14	10	25	13	49	1	34	10	0	10	1	10	2	13	1	34	0	
6	38	48	0	46	28	16	48	0	46	1	28	2	28	5	16	4	
3	28	44	4	28	0	28	1	28	2	4	3	4	4	
2	31	2	31	0	31	1	2	5	2	3	2	4	
3	42	24	17	24	0	24	1	24	2	17	5	17	4	
7	26	34	37	2	31	3	20	26	0	3	1	20	5	20	3	20	4	
5	19	18	49	45	30	19	0	49	1	49	2	49	5	30	4	
2	3	32	3	0	3	1	32	5	32	3	32	4	
6	33	24	45	30	26	34	33	0	24	1	34	2	34	5	34	4	
5	48	38	6	22	5	6	0	22	1	5	2	5	5	5	4	
4	7	6	22	4	6	0	6	1	6	2	6	5	4	4	
3	13	25	19	13	0	13	1	13	5	25	3	25	4	
2	47	45	47	0	47	1	47	5	47	3	45	4	
5	31	13	49	1	47	31	0	31	1	13	2	13	5	47	4	
4	18	16	9	23	18	0	18	1	18	2	18	1	16	0	
2	49	45	49	0	49	1	49	2	49	5	45	4	
6	8	13	49	45	24	23	49	0	45	1	23	5	23	3	23	4	
7	45	24	42	46	0	48	38	46	0	46	1	46	2	0	3	38	4	
5	19	25	13	31	3	13	0	13	1	13	5	3	3	3	4	
3	22	21	27	22	0	22	1	21	2	21	3	27	4	
8	47	1	49	13	25	5	21	27	47	0	47	1	47	2	21	5	27	4	
7	43	32	31	2	37	34	26	31	0	31	1	31	2	31	1	26	0	
9	30	45	49	13	31	32	43	27	15	13	0	13	1	43	5	43	3	43	4	
5	36	38	6	22	4	36	0	36	1	36	2	38	5	4	4	
3	20	3	31	31	0	31	1	31	2	31	1	31	0	
6	23	28	44	10	35	39	28	0	44	1	10	2	10	3	39	4	
4	41	34	26	30	30	0	30	1	30	2	30	5	30	4	
7	47	1	49	13	25	10	14	47	0	47	1	47	2	49	3	49	4	
6	34	37	2	31	3	20	34	0	3	1	20	2	20	1	20	0	
5	14	48	0	46	42	14	0	0	1	0	2	0	3	42	4	
4	32	5	4	44	5	0	5	1	5	2	5	3	44	4	
7	35	10	25	18	49	1	34	10	0	10	1	25	5	49	3	34	4	
6	28	44	4	22	21	43	28	0	28	1	28	2	4	5	43	4	
4	36	48	14	12	36	0	36	1	36	2	48	5	12	4	
2	12	14	12	0	12	1	12	5	12	3	14	4	
5	15	27	21	22	4	21	0	21	1	22	2	22	3	4	4	
5	2	37	34	26	30	34	0	34	1	34	2	34	1	34	0	
4	5	25	13	8	5	0	5	1	5	2	13	5	8	4	
5	39	22	5	32	31	39	0	39	1	31	2	31	3	31	4	
4	23	28	29	0	23	0	23	1	29	5	29	3	0	4	
7	29	0	48	38	6	7	15	29	0	38	1	38	2	38	5	7	4	
5	0	46	28	16	18	0	0	0	1	28	2	16	3	18	4	
6	40	41	37	2	31	32	40	0	40	1	40	5	2	3	32	4	
3	27	43	3	27	0	27	1	3	2	3	1	3	0	
5	11	13	25	19	44	19	0	19	1	19	2	44	5	44	4	
8	7	6	22	5	25	13	49	37	6	0	25	1	49	2	37	3	37	4	
5	25	18	16	9	23	18	0	16	1	16	2	9	3	23	4	
5	49	18	25	10	14	49	0	49	1	25	2	25	3	25	4	
2	5	21	5	0	5	1	21	5	21	3	21	4	
2	39	35	39	0	39	1	39	5	39	3	35	4	
3	29	28	44	29	0	29	1	28	2	44	1	44	0	
4	16	28	23	42	16	0	16	1	28	2	28	3	42	4	
7	6	22	5	25	18	49	1	6	0	6	1	1	2	1	1	1	0	
6	27	21	22	6	38	36	27	0	27	1	22	2	22	5	22	4	
5	17	24	23	28	16	17	0	17	1	17	2	28	3	16	4	
8	6	22	5	25	13	49	45	30	6	0	6	1	49	5	49	3	30	4	
2	10	14	10	0	10	1	10	5	10	3	14	4	
4	44	10	35	39	39	0	39	1	39	5	39	3	39	4	
3	28	44	10	28	0	28	1	28	2	10	5	10	4	
7	31	13	25	10	14	48	0	31	0	25	1	25	2	25	1	25	0	
3	21	43	20	43	0	43	1	43	5	20	3	20	4	
5	42	23	28	16	19	42	0	16	1	16	2	16	3	19	4	
4	45	49	13	11	49	0	49	1	49	2	49	1	13	0	
3	32	3	11	32	0	32	1	32	2	32	5	11	4	
3	19	16	28	19	0	19	1	19	2	19	3	28	4	
3	22	6	38	22	0	22	1	6	2	6	1	38	0	
7	9	16	18	49	1	34	40	16	0	49	1	49	2	49	5	34	4	
5	40	41	37	2	31	37	0	37	1	2	2	2	1	31	0	
4	43	27	15	7	43	0	43	1	43	2	27	3	15	4	
3	33	24	23	33	0	33	1	33	2	24	5	23	4	
4	13	25	5	21	13	0	13	1	13	2	5	1	21	0	
7	47	1	49	18	25	10	35	47	0	47	1	47	2	18	1	25	0	
5	8	13	25	5	21	13	0	13	1	13	2	25	1	21	0	
2	11	13	13	0	13	1	13	2	13	3	13	4	
6	14	10	25	18	49	1	10	0	25	1	1	5	1	3	1	4	
8	38	48	0	46	42	24	17	30	48	0	42	1	42	2	42	1	30	0	
4	25	10	14	48	25	0	10	1	10	2	10	5	48	4	
5	9	16	19	25	13	25	0	25	1	25	5	25	3	13	4	
6	12	29	28	16	18	49	28	0	28	1	16	2	16	3	49	4	
7	43	32	31	13	49	45	24	31	0	31	1	13	5	13	3	13	4	
5	15	27	21	5	25	5	0	5	1	5	2	5	1	25	0	
9	36	48	0	46	42	24	45	30	26	48	0	24	1	26	2	26	3	26	4	
8	20	43	21	22	4	44	28	29	20	0	4	1	4	5	4	3	29	4	
7	26	34	37	49	18	25	10	26	0	49	1	18	2	10	5	10	4	
6	10	25	18	16	9	33	10	0	10	1	16	2	16	1	33	0	
7	47	45	24	23	28	29	12	47	0	47	1	47	2	23	5	23	4	
4	6	22	5	32	22	0	5	1	32	2	32	1	32	0	
7	37	49	18	25	10	14	48	18	0	18	1	18	2	25	3	48	4	
6	24	23	28	44	4	22	24	0	44	1	44	2	4	1	22	0	
3	14	48	36	14	0	48	1	48	2	36	5	36	4	
5	48	38	6	7	15	48	0	48	1	6	5	6	3	7	4	
7	32	5	4	44	28	46	42	5	0	4	1	4	2	4	5	42	4	
4	35	4	5	32	4	0	5	1	32	2	32	1	32	0	
6	28	16	18	49	37	41	28	0	28	1	18	2	49	3	49	4	
6	31	13	49	45	24	33	49	0	49	1	49	2	33	1	33	0	
4	18	16	28	29	29	0	29	1	29	2	29	5	29	4	
5	49	13	31	3	43	49	0	49	1	49	2	13	1	43	0	
3	5	25	10	5	0	5	1	5	2	10	3	10	4	
3	26	34	41	26	0	26	1	26	2	34	1	41	0	
5	29	28	16	18	49	29	0	29	1	18	2	49	3	49	4	
4	32	31	2	37	32	0	32	1	2	2	2	5	37	4	
6	30	45	49	18	25	5	49	0	5	1	5	2	5	3	5	4	
6	23	24	45	49	37	41	49	0	49	1	49	5	49	3	49	4	
4	7	15	27	43	43	0	43	1	43	2	43	5	43	4	
6	41	37	2	31	3	20	41	0	41	1	37	5	37	3	3	4	
6	25	13	49	45	24	17	25	0	49	1	49	2	49	5	17	4	
3	29	0	46	29	0	29	1	29	5	29	3	46	4	
5	6	22	21	43	3	21	0	21	1	43	5	3	3	3	4	
4	12	29	28	16	16	0	16	1	16	2	16	5	16	4	
2	46	42	42	0	42	1	42	2	42	5	42	4	
5	17	24	45	49	18	18	0	18	1	18	2	18	5	18	4	
4	23	28	44	10	23	0	23	1	28	2	28	3	10	4	
4	10	14	48	0	10	0	48	1	48	2	0	1	0	0	
6	1	49	13	11	3	43	1	0	1	1	49	2	11	5	43	4	
5	44	19	18	49	37	44	0	44	1	19	2	37	1	37	0	
3	0	29	28	0	0	0	1	0	5	28	3	28	4	
2	21	22	21	0	21	1	21	2	22	1	22	0	
6	8	13	25	10	14	48	13	0	13	1	13	2	25	3	48	4	
3	45	49	13	49	0	49	1	13	5	13	3	13	4	
6	32	5	25	18	16	9	5	0	5	1	5	2	18	3	18	4	
3	35	4	44	35	0	35	1	35	5	35	3	44	4	
6	35	10	25	13	49	1	10	0	49	1	1	2	1	1	1	0	
4	38	39	22	5	22	0	22	1	5	2	5	5	5	4	
4	49	13	31	32	32	0	32	1	32	5	32	3	32	4	
3	22	5	32	32	0	32	1	32	5	32	3	32	4	
3	9	23	42	23	0	23	1	23	2	23	3	42	4	
8	40	41	37	49	18	16	28	29	18	0	28	1	28	5	29	3	29	4	
4	46	28	16	9	28	0	28	1	16	2	16	1	9	0	
3	33	24	17	33	0	33	1	33	2	17	3	17	4	
7	39	35	10	25	18	49	37	10	0	10	1	10	2	37	5	37	4	
7	3	31	13	49	45	24	23	13	0	45	1	23	2	23	1	23	0	
7	27	21	22	4	44	28	46	27	0	27	1	22	5	22	3	22	4	
6	14	10	25	13	31	3	10	0	13	1	13	2	3	1	3	0	
7	1	49	18	25	5	21	27	49	0	21	1	21	2	21	3	27	4	
6	48	38	6	22	21	27	38	0	22	1	21	2	21	5	27	4	
6	38	48	0	46	42	24	38	0	38	1	48	5	0	3	24	4	
3	28	29	12	28	0	28	1	29	2	12	1	12	0	
5	31	2	37	34	26	31	0	31	1	31	2	31	5	2	4	
5	15	27	43	3	31	27	0	3	1	31	5	31	3	31	4	
4	32	5	22	6	22	0	22	1	6	5	6	3	6	4	
3	39	22	6	39	0	39	1	6	2	6	1	6	0	
8	26	30	45	24	23	28	29	12	30	0	24	1	24	2	23	3	23	4	
2	10	35	10	0	10	1	10	5	10	3	35	4	
9	7	6	22	5	25	18	49	1	34	6	0	6	1	22	2	49	5	34	4	
6	43	32	31	13	49	1	13	0	49	1	1	5	1	3	1	4	
5	48	14	10	25	13	14	0	14	1	25	2	25	1	13	0	
2	4	22	4	0	4	1	22	2	22	5	22	4	
6	7	6	38	48	14	12	6	0	48	1	48	2	48	1	48	0	
2	38	36	36	0	36	1	36	2	36	5	36	4	
5	31	32	5	22	39	31	0	31	1	32	5	32	3	32	4	
4	18	49	13	31	18	0	18	1	49	2	49	3	13	4	
3	1	34	41	1	0	1	1	1	2	1	5	41	4	
2	16	19	16	0	16	1	19	2	19	1	19	0	
6	9	16	18	49	13	11	9	0	9	1	11	2	11	5	11	4	
6	43	32	31	2	37	34	31	0	31	1	34	2	34	3	34	4	
9	30	45	49	13	25	5	22	6	7	13	0	13	1	13	2	25	5	6	4	
5	36	48	0	46	28	36	0	36	1	36	5	28	3	28	4	
8	20	43	21	22	4	44	28	23	20	0	43	1	21	2	22	3	23	4	
4	23	24	45	47	23	0	23	1	23	2	24	1	47	0	
6	7	6	38	48	0	29	6	0	48	1	48	2	48	3	29	4	
7	41	37	49	18	25	5	22	49	0	25	1	25	2	5	1	5	0	
5	44	19	25	13	8	25	0	25	1	25	2	13	3	8	4	
8	47	45	49	13	25	5	22	6	13	0	25	1	5	5	5	3	22	4	
2	21	43	21	0	21	1	21	2	21	3	43	4	
4	8	11	3	43	8	0	8	1	8	5	11	3	43	4	
7	14	10	25	13	49	1	34	14	0	14	1	10	2	25	1	34	0	
8	1	49	18	25	10	14	48	36	1	0	1	1	25	2	14	5	36	4	
3	32	3	20	32	0	32	1	3	2	20	1	20	0	
6	12	14	48	38	6	22	12	0	12	1	12	2	38	3	6	4	
4	46	0	48	36	46	0	46	1	46	2	46	3	36	4	
6	23	24	45	49	13	8	8	0	8	1	8	2	8	5	8	4	
7	0	46	42	24	45	30	26	42	0	45	1	26	2	26	1	26	0	
4	37	49	18	19	37	0	37	1	49	2	49	3	49	4	
6	33	24	45	30	26	34	33	0	24	1	34	5	34	3	34	4	
5	8	13	25	10	14	13	0	13	1	13	2	25	5	25	4	
7	14	10	25	18	49	45	30	14	0	14	1	10	2	49	3	30	4	
8	7	6	22	5	25	18	49	45	6	0	6	1	22	2	49	1	45	0	
3	38	6	7	38	0	38	1	38	2	7	3	7	4	
5	25	5	21	27	15	25	0	25	1	25	2	25	1	15	0	
2	28	23	23	0	23	1	23	2	23	5	23	4	
2	2	37	2	0	2	1	37	2	37	1	37	0	
5	5	25	18	49	45	5	0	18	1	49	2	49	3	45	4	
4	39	22	21	43	43	0	43	1	43	2	43	3	43	4	
7	6	22	4	44	28	16	9	22	0	4	1	4	2	4	3	28	4	
5	27	21	22	4	44	27	0	27	1	22	2	22	1	22	0	
8	30	17	24	42	46	0	48	38	30	0	30	1	30	2	30	3	46	4	
4	4	22	21	27	22	0	21	1	21	2	21	5	27	4	
5	1	49	18	25	5	49	0	5	1	5	2	5	5	5	4	
5	4	44	28	23	9	28	0	28	1	23	2	9	1	9	0	
6	44	19	18	49	1	47	49	0	49	1	49	2	49	5	47	4	
5	31	13	49	45	24	49	0	45	1	45	2	24	3	24	4	
4	18	49	37	2	18	0	18	1	49	2	49	1	37	0	
6	21	5	25	10	14	12	21	0	21	1	10	2	10	5	12	4	
3	39	22	4	39	0	39	1	39	5	4	3	4	4	
4	45	49	18	19	49	0	18	1	19	2	19	5	19	4	
4	29	28	23	24	29	0	29	1	23	2	24	1	24	0	
5	22	4	44	28	46	4	0	44	1	44	2	44	5	44	4	
7	40	34	26	30	45	24	23	34	0	45	1	23	2	23	3	23	4	
3	43	27	15	43	0	43	1	43	2	15	1	15	0	
6	33	24	45	49	13	31	33	0	49	1	31	5	31	3	31	4	
8	20	3	31	13	49	45	24	42	31	0	24	1	24	2	24	1	42	0	
4	11	3	43	21	11	0	11	1	11	2	11	1	21	0	
6	45	24	42	46	0	48	46	0	46	1	46	2	46	1	46	0	
5	16	28	23	24	17	28	0	24	1	24	5	17	3	17	4	
4	22	5	25	13	22	0	22	1	22	2	25	1	13	0	
5	9	16	19	25	5	25	0	5	1	5	2	5	3	5	4	
2	43	32	43	0	43	1	43	2	43	5	32	4	
10	15	27	43	32	31	13	49	45	24	17	27	0	32	1	32	2	31	5	17	4	
6	36	48	14	10	25	18	36	0	36	1	36	2	25	1	25	0	
3	20	43	21	20	0	20	1	20	2	43	5	21	4	
4	26	34	37	2	26	0	26	1	26	5	2	3	2	4	
5	13	49	45	24	33	49	0	45	1	45	2	33	1	33	0	
3	44	10	14	44	0	44	1	10	2	10	5	14	4	
7	47	45	24	23	28	44	4	45	0	23	1	28	2	4	1	4	0	
3	34	26	30	30	0	30	1	30	2	30	3	30	4	
3	37	2	8	37	0	37	1	37	5	37	3	8	4	
6	21	5	25	18	49	45	21	0	21	1	49	2	49	5	45	4	
4	8	2	37	41	8	0	8	1	37	2	37	1	41	0	
8	1	49	13	25	5	22	6	38	13	0	5	1	5	2	22	3	38	4	
8	4	5	25	13	49	1	34	40	4	0	4	1	25	2	25	1	34	0	
3	7	6	22	6	0	6	1	6	2	6	5	6	4	
9	38	48	14	10	25	13	49	1	34	10	0	10	1	25	2	13	1	34	0	
4	47	45	24	23	47	0	47	1	47	5	45	3	23	4	
2	2	8	2	0	2	1	2	2	2	3	8	4	
5	26	30	45	24	33	26	0	26	1	30	2	33	3	33	4	
3	34	1	47	34	0	34	1	1	2	47	3	47	4	
6	3	32	5	25	10	14	32	0	5	1	5	2	5	3	25	4	
6	37	49	18	25	5	21	18	0	18	1	25	2	25	5	21	4	
3	24	45	49	24	0	24	1	49	2	49	1	49	0	
7	27	21	5	25	18	16	9	27	0	27	1	21	2	18	3	18	4	
6	30	45	24	23	28	29	24	0	23	1	23	5	23	3	29	4	
6	14	12	29	28	23	24	29	0	28	1	28	2	24	5	24	4	
7	7	6	38	48	0	46	42	6	0	48	1	48	2	48	5	42	4	
6	41	37	49	18	19	44	49	0	49	1	49	2	44	5	44	4	
4	25	18	16	9	25	0	25	1	16	5	16	3	9	4	
5	28	44	4	22	21	4	0	4	1	21	2	21	3	21	4	
3	49	18	16	49	0	49	1	18	2	18	1	18	0	
7	36	48	14	10	25	18	49	36	0	36	1	36	5	49	3	49	4	
5	42	46	0	48	14	0	0	48	1	48	2	48	5	14	4	
3	19	18	49	19	0	19	1	18	2	49	5	49	4	
6	6	22	21	43	3	11	43	0	43	1	43	2	3	5	11	4	
5	12	29	28	23	24	28	0	23	1	23	5	24	3	24	4	
7	46	42	24	17	30	26	34	24	0	24	1	34	5	34	3	34	4	
6	30	45	49	13	31	32	32	0	32	1	32	2	32	5	32	4	
3	17	30	26	17	0	17	1	17	2	26	1	26	0	
6	34	37	49	18	19	44	49	0	49	1	49	2	49	5	19	4	
3	41	37	49	41	0	41	1	37	5	49	3	49	4	
5	44	19	18	49	45	44	0	44	1	19	2	49	3	45	4	
4	18	25	5	4	18	0	5	1	5	5	5	3	4	4	
5	21	5	25	10	14	21	0	21	1	21	2	21	3	25	4	
3	42	24	45	24	0	24	1	24	2	24	1	45	0	
6	45	49	18	25	5	21	49	0	49	1	25	2	25	3	21	4	
7	29	28	23	24	45	30	26	29	0	29	1	23	5	30	3	26	4	
3	35	10	25	25	0	25	1	25	2	25	5	25	4	
2	19	18	18	0	18	1	18	2	18	1	18	0	
8	22	5	25	18	49	1	34	40	22	0	22	1	49	2	49	3	34	4	
8	40	41	37	49	18	25	5	21	18	0	18	1	25	2	25	5	21	4	
6	46	42	24	45	47	1	45	0	47	1	47	2	1	3	1	4	
5	33	9	16	18	25	33	0	33	1	33	2	33	1	9	0	
7	39	35	10	25	18	49	45	10	0	10	1	10	5	49	3	45	4	
2	13	31	13	0	13	1	13	2	31	3	31	4	
4	0	48	38	39	48	0	38	1	38	5	39	3	39	4	
5	47	1	49	18	25	47	0	18	1	18	2	25	3	25	4	
2	34	37	37	0	37	1	37	5	37	3	37	4	
4	11	13	25	19	13	0	25	1	19	5	19	3	19	4	
5	1	49	13	31	3	1	0	1	1	13	2	3	1	3	0	
4	4	5	32	3	4	0	4	1	4	2	3	5	3	4	
4	22	6	7	15	22	0	22	1	6	5	6	3	7	4	
8	15	7	6	22	4	44	28	23	28	0	28	1	23	2	23	3	23	4	
7	46	28	44	4	22	21	43	44	0	44	1	44	5	22	3	43	4	
4	39	38	48	14	39	0	39	1	38	2	48	3	14	4	
8	26	30	45	24	23	28	44	4	30	0	24	1	28	2	4	1	4	0	
7	3	32	5	25	10	14	48	32	0	5	1	5	2	10	1	48	0	
6	6	38	48	0	46	42	6	0	6	1	38	2	48	3	42	4	
5	37	49	18	25	10	25	0	25	1	25	2	10	1	10	0	
5	24	23	28	29	12	24	0	29	1	29	2	12	3	12	4	
5	27	21	5	25	18	18	0	18	1	18	5	18	3	18	4	
5	48	38	6	22	21	48	0	48	1	38	2	38	3	21	4	
4	4	44	28	46	44	0	28	1	28	5	28	3	46	4	
5	7	15	27	43	20	15	0	15	1	27	2	27	3	20	4	
5	38	48	14	10	44	38	0	38	1	48	5	48	3	48	4	
5	15	7	6	38	48	7	0	38	1	38	5	48	3	48	4	
2	5	4	5	0	5	1	5	2	5	1	4	0	
8	26	34	37	49	18	25	10	35	26	0	18	1	10	2	35	5	35	4	
6	16	19	25	5	21	27	25	0	21	1	21	2	21	3	27	4	
7	7	15	27	43	32	31	2	32	0	32	1	32	2	31	5	31	4	
7	3	31	13	25	10	14	12	10	0	10	1	10	2	10	5	12	4	
7	9	16	18	49	13	31	3	9	0	9	1	49	5	3	3	3	4	
8	43	21	22	4	44	28	23	42	43	0	22	1	44	5	23	3	42	4	
5	30	45	49	13	31	49	0	49	1	49	2	49	1	49	0	
9	17	24	23	28	44	4	22	6	7	24	0	28	1	4	2	4	3	6	4	
4	20	43	27	15	20	0	20	1	20	5	15	3	15	4	
7	41	37	49	18	16	28	46	49	0	16	1	16	2	16	3	16	4	
3	44	19	16	44	0	44	1	16	2	16	1	16	0	
2	49	18	49	0	49	1	49	5	49	3	18	4	
4	21	5	4	35	21	0	21	1	4	2	4	1	35	0	
5	8	13	25	10	35	25	0	35	1	35	2	35	5	35	4	
3	42	46	0	46	0	46	1	0	2	0	3	0	4	
5	32	5	4	44	28	5	0	44	1	28	2	28	5	28	4	
5	19	18	49	1	47	19	0	49	1	49	2	49	3	47	4	
7	12	29	28	23	24	17	30	28	0	28	1	23	2	24	1	30	0	
2	46	28	46	0	46	1	46	2	46	1	28	0	
10	36	48	14	10	25	18	49	1	34	40	14	0	49	1	49	5	49	3	34	4	
7	10	25	18	49	37	34	26	10	0	10	1	18	2	18	3	26	4	
4	13	25	5	4	13	0	13	1	13	5	5	3	4	4	
7	24	45	49	13	31	3	43	49	0	49	1	49	2	49	5	43	4	
6	8	13	25	5	22	6	13	0	13	1	13	5	25	3	22	4	
4	42	24	45	47	24	0	24	1	45	5	47	3	47	4	
5	14	48	38	6	22	14	0	14	1	48	2	38	1	6	0	
5	35	10	44	28	23	28	0	28	1	23	2	23	3	23	4	
2	19	16	19	0	19	1	16	5	16	3	16	4	
5	25	5	22	6	7	5	0	22	1	22	2	22	5	6	4	
8	12	29	28	16	18	49	1	34	28	0	18	1	18	2	49	3	34	4	
7	46	28	44	4	5	32	3	44	0	32	1	32	2	3	5	3	4	
5	5	25	13	49	37	5	0	49	1	49	2	37	1	37	0	
7	36	48	14	10	25	13	11	36	0	36	1	36	2	10	3	11	4	
4	5	25	19	16	5	0	19	1	16	2	16	5	16	4	
7	0	46	42	24	45	49	37	42	0	24	1	49	2	37	1	37	0	
5	47	1	49	13	31	47	0	1	1	31	2	31	5	31	4	
8	34	37	49	13	25	10	35	39	49	0	49	1	10	2	10	1	39	0	
4	37	34	1	47	37	0	37	1	37	2	34	3	47	4	
5	3	31	13	49	1	31	0	13	1	1	5	1	3	1	4	
7	17	24	45	49	13	31	32	45	0	31	1	32	2	32	5	32	4	
5	1	47	45	24	42	1	0	1	1	47	5	45	3	42	4	
3	1	49	13	1	0	1	1	13	5	13	3	13	4	
6	4	44	19	18	49	1	19	0	49	1	1	2	1	3	1	4	
5	25	10	14	48	36	25	0	48	1	48	2	36	1	36	0	
3	18	25	10	18	0	18	1	18	2	10	5	10	4	
6	2	37	49	45	24	17	2	0	2	1	2	2	49	1	17	0	
5	39	35	10	14	12	10	0	10	1	10	2	10	5	12	4	
7	45	49	13	25	5	21	27	49	0	21	1	21	5	21	3	27	4	
4	35	10	14	12	10	0	10	1	10	5	10	3	12	4	
2	29	0	29	0	29	1	29	2	29	3	0	4	
6	16	18	25	5	22	6	16	0	16	1	25	2	5	1	22	0	
4	40	34	1	47	40	0	40	1	40	5	34	3	47	4	
5	24	23	28	44	10	28	0	28	1	44	2	10	5	10	4	
6	27	21	5	25	18	16	27	0	27	1	21	2	25	1	25	0	
3	5	32	31	5	0	5	1	31	2	31	3	31	4	
5	41	37	2	31	11	41	0	41	1	37	2	31	1	11	0	
4	18	49	37	41	18	0	18	1	49	2	49	1	41	0	
3	5	22	6	5	0	5	1	6	5	6	3	6	4	
7	11	13	25	19	44	28	29	13	0	25	1	25	2	25	5	29	4	
3	16	19	25	16	0	16	1	16	2	25	5	25	4	
4	9	23	28	29	23	0	23	1	28	2	29	1	29	0	
7	43	32	31	2	37	34	40	31	0	31	1	31	2	31	1	34	0	
8	15	27	21	5	25	18	16	9	15	0	15	1	15	5	18	3	18	4	
5	17	30	45	47	1	17	0	17	1	17	2	1	5	1	4	
4	20	3	31	13	31	0	31	1	31	2	31	1	13	0	
6	23	28	44	4	22	21	28	0	4	1	21	2	21	3	21	4	
4	10	25	18	49	10	0	10	1	18	5	49	3	49	4	
3	44	4	22	44	0	44	1	44	5	44	3	22	4	
8	34	37	49	13	25	5	22	6	49	0	25	1	5	2	5	1	22	0	
7	37	49	45	24	42	46	0	24	0	46	1	0	2	0	5	0	4	
6	21	5	25	18	49	37	25	0	49	1	49	5	37	3	37	4	
6	8	13	49	45	24	33	49	0	45	1	45	2	33	3	33	4	
6	32	31	2	37	34	26	32	0	32	1	31	2	31	3	26	4	
5	38	48	0	46	42	38	0	38	1	48	2	0	5	42	4	
5	22	5	25	18	49	22	0	22	1	22	2	5	1	49	0	
3	31	13	49	31	0	31	1	13	5	13	3	13	4	
8	15	7	6	38	48	0	46	42	6	0	6	1	48	2	48	3	42	4	
7	2	31	13	25	10	14	48	31	0	13	1	13	2	25	1	48	0	
7	33	9	16	19	25	5	32	33	0	33	1	33	2	33	3	32	4	
4	36	48	0	46	36	0	36	1	0	2	0	1	46	0	
3	10	44	28	10	0	10	1	44	2	28	5	28	4	
5	13	25	5	22	6	13	0	13	1	13	2	25	1	22	0	
7	47	45	24	42	46	0	48	45	0	46	1	46	2	46	1	46	0	
5	24	45	49	37	41	45	0	49	1	49	2	49	3	49	4	
6	27	21	5	25	18	49	27	0	27	1	21	2	49	1	49	0	
7	30	45	49	18	25	5	21	49	0	49	1	25	2	25	5	21	4	
5	14	12	29	28	16	29	0	28	1	28	5	28	3	16	4	
7	38	48	0	29	28	16	9	38	0	38	1	48	2	48	1	48	0	
4	25	18	49	1	49	0	49	1	1	2	1	3	1	4	
3	49	45	24	49	0	49	1	45	2	24	3	24	4	
7	36	48	0	29	28	16	9	36	0	36	1	36	2	48	5	48	4	
6	42	46	0	48	38	6	46	0	46	1	46	5	46	3	6	4	
7	26	30	45	24	23	28	29	30	0	24	1	24	2	24	3	29	4	
5	19	18	49	37	41	19	0	49	1	49	5	49	3	49	4	
2	3	43	3	0	3	1	43	2	43	5	43	4	
5	6	22	5	25	19	6	0	6	1	22	2	22	1	22	0	
5	37	49	45	24	33	45	0	45	1	45	2	33	5	33	4	
4	17	30	26	34	34	0	34	1	34	2	34	3	34	4	
2	48	38	38	0	38	1	38	2	38	3	38	4	
5	25	10	14	48	38	25	0	10	1	48	5	38	3	38	4	
4	31	32	5	22	31	0	31	1	22	2	22	1	22	0	
5	18	25	10	14	12	18	0	18	1	18	2	25	3	12	4	
7	49	18	25	10	14	48	36	49	0	49	1	10	2	14	1	36	0	
7	8	13	25	10	14	48	0	13	0	13	1	13	2	25	5	25	4	
5	42	24	45	49	37	37	0	37	1	37	2	37	3	37	4	
5	45	24	23	28	29	45	0	45	1	45	2	45	1	29	0	
7	29	28	16	18	49	37	2	29	0	37	1	37	2	2	5	2	4	
7	35	10	44	28	23	24	17	28	0	28	1	28	5	28	3	17	4	
3	19	44	10	19	0	19	1	44	2	10	3	10	4	
5	22	5	25	19	16	22	0	19	1	16	2	16	1	16	0	
5	40	34	26	30	45	34	0	26	1	26	2	26	1	45	0	
4	12	14	48	36	48	0	48	1	48	5	36	3	36	4	
2	43	21	43	0	43	1	43	2	43	3	21	4	
3	20	3	32	20	0	20	1	3	2	3	3	32	4	
6	41	37	49	18	25	5	49	0	5	1	5	5	5	3	5	4	
6	0	46	42	24	45	47	42	0	42	1	42	2	42	5	42	4	
4	47	45	30	17	47	0	47	1	47	2	17	1	17	0	
7	47	1	49	13	31	3	20	47	0	3	1	20	2	20	5	20	4	
4	34	26	30	45	34	0	34	1	26	2	26	5	45	4	
5	18	25	5	32	43	18	0	18	1	18	5	43	3	43	4	
4	11	3	43	27	11	0	11	1	11	2	43	3	27	4	
4	1	49	13	11	49	0	11	1	11	2	11	5	11	4	
6	35	10	25	18	49	45	10	0	18	1	49	2	49	5	45	4	
6	12	14	48	38	6	7	48	0	38	1	38	2	38	3	38	4	
4	4	5	32	31	4	0	4	1	4	2	32	5	31	4	
2	39	22	39	0	39	1	39	5	22	3	22	4	
7	23	28	44	4	22	21	27	28	0	44	1	44	2	44	5	44	4	
4	13	31	32	43	13	0	13	1	31	2	31	3	31	4	
4	34	37	2	8	34	0	34	1	34	5	37	3	8	4	
4	2	37	34	26	34	0	34	1	34	5	26	3	26	4	
2	37	2	37	0	37	1	2	2	2	3	2	4	
5	24	23	28	44	4	44	0	44	1	44	2	4	1	4	0	
8	27	43	32	31	2	37	34	26	31	0	31	1	31	2	31	5	26	4	
6	11	13	25	5	22	39	13	0	25	1	25	5	25	3	5	4	
3	1	34	40	1	0	1	1	34	2	40	1	40	0	
4	4	22	6	38	6	0	6	1	6	2	6	3	38	4	
3	35	10	14	10	0	10	1	10	2	10	1	14	0	
9	15	27	43	32	31	2	37	34	40	27	0	2	1	2	2	2	5	34	4	
4	49	18	25	5	49	0	5	1	5	2	5	1	5	0	
4	5	4	44	28	5	0	5	1	5	2	5	3	28	4	
3	34	1	47	34	0	34	1	1	5	47	3	47	4	
5	29	12	14	10	35	29	0	29	1	29	2	35	3	35	4	
5	16	19	44	10	35	16	0	16	1	44	5	35	3	35	4	
3	0	48	14	0	0	0	1	0	2	14	5	14	4	
4	3	32	5	4	3	0	3	1	3	2	32	1	4	0	
5	32	31	2	37	34	32	0	32	1	34	2	34	5	34	4	
4	30	17	24	23	30	0	30	1	30	2	30	3	23	4	
10	17	24	45	49	13	31	3	43	27	15	45	0	49	1	49	2	31	1	3	0	
5	20	43	27	15	7	20	0	20	1	20	2	27	5	15	4	
7	38	48	14	10	25	13	11	25	0	13	1	11	5	11	3	11	4	
4	44	28	23	24	28	0	28	1	23	2	24	5	24	4	
6	28	44	4	5	32	3	28	0	28	1	28	2	3	1	3	0	
2	31	11	31	0	31	1	31	2	31	3	11	4	
4	49	45	30	26	49	0	49	1	26	2	26	5	26	4	
2	21	27	21	0	21	1	21	2	21	5	27	4	
2	42	24	42	0	42	1	42	2	42	1	24	0	
5	26	34	37	2	31	26	0	26	1	26	2	37	5	31	4	
3	32	5	4	5	0	5	1	5	5	5	3	4	4	
5	19	44	10	35	39	19	0	19	1	44	2	10	1	39	0	
5	40	41	37	2	8	40	0	40	1	40	2	37	3	8	4	
3	10	25	18	10	0	10	1	18	2	18	1	18	0	
5	13	25	10	14	12	25	0	10	1	10	2	10	5	12	4	
4	47	45	24	42	47	0	47	1	24	2	42	5	42	4	
3	31	3	20	3	0	3	1	20	5	20	3	20	4	
7	49	18	25	5	22	6	38	49	0	5	1	5	5	22	3	38	4	
5	8	13	49	45	30	49	0	49	1	49	2	49	3	30	4	
6	42	46	0	48	38	39	46	0	46	1	46	2	46	5	39	4	
4	19	25	13	8	25	0	25	1	25	2	13	5	8	4	
5	2	37	49	45	24	24	0	24	1	24	5	24	3	24	4	
5	12	29	28	23	42	12	0	12	1	12	2	28	1	42	0	
5	43	32	5	25	19	32	0	32	1	32	2	32	5	32	4	
7	33	24	45	49	13	31	3	33	0	13	1	13	2	3	3	3	4	
7	36	38	6	22	5	32	3	36	0	36	1	36	5	3	3	3	4	
6	20	43	21	22	39	38	20	0	22	1	38	2	38	5	38	4	
5	0	46	42	24	45	42	0	24	1	24	2	24	3	45	4	
4	3	31	2	37	3	0	3	1	31	2	31	1	37	0	
4	6	22	5	25	6	0	6	1	22	2	22	5	25	4	
7	37	49	18	25	10	35	39	18	0	18	1	10	2	10	1	39	0	
5	24	45	49	13	31	49	0	49	1	31	2	31	5	31	4	
6	14	10	25	18	49	45	10	0	18	1	49	2	49	1	45	0	
4	32	5	4	35	4	0	4	1	4	2	4	1	35	0	
5	35	39	22	21	43	43	0	43	1	43	2	43	3	43	4	
6	28	16	18	49	37	34	34	0	34	1	34	2	34	1	34	0	
5	12	14	10	25	5	14	0	5	1	5	2	5	5	5	4	
4	2	31	13	25	2	0	31	1	31	2	31	3	13	4	
8	15	27	43	32	31	2	37	34	27	0	31	1	34	5	34	3	34	4	
5	39	22	21	43	20	21	0	21	1	21	2	21	1	20	0	
7	29	28	44	19	25	13	8	29	0	19	1	19	5	13	3	8	4	
3	13	49	45	13	0	13	1	49	2	45	5	45	4	
9	40	41	37	49	13	25	10	35	39	49	0	25	1	10	2	10	5	39	4	
5	24	45	49	37	2	49	0	37	1	37	5	2	3	2	4	
8	27	43	32	31	13	49	45	24	31	0	45	1	45	2	24	3	24	4	
6	48	38	6	22	21	27	38	0	22	1	21	2	21	1	27	0	
9	7	6	22	5	32	31	2	37	34	6	0	32	1	34	2	34	1	34	0	
5	41	37	2	31	3	2	0	31	1	31	2	3	5	3	4	
5	25	13	49	45	24	25	0	45	1	45	2	24	1	24	0	
2	18	49	18	0	18	1	18	2	18	3	49	4	
6	5	25	13	49	45	30	5	0	5	1	5	2	25	5	30	4	
6	29	28	16	18	49	37	29	0	49	1	49	2	37	5	37	4	
3	16	9	33	16	0	16	1	16	2	16	1	33	0	
6	43	21	22	6	38	48	43	0	6	1	6	2	48	3	48	4	
4	17	24	23	9	23	0	23	1	23	5	9	3	9	4	
4	20	43	21	5	20	0	43	1	5	2	5	3	5	4	
3	23	28	29	23	0	23	1	28	2	29	1	29	0	
5	10	44	28	23	9	28	0	28	1	23	2	9	5	9	4	
5	41	37	2	31	32	41	0	41	1	37	2	37	1	32	0	
6	44	19	18	49	45	30	44	0	44	1	18	2	49	3	30	4	
5	28	16	18	49	1	28	0	28	1	1	5	1	3	1	4	
7	34	37	49	18	25	10	14	25	0	25	1	25	2	25	5	25	4	
