395.9	395.9
980
47865.9	6058.68
50
0	103	1303
1	81	1335
2	77	1288
3	82	996
4	94	1190
5	167	1748
6	100	1372
7	19	928
8	34	836
9	46	963
10	184	1846
11	67	1042
12	22	999
13	194	1844
14	59	1335
15	36	999
16	114	1417
17	37	1095
18	159	1693
19	96	1105
20	59	887
21	130	1318
22	137	1370
23	104	1246
24	140	1181
25	248	1859
26	66	944
27	52	988
28	180	1562
29	61	1006
30	60	1067
31	186	1444
32	103	1285
33	76	783
34	102	1067
35	47	1028
36	62	639
37	107	1640
38	84	1127
39	45	944
40	23	797
41	43	787
42	69	1180
43	98	1383
44	187	1342
45	83	1446
46	89	1219
47	73	980
48	88	1143
49	327	1722
176
0	29	0.270364	39.917770
29	0	1.002728	39.917770
0	46	3.341158	41.080453
46	0	3.450416	41.080453
0	48	2.753142	45.343521
48	0	2.308544	45.343521
1	34	1.600560	44.568378
34	1	0.385998	44.568378
1	47	1.809474	43.793297
47	1	0.874880	43.793297
1	49	1.921796	44.568378
49	1	5.191436	44.568378
2	8	0.322372	41.080453
8	2	0.398042	41.080453
2	31	3.274806	39.530230
31	2	2.058288	39.530230
2	37	3.074078	38.367609
37	2	2.839180	38.367609
3	11	0.757644	35.267162
11	3	1.106372	35.267162
3	20	0.851884	35.654702
20	3	1.290916	35.654702
3	31	2.409714	37.592466
31	3	2.050600	37.592466
3	32	1.134320	42.630677
32	3	0.753532	42.630677
3	43	1.680766	42.243074
43	3	0.987620	42.243074
4	5	1.366786	43.793297
5	4	2.081778	43.793297
4	22	3.694418	41.080453
22	4	2.821894	41.080453
4	35	0.511052	34.879622
35	4	0.124088	34.879622
4	44	4.596662	37.204926
44	4	4.773840	37.204926
5	21	2.289484	43.405757
21	5	2.844110	43.405757
5	22	1.735998	41.080453
22	5	2.434392	41.080453
5	25	5.629488	39.142689
25	5	4.452900	39.142689
5	32	2.832640	37.980006
32	5	3.419996	37.980006
6	7	2.339528	45.343521
7	6	1.453536	45.343521
6	22	3.956130	38.367609
22	6	4.057926	38.367609
6	38	2.509274	35.654702
38	6	2.905836	35.654702
7	15	1.591004	42.630677
15	7	0.604710	42.630677
8	11	0.360536	35.654702
11	8	0.274432	35.654702
8	13	1.011088	39.917770
13	8	1.351602	39.917770
9	16	2.050480	37.592466
16	9	2.452008	37.592466
9	23	0.538476	44.568378
23	9	0.201502	44.568378
9	33	0.933470	46.118601
33	9	1.064256	46.118601
10	14	4.283274	39.530230
14	10	3.691880	39.530230
10	25	5.571986	39.530230
25	10	6.319614	39.530230
10	35	2.949584	41.855534
35	10	2.677260	41.855534
10	44	1.241946	46.118601
44	10	1.750278	46.118601
11	13	1.610010	45.343521
13	11	1.029328	45.343521
11	31	0.327680	39.917770
31	11	0.334748	39.917770
12	14	0.855132	41.080453
14	12	1.201368	41.080453
12	29	1.165910	35.267162
29	12	0.374078	35.267162
13	25	4.193076	43.405757
25	13	6.232390	43.405757
13	31	2.748246	38.367609
31	13	3.766150	38.367609
13	49	7.902158	36.042305
49	13	5.464044	36.042305
14	48	1.952352	43.018217
48	14	2.328704	43.018217
15	27	2.117244	46.118601
27	15	0.615574	46.118601
16	18	3.676218	40.305373
18	16	3.014976	40.305373
16	19	1.817720	37.592466
19	16	1.614492	37.592466
16	28	3.005456	37.980006
28	16	3.309980	37.980006
17	24	2.970920	40.305373
24	17	1.921426	40.305373
17	30	1.202122	36.817386
30	17	1.579164	36.817386
18	19	0.745320	34.879622
19	18	1.667458	34.879622
18	25	3.591944	43.793297
25	18	3.270414	43.793297
18	49	7.517196	41.080453
49	18	5.549282	41.080453
19	25	1.404780	35.267162
25	19	1.138212	35.267162
19	44	1.431148	42.630677
44	19	1.831164	42.630677
20	43	0.844230	44.955981
43	20	1.785142	44.955981
21	22	2.436998	36.042305
22	21	3.725028	36.042305
21	27	1.939192	35.654702
27	21	1.953278	35.654702
21	43	2.360234	42.630677
43	21	1.985514	42.630677
22	39	1.042580	41.080453
39	22	1.967108	41.080453
23	24	1.956166	35.267162
24	23	2.475470	35.267162
23	28	3.756080	40.692913
28	23	4.198526	40.692913
23	42	1.058350	40.692913
42	23	0.559684	40.692913
24	33	1.866718	40.305373
33	24	1.803380	40.305373
24	42	3.855798	45.343521
42	24	2.073374	45.343521
24	45	3.507640	44.955981
45	24	4.612646	44.955981
26	30	1.538370	36.817386
30	26	0.902692	36.817386
26	34	1.169338	41.080453
34	26	1.649084	41.080453
27	43	1.533694	38.367609
43	27	1.722994	38.367609
28	29	2.843156	39.917770
29	28	2.848336	39.917770
28	44	5.080638	41.467993
44	28	4.660342	41.467993
28	46	1.839080	44.180837
46	28	2.591872	44.180837
30	45	2.270196	40.692913
45	30	2.879350	40.692913
31	32	2.325632	39.530230
32	31	2.665206	39.530230
32	43	1.335340	40.692913
43	32	1.102330	40.692913
34	37	1.969030	40.305373
37	34	1.980948	40.305373
34	40	0.920290	45.343521
40	34	0.095860	45.343521
34	41	0.000450	40.305373
41	34	0.217088	40.305373
35	39	2.199470	40.305373
39	35	0.690762	40.305373
36	38	0.516600	36.042305
38	36	0.593654	36.042305
36	48	1.127490	42.630677
48	36	1.319106	42.630677
37	41	2.338390	37.592466
41	37	3.884166	37.592466
37	49	5.990520	41.855534
49	37	4.150946	41.855534
38	39	1.150200	37.204926
39	38	1.009040	37.204926
38	48	2.321986	37.980006
48	38	3.106820	37.980006
40	41	1.711596	37.980006
41	40	0.000450	37.980006
42	46	3.234722	44.180837
46	42	1.411474	44.180837
45	47	0.588718	36.042305
47	45	0.369074	36.042305
45	49	3.967060	39.142689
49	45	6.183562	39.142689
980
7	26	30	45	24	23	28	44	30	0	24	1	28	2	44	3	44	4	
5	10	25	13	31	3	10	0	10	1	10	5	3	3	3	4	
7	0	48	38	6	22	21	27	38	0	22	1	21	2	21	1	27	0	
3	37	49	18	37	0	37	1	49	2	18	5	18	4	
6	48	38	6	22	21	27	38	0	22	1	21	5	21	3	27	4	
8	43	32	5	25	19	16	9	33	5	0	25	1	19	5	16	3	33	4	
5	27	21	5	25	10	25	0	25	1	25	2	10	3	10	4	
6	30	45	24	42	46	0	24	0	46	1	0	2	0	1	0	0	
5	14	10	25	13	31	25	0	13	1	31	2	31	5	31	4	
5	7	6	22	4	44	6	0	6	1	6	2	6	1	44	0	
4	38	6	22	4	22	0	22	1	22	2	22	5	4	4	
3	25	10	14	25	0	10	1	10	2	10	1	14	0	
2	28	16	28	0	28	1	16	2	16	3	16	4	
5	49	18	25	5	21	49	0	49	1	25	5	25	3	21	4	
5	42	24	45	49	13	49	0	49	1	13	2	13	5	13	4	
2	3	20	3	0	3	1	3	5	20	3	20	4	
8	30	45	49	13	25	10	35	39	13	0	25	1	10	2	10	5	39	4	
8	48	14	10	25	13	49	37	41	10	0	10	1	10	2	13	5	13	4	
8	23	28	44	4	22	6	7	15	28	0	44	1	44	2	6	1	7	0	
7	44	19	18	49	1	34	40	18	0	49	1	49	2	49	3	34	4	
4	31	32	43	27	31	0	31	1	31	2	31	5	32	4	
5	18	49	13	31	3	49	0	13	1	13	2	3	1	3	0	
4	21	43	3	11	43	0	43	1	43	2	43	3	11	4	
2	8	11	11	0	11	1	11	5	11	3	11	4	
7	42	24	45	30	26	34	40	45	0	30	1	26	5	26	3	34	4	
3	45	49	18	18	0	18	1	18	2	18	3	18	4	
5	35	10	25	13	31	31	0	31	1	31	5	31	3	31	4	
8	35	10	25	18	49	37	34	26	10	0	10	1	25	2	18	5	26	4	
4	19	16	28	23	28	0	28	1	23	5	23	3	23	4	
4	49	45	24	23	49	0	49	1	23	5	23	3	23	4	
7	22	5	25	18	49	1	47	22	0	18	1	18	2	18	3	47	4	
7	9	16	19	44	10	35	39	16	0	44	1	10	2	10	1	39	0	
6	43	32	5	25	10	14	5	0	5	1	25	2	25	1	25	0	
4	46	28	44	4	28	0	44	1	44	2	4	3	4	4	
2	36	48	36	0	36	1	36	2	48	5	48	4	
2	20	43	20	0	20	1	20	2	43	1	43	0	
5	13	25	19	16	28	19	0	19	1	19	2	19	3	28	4	
4	47	45	30	26	47	0	47	1	26	2	26	3	26	4	
5	34	37	2	31	32	34	0	34	1	34	2	2	1	32	0	
3	11	3	20	11	0	11	1	20	2	20	1	20	0	
7	1	47	45	24	42	46	0	45	0	46	1	0	5	0	3	0	4	
6	32	5	25	10	14	48	5	0	5	1	5	2	10	3	48	4	
5	25	13	49	1	47	25	0	49	1	49	2	49	1	47	0	
7	15	27	21	5	25	18	16	15	0	15	1	15	2	5	3	18	4	
6	36	48	14	10	44	19	36	0	36	1	36	2	10	1	19	0	
6	39	22	21	43	3	11	43	0	43	1	43	2	3	3	11	4	
3	23	28	44	44	0	44	1	44	5	44	3	44	4	
7	29	28	44	4	22	21	27	29	0	44	1	44	2	44	5	44	4	
3	13	31	32	13	0	13	1	31	2	31	1	32	0	
8	6	22	5	32	31	2	37	41	22	0	31	1	31	2	31	3	2	4	
7	40	41	37	2	31	3	20	37	0	3	1	20	5	20	3	20	4	
9	24	45	49	13	31	32	43	27	15	13	0	13	1	43	2	43	3	43	4	
7	27	21	22	4	44	28	23	27	0	27	1	22	2	4	1	23	0	
6	48	14	10	25	13	8	25	0	25	1	25	2	13	3	8	4	
7	4	44	19	18	49	37	41	19	0	19	1	19	2	49	1	49	0	
9	7	6	22	4	44	28	23	24	17	6	0	6	1	28	2	28	3	17	4	
3	38	39	35	38	0	38	1	39	2	35	1	35	0	
5	3	31	13	25	18	3	0	3	1	31	5	13	3	13	4	
4	18	49	37	34	34	0	34	1	34	2	34	1	34	0	
5	5	25	13	49	1	5	0	25	1	1	5	1	3	1	4	
5	16	18	49	45	30	16	0	16	1	16	2	18	3	30	4	
5	0	48	14	10	25	0	0	0	1	0	5	48	3	48	4	
5	22	6	38	48	14	22	0	22	1	6	2	48	5	14	4	
7	43	32	31	13	49	1	47	31	0	31	1	13	2	13	1	47	0	
5	27	43	3	11	8	27	0	27	1	43	2	3	5	8	4	
6	17	24	23	28	44	4	44	0	44	1	44	2	4	3	4	4	
6	20	3	31	13	25	10	31	0	13	1	13	2	10	1	10	0	
5	41	37	49	18	19	19	0	19	1	19	2	19	3	19	4	
2	44	19	44	0	44	1	44	5	44	3	19	4	
4	28	44	4	22	44	0	44	1	4	2	4	5	22	4	
3	21	5	32	21	0	21	1	32	5	32	3	32	4	
8	42	46	0	48	38	6	7	15	46	0	46	1	46	2	46	3	7	4	
2	32	31	32	0	32	1	32	2	32	5	31	4	
3	16	18	49	16	0	16	1	49	5	49	3	49	4	
5	19	44	10	14	48	19	0	19	1	44	2	10	3	48	4	
7	15	27	43	32	31	13	49	27	0	32	1	32	2	13	5	49	4	
2	26	34	26	0	26	1	26	5	34	3	34	4	
2	10	25	25	0	25	1	25	2	25	3	25	4	
3	13	49	1	13	0	13	1	1	2	1	1	1	0	
3	44	28	46	46	0	46	1	46	2	46	5	46	4	
3	3	31	13	31	0	31	1	31	5	31	3	13	4	
4	21	5	25	13	21	0	21	1	25	2	25	5	13	4	
6	8	13	25	19	16	9	13	0	13	1	13	2	25	1	19	0	
3	11	13	49	11	0	11	1	13	2	13	3	13	4	
5	14	10	25	5	21	25	0	25	1	5	5	5	3	21	4	
6	35	10	44	28	23	24	44	0	28	1	28	2	24	3	24	4	
7	38	39	22	5	32	31	2	22	0	22	1	32	2	31	1	31	0	
3	25	5	4	25	0	25	1	25	2	25	5	4	4	
2	9	33	9	0	9	1	9	5	33	3	33	4	
7	43	32	5	25	10	14	12	32	0	32	1	32	5	32	3	25	4	
4	2	37	34	40	2	0	2	1	2	2	37	3	34	4	
2	33	24	33	0	33	1	33	2	33	1	24	0	
6	20	3	31	2	37	41	20	0	20	1	3	5	31	3	2	4	
4	13	49	45	30	49	0	45	1	30	2	30	5	30	4	
7	3	32	5	4	44	28	46	32	0	5	1	5	2	5	3	44	4	
5	6	22	21	43	20	6	0	6	1	22	2	22	1	20	0	
2	17	24	17	0	17	1	24	5	24	3	24	4	
5	37	49	18	19	44	37	0	37	1	18	2	44	3	44	4	
7	27	43	32	31	2	37	41	27	0	32	1	31	2	31	3	2	4	
4	1	34	37	2	37	0	37	1	37	2	2	1	2	0	
5	4	44	10	14	12	44	0	44	1	44	2	44	3	12	4	
5	25	13	49	37	41	25	0	49	1	49	5	49	3	49	4	
7	31	13	25	10	44	28	29	31	0	25	1	25	2	25	1	29	0	
3	18	16	9	18	0	18	1	18	2	18	5	9	4	
7	36	48	0	46	42	24	17	36	0	36	1	36	5	0	3	17	4	
2	42	46	46	0	46	1	46	2	46	5	46	4	
7	26	34	37	49	18	25	5	26	0	5	1	5	2	5	1	5	0	
4	13	49	1	34	49	0	1	1	1	5	1	3	34	4	
6	19	16	9	33	24	17	19	0	19	1	19	2	19	5	16	4	
4	6	22	21	43	43	0	43	1	43	2	43	5	43	4	
5	40	41	37	49	18	37	0	18	1	18	2	18	1	18	0	
4	24	45	49	13	45	0	49	1	13	2	13	5	13	4	
7	46	28	16	18	49	37	2	49	0	37	1	37	5	2	3	2	4	
4	48	38	6	22	48	0	48	1	38	2	38	5	6	4	
7	7	6	22	4	44	28	23	6	0	28	1	23	2	23	5	23	4	
4	41	37	2	8	41	0	41	1	2	5	2	3	8	4	
6	18	25	10	14	48	36	18	0	10	1	10	5	14	3	36	4	
5	11	13	49	45	30	11	0	11	1	13	2	13	5	30	4	
6	34	37	49	18	16	28	49	0	18	1	16	5	16	3	28	4	
6	48	14	10	25	13	8	25	0	25	1	25	5	13	3	8	4	
5	22	5	25	13	8	22	0	25	1	25	2	13	3	8	4	
8	17	24	23	28	44	4	22	6	24	0	28	1	44	2	44	5	22	4	
5	39	35	10	25	13	10	0	10	1	10	5	25	3	13	4	
5	23	28	44	4	22	28	0	44	1	44	2	4	3	22	4	
3	16	28	29	16	0	16	1	28	5	29	3	29	4	
4	41	37	49	45	41	0	41	1	37	2	37	5	45	4	
5	44	28	23	24	17	28	0	28	1	28	2	28	1	17	0	
6	34	37	49	13	25	5	13	0	13	1	13	5	13	3	25	4	
7	21	5	25	13	49	1	34	21	0	21	1	21	2	25	1	34	0	
7	8	13	25	10	14	48	36	25	0	10	1	10	2	14	3	36	4	
6	1	49	13	25	10	35	13	0	13	1	25	2	25	1	25	0	
6	32	5	4	44	28	29	5	0	4	1	4	2	4	3	29	4	
9	38	48	14	10	25	13	49	37	41	14	0	14	1	14	2	10	5	10	4	
6	12	14	10	25	13	31	14	0	13	1	31	2	31	1	31	0	
3	46	0	29	46	0	46	1	46	2	46	1	29	0	
5	33	24	45	49	37	33	0	49	1	49	2	37	3	37	4	
9	26	30	17	24	42	46	0	48	36	46	0	0	1	0	2	0	1	36	0	
5	10	25	5	21	27	10	0	10	1	10	2	5	5	5	4	
4	16	28	23	24	16	0	16	1	28	5	24	3	24	4	
8	0	48	38	6	22	5	32	3	48	0	48	1	5	2	3	3	3	4	
2	3	11	3	0	3	1	3	2	3	1	11	0	
4	24	23	28	44	24	0	28	1	28	2	44	3	44	4	
5	14	12	29	28	23	28	0	28	1	23	2	23	1	23	0	
4	38	48	14	12	38	0	38	1	48	5	48	3	48	4	
4	25	5	22	6	25	0	25	1	25	2	25	3	6	4	
6	2	37	49	18	16	9	2	0	2	1	2	5	49	3	18	4	
3	28	23	24	28	0	28	1	23	2	24	1	24	0	
5	49	18	16	28	29	49	0	49	1	18	2	18	3	28	4	
5	5	22	39	38	36	5	0	5	1	22	2	22	1	39	0	
4	26	30	17	24	26	0	26	1	30	2	17	3	24	4	
5	3	32	5	4	44	32	0	5	1	5	2	4	5	44	4	
6	37	49	18	16	28	46	18	0	18	1	16	2	16	5	16	4	
8	17	24	23	28	44	10	35	39	24	0	28	1	10	2	10	3	39	4	
6	48	14	10	25	18	49	10	0	10	1	10	2	49	1	49	0	
5	4	5	32	31	2	4	0	32	1	32	2	31	5	31	4	
4	44	10	14	48	44	0	44	1	10	2	10	1	48	0	
4	31	13	25	19	31	0	25	1	19	5	19	3	19	4	
4	18	25	13	11	18	0	13	1	11	2	11	3	11	4	
3	21	43	3	43	0	43	1	3	2	3	1	3	0	
3	8	11	3	8	0	8	1	8	2	11	5	3	4	
7	42	23	28	44	4	5	32	42	0	23	1	23	2	44	3	4	4	
10	26	34	37	49	13	25	5	22	6	7	26	0	5	1	5	5	5	3	6	4	
7	16	19	44	4	22	6	7	16	0	16	1	44	2	44	1	6	0	
6	19	25	5	21	27	15	25	0	5	1	5	2	5	3	15	4	
3	43	21	22	43	0	43	1	21	2	21	3	21	4	
7	2	37	49	18	16	28	46	49	0	49	1	16	5	16	3	16	4	
7	36	48	14	10	25	13	8	36	0	36	1	36	5	13	3	8	4	
6	20	3	32	5	4	35	3	0	5	1	5	2	5	3	5	4	
6	41	37	49	18	25	10	25	0	25	1	25	2	10	1	10	0	
4	47	1	49	18	47	0	47	1	47	5	49	3	18	4	
6	11	13	25	19	16	28	13	0	25	1	25	2	25	3	28	4	
4	1	49	13	8	1	0	1	1	49	2	49	5	8	4	
5	35	10	44	28	46	44	0	44	1	44	2	44	5	44	4	
4	25	10	35	39	39	0	39	1	39	2	39	5	39	4	
3	9	16	28	9	0	9	1	9	2	9	1	28	0	
7	12	14	10	25	13	8	2	13	0	13	1	13	2	8	3	2	4	
4	2	37	49	18	2	0	2	1	2	2	18	5	18	4	
5	39	35	10	44	19	10	0	10	1	10	2	10	1	19	0	
8	23	28	44	4	22	21	43	20	28	0	21	1	21	2	21	5	20	4	
7	29	28	44	4	5	32	3	29	0	32	1	32	5	3	3	3	4	
7	2	31	32	43	27	15	7	43	0	43	1	43	5	43	3	15	4	
5	13	49	1	34	40	49	0	1	1	1	2	1	3	34	4	
7	2	31	32	5	22	6	38	31	0	5	1	5	2	22	5	38	4	
9	34	37	2	31	32	5	22	6	7	34	0	31	1	31	2	5	1	6	0	
7	37	2	31	32	43	27	15	37	0	31	1	43	2	43	3	43	4	
8	24	42	46	0	48	38	6	7	42	0	0	1	0	5	0	3	38	4	
4	8	2	37	34	8	0	8	1	8	2	8	5	34	4	
5	48	0	46	28	16	0	0	28	1	28	2	28	1	16	0	
6	4	44	19	16	9	33	16	0	16	1	16	2	16	3	33	4	
5	7	6	22	5	25	6	0	5	1	5	2	5	1	25	0	
5	38	39	22	21	43	43	0	43	1	43	2	43	3	43	4	
5	6	38	48	14	10	6	0	6	1	38	2	14	5	10	4	
5	18	16	28	23	42	16	0	16	1	16	2	23	5	42	4	
3	2	37	49	2	0	2	1	2	2	49	1	49	0	
2	5	25	5	0	5	1	25	2	25	3	25	4	
8	36	48	0	46	42	24	45	47	48	0	42	1	42	2	42	1	47	0	
6	29	28	44	4	5	32	29	0	44	1	44	2	44	3	4	4	
6	16	28	46	0	48	38	28	0	46	1	46	2	46	1	38	0	
7	0	46	28	16	18	49	1	28	0	49	1	1	2	1	5	1	4	
2	24	42	24	0	24	1	24	2	24	5	42	4	
6	27	15	7	6	38	48	27	0	15	1	15	2	48	1	48	0	
2	30	26	30	0	30	1	30	2	30	3	26	4	
6	17	24	23	28	29	12	24	0	23	1	28	5	28	3	28	4	
6	41	37	2	31	3	43	41	0	41	1	37	2	37	1	31	0	
6	2	31	32	5	22	39	31	0	5	1	5	2	5	3	5	4	
5	44	4	22	21	27	44	0	44	1	44	2	44	5	27	4	
5	28	23	24	17	30	23	0	24	1	24	5	24	3	30	4	
7	21	5	25	13	49	45	24	25	0	45	1	45	2	24	5	24	4	
4	5	22	39	38	5	0	5	1	38	5	38	3	38	4	
5	33	24	23	28	29	33	0	33	1	33	5	23	3	29	4	
3	39	38	48	39	0	39	1	38	5	48	3	48	4	
6	40	41	37	2	31	11	40	0	40	1	40	2	31	3	11	4	
8	15	27	43	32	31	2	37	41	27	0	32	1	32	5	31	3	2	4	
7	33	9	16	19	44	10	35	9	0	19	1	44	5	35	3	35	4	
3	17	24	33	17	0	17	1	17	2	33	5	33	4	
6	10	44	28	23	24	17	10	0	10	1	44	5	44	3	17	4	
2	21	5	21	0	21	1	5	5	5	3	5	4	
4	8	13	49	1	13	0	49	1	1	2	1	3	1	4	
4	14	10	25	13	10	0	25	1	25	2	25	5	13	4	
4	45	24	23	28	45	0	45	1	28	2	28	1	28	0	
8	2	31	13	25	10	14	48	36	31	0	13	1	13	2	14	5	36	4	
4	38	48	14	10	38	0	38	1	48	2	48	5	10	4	
7	22	4	44	28	23	24	17	4	0	44	1	28	2	28	1	17	0	
2	43	20	43	0	43	1	43	2	20	5	20	4	
6	49	18	25	5	21	27	49	0	21	1	21	5	21	3	27	4	
5	33	24	42	46	0	33	0	46	1	0	2	0	3	0	4	
3	36	48	14	36	0	36	1	36	2	14	1	14	0	
8	20	3	31	13	49	45	24	33	31	0	49	1	49	2	33	5	33	4	
2	26	30	26	0	26	1	26	5	26	3	30	4	
7	0	48	14	10	25	5	32	0	0	0	1	0	2	48	3	32	4	
5	47	1	49	18	16	47	0	47	1	47	2	49	1	18	0	
6	34	26	30	45	24	42	34	0	24	1	24	2	24	3	42	4	
8	37	49	18	25	10	14	48	36	18	0	18	1	18	5	14	3	36	4	
3	32	43	21	21	0	21	1	21	5	21	3	21	4	
2	14	48	48	0	48	1	48	5	48	3	48	4	
5	1	49	18	25	10	25	0	25	1	25	2	10	3	10	4	
5	32	5	22	6	38	5	0	5	1	5	5	5	3	22	4	
3	35	4	44	35	0	35	1	35	2	35	3	44	4	
5	25	19	16	9	33	19	0	16	1	16	2	16	3	33	4	
5	9	33	24	17	30	9	0	9	1	33	5	24	3	30	4	
4	31	3	43	21	31	0	21	1	21	2	21	5	21	4	
6	15	7	6	38	48	14	6	0	38	1	38	2	48	1	14	0	
4	2	31	3	20	3	0	3	1	20	2	20	3	20	4	
5	42	46	0	48	38	46	0	46	1	46	5	46	3	38	4	
5	29	28	44	4	5	29	0	44	1	44	2	4	1	5	0	
5	13	49	45	24	42	42	0	42	1	42	2	42	5	42	4	
3	19	16	9	19	0	19	1	19	5	19	3	9	4	
3	37	49	1	37	0	37	1	49	2	1	5	1	4	
6	24	45	49	18	25	5	49	0	49	1	49	2	25	1	25	0	
7	27	21	22	4	44	28	29	27	0	27	1	4	2	4	3	29	4	
7	48	0	46	42	24	17	30	0	0	42	1	42	5	42	3	30	4	
6	7	15	27	43	32	31	15	0	32	1	31	5	31	3	31	4	
8	41	37	49	18	16	28	29	0	49	0	49	1	49	2	18	5	18	4	
5	25	19	16	28	29	19	0	19	1	16	5	16	3	29	4	
3	18	19	44	18	0	18	1	19	2	44	3	44	4	
5	49	18	19	44	4	49	0	44	1	44	2	4	1	4	0	
7	36	48	0	46	42	24	45	48	0	24	1	24	5	24	3	45	4	
7	29	28	16	18	49	1	34	29	0	29	1	49	2	49	5	34	4	
5	12	14	10	44	4	14	0	14	1	44	5	4	3	4	4	
4	32	31	13	49	13	0	13	1	13	2	13	5	49	4	
7	30	45	49	13	31	3	20	49	0	3	1	20	2	20	5	20	4	
7	17	24	23	28	44	10	14	24	0	28	1	28	2	28	1	28	0	
8	20	43	21	22	6	38	48	0	20	0	38	1	38	2	0	3	0	4	
4	23	24	17	30	23	0	23	1	23	5	24	3	30	4	
2	41	37	41	0	41	1	41	5	41	3	37	4	
3	44	19	25	44	0	44	1	44	2	25	3	25	4	
4	34	37	49	13	34	0	49	1	13	2	13	5	13	4	
8	21	5	25	18	49	37	34	26	21	0	21	1	18	2	18	3	26	4	
5	11	31	2	37	34	31	0	31	1	34	2	34	5	34	4	
6	42	23	28	44	19	25	42	0	25	1	25	2	25	1	25	0	
3	45	49	1	49	0	49	1	1	2	1	3	1	4	
4	35	10	25	13	10	0	10	1	10	2	10	5	13	4	
6	19	44	10	14	48	38	19	0	19	1	44	2	38	1	38	0	
7	40	41	37	49	18	16	9	49	0	49	1	49	2	49	5	18	4	
9	15	27	21	5	25	18	49	1	47	18	0	18	1	18	2	18	1	47	0	
6	46	28	44	4	22	21	44	0	4	1	21	2	21	3	21	4	
3	33	24	45	33	0	33	1	33	2	24	1	45	0	
3	10	44	19	10	0	10	1	44	2	19	1	19	0	
2	13	11	11	0	11	1	11	2	11	3	11	4	
7	0	48	14	10	25	13	11	0	0	0	1	0	5	48	3	11	4	
3	34	1	49	34	0	34	1	34	5	34	3	49	4	
6	24	42	46	0	48	36	42	0	0	1	0	2	0	1	36	0	
6	11	3	43	27	15	7	11	0	11	1	11	5	43	3	15	4	
6	14	48	38	6	7	15	14	0	14	1	48	2	38	3	7	4	
2	45	30	30	0	30	1	30	5	30	3	30	4	
5	1	47	45	24	23	1	0	1	1	47	2	24	1	24	0	
6	38	39	22	21	43	20	21	0	21	1	21	2	21	3	20	4	
4	22	4	44	19	22	0	22	1	4	5	44	3	19	4	
3	28	29	0	28	0	28	1	29	2	29	5	0	4	
7	12	14	10	25	5	32	43	14	0	5	1	5	2	43	1	43	0	
6	33	24	45	49	37	2	33	0	37	1	37	2	2	5	2	4	
6	26	34	37	49	18	16	26	0	49	1	49	2	18	1	18	0	
2	0	46	0	0	0	1	0	2	46	5	46	4	
7	3	32	5	22	6	38	36	32	0	5	1	5	2	5	1	22	0	
8	6	22	5	25	13	49	45	30	6	0	6	1	49	2	49	3	30	4	
8	37	2	31	32	5	22	6	38	37	0	32	1	5	2	22	1	38	0	
4	17	24	45	47	17	0	17	1	17	2	24	1	47	0	
4	34	37	2	31	34	0	37	1	2	2	2	5	31	4	
8	4	5	25	18	49	37	34	26	4	0	4	1	25	5	25	3	26	4	
5	48	0	46	28	23	0	0	46	1	46	2	46	5	28	4	
5	7	6	38	48	0	6	0	6	1	6	2	0	3	0	4	
4	28	44	4	35	28	0	28	1	28	2	44	1	44	0	
3	31	32	43	31	0	31	1	31	2	31	3	32	4	
7	15	7	6	38	48	14	12	6	0	48	1	48	5	48	3	48	4	
4	49	45	24	33	49	0	49	1	45	2	45	3	24	4	
7	16	18	25	5	21	27	15	16	0	16	1	25	2	25	3	15	4	
6	19	25	5	22	6	7	25	0	25	1	25	2	25	1	6	0	
7	43	32	31	13	49	45	30	31	0	31	1	49	5	49	3	30	4	
3	20	43	27	43	0	43	1	27	5	27	3	27	4	
3	41	37	2	41	0	41	1	37	2	2	3	2	4	
6	47	1	49	18	25	10	47	0	18	1	25	2	10	5	10	4	
6	49	18	25	5	22	6	49	0	49	1	25	5	25	3	22	4	
4	14	48	0	46	14	0	0	1	0	2	0	5	46	4	
3	1	49	37	1	0	1	1	1	2	37	5	37	4	
6	45	49	13	31	3	20	49	0	3	1	20	5	20	3	20	4	
8	23	28	44	4	22	6	7	15	28	0	44	1	44	2	6	5	7	4	
8	9	16	18	25	5	32	43	20	16	0	25	1	25	2	25	3	20	4	
3	12	14	10	12	0	12	1	12	2	14	1	10	0	
3	46	0	48	46	0	46	1	46	2	46	1	48	0	
5	20	43	21	22	6	20	0	43	1	21	2	21	5	22	4	
2	23	28	28	0	28	1	28	2	28	1	28	0	
5	13	25	10	14	48	13	0	13	1	10	5	10	3	48	4	
8	34	37	2	31	3	43	27	15	34	0	34	1	34	2	37	3	31	4	
8	37	49	18	25	5	22	6	7	18	0	18	1	18	2	18	1	6	0	
3	11	3	32	11	0	11	1	11	2	11	3	32	4	
8	42	23	28	44	4	22	21	27	42	0	4	1	4	5	4	3	27	4	
5	48	0	46	42	24	0	0	24	1	24	2	24	5	24	4	
2	32	3	32	0	32	1	3	2	3	1	3	0	
5	35	10	25	13	11	10	0	13	1	11	2	11	3	11	4	
6	19	44	10	14	48	36	19	0	19	1	44	5	14	3	14	4	
4	25	5	21	27	25	0	25	1	5	2	21	5	27	4	
3	46	28	23	46	0	46	1	46	2	23	5	23	4	
7	5	25	13	49	45	24	17	5	0	5	1	5	2	49	1	17	0	
3	36	38	39	36	0	36	1	36	2	39	3	39	4	
8	29	28	16	18	49	1	34	40	29	0	29	1	49	5	49	3	34	4	
5	0	46	28	23	9	0	0	0	1	23	2	9	1	9	0	
5	3	31	13	49	1	31	0	13	1	1	2	1	3	1	4	
3	6	22	5	6	0	6	1	5	5	5	3	5	4	
5	24	17	30	26	34	24	0	24	1	24	5	24	3	34	4	
4	30	45	49	18	45	0	18	1	18	2	18	1	18	0	
8	17	24	45	49	13	11	3	20	45	0	49	1	49	2	49	5	49	4	
2	48	36	48	0	48	1	48	2	36	1	36	0	
7	41	37	49	13	25	10	35	49	0	49	1	49	2	49	5	49	4	
5	28	44	4	22	6	4	0	4	1	4	2	4	3	22	4	
8	12	14	10	25	13	49	37	41	14	0	13	1	13	5	13	3	13	4	
2	13	31	13	0	13	1	13	5	31	3	31	4	
8	45	49	18	25	5	22	6	7	25	0	5	1	5	5	5	3	6	4	
7	6	22	4	44	28	23	24	44	0	44	1	44	2	24	5	24	4	
6	40	41	37	2	31	3	40	0	40	1	40	5	2	3	3	4	
3	24	17	30	24	0	24	1	24	2	24	5	30	4	
5	17	30	26	34	41	34	0	34	1	34	5	34	3	41	4	
4	28	16	9	33	28	0	28	1	28	5	9	3	33	4	
4	18	25	5	21	18	0	18	1	5	2	5	1	21	0	
4	11	13	49	1	11	0	49	1	1	2	1	5	1	4	
7	45	24	42	46	0	48	36	45	0	0	1	0	2	0	3	36	4	
4	16	18	49	13	16	0	49	1	13	2	13	5	13	4	
6	38	48	14	10	25	18	14	0	25	1	18	5	18	3	18	4	
3	2	37	41	41	0	41	1	41	5	41	3	41	4	
3	22	5	25	22	0	22	1	22	2	5	3	25	4	
4	9	16	18	49	49	0	49	1	49	2	49	1	49	0	
10	40	41	37	49	13	25	10	14	48	38	49	0	49	1	49	2	25	5	25	4	
6	43	32	5	4	44	28	28	0	28	1	28	2	28	1	28	0	
6	33	24	45	49	13	8	33	0	13	1	13	5	13	3	8	4	
5	20	3	31	13	25	31	0	31	1	31	2	31	1	13	0	
3	23	9	33	23	0	23	1	23	2	33	3	33	4	
5	10	25	18	49	45	10	0	10	1	49	5	49	3	45	4	
9	0	46	42	24	17	30	26	34	40	42	0	24	1	26	2	26	1	34	0	
5	47	1	49	13	8	47	0	47	1	47	2	49	3	8	4	
4	34	37	49	18	18	0	18	1	18	2	18	1	18	0	
5	21	5	25	18	49	21	0	21	1	21	5	49	3	49	4	
8	14	10	25	13	49	1	34	40	14	0	14	1	10	2	25	3	34	4	
6	32	5	4	44	28	46	5	0	44	1	44	2	44	3	44	4	
6	9	16	18	25	5	22	9	0	9	1	22	2	22	5	22	4	
4	31	13	49	45	31	0	31	1	13	5	13	3	45	4	
3	15	7	6	15	0	15	1	15	2	7	3	6	4	
6	2	37	49	18	16	28	49	0	49	1	16	2	16	1	28	0	
4	39	35	10	25	35	0	10	1	10	2	10	3	25	4	
4	10	25	13	8	10	0	10	1	10	2	13	5	8	4	
8	0	48	38	6	22	21	43	20	0	0	0	1	0	2	22	3	20	4	
4	37	49	13	25	37	0	37	1	49	5	49	3	49	4	
3	27	21	5	27	0	27	1	5	2	5	1	5	0	
4	33	24	45	30	33	0	33	1	33	2	30	5	30	4	
5	30	17	24	33	9	30	0	30	1	30	2	30	5	33	4	
5	32	31	13	49	1	49	0	49	1	1	5	1	3	1	4	
4	7	6	38	39	7	0	7	1	7	2	6	3	38	4	
3	25	5	21	25	0	25	1	25	2	25	3	21	4	
8	47	1	49	13	25	5	21	27	47	0	47	1	47	5	21	3	27	4	
6	49	18	16	28	29	12	49	0	49	1	18	2	28	3	28	4	
8	36	48	14	10	25	13	49	37	14	0	10	1	49	2	37	5	37	4	
4	29	28	46	42	29	0	29	1	28	2	42	1	42	0	
3	16	28	44	16	0	16	1	28	2	44	3	44	4	
2	3	31	31	0	31	1	31	2	31	5	31	4	
2	6	7	6	0	6	1	6	2	6	1	7	0	
6	30	45	49	18	19	44	49	0	49	1	49	5	49	3	19	4	
7	17	24	23	28	44	4	22	24	0	28	1	44	2	4	3	22	4	
8	48	14	10	25	18	49	1	34	25	0	18	1	18	5	49	3	34	4	
6	23	28	44	4	22	6	28	0	44	1	44	2	4	5	22	4	
6	2	31	32	5	22	39	31	0	5	1	5	5	5	3	5	4	
2	31	2	31	0	31	1	2	2	2	1	2	0	
3	42	24	17	24	0	24	1	24	2	17	3	17	4	
4	45	24	33	9	45	0	45	1	45	2	33	1	33	0	
3	35	4	5	35	0	35	1	35	5	35	3	5	4	
5	19	18	49	45	30	19	0	49	1	49	2	49	3	30	4	
4	22	6	38	36	22	0	22	1	6	2	6	1	36	0	
3	40	34	1	40	0	40	1	40	2	34	1	1	0	
6	46	28	44	19	25	13	44	0	44	1	25	5	25	3	13	4	
5	34	37	2	31	32	34	0	34	1	34	2	2	5	32	4	
3	13	25	19	13	0	13	1	13	2	25	1	25	0	
2	47	45	47	0	47	1	47	2	47	1	45	0	
4	18	16	9	23	18	0	18	1	18	5	18	3	16	4	
6	8	13	49	45	24	23	49	0	45	1	23	2	23	1	23	0	
5	11	3	43	27	15	11	0	11	1	11	2	43	3	15	4	
7	45	24	42	46	0	48	38	46	0	46	1	46	2	0	5	38	4	
4	1	49	13	31	1	0	1	1	49	2	49	5	13	4	
5	38	48	0	46	28	38	0	38	1	0	2	28	1	28	0	
3	22	21	27	22	0	22	1	21	2	21	5	27	4	
6	28	16	19	25	13	8	28	0	19	1	19	5	13	3	8	4	
2	15	27	15	0	15	1	15	2	27	1	27	0	
6	33	9	16	19	25	10	33	0	33	1	33	2	33	1	9	0	
5	36	38	6	22	4	36	0	36	1	36	2	38	3	4	4	
6	39	22	5	32	31	2	22	0	32	1	32	5	31	3	31	4	
6	23	28	44	10	35	39	28	0	44	1	10	2	10	5	39	4	
6	10	25	18	49	1	47	10	0	10	1	18	2	18	1	47	0	
2	6	38	6	0	6	1	38	2	38	1	38	0	
4	4	5	25	18	4	0	25	1	18	2	18	3	18	4	
7	35	10	25	18	49	1	34	10	0	10	1	25	2	49	1	34	0	
6	28	44	4	22	21	43	28	0	28	1	28	2	4	3	43	4	
5	31	13	25	10	35	31	0	35	1	35	2	35	1	35	0	
5	15	27	21	22	4	21	0	21	1	22	2	22	5	4	4	
3	49	37	41	41	0	41	1	41	2	41	1	41	0	
4	5	25	13	8	5	0	5	1	5	2	13	3	8	4	
5	39	22	5	32	31	39	0	39	1	31	2	31	5	31	4	
7	29	0	48	38	6	7	15	29	0	38	1	38	2	38	3	7	4	
3	16	9	23	16	0	16	1	16	5	16	3	23	4	
5	0	46	28	16	18	0	0	0	1	28	2	16	5	18	4	
6	40	41	37	2	31	32	40	0	40	1	40	2	2	1	32	0	
5	43	21	22	39	38	43	0	43	1	38	2	38	5	38	4	
3	27	43	3	27	0	27	1	3	5	3	3	3	4	
5	30	45	49	13	11	49	0	49	1	11	2	11	3	11	4	
6	20	3	31	13	25	19	31	0	13	1	19	2	19	5	19	4	
2	44	4	44	0	44	1	4	2	4	5	4	4	
5	49	18	25	10	14	49	0	49	1	25	2	25	5	25	4	
3	14	48	38	38	0	38	1	38	5	38	3	38	4	
6	32	31	2	37	34	40	32	0	32	1	31	5	31	3	34	4	
4	16	28	23	42	16	0	16	1	28	2	28	5	42	4	
4	23	28	44	4	28	0	44	1	44	2	4	3	4	4	
2	10	14	10	0	10	1	10	2	10	1	14	0	
4	44	10	35	39	39	0	39	1	39	2	39	1	39	0	
7	31	13	25	10	14	48	0	31	0	25	1	25	5	25	3	25	4	
3	37	2	31	37	0	37	1	37	2	37	5	31	4	
3	21	43	20	43	0	43	1	43	2	20	1	20	0	
5	42	23	28	16	19	42	0	16	1	16	2	16	5	19	4	
3	32	3	11	32	0	32	1	32	2	32	3	11	4	
5	35	4	5	32	3	35	0	35	1	35	2	35	1	4	0	
3	19	16	28	19	0	19	1	19	2	19	5	28	4	
2	25	19	25	0	25	1	25	5	25	3	19	4	
7	9	16	18	49	1	34	40	16	0	49	1	49	2	49	3	34	4	
7	15	27	43	32	31	2	37	27	0	32	1	32	2	31	3	31	4	
7	46	0	48	38	6	7	15	46	0	38	1	38	2	38	1	7	0	
3	33	24	23	33	0	33	1	33	2	24	3	23	4	
4	13	25	5	21	13	0	13	1	13	5	5	3	21	4	
6	0	46	42	24	45	49	42	0	24	1	49	2	49	3	49	4	
4	3	31	13	25	31	0	31	1	31	2	31	1	13	0	
5	6	22	5	25	13	6	0	6	1	22	2	22	5	13	4	
7	4	44	28	23	24	45	47	28	0	28	1	23	2	23	3	47	4	
5	8	13	25	5	21	13	0	13	1	13	5	25	3	21	4	
4	30	17	24	42	30	0	30	1	30	2	30	5	42	4	
6	14	10	25	18	49	1	10	0	25	1	1	2	1	1	1	0	
4	1	49	13	25	25	0	25	1	25	2	25	3	25	4	
4	25	10	14	48	25	0	10	1	10	2	10	3	48	4	
6	46	28	44	4	5	32	44	0	44	1	44	5	44	3	4	4	
4	28	44	10	14	28	0	28	1	28	2	10	1	14	0	
6	12	29	28	16	18	49	28	0	28	1	16	2	16	5	49	4	
9	36	48	0	46	42	24	45	30	26	48	0	24	1	26	2	26	5	26	4	
4	39	38	48	0	38	0	48	1	48	2	0	1	0	0	
7	26	34	37	49	18	25	10	26	0	49	1	18	2	10	3	10	4	
8	29	28	44	4	5	32	43	20	29	0	5	1	32	5	20	3	20	4	
4	6	22	5	32	22	0	5	1	32	5	32	3	32	4	
8	40	41	37	2	31	3	43	27	37	0	31	1	31	2	31	5	31	4	
6	24	23	28	44	4	22	24	0	44	1	44	5	4	3	22	4	
4	17	30	45	49	17	0	17	1	49	2	49	3	49	4	
5	48	38	6	7	15	48	0	48	1	6	2	6	1	7	0	
5	7	6	38	48	14	6	0	6	1	6	2	48	1	14	0	
6	28	16	18	49	37	41	28	0	28	1	18	2	49	5	49	4	
4	18	16	28	29	29	0	29	1	29	2	29	3	29	4	
3	5	25	10	5	0	5	1	5	2	10	5	10	4	
6	11	13	25	18	16	9	13	0	18	1	18	5	18	3	18	4	
5	45	49	18	19	44	49	0	49	1	18	5	44	3	44	4	
5	29	28	16	18	49	29	0	29	1	18	2	49	5	49	4	
5	16	18	25	5	21	16	0	16	1	5	2	5	1	21	0	
6	22	5	25	18	49	1	22	0	22	1	1	5	1	3	1	4	
6	43	21	22	6	38	36	43	0	22	1	22	2	22	3	22	4	
8	20	3	31	13	49	45	24	17	31	0	49	1	49	2	49	3	17	4	
6	23	24	45	49	37	41	49	0	49	1	49	2	49	1	49	0	
5	10	25	13	49	37	25	0	49	1	49	2	37	5	37	4	
6	41	37	2	31	3	20	41	0	41	1	37	2	37	1	3	0	
2	44	10	10	0	10	1	10	2	10	3	10	4	
2	34	26	34	0	34	1	34	2	26	5	26	4	
7	21	5	25	18	49	37	41	21	0	21	1	18	2	49	3	49	4	
5	14	10	25	5	32	14	0	14	1	10	2	32	1	32	0	
3	32	5	22	5	0	5	1	22	2	22	1	22	0	
4	12	29	28	16	16	0	16	1	16	2	16	3	16	4	
2	46	42	42	0	42	1	42	2	42	3	42	4	
3	26	30	45	45	0	45	1	45	2	45	5	45	4	
4	10	14	48	0	10	0	48	1	48	5	0	3	0	4	
5	44	19	18	49	37	44	0	44	1	19	5	37	3	37	4	
3	0	29	28	0	0	0	1	0	2	28	1	28	0	
5	37	34	26	30	17	37	0	37	1	37	2	17	3	17	4	
2	21	22	21	0	21	1	21	5	22	3	22	4	
5	27	21	5	25	13	25	0	25	1	25	2	25	5	13	4	
4	14	12	29	28	28	0	28	1	28	2	28	3	28	4	
6	32	5	25	18	16	9	5	0	5	1	5	2	18	5	18	4	
9	7	6	22	5	25	13	49	1	47	6	0	5	1	13	2	13	1	47	0	
4	38	39	22	5	22	0	22	1	5	2	5	3	5	4	
2	25	13	25	0	25	1	25	2	25	1	13	0	
3	9	23	42	23	0	23	1	23	2	23	5	42	4	
6	2	31	32	5	4	35	2	0	2	1	31	2	31	1	32	0	
3	5	32	43	43	0	43	1	43	2	43	3	43	4	
7	39	35	10	25	18	49	37	10	0	10	1	10	2	37	3	37	4	
7	3	31	13	49	45	24	23	13	0	45	1	23	5	23	3	23	4	
3	6	7	15	6	0	6	1	6	2	15	3	15	4	
7	27	21	22	4	44	28	46	27	0	27	1	22	2	22	1	22	0	
8	30	45	24	42	46	0	48	36	46	0	0	1	0	2	0	3	36	4	
6	14	10	25	13	31	3	10	0	13	1	13	5	3	3	3	4	
4	48	0	46	42	48	0	46	1	46	2	42	3	42	4	
5	4	5	25	13	11	4	0	13	1	11	2	11	1	11	0	
3	49	18	19	49	0	49	1	19	2	19	5	19	4	
4	41	37	49	13	37	0	49	1	13	2	13	5	13	4	
5	31	2	37	34	26	31	0	31	1	31	2	31	3	2	4	
5	18	16	28	29	0	16	0	16	1	16	2	28	1	28	0	
6	8	13	25	10	14	12	25	0	25	1	10	5	10	3	12	4	
6	42	24	45	49	37	41	45	0	49	1	49	5	49	3	49	4	
8	26	30	45	24	23	28	29	12	30	0	24	1	24	2	23	5	23	4	
5	29	28	44	4	22	29	0	44	1	44	2	4	1	22	0	
4	19	25	5	22	5	0	5	1	22	5	22	3	22	4	
6	40	41	37	49	13	25	25	0	25	1	25	2	25	3	25	4	
6	43	32	31	13	49	1	13	0	49	1	1	2	1	1	1	0	
5	46	28	44	4	5	44	0	44	1	44	2	4	5	5	4	
5	48	14	10	25	13	14	0	14	1	25	5	25	3	13	4	
6	7	6	38	48	14	12	6	0	48	1	48	5	48	3	48	4	
5	13	31	32	43	27	32	0	32	1	32	2	43	5	27	4	
4	47	1	49	37	47	0	47	1	47	2	37	5	37	4	
4	18	49	13	31	18	0	18	1	49	2	49	5	13	4	
6	11	13	49	45	24	23	49	0	45	1	23	2	23	1	23	0	
4	45	24	42	46	45	0	45	1	45	2	42	1	46	0	
8	1	49	18	25	5	22	6	7	1	0	1	1	25	5	5	3	6	4	
4	22	5	32	3	22	0	32	1	32	2	3	1	3	0	
6	9	16	18	49	13	11	9	0	9	1	11	2	11	3	11	4	
5	36	48	0	46	28	36	0	36	1	36	2	28	1	28	0	
3	39	35	10	39	0	39	1	35	2	10	5	10	4	
4	23	24	45	47	23	0	23	1	23	5	24	3	47	4	
3	10	35	39	10	0	10	1	35	2	35	3	39	4	
7	41	37	49	18	25	5	22	49	0	25	1	25	5	5	3	5	4	
8	47	1	49	13	25	5	22	6	47	0	47	1	47	2	25	1	22	0	
5	6	38	48	0	46	6	0	6	1	38	2	48	5	46	4	
4	24	23	28	16	24	0	24	1	24	2	28	5	16	4	
4	8	11	3	43	8	0	8	1	8	2	11	1	43	0	
8	1	49	18	25	10	14	48	36	1	0	1	1	25	2	14	3	36	4	
5	4	44	28	23	42	28	0	28	1	28	2	23	1	42	0	
5	38	39	22	5	32	22	0	22	1	22	2	22	1	32	0	
6	12	14	48	38	6	22	12	0	12	1	12	2	38	5	6	4	
6	2	31	32	5	22	6	31	0	5	1	5	2	5	3	22	4	
6	5	25	10	14	48	0	5	0	5	1	5	5	25	3	48	4	
4	26	34	1	47	26	0	26	1	26	2	34	3	47	4	
5	16	19	25	13	31	19	0	25	1	31	2	31	5	31	4	
7	0	46	42	24	45	30	26	42	0	45	1	26	5	26	3	26	4	
4	27	43	3	11	27	0	27	1	43	2	43	3	11	4	
3	38	6	7	38	0	38	1	38	2	7	5	7	4	
4	44	10	14	12	44	0	44	1	10	5	10	3	12	4	
2	28	23	23	0	23	1	23	2	23	3	23	4	
5	49	18	25	5	22	49	0	49	1	22	2	22	1	22	0	
7	21	5	25	18	49	1	47	21	0	21	1	18	5	18	3	47	4	
5	5	25	18	49	45	5	0	18	1	49	2	49	5	45	4	
4	39	22	21	43	43	0	43	1	43	2	43	5	43	4	
5	27	21	22	4	44	27	0	27	1	22	5	22	3	22	4	
2	17	24	17	0	17	1	24	2	24	1	24	0	
5	4	44	28	23	9	28	0	28	1	23	5	9	3	9	4	
5	10	35	39	38	6	10	0	10	1	35	2	6	5	6	4	
6	44	19	18	49	1	47	49	0	49	1	49	2	49	3	47	4	
5	31	13	49	45	24	49	0	45	1	45	2	24	5	24	4	
5	37	49	45	24	23	45	0	45	1	23	5	23	3	23	4	
6	21	5	25	10	14	12	21	0	21	1	10	2	10	3	12	4	
4	8	13	25	10	13	0	13	1	13	2	10	1	10	0	
8	42	23	28	44	4	22	21	43	42	0	44	1	4	2	22	1	43	0	
8	14	10	25	18	49	37	34	26	10	0	25	1	18	5	18	3	26	4	
4	45	49	18	19	49	0	18	1	19	2	19	3	19	4	
6	19	25	13	31	3	20	13	0	3	1	20	2	20	1	20	0	
5	22	4	44	28	46	4	0	44	1	44	2	44	3	44	4	
6	9	16	18	25	5	32	9	0	9	1	32	5	32	3	32	4	
3	43	27	15	43	0	43	1	43	5	15	3	15	4	
3	2	37	41	41	0	41	1	41	2	41	5	41	4	
6	33	24	45	49	13	31	33	0	49	1	31	2	31	1	31	0	
8	20	3	31	13	49	45	24	42	31	0	24	1	24	5	24	3	42	4	
5	23	28	46	0	48	23	0	23	1	28	2	28	3	28	4	
6	13	25	18	16	28	29	13	0	13	1	16	2	16	3	16	4	
8	47	1	49	13	31	3	43	27	47	0	47	1	47	2	13	3	27	4	
5	37	2	31	3	43	37	0	37	1	37	2	37	5	2	4	
2	4	44	4	0	4	1	44	5	44	3	44	4	
3	30	26	34	34	0	34	1	34	5	34	3	34	4	
6	25	18	49	37	34	40	37	0	37	1	37	5	37	3	34	4	
5	9	16	19	25	5	25	0	5	1	5	2	5	5	5	4	
10	15	27	43	3	11	13	49	45	24	17	27	0	13	1	13	2	13	3	17	4	
6	36	48	14	10	25	18	36	0	36	1	36	5	25	3	25	4	
6	39	22	5	25	13	8	25	0	25	1	25	2	13	3	8	4	
4	26	34	37	2	26	0	26	1	26	2	2	1	2	0	
2	29	28	28	0	28	1	28	2	28	5	28	4	
5	13	49	45	24	33	49	0	45	1	45	5	33	3	33	4	
7	47	45	24	23	28	44	4	45	0	23	1	28	5	4	3	4	4	
9	6	22	5	25	18	49	1	34	40	22	0	49	1	49	2	49	3	34	4	
3	37	2	8	37	0	37	1	37	2	37	1	8	0	
6	24	23	28	44	10	14	24	0	24	1	24	2	28	3	44	4	
4	8	2	37	41	8	0	8	1	37	5	37	3	41	4	
8	34	26	30	17	24	42	46	0	34	0	46	1	0	2	0	5	0	4	
5	48	0	46	28	23	0	0	46	1	46	2	46	3	28	4	
7	48	38	39	22	21	43	20	22	0	21	1	21	2	21	5	20	4	
3	7	6	22	6	0	6	1	6	2	6	3	6	4	
8	41	37	2	31	32	43	27	15	2	0	2	1	43	5	43	3	43	4	
3	18	49	37	37	0	37	1	37	5	37	3	37	4	
2	2	8	2	0	2	1	2	2	2	5	8	4	
4	5	32	31	2	5	0	31	1	2	2	2	1	2	0	
3	16	28	29	16	0	16	1	28	2	29	3	29	4	
6	22	4	44	28	16	9	4	0	44	1	44	2	44	5	28	4	
3	24	45	49	24	0	24	1	49	5	49	3	49	4	
5	47	1	49	18	19	47	0	47	1	47	5	49	3	18	4	
6	30	45	24	23	28	29	24	0	23	1	23	2	23	1	29	0	
7	17	24	23	28	44	4	5	24	0	28	1	44	2	44	3	5	4	
3	23	24	17	23	0	23	1	23	2	17	5	17	4	
6	41	37	49	18	19	44	49	0	49	1	49	2	44	3	44	4	
3	44	19	18	44	0	44	1	19	2	19	1	18	0	
5	28	44	4	22	21	4	0	4	1	21	2	21	5	21	4	
3	34	37	2	34	0	34	1	34	5	2	3	2	4	
7	21	5	25	18	16	9	33	21	0	21	1	18	2	18	1	33	0	
5	42	46	0	48	14	0	0	48	1	48	2	48	3	14	4	
3	19	18	49	19	0	19	1	18	2	49	3	49	4	
5	12	29	28	23	24	28	0	23	1	23	2	24	1	24	0	
7	46	42	24	17	30	26	34	24	0	24	1	34	2	34	1	34	0	
7	33	24	42	46	0	48	36	33	0	0	1	0	2	0	5	36	4	
3	17	30	26	17	0	17	1	17	5	26	3	26	4	
5	10	44	28	23	24	10	0	10	1	28	2	24	3	24	4	
5	44	19	18	49	45	44	0	44	1	19	2	49	5	45	4	
5	46	28	44	10	35	44	0	44	1	44	2	35	5	35	4	
5	21	5	25	10	14	21	0	21	1	21	2	21	5	25	4	
7	14	10	25	5	32	43	20	10	0	5	1	32	2	20	1	20	0	
6	45	49	18	25	5	21	49	0	49	1	25	2	25	5	21	4	
3	35	10	25	25	0	25	1	25	2	25	3	25	4	
6	38	48	14	10	25	13	14	0	14	1	14	5	25	3	13	4	
8	22	5	25	18	49	1	34	40	22	0	22	1	49	2	49	5	34	4	
6	9	16	18	49	1	34	9	0	9	1	9	2	9	1	34	0	
4	2	31	32	43	2	0	31	1	31	2	31	3	32	4	
3	5	4	35	5	0	5	1	5	2	5	1	35	0	
7	39	35	10	25	18	49	45	10	0	10	1	10	2	49	1	45	0	
6	26	34	37	49	18	25	26	0	49	1	18	2	25	5	25	4	
4	0	48	38	39	48	0	38	1	38	2	39	1	39	0	
6	3	31	13	49	1	47	3	0	3	1	31	2	13	3	47	4	
2	34	37	37	0	37	1	37	2	37	1	37	0	
3	37	49	45	37	0	37	1	49	2	45	3	45	4	
4	4	5	32	3	4	0	4	1	4	2	3	3	3	4	
6	25	10	44	28	23	42	25	0	10	1	10	2	23	1	42	0	
4	31	13	49	18	13	0	18	1	18	5	18	3	18	4	
8	15	7	6	22	4	44	28	23	28	0	28	1	23	2	23	5	23	4	
3	42	24	33	24	0	24	1	24	2	33	5	33	4	
8	26	30	45	24	23	28	44	4	30	0	24	1	28	5	4	3	4	4	
6	29	28	23	24	17	30	29	0	29	1	23	2	24	3	30	4	
4	19	44	10	14	10	0	10	1	10	2	10	5	14	4	
7	3	32	5	25	10	14	48	32	0	5	1	5	5	10	3	48	4	
5	37	49	18	25	10	25	0	25	1	25	5	10	3	10	4	
7	43	32	5	25	19	16	9	32	0	32	1	32	2	32	5	25	4	
5	27	21	5	25	18	18	0	18	1	18	2	18	1	18	0	
5	48	38	6	22	21	48	0	48	1	38	2	38	5	21	4	
6	20	3	32	5	4	44	3	0	32	1	5	2	5	5	44	4	
5	7	15	27	43	20	15	0	15	1	27	2	27	5	20	4	
6	41	37	49	18	16	9	49	0	49	1	49	2	18	1	18	0	
6	47	45	24	23	28	29	47	0	47	1	47	5	45	3	29	4	
5	18	25	10	35	39	18	0	18	1	18	2	35	1	39	0	
6	3	32	5	22	39	38	32	0	22	1	38	5	38	3	38	4	
2	46	0	46	0	46	1	46	5	0	3	0	4	
5	22	21	43	3	11	43	0	43	1	43	2	3	3	11	4	
7	9	16	18	49	13	31	3	9	0	9	1	49	2	3	1	3	0	
7	12	14	10	25	5	32	3	14	0	25	1	25	2	3	5	3	4	
8	43	21	22	4	44	28	23	42	43	0	22	1	44	2	23	1	42	0	
5	30	45	49	13	31	49	0	49	1	49	5	49	3	49	4	
7	6	22	5	25	13	49	45	6	0	6	1	22	5	22	3	45	4	
5	5	22	39	38	36	5	0	5	1	22	2	22	5	39	4	
4	20	43	27	15	20	0	20	1	20	2	15	1	15	0	
7	41	37	49	18	16	28	46	49	0	16	1	16	2	16	5	16	4	
5	13	25	10	35	39	13	0	13	1	13	2	10	5	39	4	
7	34	37	49	18	19	44	4	19	0	44	1	44	2	4	1	4	0	
5	3	31	13	49	45	3	0	3	1	31	5	49	3	45	4	
5	24	45	49	13	8	45	0	49	1	49	5	49	3	8	4	
5	8	13	25	10	35	25	0	35	1	35	2	35	3	35	4	
3	42	46	0	46	0	46	1	0	2	0	5	0	4	
5	1	49	18	19	44	1	0	1	1	18	5	44	3	44	4	
5	32	5	4	44	28	5	0	44	1	28	2	28	3	28	4	
5	19	18	49	1	47	19	0	49	1	49	2	49	5	47	4	
7	12	29	28	23	24	17	30	28	0	28	1	23	5	24	3	30	4	
6	2	31	13	25	10	14	31	0	13	1	25	2	25	1	25	0	
7	33	24	42	46	0	48	38	33	0	46	1	46	2	46	3	38	4	
10	36	48	14	10	25	13	49	1	34	40	36	0	36	1	36	2	10	1	34	0	
4	13	25	5	4	13	0	13	1	13	2	5	1	4	0	
8	0	48	14	10	25	13	31	2	25	0	25	1	25	2	25	3	31	4	
9	40	41	37	49	13	25	10	14	48	49	0	49	1	49	5	49	3	48	4	
4	41	34	1	47	41	0	41	1	41	2	41	5	47	4	
7	24	45	49	13	31	3	43	49	0	49	1	49	2	49	3	43	4	
5	33	9	16	18	25	33	0	33	1	33	2	33	5	9	4	
7	17	24	45	49	13	31	3	45	0	13	1	13	5	3	3	3	4	
5	35	10	44	28	23	28	0	28	1	23	2	23	5	23	4	
4	38	6	7	15	38	0	38	1	38	2	38	1	7	0	
5	25	5	22	6	7	5	0	22	1	22	2	22	3	6	4	
6	28	16	18	25	13	31	25	0	13	1	31	5	31	3	31	4	
8	12	29	28	16	18	49	1	34	28	0	18	1	18	2	49	5	34	4	
3	49	45	30	49	0	49	1	30	2	30	3	30	4	
5	5	25	13	49	37	5	0	49	1	49	5	37	3	37	4	
8	26	34	37	2	31	3	43	27	26	0	26	1	26	2	37	3	31	4	
9	34	37	49	18	25	10	14	48	36	25	0	25	1	25	2	14	3	36	4	
7	0	46	42	24	45	49	37	42	0	24	1	49	5	37	3	37	4	
8	6	22	4	44	28	23	24	17	22	0	44	1	28	2	28	1	17	0	
9	40	41	37	49	13	25	10	14	12	49	0	10	1	10	2	10	5	12	4	
7	17	24	45	49	13	31	32	45	0	31	1	32	2	32	3	32	4	
6	4	44	19	18	49	1	19	0	49	1	1	2	1	5	1	4	
6	10	25	18	49	45	30	10	0	10	1	18	5	49	3	30	4	
5	31	13	49	18	16	31	0	31	1	49	2	18	1	18	0	
3	18	25	10	18	0	18	1	18	2	10	3	10	4	
3	21	5	4	21	0	21	1	21	5	21	3	4	4	
6	42	23	28	44	10	35	42	0	23	1	23	2	28	3	44	4	
7	45	49	13	25	5	21	27	49	0	21	1	21	2	21	1	27	0	
6	16	18	25	5	22	6	16	0	16	1	25	5	5	3	22	4	
5	19	44	10	14	12	19	0	19	1	44	2	44	3	12	4	
4	40	34	1	47	40	0	40	1	40	2	34	1	47	0	
7	43	21	22	4	44	28	23	43	0	22	1	22	2	4	3	23	4	
6	27	21	5	25	18	16	27	0	27	1	21	5	25	3	25	4	
9	33	9	16	19	44	4	22	6	7	9	0	44	1	44	2	44	5	6	4	
6	20	3	31	2	37	34	31	0	2	1	34	2	34	3	34	4	
5	47	1	49	18	19	47	0	47	1	47	2	49	1	18	0	
6	37	49	13	25	10	35	37	0	37	1	49	5	13	3	13	4	
7	11	13	25	19	44	28	29	13	0	25	1	25	2	25	3	29	4	
5	14	10	25	18	49	14	0	14	1	10	5	49	3	49	4	
4	32	5	22	39	22	0	22	1	22	5	22	3	39	4	
3	25	5	32	32	0	32	1	32	2	32	5	32	4	
5	35	39	38	48	0	39	0	39	1	39	5	0	3	0	4	
4	9	23	28	29	23	0	23	1	28	5	29	3	29	4	
7	12	29	28	16	18	49	1	28	0	49	1	1	2	1	3	1	4	
7	43	32	31	2	37	34	40	31	0	31	1	31	5	31	3	34	4	
8	15	27	21	5	25	18	16	9	15	0	15	1	15	2	18	1	18	0	
5	2	31	32	5	21	2	0	2	1	31	2	31	5	21	4	
4	20	3	31	13	31	0	31	1	31	5	31	3	13	4	
4	10	25	18	49	10	0	10	1	18	2	49	1	49	0	
4	13	49	37	41	13	0	13	1	49	2	37	3	41	4	
3	6	38	48	6	0	6	1	48	2	48	1	48	0	
7	37	49	45	24	42	46	0	24	0	46	1	0	2	0	3	0	4	
7	24	23	28	44	4	22	6	24	0	24	1	24	2	28	1	22	0	
6	8	13	49	45	24	33	49	0	45	1	45	2	33	5	33	4	
6	1	47	45	24	42	46	1	0	1	1	47	2	45	1	24	0	
3	4	5	32	4	0	4	1	5	2	32	3	32	4	
4	35	39	38	48	39	0	39	1	39	2	48	1	48	0	
5	38	48	0	46	42	38	0	38	1	48	2	0	3	42	4	
4	25	19	16	28	19	0	19	1	19	5	19	3	28	4	
3	31	13	49	31	0	31	1	13	2	13	1	13	0	
7	15	27	43	32	31	2	37	27	0	32	1	32	5	31	3	31	4	
3	18	49	45	18	0	18	1	49	2	45	5	45	4	
7	2	31	13	25	10	14	48	31	0	13	1	13	5	25	3	48	4	
7	5	25	18	49	45	30	26	5	0	18	1	26	2	26	3	26	4	
4	36	48	0	46	36	0	36	1	0	5	0	3	46	4	
5	29	28	23	24	33	29	0	29	1	23	2	23	3	33	4	
5	13	25	5	22	6	13	0	13	1	13	5	25	3	22	4	
5	3	43	21	22	6	3	0	21	1	21	2	21	1	21	0	
5	24	45	49	37	41	45	0	49	1	49	2	49	5	49	4	
7	30	45	49	18	25	5	21	49	0	49	1	25	2	25	3	21	4	
5	17	30	45	49	13	45	0	49	1	13	2	13	1	13	0	
5	23	28	16	19	25	28	0	25	1	25	5	25	3	25	4	
9	41	37	49	18	25	10	14	48	36	49	0	25	1	25	5	14	3	36	4	
4	25	18	49	1	49	0	49	1	1	2	1	5	1	4	
2	28	29	29	0	29	1	29	2	29	1	29	0	
6	42	46	0	48	38	6	46	0	46	1	46	2	46	1	6	0	
5	45	24	42	46	0	45	0	46	1	0	2	0	5	0	4	
5	19	18	49	37	41	19	0	49	1	49	2	49	1	49	0	
5	6	22	5	25	19	6	0	6	1	22	5	22	3	22	4	
7	40	41	37	49	13	25	10	49	0	49	1	49	2	10	3	10	4	
2	4	35	4	0	4	1	4	2	35	5	35	4	
4	17	30	26	34	34	0	34	1	34	2	34	5	34	4	
4	10	25	19	16	10	0	10	1	16	2	16	1	16	0	
3	0	29	12	0	0	0	1	0	5	12	3	12	4	
6	2	31	13	25	10	14	31	0	13	1	25	5	25	3	25	4	
5	18	25	10	14	12	18	0	18	1	18	2	25	5	12	4	
3	21	22	6	21	0	22	1	6	2	6	1	6	0	
7	8	13	25	10	14	48	0	13	0	13	1	13	2	25	3	25	4	
6	11	3	43	21	22	6	3	0	21	1	21	5	21	3	21	4	
5	45	24	23	28	29	45	0	45	1	45	5	45	3	29	4	
7	35	10	44	28	23	24	17	28	0	28	1	28	2	28	1	17	0	
4	38	39	22	21	39	0	22	1	21	2	21	5	21	4	
5	22	5	25	19	16	22	0	19	1	16	5	16	3	16	4	
5	40	34	26	30	45	34	0	26	1	26	5	26	3	45	4	
4	12	14	48	36	48	0	48	1	48	2	36	1	36	0	
5	33	24	45	47	1	33	0	47	1	47	2	1	3	1	4	
5	48	14	10	44	19	14	0	14	1	10	5	10	3	19	4	
6	0	46	42	24	45	47	42	0	42	1	42	2	42	3	42	4	
5	3	43	21	22	39	3	0	22	1	22	2	22	1	39	0	
4	34	26	30	45	34	0	34	1	26	2	26	3	45	4	
6	32	31	13	49	45	30	13	0	13	1	49	2	49	5	30	4	
4	11	3	43	27	11	0	11	1	11	2	43	5	27	4	
4	1	49	13	11	49	0	11	1	11	2	11	3	11	4	
4	32	31	2	37	32	0	32	1	2	2	2	1	37	0	
6	35	10	25	18	49	45	10	0	18	1	49	2	49	3	45	4	
5	25	18	49	37	34	34	0	34	1	34	2	34	3	34	4	
6	31	13	49	45	24	42	49	0	24	1	24	2	24	5	42	4	
6	2	37	49	45	24	23	49	0	45	1	23	2	23	3	23	4	
2	39	22	39	0	39	1	39	2	22	1	22	0	
4	16	28	29	0	16	0	16	1	28	2	28	5	0	4	
2	37	2	37	0	37	1	2	2	2	5	2	4	
8	43	32	31	13	49	45	24	17	31	0	31	1	13	5	13	3	17	4	
8	27	43	32	31	2	37	34	26	31	0	31	1	31	2	31	3	26	4	
3	48	0	29	48	0	48	1	48	2	48	1	29	0	
7	20	43	21	22	6	38	36	20	0	43	1	21	5	21	3	22	4	
4	4	22	6	38	6	0	6	1	6	2	6	5	38	4	
6	7	6	22	4	44	28	6	0	6	1	6	2	6	1	22	0	
5	25	13	49	45	30	25	0	49	1	49	2	49	1	30	0	
4	18	49	1	47	18	0	18	1	49	2	49	3	47	4	
4	49	18	25	5	49	0	5	1	5	5	5	3	5	4	
5	16	19	44	10	35	16	0	16	1	44	2	35	1	35	0	
4	3	32	5	4	3	0	3	1	3	5	32	3	4	4	
7	9	16	19	25	5	21	27	16	0	21	1	21	2	21	5	27	4	
4	30	17	24	23	30	0	30	1	30	2	30	5	23	4	
5	20	43	27	15	7	20	0	20	1	20	2	27	3	15	4	
6	23	24	45	49	13	31	24	0	49	1	31	2	31	1	31	0	
9	41	37	2	31	32	5	22	6	38	41	0	41	1	37	2	37	1	32	0	
4	13	49	1	47	13	0	13	1	49	5	49	3	47	4	
4	44	28	23	24	28	0	28	1	23	2	24	3	24	4	
2	31	11	31	0	31	1	31	2	31	5	11	4	
2	21	27	21	0	21	1	21	2	21	3	27	4	
2	42	24	42	0	42	1	42	5	42	3	24	4	
4	45	49	37	2	37	0	37	1	37	2	2	3	2	4	
3	32	5	4	5	0	5	1	5	2	5	1	4	0	
2	35	10	35	0	35	1	35	2	35	5	10	4	
5	19	44	10	35	39	19	0	19	1	44	5	10	3	39	4	
8	46	28	44	4	5	32	3	20	44	0	44	1	44	2	44	3	44	4	
6	36	38	6	22	5	32	36	0	36	1	36	2	22	5	32	4	
5	29	0	48	38	39	29	0	29	1	29	5	29	3	38	4	
5	13	25	10	14	12	25	0	10	1	10	2	10	3	12	4	
4	0	48	14	10	48	0	14	1	14	2	14	1	10	0	
4	47	45	24	42	47	0	47	1	24	2	42	3	42	4	
8	34	37	49	13	25	10	14	48	49	0	49	1	49	2	25	1	48	0	
6	24	23	28	44	10	35	24	0	24	1	24	5	35	3	35	4	
5	8	13	49	45	30	49	0	49	1	49	2	49	5	30	4	
5	11	13	25	5	4	13	0	5	1	5	2	5	1	4	0	
4	1	49	18	16	1	0	1	1	18	5	18	3	18	4	
6	38	48	0	46	28	23	38	0	38	1	46	2	46	3	28	4	
6	28	44	4	22	6	7	28	0	28	1	28	2	44	5	6	4	
5	12	29	28	23	42	12	0	12	1	12	5	28	3	42	4	
7	36	38	6	22	5	32	3	36	0	36	1	36	2	3	1	3	0	
6	3	31	2	37	34	26	3	0	3	1	31	2	31	5	31	4	
5	0	46	42	24	45	42	0	24	1	24	2	24	5	45	4	
4	6	22	5	25	6	0	6	1	22	2	22	3	25	4	
8	40	41	37	49	18	19	44	4	19	0	44	1	44	5	4	3	4	4	
5	24	45	49	13	31	49	0	49	1	31	2	31	3	31	4	
5	17	30	26	34	40	30	0	26	1	26	5	26	3	34	4	
3	4	5	25	4	0	4	1	4	2	4	1	25	0	
5	35	39	22	21	43	43	0	43	1	43	2	43	5	43	4	
4	2	37	49	45	2	0	2	1	2	2	37	3	45	4	
6	28	16	18	49	37	34	34	0	34	1	34	5	34	3	34	4	
5	31	2	37	34	40	31	0	37	1	37	2	37	3	34	4	
3	49	1	34	49	0	49	1	49	2	49	3	34	4	
5	39	22	21	43	20	21	0	21	1	21	5	21	3	20	4	
6	45	49	18	25	10	35	18	0	35	1	35	2	35	5	35	4	
7	29	28	44	19	25	13	8	29	0	19	1	19	2	13	1	8	0	
5	16	19	44	10	14	44	0	44	1	44	2	10	3	14	4	
7	22	5	25	18	49	45	30	22	0	18	1	18	2	49	5	30	4	
9	40	41	37	49	13	25	10	35	39	49	0	25	1	10	2	10	3	39	4	
7	3	31	13	49	45	24	42	13	0	24	1	24	2	24	5	42	4	
3	43	3	31	43	0	43	1	43	2	31	1	31	0	
8	27	21	22	4	44	28	23	24	21	0	4	1	4	2	24	5	24	4	
9	33	9	16	19	25	5	21	27	15	33	0	33	1	33	5	33	3	15	4	
7	20	3	31	2	37	34	26	20	0	20	1	3	2	31	1	26	0	
5	10	44	28	23	42	28	0	28	1	28	5	23	3	42	4	
5	41	37	2	31	3	2	0	31	1	31	2	3	3	3	4	
5	44	4	5	32	3	32	0	32	1	32	5	3	3	3	4	
5	21	22	6	38	48	21	0	22	1	22	5	48	3	48	4	
7	14	10	25	13	49	37	41	14	0	14	1	10	2	25	5	25	4	
6	32	31	13	49	1	47	13	0	49	1	49	2	49	5	47	4	
3	16	9	33	16	0	16	1	16	5	16	3	33	4	
6	9	16	18	25	5	21	9	0	9	1	9	2	9	3	21	4	
2	41	40	41	0	41	1	41	5	40	3	40	4	
6	43	21	22	6	38	48	43	0	6	1	6	2	48	5	48	4	
8	15	27	21	5	25	18	49	1	5	0	25	1	1	2	1	5	1	4	
5	33	24	45	30	26	33	0	33	1	33	5	30	3	26	4	
4	20	43	21	5	20	0	43	1	5	2	5	5	5	4	
5	10	44	28	23	9	28	0	28	1	23	2	9	3	9	4	
2	13	49	49	0	49	1	49	2	49	1	49	0	
6	44	19	18	49	45	30	44	0	44	1	18	2	49	5	30	4	
7	34	37	49	18	25	10	14	25	0	25	1	25	2	25	3	25	4	
4	37	49	45	24	49	0	45	1	45	5	24	3	24	4	
6	21	5	4	44	28	29	21	0	21	1	21	2	21	5	29	4	
6	11	13	49	45	24	33	49	0	49	1	49	2	33	3	33	4	
8	6	22	4	44	28	23	24	17	6	0	6	1	22	5	22	3	22	4	
3	32	31	2	32	0	32	1	2	5	2	3	2	4	
5	35	10	25	13	8	10	0	10	1	10	2	10	3	8	4	
5	25	5	21	43	20	25	0	25	1	25	2	25	5	20	4	
8	15	27	43	32	31	2	37	34	27	0	31	1	34	2	34	1	34	0	
4	49	13	31	3	49	0	49	1	49	2	3	5	3	4	
7	33	24	45	30	26	34	40	33	0	24	1	26	2	26	1	34	0	
2	36	38	38	0	38	1	38	2	38	3	38	4	
7	29	28	16	18	49	37	41	29	0	29	1	18	2	49	1	49	0	
4	13	25	10	14	13	0	13	1	13	2	25	5	25	4	
6	3	31	13	49	45	30	3	0	3	1	31	2	13	3	30	4	
3	6	22	4	6	0	6	1	4	2	4	1	4	0	
2	24	33	24	0	24	1	24	2	24	1	33	0	
2	30	45	45	0	45	1	45	5	45	3	45	4	
5	14	10	25	13	8	14	0	14	1	14	2	14	5	8	4	
3	1	49	18	1	0	1	1	18	2	18	1	18	0	
4	28	44	4	5	28	0	28	1	28	2	44	3	5	4	
2	31	13	31	0	31	1	31	2	31	1	13	0	
8	36	48	14	10	25	13	49	1	36	0	36	1	36	5	10	3	10	4	
4	42	24	17	30	24	0	24	1	24	2	17	5	30	4	
8	26	34	37	49	18	25	5	21	26	0	49	1	25	2	25	1	21	0	
4	19	16	9	33	16	0	16	1	9	2	9	5	33	4	
4	6	7	15	27	6	0	6	1	7	2	15	5	27	4	
4	40	41	37	2	40	0	40	1	40	2	2	1	2	0	
4	24	23	28	29	24	0	24	1	24	2	23	5	28	4	
4	46	28	16	18	16	0	16	1	16	5	16	3	18	4	
7	30	45	24	42	46	0	48	46	0	46	1	46	2	46	5	46	4	
3	17	24	42	42	0	42	1	42	2	42	1	42	0	
3	48	38	6	48	0	48	1	38	2	6	5	6	4	
6	18	49	13	31	3	20	13	0	3	1	20	5	20	3	20	4	
5	8	13	49	45	24	49	0	45	1	45	2	24	1	24	0	
5	11	13	25	10	14	13	0	10	1	10	2	10	5	14	4	
3	45	49	37	49	0	49	1	37	2	37	3	37	4	
4	29	28	44	10	29	0	29	1	44	5	10	3	10	4	
5	19	25	13	8	2	13	0	13	1	13	2	8	1	2	0	
6	22	4	44	28	23	24	22	0	22	1	44	2	24	3	24	4	
3	40	41	37	40	0	40	1	40	2	41	5	41	4	
4	12	29	28	44	44	0	44	1	44	2	44	5	44	4	
2	33	9	33	0	33	1	33	2	9	1	9	0	
6	23	42	46	0	48	38	46	0	0	1	0	2	0	3	38	4	
2	10	44	44	0	44	1	44	2	44	1	44	0	
7	41	37	49	18	16	28	29	49	0	28	1	28	2	29	5	29	4	
5	44	19	18	49	1	19	0	49	1	1	2	1	1	1	0	
5	47	45	24	33	9	47	0	47	1	24	2	33	3	33	4	
7	34	37	49	18	25	5	21	18	0	18	1	25	5	25	3	21	4	
6	14	10	25	5	32	43	10	0	5	1	5	2	43	3	43	4	
3	4	44	19	19	0	19	1	19	2	19	5	19	4	
6	35	10	25	13	49	37	10	0	10	1	25	2	37	1	37	0	
5	28	46	0	48	36	46	0	0	1	0	2	0	5	36	4	
7	12	14	48	38	6	7	15	48	0	38	1	38	2	38	1	7	0	
2	15	7	15	0	15	1	15	2	7	3	7	4	
4	46	42	24	45	46	0	46	1	42	2	24	1	45	0	
8	39	35	10	25	13	49	45	30	10	0	10	1	10	2	25	3	30	4	
4	10	25	13	11	25	0	13	1	11	2	11	5	11	4	
5	16	18	49	13	8	16	0	16	1	16	5	18	3	8	4	
5	0	29	28	16	19	16	0	16	1	16	2	16	3	19	4	
3	37	34	26	37	0	37	1	37	2	26	1	26	0	
5	27	43	32	31	2	27	0	27	1	43	5	31	3	31	4	
5	11	13	49	1	47	11	0	11	1	13	2	13	5	47	4	
4	7	6	38	36	6	0	6	1	36	2	36	3	36	4	
3	25	5	22	25	0	25	1	22	2	22	3	22	4	
4	15	27	43	32	32	0	32	1	32	5	32	3	32	4	
2	49	13	13	0	13	1	13	2	13	3	13	4	
4	5	32	43	20	5	0	5	1	32	2	20	1	20	0	
8	39	35	10	25	13	49	1	34	10	0	10	1	13	2	13	1	34	0	
6	16	18	25	5	32	43	16	0	16	1	5	2	43	3	43	4	
6	3	32	5	4	44	28	32	0	44	1	28	2	28	5	28	4	
3	2	37	49	2	0	2	1	2	2	49	5	49	4	
3	9	16	19	9	0	9	1	9	5	9	3	19	4	
4	27	21	22	39	21	0	22	1	22	2	22	5	39	4	
3	30	45	47	30	0	30	1	45	2	47	1	47	0	
3	17	24	23	17	0	17	1	17	2	23	3	23	4	
6	48	0	46	42	24	33	0	0	46	1	42	2	33	1	33	0	
4	44	4	5	32	44	0	44	1	32	2	32	1	32	0	
2	31	3	3	0	3	1	3	5	3	3	3	4	
4	21	5	25	19	21	0	25	1	19	2	19	1	19	0	
4	42	23	28	16	42	0	28	1	28	2	16	3	16	4	
5	26	30	45	24	23	26	0	26	1	23	5	23	3	23	4	
8	7	15	27	43	3	31	2	37	15	0	15	1	27	2	43	5	31	4	
6	32	5	25	10	14	12	5	0	5	1	5	2	25	5	12	4	
4	19	25	13	31	31	0	31	1	31	2	31	3	31	4	
9	26	30	17	24	42	46	0	48	38	42	0	46	1	0	2	0	5	38	4	
5	9	23	24	45	47	23	0	23	1	45	2	47	5	47	4	
6	32	5	4	44	28	29	5	0	4	1	4	5	4	3	29	4	
4	43	21	22	6	43	0	43	1	21	2	21	3	21	4	
4	46	0	29	12	46	0	46	1	0	2	12	1	12	0	
4	13	11	3	20	13	0	13	1	13	5	11	3	11	4	
2	46	28	46	0	46	1	46	2	46	5	28	4	
3	47	1	34	47	0	47	1	47	5	1	3	34	4	
