817.486	817.486
1960
612.875	119.448
50
0	200	1303
1	185	1335
2	210	1288
3	190	996
4	190	1190
5	195	1748
6	195	1372
7	185	928
8	195	836
9	185	963
10	195	1846
11	180	1042
12	205	999
13	215	1844
14	190	1335
15	190	999
16	210	1417
17	210	1095
18	200	1693
19	210	1105
20	210	887
21	215	1318
22	180	1370
23	190	1246
24	205	1181
25	210	1859
26	190	944
27	195	988
28	195	1562
29	190	1006
30	195	1067
31	195	1444
32	210	1285
33	180	783
34	210	1067
35	190	1028
36	205	639
37	205	1640
38	185	1127
39	195	944
40	175	797
41	210	787
42	200	1180
43	200	1383
44	205	1342
45	180	1446
46	170	1219
47	200	980
48	195	1143
49	180	1722
176
0	29	1.774760	39.917770
29	0	0.960936	39.917770
0	46	6.282484	41.080453
46	0	8.789832	41.080453
0	48	7.663576	45.343521
48	0	5.991672	45.343521
1	34	2.420514	44.568378
34	1	2.519018	44.568378
1	47	1.569740	43.793297
47	1	0.686756	43.793297
1	49	4.372168	44.568378
49	1	5.072004	44.568378
2	8	1.558050	41.080453
8	2	0.451882	41.080453
2	31	6.370030	39.530230
31	2	6.447046	39.530230
2	37	7.156314	38.367609
37	2	6.927320	38.367609
3	11	3.692500	35.267162
11	3	2.068386	35.267162
3	20	1.887252	35.654702
20	3	1.555568	35.654702
3	31	1.330366	37.592466
31	3	2.993396	37.592466
3	32	1.446276	42.630677
32	3	1.417982	42.630677
3	43	1.924050	42.243074
43	3	1.834966	42.243074
4	5	5.092298	43.793297
5	4	4.272944	43.793297
4	22	5.219474	41.080453
22	4	4.364842	41.080453
4	35	1.598564	34.879622
35	4	1.795234	34.879622
4	44	8.527862	37.204926
44	4	9.036660	37.204926
5	21	4.592108	43.405757
21	5	3.460424	43.405757
5	22	4.389132	41.080453
22	5	5.250154	41.080453
5	25	9.971608	39.142689
25	5	8.292210	39.142689
5	32	6.046210	37.980006
32	5	7.019404	37.980006
6	7	4.496286	45.343521
7	6	3.522224	45.343521
6	22	5.052630	38.367609
22	6	5.093786	38.367609
6	38	4.491942	35.654702
38	6	5.050220	35.654702
7	15	3.587674	42.630677
15	7	1.250668	42.630677
8	11	0.722298	35.654702
11	8	0.391608	35.654702
8	13	3.792040	39.917770
13	8	2.900652	39.917770
9	16	3.260554	37.592466
16	9	3.531086	37.592466
9	23	0.443172	44.568378
23	9	1.045936	44.568378
9	33	1.383614	46.118601
33	9	0.730872	46.118601
10	14	9.533932	39.530230
14	10	5.897312	39.530230
10	25	10.257138	39.530230
25	10	12.863118	39.530230
10	35	3.920128	41.855534
35	10	4.423632	41.855534
10	44	1.306250	46.118601
44	10	3.158906	46.118601
11	13	5.427464	45.343521
13	11	3.920414	45.343521
11	31	0.447036	39.917770
31	11	1.221846	39.917770
12	14	2.175392	41.080453
14	12	4.440914	41.080453
12	29	3.457148	35.267162
29	12	1.603532	35.267162
13	25	12.639886	43.405757
25	13	11.040774	43.405757
13	31	6.933826	38.367609
31	13	3.905966	38.367609
13	49	13.830444	36.042305
49	13	15.799104	36.042305
14	48	4.943812	43.018217
48	14	4.416954	43.018217
15	27	4.856030	46.118601
27	15	2.861868	46.118601
16	18	7.794744	40.305373
18	16	4.677276	40.305373
16	19	1.158594	37.592466
19	16	3.362974	37.592466
16	28	5.041776	37.980006
28	16	5.495292	37.980006
17	24	3.658788	40.305373
24	17	2.811542	40.305373
17	30	2.546246	36.817386
30	17	2.314684	36.817386
18	19	2.786574	34.879622
19	18	2.708576	34.879622
18	25	5.544100	43.793297
25	18	3.720944	43.793297
18	49	13.034552	41.080453
49	18	9.790224	41.080453
19	25	1.411330	35.267162
25	19	4.187796	35.267162
19	44	4.655788	42.630677
44	19	2.767456	42.630677
20	43	3.224920	44.955981
43	20	2.678414	44.955981
21	22	5.183346	36.042305
22	21	5.492004	36.042305
21	27	4.704340	35.654702
27	21	2.785502	35.654702
21	43	3.773478	42.630677
43	21	4.719920	42.630677
22	39	3.178800	41.080453
39	22	4.656764	41.080453
23	24	4.917312	35.267162
24	23	4.680984	35.267162
23	28	5.701752	40.692913
28	23	6.406250	40.692913
23	42	0.904760	40.692913
42	23	0.980612	40.692913
24	33	3.158114	40.305373
33	24	3.729744	40.305373
24	42	8.676488	45.343521
42	24	5.509290	45.343521
24	45	8.866508	44.955981
45	24	9.596200	44.955981
26	30	2.422064	36.817386
30	26	2.693670	36.817386
26	34	3.388308	41.080453
34	26	3.311790	41.080453
27	43	5.292422	38.367609
43	27	3.325576	38.367609
28	29	5.128408	39.917770
29	28	7.258766	39.917770
28	44	9.843420	41.467993
44	28	9.885226	41.467993
28	46	4.318846	44.180837
46	28	2.858728	44.180837
30	45	6.095468	40.692913
45	30	6.577312	40.692913
31	32	7.325082	39.530230
32	31	8.078038	39.530230
32	43	5.252468	40.692913
43	32	6.203064	40.692913
34	37	3.934224	40.305373
37	34	5.561612	40.305373
34	40	2.050346	45.343521
40	34	0.295974	45.343521
34	41	0.399554	40.305373
41	34	0.446464	40.305373
35	39	2.699620	40.305373
39	35	2.422720	40.305373
36	38	1.128226	36.042305
38	36	1.194870	36.042305
36	48	2.749568	42.630677
48	36	3.250344	42.630677
37	41	4.911674	37.592466
41	37	6.741300	37.592466
37	49	10.278676	41.855534
49	37	9.232586	41.855534
38	39	4.894944	37.204926
39	38	3.163156	37.204926
38	48	5.565002	37.980006
48	38	7.565660	37.980006
40	41	3.143886	37.980006
41	40	0.848398	37.980006
42	46	8.864410	44.180837
46	42	6.772838	44.180837
45	47	3.791180	36.042305
47	45	4.724816	36.042305
45	49	12.733640	39.142689
49	45	13.742832	39.142689
1960
7	26	30	17	24	23	28	44	26	0	26	1	26	2	26	3	26	4	
5	10	25	5	32	3	10	0	10	1	10	5	10	3	10	4	
7	0	48	38	6	22	21	27	0	0	0	1	0	2	0	1	0	0	
3	37	49	18	37	0	37	1	37	2	37	5	37	4	
6	48	38	6	7	15	27	48	0	48	1	48	5	48	3	48	4	
8	43	32	31	13	49	45	24	33	43	0	43	1	43	5	43	3	43	4	
5	27	21	5	25	10	27	0	27	1	27	2	27	3	27	4	
6	30	45	24	42	46	0	30	0	30	1	30	2	30	1	30	0	
5	14	10	25	13	31	14	0	14	1	14	2	14	5	14	4	
5	7	6	22	4	44	7	0	7	1	7	2	7	1	7	0	
4	38	39	22	4	38	0	38	1	38	2	38	5	38	4	
3	25	10	14	25	0	25	1	25	2	25	1	25	0	
2	28	16	28	0	28	1	28	2	28	3	28	4	
5	49	13	25	5	21	49	0	49	1	49	5	49	3	49	4	
5	42	24	45	49	13	42	0	42	1	42	2	42	5	42	4	
2	3	20	3	0	3	1	3	5	3	3	3	4	
8	30	45	49	18	25	10	35	39	30	0	30	1	30	2	30	5	30	4	
8	48	14	10	25	18	49	37	41	48	0	48	1	48	2	48	5	48	4	
8	23	28	44	4	22	6	7	15	23	0	23	1	23	2	23	1	23	0	
7	44	19	18	49	37	34	40	44	0	44	1	44	2	44	3	44	4	
4	31	32	43	27	31	0	31	1	31	2	31	5	31	4	
5	18	49	13	31	3	18	0	18	1	18	2	18	1	18	0	
4	21	43	3	11	21	0	21	1	21	2	21	3	21	4	
2	8	11	8	0	8	1	8	5	8	3	8	4	
7	42	24	45	49	37	41	40	42	0	42	1	42	5	42	3	42	4	
3	45	49	18	45	0	45	1	45	2	45	3	45	4	
5	35	10	25	13	31	35	0	35	1	35	5	35	3	35	4	
8	35	10	25	13	49	37	34	26	35	0	35	1	35	2	35	5	35	4	
4	19	16	9	23	19	0	19	1	19	5	19	3	19	4	
4	49	45	24	23	49	0	49	1	49	5	49	3	49	4	
7	22	5	25	18	49	1	47	22	0	22	1	22	2	22	3	22	4	
7	9	16	19	44	4	35	39	9	0	9	1	9	2	9	1	9	0	
6	43	32	5	25	10	14	43	0	43	1	43	2	43	1	43	0	
4	46	28	44	4	46	0	46	1	46	2	46	3	46	4	
2	36	48	36	0	36	1	36	2	36	5	36	4	
2	20	43	20	0	20	1	20	2	20	1	20	0	
5	13	25	19	16	28	13	0	13	1	13	2	13	3	13	4	
4	47	45	30	26	47	0	47	1	47	2	47	3	47	4	
5	34	37	2	31	32	34	0	34	1	34	2	34	1	34	0	
3	11	3	20	11	0	11	1	11	2	11	1	11	0	
7	1	49	45	24	42	46	0	1	0	1	1	1	5	1	3	1	4	
6	32	5	22	39	38	48	32	0	32	1	32	2	32	3	32	4	
5	25	13	49	45	47	25	0	25	1	25	2	25	1	25	0	
7	15	27	21	5	25	19	16	15	0	15	1	15	2	15	3	15	4	
6	36	48	14	10	44	19	36	0	36	1	36	2	36	1	36	0	
6	39	22	5	32	3	11	39	0	39	1	39	2	39	3	39	4	
3	23	28	44	23	0	23	1	23	5	23	3	23	4	
7	29	28	44	4	22	21	27	29	0	29	1	29	2	29	5	29	4	
3	13	31	32	13	0	13	1	13	2	13	1	13	0	
8	6	22	5	25	18	49	37	41	6	0	6	1	6	2	6	3	6	4	
7	40	41	37	2	31	3	20	40	0	40	1	40	5	40	3	40	4	
9	24	42	46	0	48	38	6	7	15	24	0	24	1	24	2	24	3	24	4	
7	27	21	22	4	44	28	23	27	0	27	1	27	2	27	1	27	0	
6	48	14	10	25	13	8	48	0	48	1	48	2	48	3	48	4	
7	4	44	19	18	49	37	41	4	0	4	1	4	2	4	1	4	0	
9	7	6	38	48	0	46	42	24	17	7	0	7	1	7	2	7	3	7	4	
3	38	39	35	38	0	38	1	38	2	38	1	38	0	
5	3	32	5	25	18	3	0	3	1	3	5	3	3	3	4	
4	18	49	1	34	18	0	18	1	18	2	18	1	18	0	
5	5	25	13	49	1	5	0	5	1	5	5	5	3	5	4	
5	16	18	49	45	30	16	0	16	1	16	2	16	3	16	4	
5	0	48	14	10	25	0	0	0	1	0	5	0	3	0	4	
5	22	39	38	48	14	22	0	22	1	22	2	22	5	22	4	
7	43	32	31	13	49	45	47	43	0	43	1	43	2	43	1	43	0	
5	27	43	3	11	8	27	0	27	1	27	2	27	5	27	4	
6	17	24	23	28	44	4	17	0	17	1	17	2	17	3	17	4	
6	20	3	11	13	25	10	20	0	20	1	20	2	20	1	20	0	
5	41	37	49	18	19	41	0	41	1	41	2	41	3	41	4	
2	44	19	44	0	44	1	44	5	44	3	44	4	
4	28	44	4	22	28	0	28	1	28	2	28	5	28	4	
3	21	43	32	21	0	21	1	21	5	21	3	21	4	
8	42	46	0	48	38	6	7	15	42	0	42	1	42	2	42	3	42	4	
2	32	31	32	0	32	1	32	2	32	5	32	4	
3	16	18	49	16	0	16	1	16	5	16	3	16	4	
5	19	44	10	14	48	19	0	19	1	19	2	19	3	19	4	
7	15	27	43	32	31	13	49	15	0	15	1	15	2	15	5	15	4	
2	26	34	26	0	26	1	26	5	26	3	26	4	
2	10	25	10	0	10	1	10	2	10	3	10	4	
3	13	49	1	13	0	13	1	13	2	13	1	13	0	
3	44	28	46	44	0	44	1	44	2	44	5	44	4	
3	3	11	13	3	0	3	1	3	5	3	3	3	4	
4	21	5	25	13	21	0	21	1	21	2	21	5	21	4	
6	8	13	25	19	16	9	8	0	8	1	8	2	8	1	8	0	
3	11	13	49	11	0	11	1	11	2	11	3	11	4	
5	14	10	25	5	21	14	0	14	1	14	5	14	3	14	4	
6	35	4	44	28	23	24	35	0	35	1	35	2	35	3	35	4	
7	38	39	22	5	32	31	2	38	0	38	1	38	2	38	1	38	0	
3	25	5	4	25	0	25	1	25	2	25	5	25	4	
2	9	33	9	0	9	1	9	5	9	3	9	4	
7	43	32	5	25	10	14	12	43	0	43	1	43	5	43	3	43	4	
4	2	37	34	40	2	0	2	1	2	2	2	3	2	4	
2	33	24	33	0	33	1	33	2	33	1	33	0	
6	20	3	31	2	37	41	20	0	20	1	20	5	20	3	20	4	
4	13	49	45	30	13	0	13	1	13	2	13	5	13	4	
7	3	32	5	4	44	28	46	3	0	3	1	3	2	3	3	3	4	
5	6	22	21	43	20	6	0	6	1	6	2	6	1	6	0	
2	17	24	17	0	17	1	17	5	17	3	17	4	
5	37	49	18	19	44	37	0	37	1	37	2	37	3	37	4	
7	27	43	32	31	2	37	41	27	0	27	1	27	2	27	3	27	4	
4	1	49	37	2	1	0	1	1	1	2	1	1	1	0	
5	4	44	10	14	12	4	0	4	1	4	2	4	3	4	4	
5	25	13	49	37	41	25	0	25	1	25	5	25	3	25	4	
7	31	13	25	10	14	12	29	31	0	31	1	31	2	31	1	31	0	
3	18	16	9	18	0	18	1	18	2	18	5	18	4	
7	36	48	0	46	42	24	17	36	0	36	1	36	5	36	3	36	4	
2	42	46	42	0	42	1	42	2	42	5	42	4	
7	26	34	37	2	31	32	5	26	0	26	1	26	2	26	1	26	0	
4	13	49	1	34	13	0	13	1	13	5	13	3	13	4	
6	19	16	9	33	24	17	19	0	19	1	19	2	19	5	19	4	
4	6	22	21	43	6	0	6	1	6	2	6	5	6	4	
5	40	41	37	49	18	40	0	40	1	40	2	40	1	40	0	
4	24	45	49	13	24	0	24	1	24	2	24	5	24	4	
7	46	42	24	45	49	37	2	46	0	46	1	46	5	46	3	46	4	
4	48	38	39	22	48	0	48	1	48	2	48	5	48	4	
7	7	6	22	4	44	28	23	7	0	7	1	7	2	7	5	7	4	
4	41	37	2	8	41	0	41	1	41	5	41	3	41	4	
6	18	25	10	14	48	36	18	0	18	1	18	5	18	3	18	4	
5	11	13	49	45	30	11	0	11	1	11	2	11	5	11	4	
6	34	37	49	18	16	28	34	0	34	1	34	5	34	3	34	4	
6	48	14	10	25	13	8	48	0	48	1	48	5	48	3	48	4	
5	22	5	25	13	8	22	0	22	1	22	2	22	3	22	4	
8	17	24	42	46	0	48	38	6	17	0	17	1	17	2	17	5	17	4	
5	39	35	10	25	13	39	0	39	1	39	5	39	3	39	4	
5	23	28	44	4	22	23	0	23	1	23	2	23	3	23	4	
3	16	28	29	16	0	16	1	16	5	16	3	16	4	
4	41	37	49	45	41	0	41	1	41	2	41	5	41	4	
5	44	28	23	24	17	44	0	44	1	44	2	44	1	44	0	
6	34	37	2	31	32	5	34	0	34	1	34	5	34	3	34	4	
7	21	43	32	31	2	37	34	21	0	21	1	21	2	21	1	21	0	
7	8	13	25	10	14	48	36	8	0	8	1	8	2	8	3	8	4	
6	1	49	18	25	10	35	1	0	1	1	1	2	1	1	1	0	
6	32	5	4	44	28	29	32	0	32	1	32	2	32	3	32	4	
9	38	39	22	5	25	18	49	37	41	38	0	38	1	38	2	38	5	38	4	
6	12	14	10	25	13	31	12	0	12	1	12	2	12	1	12	0	
3	46	0	29	46	0	46	1	46	2	46	1	46	0	
5	33	24	45	49	37	33	0	33	1	33	2	33	3	33	4	
9	26	30	17	24	42	46	0	48	36	26	0	26	1	26	2	26	1	26	0	
5	10	25	5	21	27	10	0	10	1	10	2	10	5	10	4	
4	16	9	33	24	16	0	16	1	16	5	16	3	16	4	
8	0	29	28	44	4	5	32	3	0	0	0	1	0	2	0	3	0	4	
2	3	11	3	0	3	1	3	2	3	1	3	0	
4	24	23	28	44	24	0	24	1	24	2	24	3	24	4	
5	14	12	29	28	23	14	0	14	1	14	2	14	1	14	0	
4	38	48	14	12	38	0	38	1	38	5	38	3	38	4	
4	25	5	22	6	25	0	25	1	25	2	25	3	25	4	
6	2	37	49	18	16	9	2	0	2	1	2	5	2	3	2	4	
3	28	23	24	28	0	28	1	28	2	28	1	28	0	
5	49	18	16	28	29	49	0	49	1	49	2	49	3	49	4	
5	5	22	39	38	36	5	0	5	1	5	2	5	1	5	0	
4	26	30	17	24	26	0	26	1	26	2	26	3	26	4	
5	3	32	5	4	44	3	0	3	1	3	2	3	5	3	4	
6	37	49	18	16	28	46	37	0	37	1	37	2	37	5	37	4	
8	17	24	42	46	0	48	38	39	17	0	17	1	17	2	17	3	17	4	
6	48	14	10	25	18	49	48	0	48	1	48	2	48	1	48	0	
5	4	5	32	31	2	4	0	4	1	4	2	4	5	4	4	
4	44	10	14	48	44	0	44	1	44	2	44	1	44	0	
4	31	13	25	19	31	0	31	1	31	5	31	3	31	4	
4	18	49	13	11	18	0	18	1	18	2	18	3	18	4	
3	21	43	3	21	0	21	1	21	2	21	1	21	0	
3	8	11	3	8	0	8	1	8	2	8	5	8	4	
7	42	46	28	44	4	5	32	42	0	42	1	42	2	42	3	42	4	
10	26	34	37	2	31	32	43	27	15	7	26	0	26	1	26	5	26	3	26	4	
7	16	18	25	5	22	6	7	16	0	16	1	16	2	16	1	16	0	
6	19	25	5	21	27	15	19	0	19	1	19	2	19	3	19	4	
3	43	21	22	43	0	43	1	43	2	43	3	43	4	
7	2	37	49	18	16	28	46	2	0	2	1	2	5	2	3	2	4	
7	36	48	14	10	25	13	8	36	0	36	1	36	5	36	3	36	4	
6	20	43	32	5	4	35	20	0	20	1	20	2	20	3	20	4	
6	41	37	49	13	25	10	41	0	41	1	41	2	41	1	41	0	
4	47	45	49	18	47	0	47	1	47	5	47	3	47	4	
6	11	13	25	19	44	28	11	0	11	1	11	2	11	3	11	4	
4	1	49	13	8	1	0	1	1	1	2	1	5	1	4	
5	35	4	44	28	46	35	0	35	1	35	2	35	5	35	4	
4	25	10	35	39	25	0	25	1	25	2	25	5	25	4	
3	9	16	28	9	0	9	1	9	2	9	1	9	0	
7	12	14	10	25	13	31	2	12	0	12	1	12	2	12	3	12	4	
4	2	37	49	18	2	0	2	1	2	2	2	5	2	4	
5	39	35	10	44	19	39	0	39	1	39	2	39	1	39	0	
8	23	28	44	4	5	32	43	20	23	0	23	1	23	2	23	5	23	4	
7	29	28	44	4	5	32	3	29	0	29	1	29	5	29	3	29	4	
7	2	31	32	43	27	15	7	2	0	2	1	2	5	2	3	2	4	
5	13	49	37	41	40	13	0	13	1	13	2	13	3	13	4	
7	2	31	32	5	22	6	38	2	0	2	1	2	2	2	5	2	4	
9	34	37	2	31	32	43	27	15	7	34	0	34	1	34	2	34	1	34	0	
7	37	2	31	32	43	27	15	37	0	37	1	37	2	37	3	37	4	
8	24	42	46	0	48	38	6	7	24	0	24	1	24	5	24	3	24	4	
4	8	2	37	34	8	0	8	1	8	2	8	5	8	4	
5	48	0	46	28	16	48	0	48	1	48	2	48	1	48	0	
6	4	44	28	16	9	33	4	0	4	1	4	2	4	3	4	4	
5	7	6	22	5	25	7	0	7	1	7	2	7	1	7	0	
5	38	39	22	21	43	38	0	38	1	38	2	38	3	38	4	
5	6	38	48	14	10	6	0	6	1	6	2	6	5	6	4	
5	18	16	28	46	42	18	0	18	1	18	2	18	5	18	4	
3	2	37	49	2	0	2	1	2	2	2	1	2	0	
2	5	25	5	0	5	1	5	2	5	3	5	4	
8	36	48	0	46	42	24	45	47	36	0	36	1	36	2	36	1	36	0	
6	29	28	44	4	5	32	29	0	29	1	29	2	29	3	29	4	
6	16	28	46	0	48	38	16	0	16	1	16	2	16	1	16	0	
7	0	46	42	24	45	47	1	0	0	0	1	0	2	0	5	0	4	
2	24	42	24	0	24	1	24	2	24	5	24	4	
6	27	21	22	39	38	48	27	0	27	1	27	2	27	1	27	0	
2	30	26	30	0	30	1	30	2	30	3	30	4	
6	17	24	23	28	29	12	17	0	17	1	17	5	17	3	17	4	
6	41	37	2	31	3	43	41	0	41	1	41	2	41	1	41	0	
6	2	31	32	5	22	39	2	0	2	1	2	2	2	3	2	4	
5	44	4	22	21	27	44	0	44	1	44	2	44	5	44	4	
5	28	23	24	17	30	28	0	28	1	28	5	28	3	28	4	
7	21	22	4	44	28	23	24	21	0	21	1	21	2	21	5	21	4	
4	5	22	39	38	5	0	5	1	5	5	5	3	5	4	
5	33	24	23	28	29	33	0	33	1	33	5	33	3	33	4	
3	39	38	48	39	0	39	1	39	5	39	3	39	4	
6	40	41	37	2	31	11	40	0	40	1	40	2	40	3	40	4	
8	15	27	43	32	31	2	37	41	15	0	15	1	15	5	15	3	15	4	
7	33	24	23	28	44	4	35	33	0	33	1	33	5	33	3	33	4	
3	17	24	33	17	0	17	1	17	2	17	5	17	4	
6	10	44	28	23	24	17	10	0	10	1	10	5	10	3	10	4	
2	21	5	21	0	21	1	21	5	21	3	21	4	
4	8	13	49	1	8	0	8	1	8	2	8	3	8	4	
4	14	10	25	13	14	0	14	1	14	2	14	5	14	4	
4	45	24	23	28	45	0	45	1	45	2	45	1	45	0	
8	2	8	13	25	10	14	48	36	2	0	2	1	2	2	2	5	2	4	
4	38	48	14	10	38	0	38	1	38	2	38	5	38	4	
7	22	4	44	28	23	24	17	22	0	22	1	22	2	22	1	22	0	
2	43	20	43	0	43	1	43	2	43	5	43	4	
6	49	13	31	3	43	27	49	0	49	1	49	5	49	3	49	4	
5	33	24	42	46	0	33	0	33	1	33	2	33	3	33	4	
3	36	48	14	36	0	36	1	36	2	36	1	36	0	
8	20	3	11	13	49	45	24	33	20	0	20	1	20	2	20	5	20	4	
2	26	30	26	0	26	1	26	5	26	3	26	4	
7	0	29	28	44	4	5	32	0	0	0	1	0	2	0	3	0	4	
5	47	45	49	18	16	47	0	47	1	47	2	47	1	47	0	
6	34	1	47	45	24	42	34	0	34	1	34	2	34	3	34	4	
8	37	49	13	25	10	14	48	36	37	0	37	1	37	5	37	3	37	4	
3	32	43	21	32	0	32	1	32	5	32	3	32	4	
2	14	48	14	0	14	1	14	5	14	3	14	4	
5	1	49	18	25	10	1	0	1	1	1	2	1	3	1	4	
5	32	5	22	39	38	32	0	32	1	32	5	32	3	32	4	
3	35	4	44	35	0	35	1	35	2	35	3	35	4	
5	25	19	16	9	33	25	0	25	1	25	2	25	3	25	4	
5	9	33	24	45	30	9	0	9	1	9	5	9	3	9	4	
4	31	32	43	21	31	0	31	1	31	2	31	5	31	4	
6	15	7	6	38	48	14	15	0	15	1	15	2	15	1	15	0	
4	2	31	3	20	2	0	2	1	2	2	2	3	2	4	
5	42	46	0	48	38	42	0	42	1	42	5	42	3	42	4	
5	29	28	44	4	5	29	0	29	1	29	2	29	1	29	0	
5	13	49	45	24	42	13	0	13	1	13	2	13	5	13	4	
3	19	16	9	19	0	19	1	19	5	19	3	19	4	
3	37	49	1	37	0	37	1	37	2	37	5	37	4	
6	24	23	28	44	4	5	24	0	24	1	24	2	24	1	24	0	
7	27	21	22	4	44	28	29	27	0	27	1	27	2	27	3	27	4	
7	48	0	46	42	24	45	30	48	0	48	1	48	5	48	3	48	4	
6	7	15	27	43	32	31	7	0	7	1	7	5	7	3	7	4	
8	41	37	49	18	16	28	29	0	41	0	41	1	41	2	41	5	41	4	
5	25	19	44	28	29	25	0	25	1	25	5	25	3	25	4	
3	18	19	44	18	0	18	1	18	2	18	3	18	4	
5	49	18	19	44	4	49	0	49	1	49	2	49	1	49	0	
7	36	48	0	46	42	24	45	36	0	36	1	36	5	36	3	36	4	
7	29	28	16	18	49	37	34	29	0	29	1	29	2	29	5	29	4	
5	12	14	10	35	4	12	0	12	1	12	5	12	3	12	4	
4	32	31	13	49	32	0	32	1	32	2	32	5	32	4	
7	30	45	49	13	31	3	20	30	0	30	1	30	2	30	5	30	4	
7	17	24	42	46	0	48	14	17	0	17	1	17	2	17	1	17	0	
8	20	43	21	22	6	38	48	0	20	0	20	1	20	2	20	3	20	4	
4	23	24	17	30	23	0	23	1	23	5	23	3	23	4	
2	41	37	41	0	41	1	41	5	41	3	41	4	
3	44	10	25	44	0	44	1	44	2	44	3	44	4	
4	34	37	49	13	34	0	34	1	34	2	34	5	34	4	
8	21	43	32	31	2	37	34	26	21	0	21	1	21	2	21	3	21	4	
5	11	31	2	37	34	11	0	11	1	11	2	11	5	11	4	
6	42	46	28	44	19	25	42	0	42	1	42	2	42	1	42	0	
3	45	49	1	45	0	45	1	45	2	45	3	45	4	
4	35	10	25	13	35	0	35	1	35	2	35	5	35	4	
6	19	44	4	35	39	38	19	0	19	1	19	2	19	1	19	0	
7	40	41	37	49	18	16	9	40	0	40	1	40	2	40	5	40	4	
9	15	27	43	32	31	13	49	45	47	15	0	15	1	15	2	15	1	15	0	
6	46	28	44	4	22	21	46	0	46	1	46	2	46	3	46	4	
3	33	24	45	33	0	33	1	33	2	33	1	33	0	
3	10	44	19	10	0	10	1	10	2	10	1	10	0	
2	13	11	13	0	13	1	13	2	13	3	13	4	
7	0	48	14	10	25	13	11	0	0	0	1	0	5	0	3	0	4	
3	34	37	49	34	0	34	1	34	5	34	3	34	4	
6	24	42	46	0	48	36	24	0	24	1	24	2	24	1	24	0	
6	11	3	43	27	15	7	11	0	11	1	11	5	11	3	11	4	
6	14	48	38	6	7	15	14	0	14	1	14	2	14	3	14	4	
2	45	30	45	0	45	1	45	5	45	3	45	4	
5	1	49	45	24	23	1	0	1	1	1	2	1	1	1	0	
6	38	39	22	21	43	20	38	0	38	1	38	2	38	3	38	4	
4	22	4	44	19	22	0	22	1	22	5	22	3	22	4	
3	28	46	0	28	0	28	1	28	2	28	5	28	4	
7	12	14	10	25	5	21	43	12	0	12	1	12	2	12	1	12	0	
6	33	24	45	49	37	2	33	0	33	1	33	2	33	5	33	4	
6	26	34	1	49	18	16	26	0	26	1	26	2	26	1	26	0	
2	0	46	0	0	0	1	0	2	0	5	0	4	
7	3	32	5	22	39	38	36	3	0	3	1	3	2	3	1	3	0	
8	6	22	5	25	18	49	45	30	6	0	6	1	6	2	6	3	6	4	
8	37	2	31	32	5	22	6	38	37	0	37	1	37	2	37	1	37	0	
4	17	30	45	47	17	0	17	1	17	2	17	1	17	0	
4	34	37	2	31	34	0	34	1	34	2	34	5	34	4	
8	4	44	19	18	49	37	34	26	4	0	4	1	4	5	4	3	4	4	
5	48	0	46	42	23	48	0	48	1	48	2	48	5	48	4	
5	7	6	38	48	0	7	0	7	1	7	2	7	3	7	4	
4	28	44	10	35	28	0	28	1	28	2	28	1	28	0	
3	31	32	43	31	0	31	1	31	2	31	3	31	4	
7	15	7	6	38	48	14	12	15	0	15	1	15	5	15	3	15	4	
4	49	45	24	33	49	0	49	1	49	2	49	3	49	4	
7	16	18	25	5	21	27	15	16	0	16	1	16	2	16	3	16	4	
6	19	44	4	22	6	7	19	0	19	1	19	2	19	1	19	0	
7	43	32	31	13	49	45	30	43	0	43	1	43	5	43	3	43	4	
3	20	43	27	20	0	20	1	20	5	20	3	20	4	
3	41	37	2	41	0	41	1	41	2	41	3	41	4	
6	47	45	49	13	25	10	47	0	47	1	47	2	47	5	47	4	
6	49	13	25	5	22	6	49	0	49	1	49	5	49	3	49	4	
4	14	48	0	46	14	0	14	1	14	2	14	5	14	4	
3	1	49	37	1	0	1	1	1	2	1	5	1	4	
6	45	49	13	31	3	20	45	0	45	1	45	5	45	3	45	4	
8	23	28	44	4	22	6	7	15	23	0	23	1	23	2	23	5	23	4	
8	9	16	18	49	13	31	3	20	9	0	9	1	9	2	9	3	9	4	
3	12	14	10	12	0	12	1	12	2	12	1	12	0	
3	46	0	48	46	0	46	1	46	2	46	1	46	0	
5	20	43	21	22	6	20	0	20	1	20	2	20	5	20	4	
2	23	28	23	0	23	1	23	2	23	1	23	0	
5	13	25	10	14	48	13	0	13	1	13	5	13	3	13	4	
8	34	37	2	31	32	43	27	15	34	0	34	1	34	2	34	3	34	4	
8	37	2	31	32	5	22	6	7	37	0	37	1	37	2	37	1	37	0	
3	11	31	32	11	0	11	1	11	2	11	3	11	4	
8	42	46	28	44	4	5	21	27	42	0	42	1	42	5	42	3	42	4	
5	48	0	46	42	24	48	0	48	1	48	2	48	5	48	4	
2	32	3	32	0	32	1	32	2	32	1	32	0	
5	35	10	25	13	11	35	0	35	1	35	2	35	3	35	4	
6	19	44	10	14	48	36	19	0	19	1	19	5	19	3	19	4	
4	25	5	21	27	25	0	25	1	25	2	25	5	25	4	
3	46	42	23	46	0	46	1	46	2	46	5	46	4	
7	5	4	44	28	23	24	17	5	0	5	1	5	2	5	1	5	0	
3	36	38	39	36	0	36	1	36	2	36	3	36	4	
8	29	28	16	18	49	37	34	40	29	0	29	1	29	5	29	3	29	4	
5	0	46	42	23	9	0	0	0	1	0	2	0	1	0	0	
5	3	11	13	49	1	3	0	3	1	3	2	3	3	3	4	
3	6	22	5	6	0	6	1	6	5	6	3	6	4	
5	24	45	49	37	34	24	0	24	1	24	5	24	3	24	4	
4	30	45	49	18	30	0	30	1	30	2	30	1	30	0	
8	17	30	45	49	13	11	3	20	17	0	17	1	17	2	17	5	17	4	
2	48	36	48	0	48	1	48	2	48	1	48	0	
7	41	37	49	13	25	10	35	41	0	41	1	41	2	41	5	41	4	
5	28	44	4	22	6	28	0	28	1	28	2	28	3	28	4	
8	12	29	28	16	18	49	37	41	12	0	12	1	12	5	12	3	12	4	
2	13	31	13	0	13	1	13	5	13	3	13	4	
8	45	49	13	25	5	22	6	7	45	0	45	1	45	5	45	3	45	4	
7	6	38	48	0	46	42	24	6	0	6	1	6	2	6	5	6	4	
6	40	41	37	2	31	3	40	0	40	1	40	5	40	3	40	4	
3	24	45	30	24	0	24	1	24	2	24	5	24	4	
5	17	30	26	34	41	17	0	17	1	17	5	17	3	17	4	
4	28	23	24	33	28	0	28	1	28	5	28	3	28	4	
4	18	25	5	21	18	0	18	1	18	2	18	1	18	0	
4	11	13	49	1	11	0	11	1	11	2	11	5	11	4	
7	45	24	42	46	0	48	36	45	0	45	1	45	2	45	3	45	4	
4	16	18	49	13	16	0	16	1	16	2	16	5	16	4	
6	38	39	22	5	25	18	38	0	38	1	38	5	38	3	38	4	
3	2	37	41	2	0	2	1	2	5	2	3	2	4	
3	22	5	25	22	0	22	1	22	2	22	3	22	4	
4	9	16	18	49	9	0	9	1	9	2	9	1	9	0	
10	40	41	37	2	31	32	5	22	6	38	40	0	40	1	40	2	40	5	40	4	
6	43	21	22	4	44	28	43	0	43	1	43	2	43	1	43	0	
6	33	24	45	49	13	8	33	0	33	1	33	5	33	3	33	4	
5	20	3	11	13	25	20	0	20	1	20	2	20	1	20	0	
3	23	24	33	23	0	23	1	23	2	23	3	23	4	
5	10	25	18	49	45	10	0	10	1	10	5	10	3	10	4	
9	0	46	42	24	45	49	37	41	40	0	0	0	1	0	2	0	1	0	0	
5	47	45	49	13	8	47	0	47	1	47	2	47	3	47	4	
4	34	37	49	18	34	0	34	1	34	2	34	1	34	0	
5	21	5	25	13	49	21	0	21	1	21	5	21	3	21	4	
8	14	10	25	18	49	37	34	40	14	0	14	1	14	2	14	3	14	4	
6	32	5	4	44	28	46	32	0	32	1	32	2	32	3	32	4	
6	9	16	19	44	4	22	9	0	9	1	9	2	9	5	9	4	
4	31	13	49	45	31	0	31	1	31	5	31	3	31	4	
3	15	7	6	15	0	15	1	15	2	15	3	15	4	
6	2	37	49	18	16	28	2	0	2	1	2	2	2	1	2	0	
4	39	35	10	25	39	0	39	1	39	2	39	3	39	4	
4	10	25	13	8	10	0	10	1	10	2	10	5	10	4	
8	0	48	38	6	22	21	43	20	0	0	0	1	0	2	0	3	0	4	
4	37	49	13	25	37	0	37	1	37	5	37	3	37	4	
3	27	21	5	27	0	27	1	27	2	27	1	27	0	
4	33	24	45	30	33	0	33	1	33	2	33	5	33	4	
5	30	45	24	33	9	30	0	30	1	30	2	30	5	30	4	
5	32	31	13	49	1	32	0	32	1	32	5	32	3	32	4	
4	7	6	22	39	7	0	7	1	7	2	7	3	7	4	
3	25	5	21	25	0	25	1	25	2	25	3	25	4	
8	47	45	49	13	25	5	21	27	47	0	47	1	47	5	47	3	47	4	
6	49	13	25	10	14	12	49	0	49	1	49	2	49	3	49	4	
8	36	48	14	10	25	18	49	37	36	0	36	1	36	2	36	5	36	4	
4	29	28	23	42	29	0	29	1	29	2	29	1	29	0	
3	16	28	44	16	0	16	1	16	2	16	3	16	4	
2	3	31	3	0	3	1	3	2	3	5	3	4	
2	6	7	6	0	6	1	6	2	6	1	6	0	
6	30	45	49	18	19	44	30	0	30	1	30	5	30	3	30	4	
7	17	24	23	28	44	4	22	17	0	17	1	17	2	17	3	17	4	
8	48	14	10	25	18	49	37	34	48	0	48	1	48	5	48	3	48	4	
6	23	28	44	4	22	6	23	0	23	1	23	2	23	5	23	4	
6	2	31	32	5	22	39	2	0	2	1	2	5	2	3	2	4	
2	31	2	31	0	31	1	31	2	31	1	31	0	
3	42	24	17	42	0	42	1	42	2	42	3	42	4	
4	45	24	23	9	45	0	45	1	45	2	45	1	45	0	
3	35	4	5	35	0	35	1	35	5	35	3	35	4	
5	19	18	49	45	30	19	0	19	1	19	2	19	3	19	4	
4	22	39	38	36	22	0	22	1	22	2	22	1	22	0	
3	40	34	1	40	0	40	1	40	2	40	1	40	0	
6	46	28	44	19	25	13	46	0	46	1	46	5	46	3	46	4	
5	34	37	2	31	32	34	0	34	1	34	2	34	5	34	4	
3	13	25	19	13	0	13	1	13	2	13	1	13	0	
2	47	45	47	0	47	1	47	2	47	1	47	0	
4	18	16	28	23	18	0	18	1	18	5	18	3	18	4	
6	8	13	49	45	24	23	8	0	8	1	8	2	8	1	8	0	
5	11	3	43	27	15	11	0	11	1	11	2	11	3	11	4	
7	45	24	42	46	0	48	38	45	0	45	1	45	2	45	5	45	4	
4	1	49	13	31	1	0	1	1	1	2	1	5	1	4	
5	38	48	0	46	28	38	0	38	1	38	2	38	1	38	0	
3	22	21	27	22	0	22	1	22	2	22	5	22	4	
6	28	44	10	25	13	8	28	0	28	1	28	5	28	3	28	4	
2	15	27	15	0	15	1	15	2	15	1	15	0	
6	33	9	16	19	25	10	33	0	33	1	33	2	33	1	33	0	
5	36	38	39	22	4	36	0	36	1	36	2	36	3	36	4	
6	39	22	5	32	31	2	39	0	39	1	39	5	39	3	39	4	
6	23	28	44	10	35	39	23	0	23	1	23	2	23	5	23	4	
6	10	25	18	49	45	47	10	0	10	1	10	2	10	1	10	0	
2	6	38	6	0	6	1	6	2	6	1	6	0	
4	4	44	19	18	4	0	4	1	4	2	4	3	4	4	
7	35	10	25	13	49	37	34	35	0	35	1	35	2	35	1	35	0	
6	28	44	4	22	21	43	28	0	28	1	28	2	28	3	28	4	
5	31	32	5	4	35	31	0	31	1	31	2	31	1	31	0	
5	15	27	21	5	4	15	0	15	1	15	2	15	5	15	4	
3	49	37	41	49	0	49	1	49	2	49	1	49	0	
4	5	25	13	8	5	0	5	1	5	2	5	3	5	4	
5	39	22	5	32	31	39	0	39	1	39	2	39	5	39	4	
7	29	0	48	38	6	7	15	29	0	29	1	29	2	29	3	29	4	
3	16	28	23	16	0	16	1	16	5	16	3	16	4	
5	0	29	28	16	18	0	0	0	1	0	2	0	5	0	4	
6	40	41	37	2	31	32	40	0	40	1	40	2	40	1	40	0	
5	43	21	22	6	38	43	0	43	1	43	2	43	5	43	4	
3	27	43	3	27	0	27	1	27	5	27	3	27	4	
5	30	45	49	13	11	30	0	30	1	30	2	30	3	30	4	
6	20	3	11	13	25	19	20	0	20	1	20	2	20	5	20	4	
2	44	4	44	0	44	1	44	2	44	5	44	4	
5	49	13	25	10	14	49	0	49	1	49	2	49	5	49	4	
3	14	48	38	14	0	14	1	14	5	14	3	14	4	
6	32	31	2	37	41	40	32	0	32	1	32	5	32	3	32	4	
4	16	28	46	42	16	0	16	1	16	2	16	5	16	4	
4	23	28	44	4	23	0	23	1	23	2	23	3	23	4	
2	10	14	10	0	10	1	10	2	10	1	10	0	
4	44	4	22	39	44	0	44	1	44	2	44	1	44	0	
7	31	13	25	10	14	48	0	31	0	31	1	31	5	31	3	31	4	
3	37	2	31	37	0	37	1	37	2	37	5	37	4	
3	21	43	20	21	0	21	1	21	2	21	1	21	0	
5	42	46	28	44	19	42	0	42	1	42	2	42	5	42	4	
3	32	31	11	32	0	32	1	32	2	32	3	32	4	
5	35	4	5	32	3	35	0	35	1	35	2	35	1	35	0	
3	19	44	28	19	0	19	1	19	2	19	5	19	4	
2	25	19	25	0	25	1	25	5	25	3	25	4	
7	9	16	18	49	37	41	40	9	0	9	1	9	2	9	3	9	4	
7	15	27	43	32	31	2	37	15	0	15	1	15	2	15	3	15	4	
7	46	0	48	38	6	7	15	46	0	46	1	46	2	46	1	46	0	
3	33	24	23	33	0	33	1	33	2	33	3	33	4	
4	13	25	5	21	13	0	13	1	13	5	13	3	13	4	
6	0	46	42	24	45	49	0	0	0	1	0	2	0	3	0	4	
4	3	32	5	25	3	0	3	1	3	2	3	1	3	0	
5	6	22	5	25	13	6	0	6	1	6	2	6	5	6	4	
7	4	44	19	18	49	1	47	4	0	4	1	4	2	4	3	4	4	
5	8	11	3	43	21	8	0	8	1	8	5	8	3	8	4	
4	30	45	24	42	30	0	30	1	30	2	30	5	30	4	
6	14	10	25	18	49	1	14	0	14	1	14	2	14	1	14	0	
4	1	49	18	25	1	0	1	1	1	2	1	3	1	4	
4	25	10	14	48	25	0	25	1	25	2	25	3	25	4	
6	46	28	44	4	5	32	46	0	46	1	46	5	46	3	46	4	
4	28	44	10	14	28	0	28	1	28	2	28	1	28	0	
6	12	29	28	16	18	49	12	0	12	1	12	2	12	5	12	4	
9	36	48	0	46	42	24	17	30	26	36	0	36	1	36	2	36	5	36	4	
4	39	38	48	0	39	0	39	1	39	2	39	1	39	0	
7	26	34	1	49	13	25	10	26	0	26	1	26	2	26	3	26	4	
8	29	28	44	4	5	32	43	20	29	0	29	1	29	5	29	3	29	4	
4	6	22	5	32	6	0	6	1	6	5	6	3	6	4	
8	40	41	37	2	31	32	43	27	40	0	40	1	40	2	40	5	40	4	
6	24	23	28	44	4	22	24	0	24	1	24	5	24	3	24	4	
4	17	30	45	49	17	0	17	1	17	2	17	3	17	4	
5	48	38	6	7	15	48	0	48	1	48	2	48	1	48	0	
5	7	6	38	48	14	7	0	7	1	7	2	7	1	7	0	
6	28	16	18	49	37	41	28	0	28	1	28	2	28	5	28	4	
4	18	16	28	29	18	0	18	1	18	2	18	3	18	4	
3	5	25	10	5	0	5	1	5	2	5	5	5	4	
6	11	13	25	19	16	9	11	0	11	1	11	5	11	3	11	4	
5	45	49	18	19	44	45	0	45	1	45	5	45	3	45	4	
5	29	28	16	18	49	29	0	29	1	29	2	29	5	29	4	
5	16	18	25	5	21	16	0	16	1	16	2	16	1	16	0	
6	22	5	25	18	49	1	22	0	22	1	22	5	22	3	22	4	
6	43	21	22	6	38	36	43	0	43	1	43	2	43	3	43	4	
8	20	3	11	13	49	45	24	17	20	0	20	1	20	2	20	3	20	4	
6	23	24	45	49	37	41	23	0	23	1	23	2	23	1	23	0	
5	10	25	18	49	37	10	0	10	1	10	2	10	5	10	4	
6	41	37	2	31	3	20	41	0	41	1	41	2	41	1	41	0	
2	44	10	44	0	44	1	44	2	44	3	44	4	
2	34	26	34	0	34	1	34	2	34	5	34	4	
7	21	43	32	31	2	37	41	21	0	21	1	21	2	21	3	21	4	
5	14	10	25	5	32	14	0	14	1	14	2	14	1	14	0	
3	32	5	22	32	0	32	1	32	2	32	1	32	0	
4	12	29	28	16	12	0	12	1	12	2	12	3	12	4	
2	46	42	46	0	46	1	46	2	46	3	46	4	
3	26	30	45	26	0	26	1	26	2	26	5	26	4	
4	10	14	48	0	10	0	10	1	10	5	10	3	10	4	
5	44	19	18	49	37	44	0	44	1	44	5	44	3	44	4	
3	0	29	28	0	0	0	1	0	2	0	1	0	0	
5	37	49	45	30	17	37	0	37	1	37	2	37	3	37	4	
2	21	22	21	0	21	1	21	5	21	3	21	4	
5	27	43	3	11	13	27	0	27	1	27	2	27	5	27	4	
4	14	12	29	28	14	0	14	1	14	2	14	3	14	4	
6	32	5	25	19	16	9	32	0	32	1	32	2	32	5	32	4	
9	7	6	22	5	25	13	49	45	47	7	0	7	1	7	2	7	1	7	0	
4	38	39	22	5	38	0	38	1	38	2	38	3	38	4	
2	25	13	25	0	25	1	25	2	25	1	25	0	
3	9	23	42	9	0	9	1	9	2	9	5	9	4	
6	2	8	13	25	10	35	2	0	2	1	2	2	2	1	2	0	
3	5	32	43	5	0	5	1	5	2	5	3	5	4	
7	39	35	10	25	13	49	37	39	0	39	1	39	2	39	3	39	4	
7	3	32	5	4	44	28	23	3	0	3	1	3	5	3	3	3	4	
3	6	7	15	6	0	6	1	6	2	6	3	6	4	
7	27	21	22	4	44	28	46	27	0	27	1	27	2	27	1	27	0	
8	30	45	24	42	46	0	48	36	30	0	30	1	30	2	30	3	30	4	
6	14	10	25	13	11	3	14	0	14	1	14	5	14	3	14	4	
4	48	0	46	42	48	0	48	1	48	2	48	3	48	4	
5	4	5	32	3	11	4	0	4	1	4	2	4	1	4	0	
3	49	18	19	49	0	49	1	49	2	49	5	49	4	
4	41	37	49	13	41	0	41	1	41	2	41	5	41	4	
5	31	2	37	34	26	31	0	31	1	31	2	31	3	31	4	
5	18	16	28	46	0	18	0	18	1	18	2	18	1	18	0	
6	8	13	25	10	14	12	8	0	8	1	8	5	8	3	8	4	
6	42	24	45	49	37	41	42	0	42	1	42	5	42	3	42	4	
8	26	30	17	24	23	28	29	12	26	0	26	1	26	2	26	5	26	4	
5	29	28	44	4	22	29	0	29	1	29	2	29	1	29	0	
4	19	44	4	22	19	0	19	1	19	5	19	3	19	4	
6	40	41	37	49	18	25	40	0	40	1	40	2	40	3	40	4	
6	43	32	31	13	49	1	43	0	43	1	43	2	43	1	43	0	
5	46	28	44	4	5	46	0	46	1	46	2	46	5	46	4	
5	48	14	10	25	13	48	0	48	1	48	5	48	3	48	4	
6	7	6	38	48	14	12	7	0	7	1	7	5	7	3	7	4	
5	13	31	32	43	27	13	0	13	1	13	2	13	5	13	4	
4	47	45	49	37	47	0	47	1	47	2	47	5	47	4	
4	18	49	13	31	18	0	18	1	18	2	18	5	18	4	
6	11	13	49	45	24	23	11	0	11	1	11	2	11	1	11	0	
4	45	24	42	46	45	0	45	1	45	2	45	1	45	0	
8	1	49	18	25	5	22	6	7	1	0	1	1	1	5	1	3	1	4	
4	22	21	43	3	22	0	22	1	22	2	22	1	22	0	
6	9	16	18	49	13	11	9	0	9	1	9	2	9	3	9	4	
5	36	48	0	29	28	36	0	36	1	36	2	36	1	36	0	
3	39	35	10	39	0	39	1	39	2	39	5	39	4	
4	23	24	45	47	23	0	23	1	23	5	23	3	23	4	
3	10	35	39	10	0	10	1	10	2	10	3	10	4	
7	41	37	49	13	25	5	22	41	0	41	1	41	5	41	3	41	4	
8	47	45	49	13	25	5	22	6	47	0	47	1	47	2	47	1	47	0	
5	6	38	48	0	46	6	0	6	1	6	2	6	5	6	4	
4	24	23	28	16	24	0	24	1	24	2	24	5	24	4	
4	8	11	3	43	8	0	8	1	8	2	8	1	8	0	
8	1	49	18	25	10	14	48	36	1	0	1	1	1	2	1	3	1	4	
5	4	44	28	46	42	4	0	4	1	4	2	4	1	4	0	
5	38	39	22	5	32	38	0	38	1	38	2	38	1	38	0	
6	12	14	48	38	6	22	12	0	12	1	12	2	12	5	12	4	
6	2	31	32	5	22	6	2	0	2	1	2	2	2	3	2	4	
6	5	4	44	28	46	0	5	0	5	1	5	5	5	3	5	4	
4	26	34	1	47	26	0	26	1	26	2	26	3	26	4	
5	16	18	49	13	31	16	0	16	1	16	2	16	5	16	4	
7	0	46	42	24	45	30	26	0	0	0	1	0	5	0	3	0	4	
4	27	43	3	11	27	0	27	1	27	2	27	3	27	4	
3	38	6	7	38	0	38	1	38	2	38	5	38	4	
4	44	28	29	12	44	0	44	1	44	5	44	3	44	4	
2	28	23	28	0	28	1	28	2	28	3	28	4	
5	49	13	25	5	22	49	0	49	1	49	2	49	1	49	0	
7	21	5	25	13	49	1	47	21	0	21	1	21	5	21	3	21	4	
5	5	25	13	49	45	5	0	5	1	5	2	5	5	5	4	
4	39	22	21	43	39	0	39	1	39	2	39	5	39	4	
5	27	21	22	4	44	27	0	27	1	27	5	27	3	27	4	
2	17	24	17	0	17	1	17	2	17	1	17	0	
5	4	44	28	16	9	4	0	4	1	4	5	4	3	4	4	
5	10	14	48	38	6	10	0	10	1	10	2	10	5	10	4	
6	44	28	23	24	45	47	44	0	44	1	44	2	44	3	44	4	
5	31	13	49	45	24	31	0	31	1	31	2	31	5	31	4	
5	37	49	45	24	23	37	0	37	1	37	5	37	3	37	4	
6	21	5	25	10	14	12	21	0	21	1	21	2	21	3	21	4	
4	8	13	25	10	8	0	8	1	8	2	8	1	8	0	
8	42	24	45	49	13	11	3	43	42	0	42	1	42	2	42	1	42	0	
8	14	10	25	18	49	45	30	26	14	0	14	1	14	5	14	3	14	4	
4	45	49	18	19	45	0	45	1	45	2	45	3	45	4	
6	19	25	5	32	43	20	19	0	19	1	19	2	19	1	19	0	
5	22	4	44	28	46	22	0	22	1	22	2	22	3	22	4	
6	9	16	18	25	5	32	9	0	9	1	9	5	9	3	9	4	
3	43	27	15	43	0	43	1	43	5	43	3	43	4	
3	2	37	41	2	0	2	1	2	2	2	5	2	4	
6	33	24	45	49	13	31	33	0	33	1	33	2	33	1	33	0	
8	20	3	11	13	49	45	24	42	20	0	20	1	20	5	20	3	20	4	
5	23	42	46	0	48	23	0	23	1	23	2	23	3	23	4	
6	13	25	10	14	12	29	13	0	13	1	13	2	13	3	13	4	
8	47	45	49	13	25	5	21	27	47	0	47	1	47	2	47	3	47	4	
5	37	2	31	32	43	37	0	37	1	37	2	37	5	37	4	
2	4	44	4	0	4	1	4	5	4	3	4	4	
3	30	26	34	30	0	30	1	30	5	30	3	30	4	
6	25	13	49	37	34	40	25	0	25	1	25	5	25	3	25	4	
5	9	16	18	25	5	9	0	9	1	9	2	9	5	9	4	
10	15	27	43	32	31	13	49	45	30	17	15	0	15	1	15	2	15	3	15	4	
6	36	48	14	10	25	18	36	0	36	1	36	5	36	3	36	4	
6	39	35	10	25	13	8	39	0	39	1	39	2	39	3	39	4	
4	26	34	37	2	26	0	26	1	26	2	26	1	26	0	
2	29	28	29	0	29	1	29	2	29	5	29	4	
5	13	49	45	24	33	13	0	13	1	13	5	13	3	13	4	
7	47	45	49	18	19	44	4	47	0	47	1	47	5	47	3	47	4	
9	6	22	5	25	18	49	1	34	40	6	0	6	1	6	2	6	3	6	4	
3	37	2	8	37	0	37	1	37	2	37	1	37	0	
6	24	42	46	0	48	14	24	0	24	1	24	2	24	3	24	4	
4	8	2	37	41	8	0	8	1	8	5	8	3	8	4	
8	34	1	47	45	24	42	46	0	34	0	34	1	34	2	34	5	34	4	
5	48	0	46	42	23	48	0	48	1	48	2	48	3	48	4	
7	48	38	39	22	21	43	20	48	0	48	1	48	2	48	5	48	4	
3	7	6	22	7	0	7	1	7	2	7	3	7	4	
8	41	37	2	31	3	43	27	15	41	0	41	1	41	5	41	3	41	4	
3	18	49	37	18	0	18	1	18	5	18	3	18	4	
2	2	8	2	0	2	1	2	2	2	5	2	4	
4	5	32	31	2	5	0	5	1	5	2	5	1	5	0	
3	16	28	29	16	0	16	1	16	2	16	3	16	4	
6	22	4	44	19	16	9	22	0	22	1	22	2	22	5	22	4	
3	24	45	49	24	0	24	1	24	5	24	3	24	4	
5	47	45	49	18	19	47	0	47	1	47	5	47	3	47	4	
6	30	45	24	23	28	29	30	0	30	1	30	2	30	1	30	0	
7	17	30	45	49	13	25	5	17	0	17	1	17	2	17	3	17	4	
3	23	24	17	23	0	23	1	23	2	23	5	23	4	
6	41	37	49	18	19	44	41	0	41	1	41	2	41	3	41	4	
3	44	19	18	44	0	44	1	44	2	44	1	44	0	
5	28	44	4	22	21	28	0	28	1	28	2	28	5	28	4	
3	34	37	2	34	0	34	1	34	5	34	3	34	4	
7	21	5	25	19	16	9	33	21	0	21	1	21	2	21	1	21	0	
5	42	46	0	48	14	42	0	42	1	42	2	42	3	42	4	
3	19	18	49	19	0	19	1	19	2	19	3	19	4	
5	12	29	28	23	24	12	0	12	1	12	2	12	1	12	0	
7	46	42	24	45	30	26	34	46	0	46	1	46	2	46	1	46	0	
7	33	24	42	46	0	48	36	33	0	33	1	33	2	33	5	33	4	
3	17	30	26	17	0	17	1	17	5	17	3	17	4	
5	10	44	28	23	24	10	0	10	1	10	2	10	3	10	4	
5	44	28	23	24	45	44	0	44	1	44	2	44	5	44	4	
5	46	28	44	4	35	46	0	46	1	46	2	46	5	46	4	
5	21	5	25	10	14	21	0	21	1	21	2	21	5	21	4	
7	14	10	25	5	21	43	20	14	0	14	1	14	2	14	1	14	0	
6	45	49	13	25	5	21	45	0	45	1	45	2	45	5	45	4	
3	35	10	25	35	0	35	1	35	2	35	3	35	4	
6	38	39	22	5	25	13	38	0	38	1	38	5	38	3	38	4	
8	22	5	25	18	49	1	34	40	22	0	22	1	22	2	22	5	22	4	
6	9	16	18	49	37	34	9	0	9	1	9	2	9	1	9	0	
4	2	31	32	43	2	0	2	1	2	2	2	3	2	4	
3	5	4	35	5	0	5	1	5	2	5	1	5	0	
7	39	35	10	25	13	49	45	39	0	39	1	39	2	39	1	39	0	
6	26	34	1	49	13	25	26	0	26	1	26	2	26	5	26	4	
4	0	48	38	39	0	0	0	1	0	2	0	1	0	0	
6	3	11	13	49	45	47	3	0	3	1	3	2	3	3	3	4	
2	34	37	34	0	34	1	34	2	34	1	34	0	
3	37	49	45	37	0	37	1	37	2	37	3	37	4	
4	4	5	32	3	4	0	4	1	4	2	4	3	4	4	
6	25	19	44	28	46	42	25	0	25	1	25	2	25	1	25	0	
4	31	13	49	18	31	0	31	1	31	5	31	3	31	4	
8	15	27	21	5	4	44	28	23	15	0	15	1	15	2	15	5	15	4	
3	42	24	33	42	0	42	1	42	2	42	5	42	4	
8	26	30	17	24	23	28	44	4	26	0	26	1	26	5	26	3	26	4	
6	29	28	23	24	17	30	29	0	29	1	29	2	29	3	29	4	
4	19	44	10	14	19	0	19	1	19	2	19	5	19	4	
7	3	32	5	22	39	38	48	3	0	3	1	3	5	3	3	3	4	
5	37	49	13	25	10	37	0	37	1	37	5	37	3	37	4	
7	43	32	5	25	19	16	9	43	0	43	1	43	2	43	5	43	4	
5	27	21	5	25	18	27	0	27	1	27	2	27	1	27	0	
5	48	38	39	22	21	48	0	48	1	48	2	48	5	48	4	
6	20	43	32	5	4	44	20	0	20	1	20	2	20	5	20	4	
5	7	15	27	43	20	7	0	7	1	7	2	7	5	7	4	
6	41	37	49	18	16	9	41	0	41	1	41	2	41	1	41	0	
6	47	45	24	23	28	29	47	0	47	1	47	5	47	3	47	4	
5	18	25	10	35	39	18	0	18	1	18	2	18	1	18	0	
6	3	32	5	22	39	38	3	0	3	1	3	5	3	3	3	4	
2	46	0	46	0	46	1	46	5	46	3	46	4	
5	22	5	32	31	11	22	0	22	1	22	2	22	3	22	4	
7	9	16	18	49	13	31	3	9	0	9	1	9	2	9	1	9	0	
7	12	14	10	25	13	11	3	12	0	12	1	12	2	12	5	12	4	
8	43	32	31	13	49	45	24	42	43	0	43	1	43	2	43	1	43	0	
5	30	45	49	13	31	30	0	30	1	30	5	30	3	30	4	
7	6	22	5	25	18	49	45	6	0	6	1	6	5	6	3	6	4	
5	5	22	39	38	36	5	0	5	1	5	2	5	5	5	4	
4	20	43	27	15	20	0	20	1	20	2	20	1	20	0	
7	41	37	49	45	24	42	46	41	0	41	1	41	2	41	5	41	4	
5	13	25	10	35	39	13	0	13	1	13	2	13	5	13	4	
7	34	37	49	18	19	44	4	34	0	34	1	34	2	34	1	34	0	
5	3	11	13	49	45	3	0	3	1	3	5	3	3	3	4	
5	24	45	49	13	8	24	0	24	1	24	5	24	3	24	4	
5	8	13	25	10	35	8	0	8	1	8	2	8	3	8	4	
3	42	46	0	42	0	42	1	42	2	42	5	42	4	
5	1	49	18	19	44	1	0	1	1	1	5	1	3	1	4	
5	32	5	4	44	28	32	0	32	1	32	2	32	3	32	4	
5	19	18	49	45	47	19	0	19	1	19	2	19	5	19	4	
7	12	29	28	23	24	45	30	12	0	12	1	12	5	12	3	12	4	
6	2	8	13	25	10	14	2	0	2	1	2	2	2	1	2	0	
7	33	24	42	46	0	48	38	33	0	33	1	33	2	33	3	33	4	
10	36	48	14	10	25	18	49	37	41	40	36	0	36	1	36	2	36	1	36	0	
4	13	25	5	4	13	0	13	1	13	2	13	1	13	0	
8	0	46	42	24	45	49	37	2	0	0	0	1	0	2	0	3	0	4	
9	40	41	37	49	18	25	10	14	48	40	0	40	1	40	5	40	3	40	4	
4	41	34	1	47	41	0	41	1	41	2	41	5	41	4	
7	24	45	49	13	31	3	43	24	0	24	1	24	2	24	3	24	4	
5	33	9	16	19	25	33	0	33	1	33	2	33	5	33	4	
7	17	30	45	49	13	11	3	17	0	17	1	17	5	17	3	17	4	
5	35	4	44	28	23	35	0	35	1	35	2	35	5	35	4	
4	38	6	7	15	38	0	38	1	38	2	38	1	38	0	
5	25	5	22	6	7	25	0	25	1	25	2	25	3	25	4	
6	28	44	10	25	13	31	28	0	28	1	28	5	28	3	28	4	
8	12	29	28	16	18	49	1	34	12	0	12	1	12	2	12	5	12	4	
3	49	45	30	49	0	49	1	49	2	49	3	49	4	
5	5	32	31	2	37	5	0	5	1	5	5	5	3	5	4	
8	26	34	37	2	31	32	43	27	26	0	26	1	26	2	26	3	26	4	
9	34	37	49	13	25	10	14	48	36	34	0	34	1	34	2	34	3	34	4	
7	0	46	42	24	45	49	37	0	0	0	1	0	5	0	3	0	4	
8	6	38	48	0	46	42	24	17	6	0	6	1	6	2	6	1	6	0	
9	40	41	37	49	18	16	28	29	12	40	0	40	1	40	2	40	5	40	4	
7	17	30	45	49	13	31	32	17	0	17	1	17	2	17	3	17	4	
6	4	44	19	18	49	1	4	0	4	1	4	2	4	5	4	4	
6	10	25	18	49	45	30	10	0	10	1	10	5	10	3	10	4	
5	31	13	25	19	16	31	0	31	1	31	2	31	1	31	0	
3	18	25	10	18	0	18	1	18	2	18	3	18	4	
3	21	22	4	21	0	21	1	21	5	21	3	21	4	
6	42	46	28	44	4	35	42	0	42	1	42	2	42	3	42	4	
7	45	49	13	25	5	21	27	45	0	45	1	45	2	45	1	45	0	
6	16	18	25	5	22	6	16	0	16	1	16	5	16	3	16	4	
5	19	44	10	14	12	19	0	19	1	19	2	19	3	19	4	
4	40	34	1	47	40	0	40	1	40	2	40	1	40	0	
7	43	21	22	4	44	28	23	43	0	43	1	43	2	43	3	43	4	
6	27	21	5	25	19	16	27	0	27	1	27	5	27	3	27	4	
9	33	24	42	46	0	48	38	6	7	33	0	33	1	33	2	33	5	33	4	
6	20	3	31	2	37	34	20	0	20	1	20	2	20	3	20	4	
5	47	45	49	18	19	47	0	47	1	47	2	47	1	47	0	
6	37	49	13	25	10	35	37	0	37	1	37	5	37	3	37	4	
7	11	13	25	10	14	12	29	11	0	11	1	11	2	11	3	11	4	
5	14	10	25	18	49	14	0	14	1	14	5	14	3	14	4	
4	32	5	22	39	32	0	32	1	32	5	32	3	32	4	
3	25	5	32	25	0	25	1	25	2	25	5	25	4	
5	35	39	38	48	0	35	0	35	1	35	5	35	3	35	4	
4	9	16	28	29	9	0	9	1	9	5	9	3	9	4	
7	12	29	28	16	18	49	1	12	0	12	1	12	2	12	3	12	4	
7	43	32	31	2	37	41	40	43	0	43	1	43	5	43	3	43	4	
8	15	27	21	5	25	19	16	9	15	0	15	1	15	2	15	1	15	0	
5	2	31	32	43	21	2	0	2	1	2	2	2	5	2	4	
4	20	3	11	13	20	0	20	1	20	5	20	3	20	4	
4	10	25	18	49	10	0	10	1	10	2	10	1	10	0	
4	13	49	37	41	13	0	13	1	13	2	13	3	13	4	
3	6	38	48	6	0	6	1	6	2	6	1	6	0	
7	37	49	18	16	28	46	0	37	0	37	1	37	2	37	3	37	4	
7	24	42	46	0	48	38	6	24	0	24	1	24	2	24	1	24	0	
6	8	13	49	45	24	33	8	0	8	1	8	2	8	5	8	4	
6	1	49	45	24	42	46	1	0	1	1	1	2	1	1	1	0	
3	4	5	32	4	0	4	1	4	2	4	3	4	4	
4	35	39	38	48	35	0	35	1	35	2	35	1	35	0	
5	38	48	0	46	42	38	0	38	1	38	2	38	3	38	4	
4	25	19	44	28	25	0	25	1	25	5	25	3	25	4	
3	31	13	49	31	0	31	1	31	2	31	1	31	0	
7	15	27	43	32	31	2	37	15	0	15	1	15	5	15	3	15	4	
3	18	49	45	18	0	18	1	18	2	18	5	18	4	
7	2	8	13	25	10	14	48	2	0	2	1	2	5	2	3	2	4	
7	5	32	31	2	37	34	26	5	0	5	1	5	2	5	3	5	4	
4	36	48	0	46	36	0	36	1	36	5	36	3	36	4	
5	29	28	23	9	33	29	0	29	1	29	2	29	3	29	4	
5	13	25	5	22	6	13	0	13	1	13	5	13	3	13	4	
5	3	32	5	22	6	3	0	3	1	3	2	3	1	3	0	
5	24	45	49	37	41	24	0	24	1	24	2	24	5	24	4	
7	30	45	49	18	25	5	21	30	0	30	1	30	2	30	3	30	4	
5	17	30	45	49	13	17	0	17	1	17	2	17	1	17	0	
5	23	28	16	19	25	23	0	23	1	23	5	23	3	23	4	
9	41	37	49	13	25	10	14	48	36	41	0	41	1	41	5	41	3	41	4	
4	25	13	49	1	25	0	25	1	25	2	25	5	25	4	
2	28	29	28	0	28	1	28	2	28	1	28	0	
6	42	46	0	48	38	6	42	0	42	1	42	2	42	1	42	0	
5	45	24	42	46	0	45	0	45	1	45	2	45	5	45	4	
5	19	18	49	37	41	19	0	19	1	19	2	19	1	19	0	
5	6	22	5	25	19	6	0	6	1	6	5	6	3	6	4	
7	40	41	37	49	18	25	10	40	0	40	1	40	2	40	3	40	4	
2	4	35	4	0	4	1	4	2	4	5	4	4	
4	17	30	26	34	17	0	17	1	17	2	17	5	17	4	
4	10	44	28	16	10	0	10	1	10	2	10	1	10	0	
3	0	29	12	0	0	0	1	0	5	0	3	0	4	
6	2	8	13	25	10	14	2	0	2	1	2	5	2	3	2	4	
5	18	16	28	29	12	18	0	18	1	18	2	18	5	18	4	
3	21	22	6	21	0	21	1	21	2	21	1	21	0	
7	8	13	25	10	14	48	0	8	0	8	1	8	2	8	3	8	4	
6	11	3	43	21	22	6	11	0	11	1	11	5	11	3	11	4	
5	45	24	23	28	29	45	0	45	1	45	5	45	3	45	4	
7	35	4	44	28	23	24	17	35	0	35	1	35	2	35	1	35	0	
4	38	39	22	21	38	0	38	1	38	2	38	5	38	4	
5	22	4	44	19	16	22	0	22	1	22	5	22	3	22	4	
5	40	34	26	30	45	40	0	40	1	40	5	40	3	40	4	
4	12	14	48	36	12	0	12	1	12	2	12	1	12	0	
5	33	24	45	49	1	33	0	33	1	33	2	33	3	33	4	
5	48	14	10	44	19	48	0	48	1	48	5	48	3	48	4	
6	0	46	42	24	45	47	0	0	0	1	0	2	0	3	0	4	
5	3	32	5	22	39	3	0	3	1	3	2	3	1	3	0	
4	34	1	47	45	34	0	34	1	34	2	34	3	34	4	
6	32	31	13	49	45	30	32	0	32	1	32	2	32	5	32	4	
4	11	3	43	27	11	0	11	1	11	2	11	5	11	4	
4	1	49	13	11	1	0	1	1	1	2	1	3	1	4	
4	32	31	2	37	32	0	32	1	32	2	32	1	32	0	
6	35	10	25	13	49	45	35	0	35	1	35	2	35	3	35	4	
5	25	13	49	37	34	25	0	25	1	25	2	25	3	25	4	
6	31	13	49	45	24	42	31	0	31	1	31	2	31	5	31	4	
6	2	37	49	45	24	23	2	0	2	1	2	2	2	3	2	4	
2	39	22	39	0	39	1	39	2	39	1	39	0	
4	16	28	46	0	16	0	16	1	16	2	16	5	16	4	
2	37	2	37	0	37	1	37	2	37	5	37	4	
8	43	32	31	13	49	45	30	17	43	0	43	1	43	5	43	3	43	4	
8	27	43	32	31	2	37	34	26	27	0	27	1	27	2	27	3	27	4	
3	48	0	29	48	0	48	1	48	2	48	1	48	0	
7	20	43	21	22	6	38	36	20	0	20	1	20	5	20	3	20	4	
4	4	22	39	38	4	0	4	1	4	2	4	5	4	4	
6	7	6	22	4	44	28	7	0	7	1	7	2	7	1	7	0	
5	25	13	49	45	30	25	0	25	1	25	2	25	1	25	0	
4	18	49	45	47	18	0	18	1	18	2	18	3	18	4	
4	49	13	25	5	49	0	49	1	49	5	49	3	49	4	
5	16	28	44	10	35	16	0	16	1	16	2	16	1	16	0	
4	3	32	5	4	3	0	3	1	3	5	3	3	3	4	
7	9	16	18	25	5	21	27	9	0	9	1	9	2	9	5	9	4	
4	30	45	24	23	30	0	30	1	30	2	30	5	30	4	
5	20	43	27	15	7	20	0	20	1	20	2	20	3	20	4	
6	23	24	45	49	13	31	23	0	23	1	23	2	23	1	23	0	
9	41	37	49	13	25	10	14	48	38	41	0	41	1	41	2	41	1	41	0	
4	13	49	45	47	13	0	13	1	13	5	13	3	13	4	
4	44	28	23	24	44	0	44	1	44	2	44	3	44	4	
2	31	11	31	0	31	1	31	2	31	5	31	4	
2	21	27	21	0	21	1	21	2	21	3	21	4	
2	42	24	42	0	42	1	42	5	42	3	42	4	
4	45	49	37	2	45	0	45	1	45	2	45	3	45	4	
3	32	5	4	32	0	32	1	32	2	32	1	32	0	
2	35	10	35	0	35	1	35	2	35	5	35	4	
5	19	44	4	35	39	19	0	19	1	19	5	19	3	19	4	
8	46	28	44	4	22	21	43	20	46	0	46	1	46	2	46	3	46	4	
6	36	38	39	22	5	32	36	0	36	1	36	2	36	5	36	4	
5	29	0	48	38	39	29	0	29	1	29	5	29	3	29	4	
5	13	25	10	14	12	13	0	13	1	13	2	13	3	13	4	
4	0	48	14	10	0	0	0	1	0	2	0	1	0	0	
4	47	45	24	42	47	0	47	1	47	2	47	3	47	4	
8	34	37	49	13	25	10	14	48	34	0	34	1	34	2	34	1	34	0	
6	24	23	28	44	10	35	24	0	24	1	24	5	24	3	24	4	
5	8	13	49	45	30	8	0	8	1	8	2	8	5	8	4	
5	11	13	25	5	4	11	0	11	1	11	2	11	1	11	0	
4	1	49	18	16	1	0	1	1	1	5	1	3	1	4	
6	38	48	0	46	42	23	38	0	38	1	38	2	38	3	38	4	
6	28	44	4	22	6	7	28	0	28	1	28	2	28	5	28	4	
5	12	29	28	46	42	12	0	12	1	12	5	12	3	12	4	
7	36	38	39	22	5	32	3	36	0	36	1	36	2	36	1	36	0	
6	3	31	2	37	34	26	3	0	3	1	3	2	3	5	3	4	
5	0	46	42	24	45	0	0	0	1	0	2	0	5	0	4	
4	6	22	5	25	6	0	6	1	6	2	6	3	6	4	
8	40	41	37	49	18	19	44	4	40	0	40	1	40	5	40	3	40	4	
5	24	45	49	13	31	24	0	24	1	24	2	24	3	24	4	
5	17	30	26	34	40	17	0	17	1	17	5	17	3	17	4	
3	4	5	25	4	0	4	1	4	2	4	1	4	0	
5	35	4	5	32	43	35	0	35	1	35	2	35	5	35	4	
4	2	37	49	45	2	0	2	1	2	2	2	3	2	4	
6	28	16	18	49	37	34	28	0	28	1	28	5	28	3	28	4	
5	31	2	37	34	40	31	0	31	1	31	2	31	3	31	4	
3	49	1	34	49	0	49	1	49	2	49	3	49	4	
5	39	22	21	43	20	39	0	39	1	39	5	39	3	39	4	
6	45	49	13	25	10	35	45	0	45	1	45	2	45	5	45	4	
7	29	28	16	18	49	13	8	29	0	29	1	29	2	29	1	29	0	
5	16	28	29	12	14	16	0	16	1	16	2	16	3	16	4	
7	22	5	25	18	49	45	30	22	0	22	1	22	2	22	5	22	4	
9	40	41	37	49	18	25	10	35	39	40	0	40	1	40	2	40	3	40	4	
7	3	11	13	49	45	24	42	3	0	3	1	3	2	3	5	3	4	
3	43	32	31	43	0	43	1	43	2	43	1	43	0	
8	27	43	3	11	13	49	45	24	27	0	27	1	27	2	27	5	27	4	
9	33	9	16	19	25	5	21	27	15	33	0	33	1	33	5	33	3	33	4	
7	20	3	31	2	37	34	26	20	0	20	1	20	2	20	1	20	0	
5	10	44	28	46	42	10	0	10	1	10	5	10	3	10	4	
5	41	37	2	31	3	41	0	41	1	41	2	41	3	41	4	
5	44	4	5	32	3	44	0	44	1	44	5	44	3	44	4	
5	21	22	39	38	48	21	0	21	1	21	5	21	3	21	4	
7	14	10	25	18	49	37	41	14	0	14	1	14	2	14	5	14	4	
6	32	31	13	49	45	47	32	0	32	1	32	2	32	5	32	4	
3	16	9	33	16	0	16	1	16	5	16	3	16	4	
6	9	16	18	25	5	21	9	0	9	1	9	2	9	3	9	4	
2	41	40	41	0	41	1	41	5	41	3	41	4	
6	43	21	22	6	38	48	43	0	43	1	43	2	43	5	43	4	
8	15	27	43	32	31	13	49	1	15	0	15	1	15	2	15	5	15	4	
5	33	24	45	30	26	33	0	33	1	33	5	33	3	33	4	
4	20	43	32	5	20	0	20	1	20	2	20	5	20	4	
5	10	44	28	23	9	10	0	10	1	10	2	10	3	10	4	
2	13	49	13	0	13	1	13	2	13	1	13	0	
6	44	28	23	24	45	30	44	0	44	1	44	2	44	5	44	4	
7	34	37	49	13	25	10	14	34	0	34	1	34	2	34	3	34	4	
4	37	49	45	24	37	0	37	1	37	5	37	3	37	4	
6	21	22	4	44	28	29	21	0	21	1	21	2	21	5	21	4	
6	11	13	49	45	24	33	11	0	11	1	11	2	11	3	11	4	
8	6	38	48	0	46	42	24	17	6	0	6	1	6	5	6	3	6	4	
3	32	31	2	32	0	32	1	32	5	32	3	32	4	
5	35	10	25	13	8	35	0	35	1	35	2	35	3	35	4	
5	25	13	31	3	20	25	0	25	1	25	2	25	5	25	4	
8	15	27	43	32	31	2	37	34	15	0	15	1	15	2	15	1	15	0	
4	49	13	31	3	49	0	49	1	49	2	49	5	49	4	
7	33	24	45	30	26	34	40	33	0	33	1	33	2	33	1	33	0	
2	36	38	36	0	36	1	36	2	36	3	36	4	
7	29	28	16	18	49	37	41	29	0	29	1	29	2	29	1	29	0	
4	13	25	10	14	13	0	13	1	13	2	13	5	13	4	
6	3	11	13	49	45	30	3	0	3	1	3	2	3	3	3	4	
3	6	22	4	6	0	6	1	6	2	6	1	6	0	
2	24	33	24	0	24	1	24	2	24	1	24	0	
2	30	45	30	0	30	1	30	5	30	3	30	4	
5	14	10	25	13	8	14	0	14	1	14	2	14	5	14	4	
3	1	49	18	1	0	1	1	1	2	1	1	1	0	
4	28	44	4	5	28	0	28	1	28	2	28	3	28	4	
2	31	13	31	0	31	1	31	2	31	1	31	0	
8	36	48	14	10	25	18	49	1	36	0	36	1	36	5	36	3	36	4	
4	42	24	45	30	42	0	42	1	42	2	42	5	42	4	
8	26	34	37	2	31	32	43	21	26	0	26	1	26	2	26	1	26	0	
4	19	16	9	33	19	0	19	1	19	2	19	5	19	4	
4	6	22	21	27	6	0	6	1	6	2	6	5	6	4	
4	40	41	37	2	40	0	40	1	40	2	40	1	40	0	
4	24	23	28	29	24	0	24	1	24	2	24	5	24	4	
4	46	28	16	18	46	0	46	1	46	5	46	3	46	4	
7	30	45	24	42	46	0	48	30	0	30	1	30	2	30	5	30	4	
3	17	24	42	17	0	17	1	17	2	17	1	17	0	
3	48	38	6	48	0	48	1	48	2	48	5	48	4	
6	18	49	13	31	3	20	18	0	18	1	18	5	18	3	18	4	
5	8	13	49	45	24	8	0	8	1	8	2	8	1	8	0	
5	11	13	25	10	14	11	0	11	1	11	2	11	5	11	4	
3	45	49	37	45	0	45	1	45	2	45	3	45	4	
4	29	12	14	10	29	0	29	1	29	5	29	3	29	4	
5	19	25	13	31	2	19	0	19	1	19	2	19	1	19	0	
6	22	4	44	28	23	24	22	0	22	1	22	2	22	3	22	4	
3	40	41	37	40	0	40	1	40	2	40	5	40	4	
4	12	29	28	44	12	0	12	1	12	2	12	5	12	4	
2	33	9	33	0	33	1	33	2	33	1	33	0	
6	23	42	46	0	48	38	23	0	23	1	23	2	23	3	23	4	
2	10	44	10	0	10	1	10	2	10	1	10	0	
7	41	37	49	18	16	28	29	41	0	41	1	41	2	41	5	41	4	
5	44	19	18	49	1	44	0	44	1	44	2	44	1	44	0	
5	47	45	24	23	9	47	0	47	1	47	2	47	3	47	4	
7	34	37	2	31	32	43	21	34	0	34	1	34	5	34	3	34	4	
6	14	10	25	5	21	43	14	0	14	1	14	2	14	3	14	4	
3	4	44	19	4	0	4	1	4	2	4	5	4	4	
6	35	10	25	13	49	37	35	0	35	1	35	2	35	1	35	0	
5	28	46	0	48	36	28	0	28	1	28	2	28	5	28	4	
7	12	14	48	38	6	7	15	12	0	12	1	12	2	12	1	12	0	
2	15	7	15	0	15	1	15	2	15	3	15	4	
4	46	42	24	45	46	0	46	1	46	2	46	1	46	0	
8	39	35	10	25	13	49	45	30	39	0	39	1	39	2	39	3	39	4	
4	10	25	13	11	10	0	10	1	10	2	10	5	10	4	
5	16	18	49	13	8	16	0	16	1	16	5	16	3	16	4	
5	0	29	28	16	19	0	0	0	1	0	2	0	3	0	4	
3	37	34	26	37	0	37	1	37	2	37	1	37	0	
5	27	43	32	31	2	27	0	27	1	27	5	27	3	27	4	
5	11	13	49	45	47	11	0	11	1	11	2	11	5	11	4	
4	7	6	38	36	7	0	7	1	7	2	7	3	7	4	
3	25	5	22	25	0	25	1	25	2	25	3	25	4	
4	15	27	43	32	15	0	15	1	15	5	15	3	15	4	
2	49	13	49	0	49	1	49	2	49	3	49	4	
4	5	32	43	20	5	0	5	1	5	2	5	1	5	0	
8	39	35	10	25	13	49	37	34	39	0	39	1	39	2	39	1	39	0	
6	16	18	25	5	32	43	16	0	16	1	16	2	16	3	16	4	
6	3	32	5	4	44	28	3	0	3	1	3	2	3	5	3	4	
3	2	37	49	2	0	2	1	2	2	2	5	2	4	
3	9	16	19	9	0	9	1	9	5	9	3	9	4	
4	27	21	22	39	27	0	27	1	27	2	27	5	27	4	
3	30	45	47	30	0	30	1	30	2	30	1	30	0	
3	17	24	23	17	0	17	1	17	2	17	3	17	4	
6	48	0	46	42	24	33	48	0	48	1	48	2	48	1	48	0	
4	44	4	5	32	44	0	44	1	44	2	44	1	44	0	
2	31	3	31	0	31	1	31	5	31	3	31	4	
4	21	5	25	19	21	0	21	1	21	2	21	1	21	0	
4	42	46	28	16	42	0	42	1	42	2	42	3	42	4	
5	26	30	17	24	23	26	0	26	1	26	5	26	3	26	4	
8	7	15	27	43	32	31	2	37	7	0	7	1	7	2	7	5	7	4	
6	32	5	25	10	14	12	32	0	32	1	32	2	32	5	32	4	
4	19	25	13	31	19	0	19	1	19	2	19	3	19	4	
9	26	30	17	24	42	46	0	48	38	26	0	26	1	26	2	26	5	26	4	
5	9	33	24	45	47	9	0	9	1	9	2	9	5	9	4	
6	32	5	4	44	28	29	32	0	32	1	32	5	32	3	32	4	
4	43	21	22	6	43	0	43	1	43	2	43	3	43	4	
4	46	0	29	12	46	0	46	1	46	2	46	1	46	0	
4	13	11	3	20	13	0	13	1	13	5	13	3	13	4	
2	46	28	46	0	46	1	46	2	46	5	46	4	
3	47	1	34	47	0	47	1	47	5	47	3	47	4	
5	8	13	25	5	22	8	0	8	1	8	5	8	3	8	4	
6	11	13	25	10	14	12	11	0	11	1	11	2	11	3	11	4	
6	5	4	44	28	23	24	5	0	5	1	5	5	5	3	5	4	
4	14	48	38	6	14	0	14	1	14	2	14	1	14	0	
4	1	49	45	24	1	0	1	1	1	2	1	5	1	4	
5	19	44	28	46	0	19	0	19	1	19	5	19	3	19	4	
5	9	16	28	29	12	9	0	9	1	9	2	9	1	9	0	
6	36	38	6	7	15	27	36	0	36	1	36	2	36	3	36	4	
5	39	22	5	32	3	39	0	39	1	39	2	39	1	39	0	
6	23	42	46	0	48	36	23	0	23	1	23	2	23	5	23	4	
4	29	28	44	19	29	0	29	1	29	5	29	3	29	4	
9	47	45	49	13	25	5	21	27	15	47	0	47	1	47	2	47	5	47	4	
6	34	1	47	45	24	23	34	0	34	1	34	2	34	1	34	0	
2	24	23	24	0	24	1	24	5	24	3	24	4	
6	17	24	42	46	0	48	17	0	17	1	17	2	17	5	17	4	
2	48	0	48	0	48	1	48	2	48	1	48	0	
6	4	44	28	23	24	17	4	0	4	1	4	2	4	3	4	4	
8	7	6	22	4	44	28	16	9	7	0	7	1	7	2	7	1	7	0	
3	28	46	42	28	0	28	1	28	2	28	3	28	4	
5	12	14	10	25	13	12	0	12	1	12	5	12	3	12	4	
5	18	49	1	34	26	18	0	18	1	18	2	18	5	18	4	
4	2	37	49	1	2	0	2	1	2	2	2	1	2	0	
5	5	25	19	16	9	5	0	5	1	5	2	5	3	5	4	
5	39	35	10	44	28	39	0	39	1	39	2	39	5	39	4	
6	45	49	13	31	32	43	45	0	45	1	45	5	45	3	45	4	
3	29	0	48	29	0	29	1	29	2	29	3	29	4	
5	16	18	25	5	22	16	0	16	1	16	2	16	1	16	0	
5	0	46	42	24	17	0	0	0	1	0	2	0	5	0	4	
2	22	6	22	0	22	1	22	5	22	3	22	4	
7	27	21	22	39	38	48	0	27	0	27	1	27	2	27	1	27	0	
6	30	45	49	18	25	10	30	0	30	1	30	2	30	3	30	4	
7	41	37	2	31	3	43	27	41	0	41	1	41	2	41	1	41	0	
5	44	10	25	13	11	44	0	44	1	44	2	44	5	44	4	
8	21	43	32	31	2	37	34	40	21	0	21	1	21	2	21	5	21	4	
2	5	22	5	0	5	1	5	5	5	3	5	4	
4	39	22	5	32	39	0	39	1	39	5	39	3	39	4	
5	16	18	49	37	41	16	0	16	1	16	2	16	5	16	4	
3	5	22	39	5	0	5	1	5	2	5	5	5	4	
5	23	28	44	4	5	23	0	23	1	23	2	23	3	23	4	
5	10	25	18	49	1	10	0	10	1	10	5	10	3	10	4	
5	44	10	14	48	38	44	0	44	1	44	5	44	3	44	4	
4	37	49	18	16	37	0	37	1	37	2	37	5	37	4	
3	8	13	49	8	0	8	1	8	2	8	3	8	4	
5	11	31	2	37	41	11	0	11	1	11	2	11	1	11	0	
3	14	12	29	14	0	14	1	14	2	14	5	14	4	
6	45	24	23	28	29	12	45	0	45	1	45	2	45	1	45	0	
4	32	5	25	10	32	0	32	1	32	2	32	3	32	4	
7	22	4	44	19	16	9	33	22	0	22	1	22	2	22	1	22	0	
6	9	16	18	49	37	41	9	0	9	1	9	2	9	3	9	4	
4	43	21	22	4	43	0	43	1	43	2	43	5	43	4	
3	2	31	32	2	0	2	1	2	2	2	1	2	0	
3	33	9	16	33	0	33	1	33	2	33	3	33	4	
5	20	3	11	13	49	20	0	20	1	20	2	20	5	20	4	
4	13	25	5	22	13	0	13	1	13	2	13	1	13	0	
2	0	48	0	0	0	1	0	2	0	3	0	4	
6	47	45	49	13	31	32	47	0	47	1	47	2	47	1	47	0	
8	27	21	5	25	19	16	9	33	27	0	27	1	27	2	27	1	27	0	
4	30	26	34	37	30	0	30	1	30	2	30	5	30	4	
3	14	48	0	14	0	14	1	14	5	14	3	14	4	
3	1	34	26	1	0	1	1	1	2	1	3	1	4	
5	38	39	22	5	25	38	0	38	1	38	2	38	1	38	0	
3	25	13	49	25	0	25	1	25	2	25	3	25	4	
6	9	16	28	29	12	14	9	0	9	1	9	5	9	3	9	4	
3	31	32	5	31	0	31	1	31	2	31	5	31	4	
9	15	27	43	32	31	13	49	45	30	15	0	15	1	15	2	15	1	15	0	
5	36	48	14	10	25	36	0	36	1	36	2	36	5	36	4	
6	42	46	28	44	4	22	42	0	42	1	42	5	42	3	42	4	
5	26	34	1	49	13	26	0	26	1	26	2	26	3	26	4	
6	29	28	44	4	22	21	29	0	29	1	29	2	29	1	29	0	
2	19	25	19	0	19	1	19	5	19	3	19	4	
4	6	22	4	35	6	0	6	1	6	2	6	1	6	0	
2	37	49	37	0	37	1	37	2	37	5	37	4	
7	24	23	28	44	4	5	21	24	0	24	1	24	2	24	1	24	0	
2	48	14	48	0	48	1	48	5	48	3	48	4	
2	7	15	7	0	7	1	7	5	7	3	7	4	
6	31	32	5	22	39	38	31	0	31	1	31	2	31	1	31	0	
3	18	16	28	18	0	18	1	18	2	18	3	18	4	
3	2	31	3	2	0	2	1	2	5	2	3	2	4	
5	8	13	25	19	16	8	0	8	1	8	2	8	5	8	4	
5	22	39	38	48	0	22	0	22	1	22	2	22	1	22	0	
5	47	45	24	23	28	47	0	47	1	47	5	47	3	47	4	
5	43	32	31	2	37	43	0	43	1	43	2	43	3	43	4	
7	30	45	49	18	19	44	4	30	0	30	1	30	2	30	5	30	4	
7	20	3	11	13	49	18	16	20	0	20	1	20	2	20	3	20	4	
3	23	42	46	23	0	23	1	23	5	23	3	23	4	
7	41	37	2	31	3	43	21	41	0	41	1	41	5	41	3	41	4	
4	44	28	16	9	44	0	44	1	44	2	44	3	44	4	
2	47	1	47	0	47	1	47	2	47	1	47	0	
7	34	37	49	18	16	28	29	34	0	34	1	34	2	34	5	34	4	
7	21	22	4	44	28	46	42	21	0	21	1	21	2	21	3	21	4	
5	8	13	25	19	44	8	0	8	1	8	2	8	1	8	0	
3	42	23	9	42	0	42	1	42	2	42	1	42	0	
2	28	44	28	0	28	1	28	5	28	3	28	4	
4	12	29	28	23	12	0	12	1	12	2	12	3	12	4	
6	46	42	24	45	49	37	46	0	46	1	46	2	46	3	46	4	
4	5	21	27	15	5	0	5	1	5	5	5	3	5	4	
6	23	24	45	49	13	11	23	0	23	1	23	2	23	5	23	4	
5	10	25	5	32	3	10	0	10	1	10	2	10	1	10	0	
7	0	48	38	6	22	21	27	0	0	0	1	0	5	0	3	0	4	
3	37	49	18	37	0	37	1	37	2	37	3	37	4	
5	27	21	5	25	10	27	0	27	1	27	2	27	5	27	4	
5	14	10	25	13	31	14	0	14	1	14	2	14	3	14	4	
6	45	49	13	25	10	14	45	0	45	1	45	5	45	3	45	4	
7	35	10	25	13	49	45	30	35	0	35	1	35	2	35	1	35	0	
4	38	39	22	4	38	0	38	1	38	2	38	3	38	4	
3	22	39	35	22	0	22	1	22	5	22	3	22	4	
2	28	16	28	0	28	1	28	2	28	5	28	4	
5	49	13	25	5	21	49	0	49	1	49	2	49	1	49	0	
3	5	4	44	5	0	5	1	5	2	5	3	5	4	
6	39	38	48	0	46	42	39	0	39	1	39	2	39	3	39	4	
2	3	20	3	0	3	1	3	2	3	1	3	0	
4	6	38	48	14	6	0	6	1	6	2	6	3	6	4	
8	27	43	3	11	13	49	45	47	27	0	27	1	27	5	27	3	27	4	
8	30	45	49	18	25	10	35	39	30	0	30	1	30	2	30	3	30	4	
6	17	30	45	49	13	31	17	0	17	1	17	2	17	1	17	0	
8	48	14	10	25	18	49	37	41	48	0	48	1	48	2	48	3	48	4	
3	4	44	10	4	0	4	1	4	5	4	3	4	4	
5	38	6	7	15	27	38	0	38	1	38	5	38	3	38	4	
7	44	19	18	49	37	34	40	44	0	44	1	44	2	44	5	44	4	
4	31	32	43	27	31	0	31	1	31	2	31	3	31	4	
7	15	27	21	5	4	44	28	15	0	15	1	15	5	15	3	15	4	
4	21	43	3	11	21	0	21	1	21	2	21	5	21	4	
7	42	24	45	49	37	41	40	42	0	42	1	42	2	42	1	42	0	
6	6	22	5	25	18	49	6	0	6	1	6	5	6	3	6	4	
9	26	34	37	2	31	32	43	27	15	26	0	26	1	26	2	26	5	26	4	
4	19	16	9	23	19	0	19	1	19	2	19	1	19	0	
7	9	16	19	44	4	35	39	9	0	9	1	9	5	9	3	9	4	
6	40	34	26	30	45	24	40	0	40	1	40	2	40	3	40	4	
6	43	32	5	25	10	14	43	0	43	1	43	5	43	3	43	4	
3	4	5	32	4	0	4	1	4	2	4	5	4	4	
2	20	43	20	0	20	1	20	5	20	3	20	4	
5	13	25	19	16	28	13	0	13	1	13	2	13	5	13	4	
4	47	45	30	26	47	0	47	1	47	2	47	5	47	4	
7	31	13	25	10	14	48	36	31	0	31	1	31	5	31	3	31	4	
6	32	5	22	39	38	48	32	0	32	1	32	2	32	5	32	4	
5	25	13	49	45	47	25	0	25	1	25	5	25	3	25	4	
5	9	16	19	44	4	9	0	9	1	9	2	9	3	9	4	
5	43	21	22	4	35	43	0	43	1	43	2	43	5	43	4	
6	36	48	14	10	44	19	36	0	36	1	36	5	36	3	36	4	
4	20	43	21	22	20	0	20	1	20	2	20	5	20	4	
3	23	28	44	23	0	23	1	23	2	23	1	23	0	
4	10	14	48	38	10	0	10	1	10	2	10	3	10	4	
3	13	31	32	13	0	13	1	13	5	13	3	13	4	
9	47	45	49	13	25	5	22	6	7	47	0	47	1	47	5	47	3	47	4	
4	34	37	2	31	34	0	34	1	34	2	34	3	34	4	
9	24	42	46	0	48	38	6	7	15	24	0	24	1	24	2	24	5	24	4	
6	8	13	49	45	24	42	8	0	8	1	8	5	8	3	8	4	
6	42	24	45	49	13	11	42	0	42	1	42	5	42	3	42	4	
6	48	14	10	25	13	8	48	0	48	1	48	2	48	5	48	4	
4	32	5	25	19	32	0	32	1	32	2	32	1	32	0	
9	7	6	38	48	0	46	42	24	17	7	0	7	1	7	2	7	5	7	4	
6	12	14	10	25	5	21	12	0	12	1	12	2	12	5	12	4	
4	18	49	1	34	18	0	18	1	18	5	18	3	18	4	
6	2	37	49	18	16	9	2	0	2	1	2	2	2	3	2	4	
5	5	25	13	49	1	5	0	5	1	5	2	5	1	5	0	
6	26	30	17	24	42	46	26	0	26	1	26	2	26	3	26	4	
5	0	48	14	10	25	0	0	0	1	0	2	0	1	0	0	
5	27	43	3	11	8	27	0	27	1	27	2	27	3	27	4	
5	30	26	34	37	2	30	0	30	1	30	2	30	1	30	0	
6	17	24	23	28	44	4	17	0	17	1	17	2	17	5	17	4	
4	35	4	44	28	35	0	35	1	35	5	35	3	35	4	
5	41	37	49	18	19	41	0	41	1	41	2	41	5	41	4	
3	25	13	8	25	0	25	1	25	2	25	1	25	0	
4	28	44	4	22	28	0	28	1	28	2	28	3	28	4	
5	5	4	44	28	46	5	0	5	1	5	2	5	5	5	4	
9	39	35	10	25	13	49	37	34	40	39	0	39	1	39	2	39	5	39	4	
3	16	18	49	16	0	16	1	16	2	16	1	16	0	
7	46	28	44	19	25	13	31	46	0	46	1	46	5	46	3	46	4	
6	6	22	5	25	13	8	6	0	6	1	6	2	6	5	6	4	
6	17	30	45	49	13	25	17	0	17	1	17	5	17	3	17	4	
5	23	24	45	49	13	23	0	23	1	23	2	23	1	23	0	
2	10	25	10	0	10	1	10	2	10	5	10	4	
8	41	37	49	13	25	10	14	48	41	0	41	1	41	2	41	1	41	0	
3	44	28	46	44	0	44	1	44	2	44	3	44	4	
4	28	16	18	49	28	0	28	1	28	5	28	3	28	4	
9	48	14	10	25	18	49	37	34	40	48	0	48	1	48	2	48	3	48	4	
3	18	25	5	18	0	18	1	18	2	18	1	18	0	
4	21	5	25	13	21	0	21	1	21	2	21	3	21	4	
3	11	13	49	11	0	11	1	11	2	11	5	11	4	
6	45	49	13	31	3	20	45	0	45	1	45	2	45	3	45	4	
7	38	39	22	5	32	31	2	38	0	38	1	38	5	38	3	38	4	
7	22	5	25	18	49	37	41	22	0	22	1	22	2	22	3	22	4	
2	9	33	9	0	9	1	9	2	9	1	9	0	
8	40	41	37	2	31	32	5	22	40	0	40	1	40	2	40	5	40	4	
7	43	32	5	25	10	14	12	43	0	43	1	43	2	43	1	43	0	
5	46	0	48	38	6	46	0	46	1	46	2	46	3	46	4	
2	33	24	33	0	33	1	33	5	33	3	33	4	
6	20	3	31	2	37	41	20	0	20	1	20	2	20	1	20	0	
4	23	24	45	49	23	0	23	1	23	2	23	3	23	4	
4	13	49	45	30	13	0	13	1	13	2	13	3	13	4	
3	47	45	24	47	0	47	1	47	2	47	3	47	4	
5	37	49	18	19	44	37	0	37	1	37	2	37	5	37	4	
7	27	43	32	31	2	37	41	27	0	27	1	27	2	27	5	27	4	
4	11	13	25	18	11	0	11	1	11	2	11	1	11	0	
5	4	44	10	14	12	4	0	4	1	4	2	4	5	4	4	
5	25	13	49	37	41	25	0	25	1	25	2	25	1	25	0	
7	9	16	19	44	4	22	6	9	0	9	1	9	2	9	5	9	4	
7	31	13	25	10	14	12	29	31	0	31	1	31	5	31	3	31	4	
4	15	27	21	22	15	0	15	1	15	2	15	3	15	4	
7	36	48	0	46	42	24	17	36	0	36	1	36	2	36	1	36	0	
7	39	35	10	44	28	16	9	39	0	39	1	39	2	39	3	39	4	
7	26	34	37	2	31	32	5	26	0	26	1	26	5	26	3	26	4	
4	13	49	1	34	13	0	13	1	13	2	13	1	13	0	
4	6	22	21	43	6	0	6	1	6	2	6	3	6	4	
5	37	49	18	16	9	37	0	37	1	37	5	37	3	37	4	
4	24	45	49	13	24	0	24	1	24	2	24	3	24	4	
2	27	21	27	0	27	1	27	2	27	1	27	0	
4	48	38	39	22	48	0	48	1	48	2	48	3	48	4	
7	4	44	19	18	49	1	47	4	0	4	1	4	2	4	1	4	0	
7	7	6	22	4	44	28	23	7	0	7	1	7	2	7	3	7	4	
7	38	48	0	46	42	24	45	38	0	38	1	38	2	38	1	38	0	
6	18	25	10	14	48	36	18	0	18	1	18	2	18	1	18	0	
3	2	8	11	2	0	2	1	2	2	2	5	2	4	
6	26	34	37	2	31	32	26	0	26	1	26	2	26	5	26	4	
2	16	28	16	0	16	1	16	2	16	3	16	4	
4	3	43	27	15	3	0	3	1	3	2	3	5	3	4	
5	3	31	2	37	41	3	0	3	1	3	2	3	5	3	4	
6	43	32	31	13	49	45	43	0	43	1	43	2	43	1	43	0	
5	30	45	24	23	28	30	0	30	1	30	5	30	3	30	4	
8	17	24	42	46	0	48	38	6	17	0	17	1	17	2	17	3	17	4	
4	20	3	11	8	20	0	20	1	20	2	20	1	20	0	
5	23	28	44	4	22	23	0	23	1	23	2	23	5	23	4	
4	7	6	38	48	7	0	7	1	7	5	7	3	7	4	
4	41	37	49	45	41	0	41	1	41	2	41	3	41	4	
2	25	10	25	0	25	1	25	5	25	3	25	4	
7	8	13	25	10	14	48	36	8	0	8	1	8	2	8	5	8	4	
5	42	24	45	49	1	42	0	42	1	42	2	42	3	42	4	
6	1	49	18	25	10	35	1	0	1	1	1	5	1	3	1	4	
5	2	37	49	45	47	2	0	2	1	2	2	2	5	2	4	
4	19	44	28	46	19	0	19	1	19	2	19	3	19	4	
6	12	14	10	25	13	31	12	0	12	1	12	5	12	3	12	4	
3	46	0	29	46	0	46	1	46	5	46	3	46	4	
5	10	25	5	21	27	10	0	10	1	10	2	10	3	10	4	
3	13	11	3	13	0	13	1	13	2	13	1	13	0	
8	0	29	28	44	4	5	32	3	0	0	0	1	0	2	0	5	0	4	
6	18	25	5	22	6	7	18	0	18	1	18	5	18	3	18	4	
4	24	23	28	44	24	0	24	1	24	2	24	5	24	4	
7	8	11	3	43	27	15	7	8	0	8	1	8	2	8	1	8	0	
4	32	5	25	18	32	0	32	1	32	5	32	3	32	4	
6	45	49	13	25	5	22	45	0	45	1	45	2	45	5	45	4	
2	34	40	34	0	34	1	34	5	34	3	34	4	
3	35	39	22	35	0	35	1	35	2	35	3	35	4	
4	38	48	14	12	38	0	38	1	38	2	38	1	38	0	
3	22	21	43	22	0	22	1	22	2	22	5	22	4	
3	28	23	24	28	0	28	1	28	5	28	3	28	4	
4	12	14	10	35	12	0	12	1	12	2	12	3	12	4	
6	2	37	49	45	24	42	2	0	2	1	2	2	2	3	2	4	
5	33	24	45	30	26	33	0	33	1	33	2	33	1	33	0	
3	0	48	38	0	0	0	1	0	5	0	3	0	4	
5	3	32	5	4	44	3	0	3	1	3	2	3	3	3	4	
2	6	22	6	0	6	1	6	2	6	1	6	0	
6	37	49	18	16	28	46	37	0	37	1	37	2	37	3	37	4	
5	11	13	25	19	16	11	0	11	1	11	5	11	3	11	4	
8	17	24	42	46	0	48	38	39	17	0	17	1	17	2	17	5	17	4	
7	1	49	18	25	10	14	12	1	0	1	1	1	2	1	1	1	0	
5	4	5	32	31	2	4	0	4	1	4	2	4	3	4	4	
4	44	10	14	48	44	0	44	1	44	5	44	3	44	4	
4	31	13	25	19	31	0	31	1	31	2	31	1	31	0	
4	15	27	43	20	15	0	15	1	15	2	15	5	15	4	
3	21	43	3	21	0	21	1	21	5	21	3	21	4	
5	39	38	6	7	15	39	0	39	1	39	2	39	5	39	4	
10	26	34	37	2	31	32	43	27	15	7	26	0	26	1	26	2	26	1	26	0	
7	29	28	44	4	5	32	31	29	0	29	1	29	2	29	3	29	4	
7	16	18	25	5	22	6	7	16	0	16	1	16	5	16	3	16	4	
6	40	41	37	49	18	16	40	0	40	1	40	2	40	1	40	0	
3	43	21	22	43	0	43	1	43	2	43	5	43	4	
5	27	21	5	25	19	27	0	27	1	27	5	27	3	27	4	
6	20	43	32	5	4	35	20	0	20	1	20	2	20	5	20	4	
6	4	44	19	18	49	45	4	0	4	1	4	5	4	3	4	4	
8	38	48	0	46	42	24	45	47	38	0	38	1	38	5	38	3	38	4	
6	16	18	49	45	30	26	16	0	16	1	16	2	16	5	16	4	
4	22	4	44	10	22	0	22	1	22	2	22	3	22	4	
3	9	16	28	9	0	9	1	9	5	9	3	9	4	
7	20	3	11	13	25	10	14	20	0	20	1	20	5	20	3	20	4	
8	23	28	44	4	5	32	43	20	23	0	23	1	23	2	23	3	23	4	
5	13	49	37	41	40	13	0	13	1	13	2	13	5	13	4	
3	44	28	23	44	0	44	1	44	2	44	1	44	0	
7	37	2	31	32	43	27	15	37	0	37	1	37	2	37	5	37	4	
5	21	22	39	38	36	21	0	21	1	21	2	21	1	21	0	
4	8	2	37	34	8	0	8	1	8	2	8	3	8	4	
7	42	24	45	49	13	11	3	42	0	42	1	42	2	42	5	42	4	
3	1	49	45	1	0	1	1	1	2	1	1	1	0	
3	32	43	27	32	0	32	1	32	2	32	3	32	4	
5	7	6	22	5	25	7	0	7	1	7	5	7	3	7	4	
2	19	44	19	0	19	1	19	2	19	5	19	4	
4	21	22	6	7	21	0	21	1	21	5	21	3	21	4	
2	12	29	12	0	12	1	12	2	12	1	12	0	
7	46	28	44	19	25	13	31	46	0	46	1	46	2	46	1	46	0	
7	4	44	19	18	49	1	47	4	0	4	1	4	5	4	3	4	4	
8	33	24	42	46	0	48	38	39	33	0	33	1	33	2	33	3	33	4	
8	36	48	0	46	42	24	45	47	36	0	36	1	36	5	36	3	36	4	
9	26	30	17	24	42	46	0	48	38	26	0	26	1	26	2	26	1	26	0	
6	29	28	44	4	5	32	29	0	29	1	29	2	29	5	29	4	
3	13	25	5	13	0	13	1	13	5	13	3	13	4	
7	0	46	42	24	45	47	1	0	0	0	1	0	2	0	3	0	4	
7	3	32	5	25	19	16	9	3	0	3	1	3	2	3	1	3	0	
2	24	42	24	0	24	1	24	2	24	3	24	4	
4	8	13	25	5	8	0	8	1	8	5	8	3	8	4	
2	30	26	30	0	30	1	30	2	30	5	30	4	
7	14	12	29	28	23	24	17	14	0	14	1	14	2	14	1	14	0	
6	35	4	5	32	43	20	35	0	35	1	35	2	35	5	35	4	
6	41	37	2	31	3	43	41	0	41	1	41	5	41	3	41	4	
5	25	10	14	48	0	25	0	25	1	25	2	25	3	25	4	
5	28	23	24	17	30	28	0	28	1	28	2	28	1	28	0	
6	12	29	28	23	24	33	12	0	12	1	12	2	12	5	12	4	
3	49	13	31	49	0	49	1	49	2	49	3	49	4	
4	5	22	39	38	5	0	5	1	5	2	5	1	5	0	
4	36	48	14	10	36	0	36	1	36	2	36	5	36	4	
3	39	38	48	39	0	39	1	39	2	39	1	39	0	
5	2	37	49	18	19	2	0	2	1	2	5	2	3	2	4	
6	6	22	5	25	19	16	6	0	6	1	6	5	6	3	6	4	
6	40	41	37	2	31	11	40	0	40	1	40	2	40	5	40	4	
3	17	24	33	17	0	17	1	17	2	17	3	17	4	
6	1	49	18	25	10	14	1	0	1	1	1	5	1	3	1	4	
3	18	49	13	18	0	18	1	18	2	18	3	18	4	
2	21	5	21	0	21	1	21	2	21	1	21	0	
6	42	24	45	49	37	34	42	0	42	1	42	2	42	3	42	4	
6	1	49	45	24	42	46	1	0	1	1	1	2	1	5	1	4	
6	29	28	16	18	49	1	29	0	29	1	29	2	29	5	29	4	
4	16	18	25	5	16	0	16	1	16	2	16	1	16	0	
3	19	25	13	19	0	19	1	19	2	19	3	19	4	
7	22	4	44	28	23	24	17	22	0	22	1	22	5	22	3	22	4	
8	40	34	26	30	45	24	42	46	40	0	40	1	40	5	40	3	40	4	
2	43	20	43	0	43	1	43	2	43	3	43	4	
5	33	24	42	46	0	33	0	33	1	33	2	33	5	33	4	
8	20	3	11	13	49	45	24	33	20	0	20	1	20	2	20	3	20	4	
4	35	39	38	48	35	0	35	1	35	2	35	5	35	4	
7	41	37	49	13	25	5	4	41	0	41	1	41	2	41	1	41	0	
7	0	29	28	44	4	5	32	0	0	0	1	0	2	0	5	0	4	
6	34	1	47	45	24	42	34	0	34	1	34	2	34	5	34	4	
6	11	13	49	45	30	26	11	0	11	1	11	2	11	3	11	4	
2	14	48	14	0	14	1	14	2	14	1	14	0	
5	32	5	22	39	38	32	0	32	1	32	2	32	1	32	0	
5	9	33	24	45	30	9	0	9	1	9	2	9	1	9	0	
3	12	29	0	12	0	12	1	12	2	12	3	12	4	
6	15	7	6	38	48	14	15	0	15	1	15	5	15	3	15	4	
8	39	35	10	44	28	23	24	17	39	0	39	1	39	2	39	1	39	0	
3	10	14	48	10	0	10	1	10	5	10	3	10	4	
5	13	49	45	24	42	13	0	13	1	13	2	13	3	13	4	
4	44	4	22	21	44	0	44	1	44	5	44	3	44	4	
6	34	37	49	18	16	9	34	0	34	1	34	2	34	1	34	0	
3	37	49	1	37	0	37	1	37	2	37	3	37	4	
4	21	22	39	38	21	0	21	1	21	5	21	3	21	4	
7	27	21	22	4	44	28	29	27	0	27	1	27	2	27	5	27	4	
7	11	13	25	10	35	39	38	11	0	11	1	11	2	11	1	11	0	
7	48	0	46	42	24	45	30	48	0	48	1	48	2	48	1	48	0	
3	4	22	39	4	0	4	1	4	2	4	3	4	4	
6	7	15	27	43	32	31	7	0	7	1	7	2	7	1	7	0	
4	16	18	25	5	16	0	16	1	16	5	16	3	16	4	
5	25	19	44	28	29	25	0	25	1	25	2	25	1	25	0	
3	15	27	43	15	0	15	1	15	2	15	5	15	4	
5	49	18	19	44	4	49	0	49	1	49	5	49	3	49	4	
3	5	21	27	5	0	5	1	5	2	5	3	5	4	
7	36	48	0	46	42	24	45	36	0	36	1	36	2	36	1	36	0	
8	7	6	22	5	25	13	49	45	7	0	7	1	7	5	7	3	7	4	
7	29	28	16	18	49	37	34	29	0	29	1	29	2	29	3	29	4	
6	16	28	46	0	48	36	16	0	16	1	16	2	16	1	16	0	
5	3	43	27	15	7	3	0	3	1	3	5	3	3	3	4	
7	30	45	49	13	31	3	20	30	0	30	1	30	2	30	3	30	4	
4	14	10	25	19	14	0	14	1	14	5	14	3	14	4	
8	20	43	21	22	6	38	48	0	20	0	20	1	20	2	20	5	20	4	
2	41	37	41	0	41	1	41	2	41	1	41	0	
4	25	13	31	2	25	0	25	1	25	2	25	5	25	4	
4	31	13	25	10	31	0	31	1	31	2	31	3	31	4	
3	49	13	25	49	0	49	1	49	2	49	5	49	4	
6	42	46	28	44	19	25	42	0	42	1	42	5	42	3	42	4	
6	26	30	17	24	23	28	26	0	26	1	26	2	26	5	26	4	
6	19	44	4	35	39	38	19	0	19	1	19	5	19	3	19	4	
7	40	41	37	49	18	16	9	40	0	40	1	40	2	40	3	40	4	
6	46	28	44	4	22	21	46	0	46	1	46	2	46	5	46	4	
2	13	11	13	0	13	1	13	2	13	5	13	4	
6	18	25	5	21	27	15	18	0	18	1	18	2	18	5	18	4	
6	24	42	46	0	48	36	24	0	24	1	24	5	24	3	24	4	
3	8	13	31	8	0	8	1	8	2	8	3	8	4	
6	11	3	43	27	15	7	11	0	11	1	11	2	11	1	11	0	
5	42	46	0	48	36	42	0	42	1	42	2	42	5	42	4	
2	45	30	45	0	45	1	45	2	45	1	45	0	
5	1	49	45	24	23	1	0	1	1	1	5	1	3	1	4	
4	19	25	13	11	19	0	19	1	19	2	19	5	19	4	
4	22	4	44	19	22	0	22	1	22	2	22	1	22	0	
7	12	14	10	25	5	21	43	12	0	12	1	12	5	12	3	12	4	
6	33	24	45	49	37	2	33	0	33	1	33	2	33	3	33	4	
4	36	48	14	12	36	0	36	1	36	2	36	1	36	0	
8	41	37	49	13	25	5	22	6	41	0	41	1	41	5	41	3	41	4	
2	0	46	0	0	0	1	0	2	0	3	0	4	
7	47	45	49	13	25	5	22	47	0	47	1	47	2	47	1	47	0	
6	34	37	49	18	19	44	34	0	34	1	34	2	34	3	34	4	
5	11	13	49	45	24	11	0	11	1	11	2	11	5	11	4	
4	17	30	45	47	17	0	17	1	17	5	17	3	17	4	
8	4	44	19	18	49	37	34	26	4	0	4	1	4	2	4	1	4	0	
6	35	4	44	28	46	42	35	0	35	1	35	2	35	3	35	4	
3	25	10	35	25	0	25	1	25	2	25	3	25	4	
4	28	44	10	35	28	0	28	1	28	5	28	3	28	4	
5	12	14	48	38	6	12	0	12	1	12	2	12	5	12	4	
7	15	7	6	38	48	14	12	15	0	15	1	15	2	15	1	15	0	
5	2	31	32	5	22	2	0	2	1	2	2	2	3	2	4	
6	39	35	10	44	28	23	39	0	39	1	39	5	39	3	39	4	
6	29	0	48	38	6	7	29	0	29	1	29	2	29	1	29	0	
7	16	18	25	5	21	27	15	16	0	16	1	16	2	16	5	16	4	
5	34	37	2	31	11	34	0	34	1	34	5	34	3	34	4	
6	24	45	49	13	31	3	24	0	24	1	24	2	24	1	24	0	
7	11	13	25	10	14	48	36	11	0	11	1	11	5	11	3	11	4	
6	4	44	19	18	49	37	4	0	4	1	4	2	4	5	4	4	
8	1	49	18	25	5	22	6	38	1	0	1	1	1	5	1	3	1	4	
4	18	16	28	46	18	0	18	1	18	2	18	3	18	4	
6	49	13	25	5	22	6	49	0	49	1	49	2	49	1	49	0	
5	5	4	44	28	29	5	0	5	1	5	2	5	5	5	4	
5	16	18	49	37	34	16	0	16	1	16	5	16	3	16	4	
8	9	16	18	49	13	31	3	20	9	0	9	1	9	2	9	5	9	4	
6	17	30	45	49	13	8	17	0	17	1	17	2	17	1	17	0	
5	20	43	21	22	6	20	0	20	1	20	2	20	3	20	4	
5	44	10	25	13	31	44	0	44	1	44	2	44	3	44	4	
3	31	2	8	31	0	31	1	31	2	31	5	31	4	
8	37	2	31	32	5	22	6	7	37	0	37	1	37	5	37	3	37	4	
5	21	22	4	44	28	21	0	21	1	21	2	21	3	21	4	
8	42	46	28	44	4	5	21	27	42	0	42	1	42	2	42	1	42	0	
5	45	49	13	31	3	45	0	45	1	45	2	45	3	45	4	
2	32	3	32	0	32	1	32	5	32	3	32	4	
6	19	44	10	14	48	36	19	0	19	1	19	2	19	1	19	0	
8	15	27	43	32	31	13	49	45	15	0	15	1	15	2	15	1	15	0	
3	46	42	23	46	0	46	1	46	2	46	3	46	4	
4	33	24	45	47	33	0	33	1	33	2	33	1	33	0	
3	36	38	39	36	0	36	1	36	2	36	5	36	4	
6	34	37	2	31	32	43	34	0	34	1	34	5	34	3	34	4	
4	10	25	5	21	10	0	10	1	10	2	10	1	10	0	
7	47	45	49	13	31	3	43	47	0	47	1	47	2	47	3	47	4	
5	24	45	49	37	34	24	0	24	1	24	2	24	1	24	0	
7	8	13	25	19	44	28	29	8	0	8	1	8	2	8	5	8	4	
4	30	45	49	18	30	0	30	1	30	5	30	3	30	4	
6	14	12	29	28	23	9	14	0	14	1	14	2	14	3	14	4	
5	1	34	26	30	17	1	0	1	1	1	2	1	1	1	0	
3	38	39	22	38	0	38	1	38	2	38	3	38	4	
8	12	29	28	16	18	49	37	41	12	0	12	1	12	2	12	1	12	0	
8	36	48	14	10	25	13	8	2	36	0	36	1	36	5	36	3	36	4	
5	26	34	1	49	18	26	0	26	1	26	2	26	1	26	0	
6	49	13	25	10	35	39	49	0	49	1	49	2	49	5	49	4	
7	6	38	48	0	46	42	24	6	0	6	1	6	2	6	3	6	4	
3	24	45	30	24	0	24	1	24	2	24	3	24	4	
3	30	45	49	30	0	30	1	30	2	30	3	30	4	
5	17	30	26	34	41	17	0	17	1	17	2	17	1	17	0	
4	48	38	6	7	48	0	48	1	48	2	48	3	48	4	
2	7	6	7	0	7	1	7	2	7	3	7	4	
4	28	23	24	33	28	0	28	1	28	2	28	1	28	0	
4	31	2	37	41	31	0	31	1	31	2	31	3	31	4	
4	18	25	5	21	18	0	18	1	18	5	18	3	18	4	
5	49	13	25	10	35	49	0	49	1	49	2	49	3	49	4	
7	45	24	42	46	0	48	36	45	0	45	1	45	2	45	5	45	4	
4	29	28	23	9	29	0	29	1	29	5	29	3	29	4	
4	48	0	46	28	48	0	48	1	48	5	48	3	48	4	
4	16	18	49	13	16	0	16	1	16	2	16	3	16	4	
3	19	25	5	19	0	19	1	19	2	19	1	19	0	
3	22	5	25	22	0	22	1	22	2	22	5	22	4	
10	40	41	37	2	31	32	5	22	6	38	40	0	40	1	40	2	40	3	40	4	
4	24	45	49	1	24	0	24	1	24	5	24	3	24	4	
4	30	45	49	13	30	0	30	1	30	2	30	1	30	0	
3	23	24	33	23	0	23	1	23	2	23	5	23	4	
6	41	37	49	18	16	28	41	0	41	1	41	2	41	3	41	4	
6	7	6	38	48	0	29	7	0	7	1	7	5	7	3	7	4	
6	44	10	25	13	8	2	44	0	44	1	44	2	44	1	44	0	
4	34	37	49	18	34	0	34	1	34	5	34	3	34	4	
5	18	25	10	14	48	18	0	18	1	18	2	18	5	18	4	
5	21	5	25	13	49	21	0	21	1	21	2	21	1	21	0	
6	9	16	19	44	4	22	9	0	9	1	9	2	9	3	9	4	
6	12	14	10	25	13	8	12	0	12	1	12	2	12	1	12	0	
3	15	7	6	15	0	15	1	15	2	15	5	15	4	
6	17	24	23	28	44	10	17	0	17	1	17	5	17	3	17	4	
4	39	35	10	25	39	0	39	1	39	2	39	5	39	4	
6	23	24	45	49	37	2	23	0	23	1	23	2	23	1	23	0	
4	10	25	13	8	10	0	10	1	10	2	10	3	10	4	
3	44	28	29	44	0	44	1	44	2	44	5	44	4	
8	0	48	38	6	22	21	43	20	0	0	0	1	0	2	0	5	0	4	
4	37	49	13	25	37	0	37	1	37	2	37	1	37	0	
7	21	5	25	13	49	45	30	21	0	21	1	21	2	21	5	21	4	
3	27	21	5	27	0	27	1	27	5	27	3	27	4	
7	11	13	49	45	24	42	46	11	0	11	1	11	2	11	3	11	4	
5	45	49	13	25	5	45	0	45	1	45	2	45	5	45	4	
5	32	31	13	49	1	32	0	32	1	32	2	32	1	32	0	
6	35	10	25	19	16	9	35	0	35	1	35	2	35	3	35	4	
6	15	7	6	38	39	35	15	0	15	1	15	5	15	3	15	4	
6	49	13	25	10	14	12	49	0	49	1	49	2	49	5	49	4	
3	5	25	19	5	0	5	1	5	2	5	1	5	0	
8	36	48	14	10	25	18	49	37	36	0	36	1	36	2	36	3	36	4	
4	10	44	28	23	10	0	10	1	10	5	10	3	10	4	
3	16	28	44	16	0	16	1	16	2	16	5	16	4	
2	3	31	3	0	3	1	3	2	3	3	3	4	
5	27	21	22	39	38	27	0	27	1	27	2	27	3	27	4	
6	30	45	49	18	19	44	30	0	30	1	30	2	30	1	30	0	
5	14	10	25	13	11	14	0	14	1	14	2	14	5	14	4	
8	48	14	10	25	18	49	37	34	48	0	48	1	48	2	48	1	48	0	
6	38	48	0	46	28	16	38	0	38	1	38	2	38	5	38	4	
3	28	44	4	28	0	28	1	28	2	28	3	28	4	
2	31	2	31	0	31	1	31	5	31	3	31	4	
3	42	24	17	42	0	42	1	42	2	42	5	42	4	
7	26	34	37	2	31	3	20	26	0	26	1	26	5	26	3	26	4	
5	19	18	49	45	30	19	0	19	1	19	2	19	5	19	4	
2	3	32	3	0	3	1	3	5	3	3	3	4	
6	33	24	45	30	26	34	33	0	33	1	33	2	33	5	33	4	
5	48	38	39	22	5	48	0	48	1	48	2	48	5	48	4	
4	7	6	22	4	7	0	7	1	7	2	7	5	7	4	
3	13	25	19	13	0	13	1	13	5	13	3	13	4	
2	47	45	47	0	47	1	47	5	47	3	47	4	
5	31	13	49	45	47	31	0	31	1	31	2	31	5	31	4	
4	18	16	28	23	18	0	18	1	18	2	18	1	18	0	
2	49	45	49	0	49	1	49	2	49	5	49	4	
6	8	13	49	45	24	23	8	0	8	1	8	5	8	3	8	4	
7	45	24	42	46	0	48	38	45	0	45	1	45	2	45	3	45	4	
5	19	25	5	32	3	19	0	19	1	19	5	19	3	19	4	
3	22	21	27	22	0	22	1	22	2	22	3	22	4	
8	47	45	49	13	25	5	21	27	47	0	47	1	47	2	47	5	47	4	
7	43	32	31	2	37	34	26	43	0	43	1	43	2	43	1	43	0	
9	30	45	49	18	25	5	21	27	15	30	0	30	1	30	5	30	3	30	4	
5	36	38	39	22	4	36	0	36	1	36	2	36	5	36	4	
3	20	3	31	20	0	20	1	20	2	20	1	20	0	
6	23	28	44	10	35	39	23	0	23	1	23	2	23	3	23	4	
4	41	34	26	30	41	0	41	1	41	2	41	5	41	4	
7	47	45	49	13	25	10	14	47	0	47	1	47	2	47	3	47	4	
6	34	37	2	31	3	20	34	0	34	1	34	2	34	1	34	0	
5	14	48	0	46	42	14	0	14	1	14	2	14	3	14	4	
4	32	5	4	44	32	0	32	1	32	2	32	3	32	4	
7	35	10	25	13	49	37	34	35	0	35	1	35	5	35	3	35	4	
6	28	44	4	22	21	43	28	0	28	1	28	2	28	5	28	4	
4	36	48	14	12	36	0	36	1	36	2	36	5	36	4	
2	12	14	12	0	12	1	12	5	12	3	12	4	
5	15	27	21	5	4	15	0	15	1	15	2	15	3	15	4	
5	2	37	34	26	30	2	0	2	1	2	2	2	1	2	0	
4	5	25	13	8	5	0	5	1	5	2	5	5	5	4	
5	39	22	5	32	31	39	0	39	1	39	2	39	3	39	4	
4	23	42	46	0	23	0	23	1	23	5	23	3	23	4	
7	29	0	48	38	6	7	15	29	0	29	1	29	2	29	5	29	4	
5	0	29	28	16	18	0	0	0	1	0	2	0	3	0	4	
6	40	41	37	2	31	32	40	0	40	1	40	5	40	3	40	4	
3	27	43	3	27	0	27	1	27	2	27	1	27	0	
5	11	13	25	19	44	11	0	11	1	11	2	11	5	11	4	
8	7	15	27	43	32	31	2	37	7	0	7	1	7	2	7	3	7	4	
5	25	19	44	28	23	25	0	25	1	25	2	25	3	25	4	
5	49	13	25	10	14	49	0	49	1	49	2	49	3	49	4	
2	5	21	5	0	5	1	5	5	5	3	5	4	
2	39	35	39	0	39	1	39	5	39	3	39	4	
3	29	28	44	29	0	29	1	29	2	29	1	29	0	
4	16	28	46	42	16	0	16	1	16	2	16	3	16	4	
7	6	22	5	25	18	49	1	6	0	6	1	6	2	6	1	6	0	
6	27	21	22	39	38	36	27	0	27	1	27	2	27	5	27	4	
5	17	24	23	28	16	17	0	17	1	17	2	17	3	17	4	
8	6	22	5	25	18	49	45	30	6	0	6	1	6	5	6	3	6	4	
2	10	14	10	0	10	1	10	5	10	3	10	4	
4	44	4	22	39	44	0	44	1	44	5	44	3	44	4	
3	28	44	10	28	0	28	1	28	2	28	5	28	4	
7	31	13	25	10	14	48	0	31	0	31	1	31	2	31	1	31	0	
3	21	43	20	21	0	21	1	21	5	21	3	21	4	
5	42	46	28	44	19	42	0	42	1	42	2	42	3	42	4	
4	45	49	13	11	45	0	45	1	45	2	45	1	45	0	
3	32	31	11	32	0	32	1	32	2	32	5	32	4	
3	19	44	28	19	0	19	1	19	2	19	3	19	4	
3	22	39	38	22	0	22	1	22	2	22	1	22	0	
7	9	16	18	49	37	41	40	9	0	9	1	9	2	9	5	9	4	
5	40	41	37	2	31	40	0	40	1	40	2	40	1	40	0	
4	43	27	15	7	43	0	43	1	43	2	43	3	43	4	
3	33	24	23	33	0	33	1	33	2	33	5	33	4	
4	13	25	5	21	13	0	13	1	13	2	13	1	13	0	
7	47	45	49	13	25	10	35	47	0	47	1	47	2	47	1	47	0	
5	8	11	3	43	21	8	0	8	1	8	2	8	1	8	0	
2	11	13	11	0	11	1	11	2	11	3	11	4	
6	14	10	25	18	49	1	14	0	14	1	14	5	14	3	14	4	
8	38	48	0	46	42	24	17	30	38	0	38	1	38	2	38	1	38	0	
4	25	10	14	48	25	0	25	1	25	2	25	5	25	4	
5	9	16	18	49	13	9	0	9	1	9	5	9	3	9	4	
6	12	29	28	16	18	49	12	0	12	1	12	2	12	3	12	4	
7	43	32	31	13	49	45	24	43	0	43	1	43	5	43	3	43	4	
5	15	27	21	5	25	15	0	15	1	15	2	15	1	15	0	
9	36	48	0	46	42	24	17	30	26	36	0	36	1	36	2	36	3	36	4	
8	20	43	32	5	4	44	28	29	20	0	20	1	20	5	20	3	20	4	
7	26	34	1	49	13	25	10	26	0	26	1	26	2	26	5	26	4	
6	10	44	28	23	24	33	10	0	10	1	10	2	10	1	10	0	
7	47	45	24	23	28	29	12	47	0	47	1	47	2	47	5	47	4	
4	6	22	5	32	6	0	6	1	6	2	6	1	6	0	
7	37	49	13	25	10	14	48	37	0	37	1	37	2	37	3	37	4	
6	24	23	28	44	4	22	24	0	24	1	24	2	24	1	24	0	
3	14	48	36	14	0	14	1	14	2	14	5	14	4	
5	48	38	6	7	15	48	0	48	1	48	5	48	3	48	4	
7	32	31	13	49	45	24	42	32	0	32	1	32	2	32	5	32	4	
4	35	4	5	32	35	0	35	1	35	2	35	1	35	0	
6	28	16	18	49	37	41	28	0	28	1	28	2	28	3	28	4	
6	31	13	49	45	24	33	31	0	31	1	31	2	31	1	31	0	
4	18	16	28	29	18	0	18	1	18	2	18	5	18	4	
5	49	13	31	3	43	49	0	49	1	49	2	49	1	49	0	
3	5	25	10	5	0	5	1	5	2	5	3	5	4	
3	26	34	41	26	0	26	1	26	2	26	1	26	0	
5	29	28	16	18	49	29	0	29	1	29	2	29	3	29	4	
4	32	31	2	37	32	0	32	1	32	2	32	5	32	4	
6	30	45	49	18	25	5	30	0	30	1	30	2	30	3	30	4	
6	23	24	45	49	37	41	23	0	23	1	23	5	23	3	23	4	
4	7	15	27	43	7	0	7	1	7	2	7	5	7	4	
6	41	37	2	31	3	20	41	0	41	1	41	5	41	3	41	4	
6	25	13	49	45	30	17	25	0	25	1	25	2	25	5	25	4	
3	29	28	46	29	0	29	1	29	5	29	3	29	4	
5	6	22	21	43	3	6	0	6	1	6	5	6	3	6	4	
4	12	29	28	16	12	0	12	1	12	2	12	5	12	4	
2	46	42	46	0	46	1	46	2	46	5	46	4	
5	17	30	45	49	18	17	0	17	1	17	2	17	5	17	4	
4	23	28	44	10	23	0	23	1	23	2	23	3	23	4	
4	10	14	48	0	10	0	10	1	10	2	10	1	10	0	
6	1	49	13	31	32	43	1	0	1	1	1	2	1	5	1	4	
5	44	19	18	49	37	44	0	44	1	44	2	44	1	44	0	
3	0	29	28	0	0	0	1	0	5	0	3	0	4	
2	21	22	21	0	21	1	21	2	21	1	21	0	
6	8	13	25	10	14	48	8	0	8	1	8	2	8	3	8	4	
3	45	49	13	45	0	45	1	45	5	45	3	45	4	
6	32	5	25	19	16	9	32	0	32	1	32	2	32	3	32	4	
3	35	4	44	35	0	35	1	35	5	35	3	35	4	
6	35	10	25	13	49	1	35	0	35	1	35	2	35	1	35	0	
4	38	39	22	5	38	0	38	1	38	2	38	5	38	4	
4	49	13	31	32	49	0	49	1	49	5	49	3	49	4	
3	22	5	32	22	0	22	1	22	5	22	3	22	4	
3	9	23	42	9	0	9	1	9	2	9	3	9	4	
8	40	41	37	49	18	16	28	29	40	0	40	1	40	5	40	3	40	4	
4	46	28	16	9	46	0	46	1	46	2	46	1	46	0	
3	33	24	17	33	0	33	1	33	2	33	3	33	4	
7	39	35	10	25	13	49	37	39	0	39	1	39	2	39	5	39	4	
7	3	32	5	4	44	28	23	3	0	3	1	3	2	3	1	3	0	
7	27	21	22	4	44	28	46	27	0	27	1	27	5	27	3	27	4	
6	14	10	25	13	11	3	14	0	14	1	14	2	14	1	14	0	
7	1	49	13	31	32	43	27	1	0	1	1	1	2	1	3	1	4	
6	48	38	6	7	15	27	48	0	48	1	48	2	48	5	48	4	
6	38	48	0	46	42	24	38	0	38	1	38	5	38	3	38	4	
3	28	29	12	28	0	28	1	28	2	28	1	28	0	
5	31	2	37	34	26	31	0	31	1	31	2	31	5	31	4	
5	15	27	43	32	31	15	0	15	1	15	5	15	3	15	4	
4	32	5	22	6	32	0	32	1	32	5	32	3	32	4	
3	39	38	6	39	0	39	1	39	2	39	1	39	0	
8	26	30	17	24	23	28	29	12	26	0	26	1	26	2	26	3	26	4	
2	10	35	10	0	10	1	10	5	10	3	10	4	
9	7	6	22	5	25	13	49	1	34	7	0	7	1	7	2	7	5	7	4	
6	43	32	31	13	49	1	43	0	43	1	43	5	43	3	43	4	
5	48	14	10	25	13	48	0	48	1	48	2	48	1	48	0	
2	4	22	4	0	4	1	4	2	4	5	4	4	
6	7	6	38	48	14	12	7	0	7	1	7	2	7	1	7	0	
2	38	36	38	0	38	1	38	2	38	5	38	4	
5	31	32	5	22	39	31	0	31	1	31	5	31	3	31	4	
4	18	49	13	31	18	0	18	1	18	2	18	3	18	4	
3	1	34	41	1	0	1	1	1	2	1	5	1	4	
2	16	19	16	0	16	1	16	2	16	1	16	0	
6	9	16	18	49	13	11	9	0	9	1	9	2	9	5	9	4	
6	43	32	31	2	37	34	43	0	43	1	43	2	43	3	43	4	
9	30	45	49	18	25	5	22	6	7	30	0	30	1	30	2	30	5	30	4	
5	36	48	0	29	28	36	0	36	1	36	5	36	3	36	4	
8	20	43	32	5	4	44	28	23	20	0	20	1	20	2	20	3	20	4	
4	23	24	45	47	23	0	23	1	23	2	23	1	23	0	
6	7	6	38	48	0	29	7	0	7	1	7	2	7	3	7	4	
7	41	37	49	13	25	5	22	41	0	41	1	41	2	41	1	41	0	
5	44	10	25	13	8	44	0	44	1	44	2	44	3	44	4	
8	47	45	49	13	25	5	22	6	47	0	47	1	47	5	47	3	47	4	
2	21	43	21	0	21	1	21	2	21	3	21	4	
4	8	11	3	43	8	0	8	1	8	5	8	3	8	4	
7	14	10	25	18	49	37	34	14	0	14	1	14	2	14	1	14	0	
8	1	49	18	25	10	14	48	36	1	0	1	1	1	2	1	5	1	4	
3	32	43	20	32	0	32	1	32	2	32	1	32	0	
6	12	14	48	38	6	22	12	0	12	1	12	2	12	3	12	4	
4	46	0	48	36	46	0	46	1	46	2	46	3	46	4	
6	23	24	45	49	13	8	23	0	23	1	23	2	23	5	23	4	
7	0	46	42	24	45	30	26	0	0	0	1	0	2	0	1	0	0	
4	37	49	18	19	37	0	37	1	37	2	37	3	37	4	
6	33	24	45	30	26	34	33	0	33	1	33	5	33	3	33	4	
5	8	13	25	10	14	8	0	8	1	8	2	8	5	8	4	
7	14	10	25	18	49	45	30	14	0	14	1	14	2	14	3	14	4	
8	7	6	22	5	25	13	49	45	7	0	7	1	7	2	7	1	7	0	
3	38	6	7	38	0	38	1	38	2	38	3	38	4	
5	25	5	21	27	15	25	0	25	1	25	2	25	1	25	0	
2	28	23	28	0	28	1	28	2	28	5	28	4	
2	2	37	2	0	2	1	2	2	2	1	2	0	
5	5	25	13	49	45	5	0	5	1	5	2	5	3	5	4	
4	39	22	21	43	39	0	39	1	39	2	39	3	39	4	
7	6	22	5	25	19	16	9	6	0	6	1	6	2	6	3	6	4	
5	27	21	22	4	44	27	0	27	1	27	2	27	1	27	0	
8	30	45	24	42	46	0	48	38	30	0	30	1	30	2	30	3	30	4	
4	4	22	21	27	4	0	4	1	4	2	4	5	4	4	
5	1	49	18	25	5	1	0	1	1	1	2	1	5	1	4	
5	4	44	28	16	9	4	0	4	1	4	2	4	1	4	0	
6	44	28	23	24	45	47	44	0	44	1	44	2	44	5	44	4	
5	31	13	49	45	24	31	0	31	1	31	2	31	3	31	4	
4	18	49	37	2	18	0	18	1	18	2	18	1	18	0	
6	21	5	25	10	14	12	21	0	21	1	21	2	21	5	21	4	
3	39	22	4	39	0	39	1	39	5	39	3	39	4	
4	45	49	18	19	45	0	45	1	45	2	45	5	45	4	
4	29	28	23	24	29	0	29	1	29	2	29	1	29	0	
5	22	4	44	28	46	22	0	22	1	22	2	22	5	22	4	
7	40	34	26	30	45	24	23	40	0	40	1	40	2	40	3	40	4	
3	43	27	15	43	0	43	1	43	2	43	1	43	0	
6	33	24	45	49	13	31	33	0	33	1	33	5	33	3	33	4	
8	20	3	11	13	49	45	24	42	20	0	20	1	20	2	20	1	20	0	
4	11	3	43	21	11	0	11	1	11	2	11	1	11	0	
6	45	24	42	46	0	48	45	0	45	1	45	2	45	1	45	0	
5	16	9	33	24	17	16	0	16	1	16	5	16	3	16	4	
4	22	5	25	13	22	0	22	1	22	2	22	1	22	0	
5	9	16	18	25	5	9	0	9	1	9	2	9	3	9	4	
2	43	32	43	0	43	1	43	2	43	5	43	4	
10	15	27	43	32	31	13	49	45	30	17	15	0	15	1	15	2	15	5	15	4	
6	36	48	14	10	25	18	36	0	36	1	36	2	36	1	36	0	
3	20	43	21	20	0	20	1	20	2	20	5	20	4	
4	26	34	37	2	26	0	26	1	26	5	26	3	26	4	
5	13	49	45	24	33	13	0	13	1	13	2	13	1	13	0	
3	44	10	14	44	0	44	1	44	2	44	5	44	4	
7	47	45	49	18	19	44	4	47	0	47	1	47	2	47	1	47	0	
3	34	26	30	34	0	34	1	34	2	34	3	34	4	
3	37	2	8	37	0	37	1	37	5	37	3	37	4	
6	21	5	25	13	49	45	21	0	21	1	21	2	21	5	21	4	
4	8	2	37	41	8	0	8	1	8	2	8	1	8	0	
8	1	49	18	25	5	22	6	38	1	0	1	1	1	2	1	3	1	4	
8	4	44	19	18	49	37	41	40	4	0	4	1	4	2	4	1	4	0	
3	7	6	22	7	0	7	1	7	2	7	5	7	4	
9	38	39	22	5	25	18	49	1	34	38	0	38	1	38	2	38	1	38	0	
4	47	45	24	23	47	0	47	1	47	5	47	3	47	4	
2	2	8	2	0	2	1	2	2	2	3	2	4	
5	26	30	17	24	33	26	0	26	1	26	2	26	3	26	4	
3	34	1	47	34	0	34	1	34	2	34	3	34	4	
6	3	32	5	25	10	14	3	0	3	1	3	2	3	3	3	4	
6	37	2	31	32	43	21	37	0	37	1	37	2	37	5	37	4	
3	24	45	49	24	0	24	1	24	2	24	1	24	0	
7	27	21	5	25	19	16	9	27	0	27	1	27	2	27	3	27	4	
6	30	45	24	23	28	29	30	0	30	1	30	5	30	3	30	4	
6	14	12	29	28	23	24	14	0	14	1	14	2	14	5	14	4	
7	7	6	38	48	0	46	42	7	0	7	1	7	2	7	5	7	4	
6	41	37	49	18	19	44	41	0	41	1	41	2	41	5	41	4	
4	25	19	16	9	25	0	25	1	25	5	25	3	25	4	
5	28	44	4	22	21	28	0	28	1	28	2	28	3	28	4	
3	49	18	16	49	0	49	1	49	2	49	1	49	0	
7	36	48	14	10	25	18	49	36	0	36	1	36	5	36	3	36	4	
5	42	46	0	48	14	42	0	42	1	42	2	42	5	42	4	
3	19	18	49	19	0	19	1	19	2	19	5	19	4	
6	6	22	21	43	3	11	6	0	6	1	6	2	6	5	6	4	
5	12	29	28	23	24	12	0	12	1	12	5	12	3	12	4	
7	46	42	24	45	30	26	34	46	0	46	1	46	5	46	3	46	4	
6	30	45	49	13	31	32	30	0	30	1	30	2	30	5	30	4	
3	17	30	26	17	0	17	1	17	2	17	1	17	0	
6	34	37	49	18	19	44	34	0	34	1	34	2	34	5	34	4	
3	41	37	49	41	0	41	1	41	5	41	3	41	4	
5	44	28	23	24	45	44	0	44	1	44	2	44	3	44	4	
4	18	19	44	4	18	0	18	1	18	5	18	3	18	4	
5	21	5	25	10	14	21	0	21	1	21	2	21	3	21	4	
3	42	24	45	42	0	42	1	42	2	42	1	42	0	
6	45	49	13	25	5	21	45	0	45	1	45	2	45	3	45	4	
7	29	28	23	24	17	30	26	29	0	29	1	29	5	29	3	29	4	
3	35	10	25	35	0	35	1	35	2	35	5	35	4	
2	19	18	19	0	19	1	19	2	19	1	19	0	
8	22	5	25	18	49	1	34	40	22	0	22	1	22	2	22	3	22	4	
8	40	41	37	2	31	32	43	21	40	0	40	1	40	2	40	5	40	4	
6	46	42	24	45	49	1	46	0	46	1	46	2	46	3	46	4	
5	33	9	16	19	25	33	0	33	1	33	2	33	1	33	0	
7	39	35	10	25	13	49	45	39	0	39	1	39	5	39	3	39	4	
2	13	31	13	0	13	1	13	2	13	3	13	4	
4	0	48	38	39	0	0	0	1	0	5	0	3	0	4	
5	47	45	49	13	25	47	0	47	1	47	2	47	3	47	4	
2	34	37	34	0	34	1	34	5	34	3	34	4	
4	11	13	25	19	11	0	11	1	11	5	11	3	11	4	
5	1	49	13	31	3	1	0	1	1	1	2	1	1	1	0	
4	4	5	32	3	4	0	4	1	4	2	4	5	4	4	
4	22	6	7	15	22	0	22	1	22	5	22	3	22	4	
8	15	27	21	5	4	44	28	23	15	0	15	1	15	2	15	3	15	4	
7	46	28	44	4	22	21	43	46	0	46	1	46	5	46	3	46	4	
4	39	35	10	14	39	0	39	1	39	2	39	3	39	4	
8	26	30	17	24	23	28	44	4	26	0	26	1	26	2	26	1	26	0	
7	3	32	5	22	39	38	48	3	0	3	1	3	2	3	1	3	0	
6	6	38	48	0	46	42	6	0	6	1	6	2	6	3	6	4	
5	37	49	13	25	10	37	0	37	1	37	2	37	1	37	0	
5	24	23	28	29	12	24	0	24	1	24	2	24	3	24	4	
5	27	21	5	25	18	27	0	27	1	27	5	27	3	27	4	
5	48	38	39	22	21	48	0	48	1	48	2	48	3	48	4	
4	4	44	28	46	4	0	4	1	4	5	4	3	4	4	
5	7	15	27	43	20	7	0	7	1	7	2	7	3	7	4	
5	38	39	22	4	44	38	0	38	1	38	5	38	3	38	4	
5	15	7	6	38	48	15	0	15	1	15	5	15	3	15	4	
2	5	4	5	0	5	1	5	2	5	1	5	0	
8	26	34	1	49	13	25	10	35	26	0	26	1	26	2	26	5	26	4	
6	16	18	25	5	21	27	16	0	16	1	16	2	16	3	16	4	
7	7	15	27	43	32	31	2	7	0	7	1	7	2	7	5	7	4	
7	3	32	5	25	10	14	12	3	0	3	1	3	2	3	5	3	4	
7	9	16	18	49	13	31	3	9	0	9	1	9	5	9	3	9	4	
8	43	32	31	13	49	45	24	42	43	0	43	1	43	5	43	3	43	4	
5	30	45	49	13	31	30	0	30	1	30	2	30	1	30	0	
9	17	24	42	46	0	48	38	6	7	17	0	17	1	17	2	17	3	17	4	
4	20	43	27	15	20	0	20	1	20	5	20	3	20	4	
7	41	37	49	45	24	42	46	41	0	41	1	41	2	41	3	41	4	
3	44	28	16	44	0	44	1	44	2	44	1	44	0	
2	49	18	49	0	49	1	49	5	49	3	49	4	
4	21	22	39	35	21	0	21	1	21	2	21	1	21	0	
5	8	13	25	10	35	8	0	8	1	8	2	8	5	8	4	
3	42	46	0	42	0	42	1	42	2	42	3	42	4	
5	32	5	4	44	28	32	0	32	1	32	2	32	5	32	4	
5	19	18	49	45	47	19	0	19	1	19	2	19	3	19	4	
7	12	29	28	23	24	45	30	12	0	12	1	12	2	12	1	12	0	
2	46	28	46	0	46	1	46	2	46	1	46	0	
10	36	48	14	10	25	18	49	37	41	40	36	0	36	1	36	5	36	3	36	4	
7	10	25	18	49	37	34	26	10	0	10	1	10	2	10	3	10	4	
4	13	25	5	4	13	0	13	1	13	5	13	3	13	4	
7	24	45	49	13	31	3	43	24	0	24	1	24	2	24	5	24	4	
6	8	13	25	5	22	6	8	0	8	1	8	5	8	3	8	4	
4	42	24	45	47	42	0	42	1	42	5	42	3	42	4	
5	14	48	38	39	22	14	0	14	1	14	2	14	1	14	0	
5	35	4	44	28	23	35	0	35	1	35	2	35	3	35	4	
2	19	16	19	0	19	1	19	5	19	3	19	4	
5	25	5	22	6	7	25	0	25	1	25	2	25	5	25	4	
8	12	29	28	16	18	49	1	34	12	0	12	1	12	2	12	3	12	4	
7	46	28	44	4	5	32	3	46	0	46	1	46	2	46	5	46	4	
5	5	32	31	2	37	5	0	5	1	5	2	5	1	5	0	
7	36	48	14	10	25	13	11	36	0	36	1	36	2	36	3	36	4	
4	5	25	19	16	5	0	5	1	5	2	5	5	5	4	
7	0	46	42	24	45	49	37	0	0	0	1	0	2	0	1	0	0	
5	47	45	49	13	31	47	0	47	1	47	2	47	5	47	4	
8	34	37	49	13	25	10	35	39	34	0	34	1	34	2	34	1	34	0	
4	37	49	45	47	37	0	37	1	37	2	37	3	37	4	
5	3	11	13	49	1	3	0	3	1	3	5	3	3	3	4	
7	17	30	45	49	13	31	32	17	0	17	1	17	2	17	5	17	4	
5	1	49	45	24	42	1	0	1	1	1	5	1	3	1	4	
3	1	49	13	1	0	1	1	1	5	1	3	1	4	
6	4	44	19	18	49	1	4	0	4	1	4	2	4	3	4	4	
5	25	10	14	48	36	25	0	25	1	25	2	25	1	25	0	
3	18	25	10	18	0	18	1	18	2	18	5	18	4	
6	2	37	34	26	30	17	2	0	2	1	2	2	2	1	2	0	
5	39	35	10	14	12	39	0	39	1	39	2	39	5	39	4	
7	45	49	13	25	5	21	27	45	0	45	1	45	5	45	3	45	4	
4	35	10	14	12	35	0	35	1	35	5	35	3	35	4	
2	29	0	29	0	29	1	29	2	29	3	29	4	
6	16	18	25	5	22	6	16	0	16	1	16	2	16	1	16	0	
4	40	34	1	47	40	0	40	1	40	5	40	3	40	4	
5	24	23	28	44	10	24	0	24	1	24	2	24	5	24	4	
6	27	21	5	25	19	16	27	0	27	1	27	2	27	1	27	0	
3	5	32	31	5	0	5	1	5	2	5	3	5	4	
5	41	37	49	13	11	41	0	41	1	41	2	41	1	41	0	
4	18	49	37	41	18	0	18	1	18	2	18	1	18	0	
3	5	22	6	5	0	5	1	5	5	5	3	5	4	
7	11	13	25	10	14	12	29	11	0	11	1	11	2	11	5	11	4	
3	16	18	25	16	0	16	1	16	2	16	5	16	4	
4	9	16	28	29	9	0	9	1	9	2	9	1	9	0	
7	43	32	31	2	37	41	40	43	0	43	1	43	2	43	1	43	0	
8	15	27	21	5	25	19	16	9	15	0	15	1	15	5	15	3	15	4	
5	17	30	45	47	1	17	0	17	1	17	2	17	5	17	4	
4	20	3	11	13	20	0	20	1	20	2	20	1	20	0	
6	23	28	44	4	5	21	23	0	23	1	23	2	23	3	23	4	
4	10	25	18	49	10	0	10	1	10	5	10	3	10	4	
3	44	4	22	44	0	44	1	44	5	44	3	44	4	
8	34	37	2	31	32	5	22	6	34	0	34	1	34	2	34	1	34	0	
7	37	49	18	16	28	46	0	37	0	37	1	37	2	37	5	37	4	
6	21	43	32	31	2	37	21	0	21	1	21	5	21	3	21	4	
6	8	13	49	45	24	33	8	0	8	1	8	2	8	3	8	4	
6	32	31	2	37	34	26	32	0	32	1	32	2	32	3	32	4	
5	38	48	0	46	42	38	0	38	1	38	2	38	5	38	4	
5	22	5	25	18	49	22	0	22	1	22	2	22	1	22	0	
3	31	13	49	31	0	31	1	31	5	31	3	31	4	
8	15	7	6	38	48	0	46	42	15	0	15	1	15	2	15	3	15	4	
7	2	8	13	25	10	14	48	2	0	2	1	2	2	2	1	2	0	
7	33	24	45	49	13	31	32	33	0	33	1	33	2	33	3	33	4	
4	36	48	0	46	36	0	36	1	36	2	36	1	36	0	
3	10	44	28	10	0	10	1	10	2	10	5	10	4	
5	13	25	5	22	6	13	0	13	1	13	2	13	1	13	0	
7	47	45	24	42	46	0	48	47	0	47	1	47	2	47	1	47	0	
5	24	45	49	37	41	24	0	24	1	24	2	24	3	24	4	
6	27	43	3	11	13	49	27	0	27	1	27	2	27	1	27	0	
7	30	45	49	18	25	5	21	30	0	30	1	30	2	30	5	30	4	
5	14	12	29	28	16	14	0	14	1	14	5	14	3	14	4	
7	38	48	0	46	42	23	9	38	0	38	1	38	2	38	1	38	0	
4	25	13	49	1	25	0	25	1	25	2	25	3	25	4	
3	49	45	24	49	0	49	1	49	2	49	3	49	4	
7	36	48	0	29	28	23	9	36	0	36	1	36	2	36	5	36	4	
6	42	46	0	48	38	6	42	0	42	1	42	5	42	3	42	4	
7	26	30	17	24	23	28	29	26	0	26	1	26	2	26	3	26	4	
5	19	18	49	37	41	19	0	19	1	19	5	19	3	19	4	
2	3	43	3	0	3	1	3	2	3	5	3	4	
5	6	22	5	25	19	6	0	6	1	6	2	6	1	6	0	
5	37	49	45	24	33	37	0	37	1	37	2	37	5	37	4	
4	17	30	26	34	17	0	17	1	17	2	17	3	17	4	
2	48	38	48	0	48	1	48	2	48	3	48	4	
5	25	10	35	39	38	25	0	25	1	25	5	25	3	25	4	
4	31	32	5	22	31	0	31	1	31	2	31	1	31	0	
5	18	16	28	29	12	18	0	18	1	18	2	18	3	18	4	
7	49	13	25	10	14	48	36	49	0	49	1	49	2	49	1	49	0	
7	8	13	25	10	14	48	0	8	0	8	1	8	2	8	5	8	4	
5	42	24	45	49	37	42	0	42	1	42	2	42	3	42	4	
5	45	24	23	28	29	45	0	45	1	45	2	45	1	45	0	
7	29	28	16	18	49	37	2	29	0	29	1	29	2	29	5	29	4	
7	35	4	44	28	23	24	17	35	0	35	1	35	5	35	3	35	4	
3	19	44	10	19	0	19	1	19	2	19	3	19	4	
5	22	4	44	19	16	22	0	22	1	22	2	22	1	22	0	
5	40	34	26	30	45	40	0	40	1	40	2	40	1	40	0	
4	12	14	48	36	12	0	12	1	12	5	12	3	12	4	
2	43	21	43	0	43	1	43	2	43	3	43	4	
3	20	43	32	20	0	20	1	20	2	20	3	20	4	
6	41	37	49	13	25	5	41	0	41	1	41	5	41	3	41	4	
6	0	46	42	24	45	47	0	0	0	1	0	2	0	5	0	4	
4	47	45	24	17	47	0	47	1	47	2	47	1	47	0	
7	47	45	49	13	31	3	20	47	0	47	1	47	2	47	5	47	4	
4	34	1	47	45	34	0	34	1	34	2	34	5	34	4	
5	18	25	5	32	43	18	0	18	1	18	5	18	3	18	4	
4	11	3	43	27	11	0	11	1	11	2	11	3	11	4	
4	1	49	13	11	1	0	1	1	1	2	1	5	1	4	
6	35	10	25	13	49	45	35	0	35	1	35	2	35	5	35	4	
6	12	14	48	38	6	7	12	0	12	1	12	2	12	3	12	4	
4	4	5	32	31	4	0	4	1	4	2	4	5	4	4	
2	39	22	39	0	39	1	39	5	39	3	39	4	
7	23	28	44	4	5	21	27	23	0	23	1	23	2	23	5	23	4	
4	13	31	32	43	13	0	13	1	13	2	13	3	13	4	
4	34	37	2	8	34	0	34	1	34	5	34	3	34	4	
4	2	37	34	26	2	0	2	1	2	5	2	3	2	4	
2	37	2	37	0	37	1	37	2	37	3	37	4	
5	24	23	28	44	4	24	0	24	1	24	2	24	1	24	0	
8	27	43	32	31	2	37	34	26	27	0	27	1	27	2	27	5	27	4	
6	11	13	25	10	35	39	11	0	11	1	11	5	11	3	11	4	
3	1	34	40	1	0	1	1	1	2	1	1	1	0	
4	4	22	39	38	4	0	4	1	4	2	4	3	4	4	
3	35	10	14	35	0	35	1	35	2	35	1	35	0	
9	15	27	43	32	31	2	37	34	40	15	0	15	1	15	2	15	5	15	4	
4	49	13	25	5	49	0	49	1	49	2	49	1	49	0	
4	5	4	44	28	5	0	5	1	5	2	5	3	5	4	
3	34	1	47	34	0	34	1	34	5	34	3	34	4	
5	29	12	14	10	35	29	0	29	1	29	2	29	3	29	4	
5	16	28	44	10	35	16	0	16	1	16	5	16	3	16	4	
3	0	48	14	0	0	0	1	0	2	0	5	0	4	
4	3	32	5	4	3	0	3	1	3	2	3	1	3	0	
5	32	31	2	37	34	32	0	32	1	32	2	32	5	32	4	
4	30	45	24	23	30	0	30	1	30	2	30	3	30	4	
10	17	24	42	46	0	48	38	6	7	15	17	0	17	1	17	2	17	1	17	0	
5	20	43	27	15	7	20	0	20	1	20	2	20	5	20	4	
7	38	39	22	5	32	31	11	38	0	38	1	38	5	38	3	38	4	
4	44	28	23	24	44	0	44	1	44	2	44	5	44	4	
6	28	44	4	5	32	3	28	0	28	1	28	2	28	1	28	0	
2	31	11	31	0	31	1	31	2	31	3	31	4	
4	49	1	34	26	49	0	49	1	49	2	49	5	49	4	
2	21	27	21	0	21	1	21	2	21	5	21	4	
2	42	24	42	0	42	1	42	2	42	1	42	0	
5	26	34	37	2	31	26	0	26	1	26	2	26	5	26	4	
3	32	5	4	32	0	32	1	32	5	32	3	32	4	
5	19	44	4	35	39	19	0	19	1	19	2	19	1	19	0	
5	40	41	37	2	8	40	0	40	1	40	2	40	3	40	4	
3	10	25	18	10	0	10	1	10	2	10	1	10	0	
5	13	25	10	14	12	13	0	13	1	13	2	13	5	13	4	
4	47	45	24	42	47	0	47	1	47	2	47	5	47	4	
3	31	3	20	31	0	31	1	31	5	31	3	31	4	
7	49	13	25	10	14	48	38	49	0	49	1	49	5	49	3	49	4	
5	8	13	49	45	30	8	0	8	1	8	2	8	3	8	4	
6	42	46	0	48	38	39	42	0	42	1	42	2	42	5	42	4	
4	19	25	13	8	19	0	19	1	19	2	19	5	19	4	
5	2	37	49	45	24	2	0	2	1	2	5	2	3	2	4	
5	12	29	28	46	42	12	0	12	1	12	2	12	1	12	0	
5	43	32	5	25	19	43	0	43	1	43	2	43	5	43	4	
7	33	24	45	49	13	11	3	33	0	33	1	33	2	33	3	33	4	
7	36	38	39	22	5	32	3	36	0	36	1	36	5	36	3	36	4	
6	20	43	21	22	6	38	20	0	20	1	20	2	20	5	20	4	
5	0	46	42	24	45	0	0	0	1	0	2	0	3	0	4	
4	3	31	2	37	3	0	3	1	3	2	3	1	3	0	
4	6	22	5	25	6	0	6	1	6	2	6	5	6	4	
7	37	2	31	32	5	22	39	37	0	37	1	37	2	37	1	37	0	
5	24	45	49	13	31	24	0	24	1	24	2	24	5	24	4	
6	14	10	25	18	49	45	14	0	14	1	14	2	14	1	14	0	
4	32	5	4	35	32	0	32	1	32	2	32	1	32	0	
5	35	4	5	32	43	35	0	35	1	35	2	35	3	35	4	
6	28	16	18	49	37	34	28	0	28	1	28	2	28	1	28	0	
5	12	14	10	25	5	12	0	12	1	12	2	12	5	12	4	
4	2	8	13	25	2	0	2	1	2	2	2	3	2	4	
8	15	27	43	32	31	2	37	34	15	0	15	1	15	5	15	3	15	4	
5	39	22	21	43	20	39	0	39	1	39	2	39	1	39	0	
7	29	28	16	18	49	13	8	29	0	29	1	29	5	29	3	29	4	
3	13	49	45	13	0	13	1	13	2	13	5	13	4	
9	40	41	37	49	18	25	10	35	39	40	0	40	1	40	2	40	5	40	4	
5	24	45	49	37	2	24	0	24	1	24	5	24	3	24	4	
8	27	43	3	11	13	49	45	24	27	0	27	1	27	2	27	3	27	4	
6	48	38	6	7	15	27	48	0	48	1	48	2	48	1	48	0	
9	7	6	22	5	25	13	49	1	34	7	0	7	1	7	2	7	1	7	0	
5	41	37	2	31	3	41	0	41	1	41	2	41	5	41	4	
5	25	13	49	45	24	25	0	25	1	25	2	25	1	25	0	
2	18	49	18	0	18	1	18	2	18	3	18	4	
6	5	25	13	49	45	30	5	0	5	1	5	2	5	5	5	4	
6	29	28	16	18	49	37	29	0	29	1	29	2	29	5	29	4	
3	16	9	33	16	0	16	1	16	2	16	1	16	0	
6	43	21	22	6	38	48	43	0	43	1	43	2	43	3	43	4	
4	17	24	23	9	17	0	17	1	17	5	17	3	17	4	
4	20	43	32	5	20	0	20	1	20	2	20	3	20	4	
3	23	28	29	23	0	23	1	23	2	23	1	23	0	
5	10	44	28	23	9	10	0	10	1	10	2	10	5	10	4	
5	41	37	2	31	32	41	0	41	1	41	2	41	1	41	0	
6	44	28	23	24	45	30	44	0	44	1	44	2	44	3	44	4	
5	28	16	18	49	1	28	0	28	1	28	5	28	3	28	4	
7	34	37	49	13	25	10	14	34	0	34	1	34	2	34	5	34	4	
