1932.2	1932.2
452
906.849	351.256
10
0	324	1753
1	323	1954
2	324	1290
3	327	2027
4	328	1836
5	324	2169
6	322	2025
7	323	1190
8	325	2147
9	324	2142
34
0	1	33.274064	131.479641
0	2	21.901416	135.308578
0	5	132.992676	149.350323
1	0	44.365724	131.479641
1	2	11.099572	146.797369
1	3	43.926766	144.244414
1	4	11.107152	146.797369
2	0	66.388842	135.308578
2	1	11.186086	146.797369
2	3	32.507396	135.308578
2	4	11.276678	130.202668
3	1	33.185982	144.244414
3	2	44.893348	135.308578
3	4	22.282770	126.372741
3	9	110.068616	116.160923
4	1	33.586520	146.797369
4	2	44.765156	130.202668
4	3	22.208502	126.372741
4	5	44.736900	117.437895
5	0	77.523528	149.350323
5	4	100.150084	117.437895
5	6	122.835482	123.819787
5	9	67.548138	140.414487
6	5	120.043700	123.819787
6	7	66.608684	139.138505
6	8	32.061538	144.244414
7	6	66.847556	139.138505
7	8	33.062130	135.308578
8	6	30.078984	144.244414
8	7	33.132806	135.308578
8	9	113.520000	114.884940
9	3	111.461344	116.160923
9	5	71.042222	140.414487
9	8	110.533268	114.884940
360
3	3	2	0	3	0	3	1	3	5	3	3	3	4	
2	8	9	8	0	8	1	8	2	8	3	8	4	
2	8	9	8	0	8	1	8	2	8	1	8	0	
2	9	8	9	0	9	1	9	5	9	3	9	4	
4	2	3	9	8	2	0	2	1	2	2	2	5	2	4	
3	5	4	2	5	0	5	1	5	2	5	1	5	0	
2	0	2	0	0	0	1	0	2	0	1	0	0	
4	8	9	5	0	8	0	8	1	8	2	8	5	8	4	
5	1	0	5	6	7	1	0	1	1	1	2	1	5	1	4	
2	8	6	8	0	8	1	8	2	8	5	8	4	
4	3	9	8	7	3	0	3	1	3	2	3	3	3	4	
2	1	2	1	0	1	1	1	2	1	3	1	4	
5	7	6	5	4	1	7	0	7	1	7	5	7	3	7	4	
3	2	0	5	2	0	2	1	2	5	2	3	2	4	
3	9	8	6	9	0	9	1	9	5	9	3	9	4	
2	4	1	4	0	4	1	4	2	4	1	4	0	
2	5	0	5	0	5	1	5	2	5	3	5	4	
3	0	5	4	0	0	0	1	0	2	0	5	0	4	
2	7	6	7	0	7	1	7	2	7	5	7	4	
2	0	1	0	0	0	1	0	2	0	3	0	4	
2	3	9	3	0	3	1	3	2	3	1	3	0	
2	1	0	1	0	1	1	1	5	1	3	1	4	
3	7	6	5	7	0	7	1	7	2	7	3	7	4	
4	0	5	9	8	0	0	0	1	0	2	0	5	0	4	
2	3	4	3	0	3	1	3	2	3	1	3	0	
2	4	3	4	0	4	1	4	2	4	3	4	4	
2	2	4	2	0	2	1	2	2	2	3	2	4	
4	6	5	0	1	6	0	6	1	6	2	6	5	6	4	
3	5	6	7	5	0	5	1	5	5	5	3	5	4	
3	5	4	1	5	0	5	1	5	5	5	3	5	4	
3	0	1	3	0	0	0	1	0	5	0	3	0	4	
4	6	5	0	2	6	0	6	1	6	2	6	3	6	4	
4	4	3	9	8	4	0	4	1	4	5	4	3	4	4	
4	3	9	5	6	3	0	3	1	3	2	3	3	3	4	
2	9	3	9	0	9	1	9	2	9	1	9	0	
3	7	8	9	7	0	7	1	7	5	7	3	7	4	
2	4	2	4	0	4	1	4	5	4	3	4	4	
5	2	0	5	6	7	2	0	2	1	2	2	2	1	2	0	
3	6	5	0	6	0	6	1	6	2	6	1	6	0	
5	7	6	5	4	1	7	0	7	1	7	2	7	5	7	4	
2	9	8	9	0	9	1	9	2	9	3	9	4	
3	5	4	2	5	0	5	1	5	2	5	5	5	4	
2	0	2	0	0	0	1	0	2	0	3	0	4	
4	8	9	5	0	8	0	8	1	8	2	8	1	8	0	
5	1	0	5	6	7	1	0	1	1	1	2	1	1	1	0	
4	7	6	5	4	7	0	7	1	7	2	7	3	7	4	
2	3	1	3	0	3	1	3	5	3	3	3	4	
4	3	9	8	7	3	0	3	1	3	5	3	3	3	4	
2	1	2	1	0	1	1	1	2	1	1	1	0	
3	2	0	5	2	0	2	1	2	2	2	3	2	4	
2	4	1	4	0	4	1	4	2	4	5	4	4	
2	5	0	5	0	5	1	5	2	5	1	5	0	
3	0	5	4	0	0	0	1	0	2	0	1	0	0	
4	6	8	9	3	6	0	6	1	6	2	6	3	6	4	
2	6	8	6	0	6	1	6	2	6	5	6	4	
2	7	6	7	0	7	1	7	5	7	3	7	4	
3	9	8	7	9	0	9	1	9	5	9	3	9	4	
2	0	1	0	0	0	1	0	2	0	1	0	0	
2	3	9	3	0	3	1	3	2	3	3	3	4	
2	1	0	1	0	1	1	1	2	1	3	1	4	
4	0	5	9	8	0	0	0	1	0	2	0	1	0	0	
2	3	4	3	0	3	1	3	2	3	5	3	4	
2	4	3	4	0	4	1	4	2	4	1	4	0	
2	2	4	2	0	2	1	2	5	2	3	2	4	
4	6	5	0	1	6	0	6	1	6	5	6	3	6	4	
4	8	9	5	4	8	0	8	1	8	5	8	3	8	4	
3	5	6	7	5	0	5	1	5	2	5	5	5	4	
3	5	4	1	5	0	5	1	5	2	5	5	5	4	
3	0	1	3	0	0	0	1	0	2	0	3	0	4	
4	4	3	9	8	4	0	4	1	4	2	4	5	4	4	
3	9	5	0	9	0	9	1	9	2	9	5	9	4	
2	7	8	7	0	7	1	7	5	7	3	7	4	
2	2	1	2	0	2	1	2	2	2	5	2	4	
4	3	9	5	6	3	0	3	1	3	2	3	1	3	0	
2	9	3	9	0	9	1	9	2	9	3	9	4	
2	4	2	4	0	4	1	4	2	4	5	4	4	
5	2	0	5	6	7	2	0	2	1	2	2	2	5	2	4	
3	6	5	0	6	0	6	1	6	2	6	3	6	4	
3	8	9	3	8	0	8	1	8	2	8	5	8	4	
2	1	4	1	0	1	1	1	2	1	5	1	4	
5	7	6	5	4	1	7	0	7	1	7	2	7	1	7	0	
2	9	8	9	0	9	1	9	2	9	1	9	0	
3	5	4	2	5	0	5	1	5	5	5	3	5	4	
2	0	2	0	0	0	1	0	5	0	3	0	4	
3	3	9	8	3	0	3	1	3	2	3	3	3	4	
4	8	9	5	0	8	0	8	1	8	2	8	3	8	4	
5	1	0	5	6	7	1	0	1	1	1	2	1	3	1	4	
4	7	6	5	4	7	0	7	1	7	2	7	1	7	0	
3	9	3	1	9	0	9	1	9	2	9	1	9	0	
2	2	0	2	0	2	1	2	2	2	1	2	0	
2	3	1	3	0	3	1	3	2	3	5	3	4	
4	1	3	9	8	1	0	1	1	1	2	1	5	1	4	
4	3	9	8	7	3	0	3	1	3	2	3	5	3	4	
2	1	2	1	0	1	1	1	2	1	5	1	4	
3	2	0	5	2	0	2	1	2	2	2	1	2	0	
4	0	5	6	7	0	0	0	1	0	2	0	5	0	4	
2	4	1	4	0	4	1	4	5	4	3	4	4	
3	0	5	4	0	0	0	1	0	2	0	3	0	4	
4	6	8	9	3	6	0	6	1	6	2	6	1	6	0	
4	8	9	3	2	8	0	8	1	8	2	8	1	8	0	
3	1	0	5	1	0	1	1	1	2	1	1	1	0	
2	7	6	7	0	7	1	7	2	7	3	7	4	
3	9	8	7	9	0	9	1	9	2	9	5	9	4	
2	0	1	0	0	0	1	0	2	0	5	0	4	
2	1	0	1	0	1	1	1	2	1	1	1	0	
3	9	3	2	9	0	9	1	9	2	9	3	9	4	
2	2	3	2	0	2	1	2	2	2	3	2	4	
4	0	5	9	8	0	0	0	1	0	2	0	3	0	4	
3	1	3	9	1	0	1	1	1	2	1	1	1	0	
2	3	4	3	0	3	1	3	5	3	3	3	4	
2	2	4	2	0	2	1	2	2	2	5	2	4	
3	0	5	6	0	0	0	1	0	2	0	1	0	0	
4	6	5	0	1	6	0	6	1	6	2	6	3	6	4	
4	8	9	5	4	8	0	8	1	8	2	8	5	8	4	
2	8	9	8	0	8	1	8	5	8	3	8	4	
3	5	6	7	5	0	5	1	5	2	5	1	5	0	
3	0	1	3	0	0	0	1	0	2	0	1	0	0	
4	8	9	3	1	8	0	8	1	8	2	8	3	8	4	
4	1	0	5	6	1	0	1	1	1	2	1	3	1	4	
4	4	3	9	8	4	0	4	1	4	2	4	1	4	0	
3	9	5	0	9	0	9	1	9	5	9	3	9	4	
2	2	1	2	0	2	1	2	5	2	3	2	4	
5	7	6	5	4	2	7	0	7	1	7	2	7	5	7	4	
5	2	0	5	6	7	2	0	2	1	2	5	2	3	2	4	
3	8	9	5	8	0	8	1	8	5	8	3	8	4	
2	0	5	0	0	0	1	0	2	0	3	0	4	
3	6	5	0	6	0	6	1	6	5	6	3	6	4	
3	8	9	3	8	0	8	1	8	5	8	3	8	4	
2	1	4	1	0	1	1	1	5	1	3	1	4	
5	7	6	5	4	1	7	0	7	1	7	2	7	3	7	4	
2	0	2	0	0	0	1	0	2	0	5	0	4	
3	3	9	8	3	0	3	1	3	2	3	1	3	0	
4	7	6	5	4	7	0	7	1	7	2	7	5	7	4	
3	9	3	1	9	0	9	1	9	2	9	3	9	4	
2	2	0	2	0	2	1	2	2	2	3	2	4	
2	6	8	6	0	6	1	6	5	6	3	6	4	
3	0	5	9	0	0	0	1	0	2	0	3	0	4	
2	3	1	3	0	3	1	3	2	3	1	3	0	
2	6	5	6	0	6	1	6	2	6	5	6	4	
4	1	3	9	8	1	0	1	1	1	5	1	3	1	4	
2	1	2	1	0	1	1	1	5	1	3	1	4	
3	5	9	3	5	0	5	1	5	5	5	3	5	4	
4	0	5	6	7	0	0	0	1	0	5	0	3	0	4	
4	7	8	9	3	7	0	7	1	7	2	7	1	7	0	
4	8	9	3	1	8	0	8	1	8	5	8	3	8	4	
3	6	8	9	6	0	6	1	6	2	6	5	6	4	
4	6	8	9	3	6	0	6	1	6	2	6	5	6	4	
4	8	9	3	2	8	0	8	1	8	2	8	3	8	4	
3	1	0	5	1	0	1	1	1	2	1	3	1	4	
2	7	6	7	0	7	1	7	2	7	1	7	0	
3	9	8	7	9	0	9	1	9	2	9	1	9	0	
3	5	9	8	5	0	5	1	5	2	5	5	5	4	
2	0	1	0	0	0	1	0	5	0	3	0	4	
3	4	2	0	4	0	4	1	4	5	4	3	4	4	
3	9	3	2	9	0	9	1	9	2	9	1	9	0	
2	2	3	2	0	2	1	2	2	2	1	2	0	
3	6	5	4	6	0	6	1	6	2	6	1	6	0	
3	1	3	9	1	0	1	1	1	2	1	3	1	4	
2	5	4	5	0	5	1	5	2	5	5	5	4	
3	0	5	6	0	0	0	1	0	2	0	3	0	4	
4	6	5	0	1	6	0	6	1	6	2	6	1	6	0	
4	8	9	5	4	8	0	8	1	8	2	8	1	8	0	
4	7	6	5	0	7	0	7	1	7	2	7	3	7	4	
3	5	6	7	5	0	5	1	5	2	5	3	5	4	
3	3	9	5	3	0	3	1	3	5	3	3	3	4	
3	7	8	9	7	0	7	1	7	2	7	5	7	4	
4	1	0	5	6	1	0	1	1	1	2	1	1	1	0	
4	4	3	9	8	4	0	4	1	4	2	4	3	4	4	
3	9	5	0	9	0	9	1	9	2	9	3	9	4	
2	2	1	2	0	2	1	2	2	2	3	2	4	
2	5	9	5	0	5	1	5	2	5	1	5	0	
4	4	5	6	7	4	0	4	1	4	2	4	5	4	4	
2	5	0	5	0	5	1	5	5	5	3	5	4	
2	6	7	6	0	6	1	6	2	6	3	6	4	
5	7	6	5	4	2	7	0	7	1	7	5	7	3	7	4	
2	0	5	0	0	0	1	0	2	0	1	0	0	
3	6	5	0	6	0	6	1	6	2	6	5	6	4	
3	8	9	3	8	0	8	1	8	2	8	3	8	4	
2	1	4	1	0	1	1	1	2	1	3	1	4	
2	3	2	3	0	3	1	3	2	3	5	3	4	
3	3	9	8	3	0	3	1	3	2	3	5	3	4	
4	2	0	5	6	2	0	2	1	2	5	2	3	2	4	
4	7	6	5	4	7	0	7	1	7	5	7	3	7	4	
3	9	3	1	9	0	9	1	9	5	9	3	9	4	
2	2	0	2	0	2	1	2	5	2	3	2	4	
3	0	5	9	0	0	0	1	0	2	0	1	0	0	
2	3	1	3	0	3	1	3	2	3	3	3	4	
2	6	5	6	0	6	1	6	5	6	3	6	4	
4	1	3	9	8	1	0	1	1	1	2	1	3	1	4	
3	4	5	6	4	0	4	1	4	2	4	1	4	0	
3	5	9	3	5	0	5	1	5	2	5	5	5	4	
4	0	5	6	7	0	0	0	1	0	2	0	3	0	4	
4	7	8	9	3	7	0	7	1	7	2	7	3	7	4	
3	9	3	4	9	0	9	1	9	2	9	5	9	4	
2	5	6	5	0	5	1	5	2	5	3	5	4	
3	6	8	9	6	0	6	1	6	5	6	3	6	4	
2	1	3	1	0	1	1	1	5	1	3	1	4	
4	6	8	9	3	6	0	6	1	6	5	6	3	6	4	
4	8	9	3	2	8	0	8	1	8	5	8	3	8	4	
3	1	0	5	1	0	1	1	1	5	1	3	1	4	
3	4	5	9	4	0	4	1	4	2	4	3	4	4	
3	9	8	7	9	0	9	1	9	2	9	3	9	4	
3	5	9	8	5	0	5	1	5	5	5	3	5	4	
2	8	9	8	0	8	1	8	2	8	5	8	4	
3	4	2	0	4	0	4	1	4	2	4	5	4	4	
3	2	3	9	2	0	2	1	2	2	2	5	2	4	
3	9	3	2	9	0	9	1	9	2	9	5	9	4	
2	2	3	2	0	2	1	2	2	2	5	2	4	
3	6	5	4	6	0	6	1	6	2	6	3	6	4	
2	8	7	8	0	8	1	8	2	8	5	8	4	
3	1	3	9	1	0	1	1	1	5	1	3	1	4	
2	4	5	4	0	4	1	4	2	4	3	4	4	
2	5	4	5	0	5	1	5	5	5	3	5	4	
3	0	5	6	0	0	0	1	0	5	0	3	0	4	
4	8	9	5	4	8	0	8	1	8	2	8	3	8	4	
4	7	6	5	0	7	0	7	1	7	2	7	1	7	0	
2	9	5	9	0	9	1	9	2	9	1	9	0	
2	6	8	6	0	6	1	6	2	6	3	6	4	
3	7	8	9	7	0	7	1	7	2	7	1	7	0	
4	1	0	5	6	1	0	1	1	1	2	1	5	1	4	
3	9	5	0	9	0	9	1	9	2	9	1	9	0	
3	7	6	5	7	0	7	1	7	2	7	1	7	0	
2	2	1	2	0	2	1	2	2	2	1	2	0	
2	5	9	5	0	5	1	5	2	5	3	5	4	
3	3	2	0	3	0	3	1	3	2	3	3	3	4	
4	4	5	6	7	4	0	4	1	4	5	4	3	4	4	
4	2	3	9	8	2	0	2	1	2	2	2	1	2	0	
2	6	7	6	0	6	1	6	2	6	1	6	0	
2	8	6	8	0	8	1	8	2	8	1	8	0	
5	7	6	5	4	2	7	0	7	1	7	2	7	3	7	4	
3	3	9	5	3	0	3	1	3	2	3	5	3	4	
2	0	5	0	0	0	1	0	2	0	5	0	4	
3	8	9	3	8	0	8	1	8	2	8	1	8	0	
2	1	4	1	0	1	1	1	2	1	1	1	0	
3	9	8	6	9	0	9	1	9	2	9	3	9	4	
2	3	2	3	0	3	1	3	5	3	3	3	4	
3	3	9	8	3	0	3	1	3	5	3	3	3	4	
4	8	9	3	1	8	0	8	1	8	2	8	5	8	4	
4	2	0	5	6	2	0	2	1	2	2	2	5	2	4	
3	9	3	1	9	0	9	1	9	2	9	5	9	4	
2	2	0	2	0	2	1	2	2	2	5	2	4	
3	0	5	9	0	0	0	1	0	2	0	5	0	4	
2	6	5	6	0	6	1	6	2	6	3	6	4	
4	1	3	9	8	1	0	1	1	1	2	1	1	1	0	
3	4	5	6	4	0	4	1	4	2	4	3	4	4	
3	5	9	3	5	0	5	1	5	2	5	1	5	0	
4	0	5	6	7	0	0	0	1	0	2	0	1	0	0	
3	8	9	5	8	0	8	1	8	2	8	3	8	4	
4	7	8	9	3	7	0	7	1	7	5	7	3	7	4	
3	9	3	4	9	0	9	1	9	5	9	3	9	4	
2	5	6	5	0	5	1	5	2	5	1	5	0	
2	4	3	4	0	4	1	4	5	4	3	4	4	
3	6	8	9	6	0	6	1	6	2	6	3	6	4	
2	1	3	1	0	1	1	1	2	1	5	1	4	
4	8	9	3	2	8	0	8	1	8	2	8	5	8	4	
3	1	0	5	1	0	1	1	1	2	1	5	1	4	
3	4	5	9	4	0	4	1	4	2	4	1	4	0	
3	5	9	8	5	0	5	1	5	2	5	3	5	4	
3	4	2	0	4	0	4	1	4	2	4	1	4	0	
3	2	3	9	2	0	2	1	2	5	2	3	2	4	
3	9	3	2	9	0	9	1	9	5	9	3	9	4	
2	2	3	2	0	2	1	2	5	2	3	2	4	
4	6	5	0	2	6	0	6	1	6	5	6	3	6	4	
3	6	5	4	6	0	6	1	6	5	6	3	6	4	
2	8	7	8	0	8	1	8	5	8	3	8	4	
3	1	3	9	1	0	1	1	1	2	1	5	1	4	
2	4	5	4	0	4	1	4	2	4	1	4	0	
2	5	4	5	0	5	1	5	2	5	3	5	4	
3	0	5	6	0	0	0	1	0	2	0	5	0	4	
4	7	6	5	0	7	0	7	1	7	2	7	5	7	4	
2	9	5	9	0	9	1	9	2	9	3	9	4	
3	3	9	5	3	0	3	1	3	2	3	1	3	0	
3	7	8	9	7	0	7	1	7	2	7	3	7	4	
4	1	0	5	6	1	0	1	1	1	5	1	3	1	4	
2	5	9	5	0	5	1	5	5	5	3	5	4	
3	3	2	0	3	0	3	1	3	2	3	1	3	0	
4	4	5	6	7	4	0	4	1	4	2	4	3	4	4	
4	2	3	9	8	2	0	2	1	2	2	2	3	2	4	
2	6	7	6	0	6	1	6	2	6	5	6	4	
2	8	6	8	0	8	1	8	2	8	3	8	4	
5	7	6	5	4	2	7	0	7	1	7	2	7	1	7	0	
2	0	5	0	0	0	1	0	5	0	3	0	4	
3	9	8	6	9	0	9	1	9	2	9	1	9	0	
2	3	2	3	0	3	1	3	2	3	3	3	4	
4	2	0	5	6	2	0	2	1	2	2	2	1	2	0	
2	5	0	5	0	5	1	5	2	5	5	5	4	
3	0	5	9	0	0	0	1	0	5	0	3	0	4	
2	6	5	6	0	6	1	6	2	6	1	6	0	
3	4	5	6	4	0	4	1	4	5	4	3	4	4	
3	5	9	3	5	0	5	1	5	2	5	3	5	4	
2	3	9	3	0	3	1	3	5	3	3	3	4	
3	8	9	5	8	0	8	1	8	2	8	1	8	0	
4	7	8	9	3	7	0	7	1	7	2	7	5	7	4	
3	9	3	4	9	0	9	1	9	2	9	3	9	4	
2	5	6	5	0	5	1	5	2	5	5	5	4	
3	6	5	9	6	0	6	1	6	2	6	1	6	0	
2	1	3	1	0	1	1	1	2	1	1	1	0	
2	7	8	7	0	7	1	7	2	7	3	7	4	
3	4	5	9	4	0	4	1	4	2	4	5	4	4	
3	5	9	8	5	0	5	1	5	2	5	1	5	0	
3	4	2	0	4	0	4	1	4	2	4	3	4	4	
3	2	3	9	2	0	2	1	2	2	2	3	2	4	
3	5	4	1	5	0	5	1	5	2	5	1	5	0	
4	6	5	0	2	6	0	6	1	6	2	6	5	6	4	
3	6	5	4	6	0	6	1	6	2	6	5	6	4	
2	8	7	8	0	8	1	8	2	8	3	8	4	
3	7	6	5	7	0	7	1	7	2	7	5	7	4	
2	4	5	4	0	4	1	4	2	4	5	4	4	
2	5	4	5	0	5	1	5	2	5	1	5	0	
4	3	9	5	6	3	0	3	1	3	2	3	5	3	4	
3	7	6	5	7	0	7	1	7	5	7	3	7	4	
2	9	3	9	0	9	1	9	5	9	3	9	4	
4	7	6	5	0	7	0	7	1	7	5	7	3	7	4	
2	9	5	9	0	9	1	9	5	9	3	9	4	
3	3	9	5	3	0	3	1	3	2	3	3	3	4	
2	6	8	6	0	6	1	6	2	6	1	6	0	
2	4	2	4	0	4	1	4	2	4	1	4	0	
2	5	9	5	0	5	1	5	2	5	5	5	4	
3	3	2	0	3	0	3	1	3	2	3	5	3	4	
4	4	5	6	7	4	0	4	1	4	2	4	1	4	0	
2	9	8	9	0	9	1	9	2	9	5	9	4	
4	2	3	9	8	2	0	2	1	2	5	2	3	2	4	
3	5	4	2	5	0	5	1	5	2	5	3	5	4	
4	8	9	5	0	8	0	8	1	8	5	8	3	8	4	
4	8	9	3	1	8	0	8	1	8	2	8	1	8	0	
5	1	0	5	6	7	1	0	1	1	1	5	1	3	1	4	
2	6	7	6	0	6	1	6	5	6	3	6	4	
2	8	6	8	0	8	1	8	5	8	3	8	4	
4	3	9	8	7	3	0	3	1	3	2	3	1	3	0	
3	2	0	5	2	0	2	1	2	2	2	5	2	4	
3	9	8	6	9	0	9	1	9	2	9	5	9	4	
2	3	2	3	0	3	1	3	2	3	1	3	0	
2	4	1	4	0	4	1	4	2	4	3	4	4	
4	2	0	5	6	2	0	2	1	2	2	2	3	2	4	
2	4	3	4	0	4	1	4	2	4	5	4	4	
3	0	5	4	0	0	0	1	0	5	0	3	0	4	
3	4	5	6	4	0	4	1	4	2	4	5	4	4	
2	3	9	3	0	3	1	3	2	3	5	3	4	
2	1	0	1	0	1	1	1	2	1	5	1	4	
3	8	6	5	8	0	8	1	8	2	8	5	8	4	
3	9	3	4	9	0	9	1	9	2	9	1	9	0	
4	0	5	9	8	0	0	0	1	0	5	0	3	0	4	
2	5	6	5	0	5	1	5	5	5	3	5	4	
2	3	4	3	0	3	1	3	2	3	3	3	4	
2	1	3	1	0	1	1	1	2	1	3	1	4	
2	7	8	7	0	7	1	7	2	7	1	7	0	
2	2	4	2	0	2	1	2	2	2	1	2	0	
3	4	5	9	4	0	4	1	4	5	4	3	4	4	
3	2	3	9	2	0	2	1	2	2	2	1	2	0	
3	5	4	1	5	0	5	1	5	2	5	3	5	4	
3	0	1	3	0	0	0	1	0	2	0	5	0	4	
4	6	5	0	2	6	0	6	1	6	2	6	1	6	0	
2	8	7	8	0	8	1	8	2	8	1	8	0	
2	4	5	4	0	4	1	4	5	4	3	4	4	
2	7	8	7	0	7	1	7	2	7	5	7	4	
4	3	9	5	6	3	0	3	1	3	5	3	3	3	4	
2	9	3	9	0	9	1	9	2	9	5	9	4	
2	9	5	9	0	9	1	9	2	9	5	9	4	
2	4	2	4	0	4	1	4	2	4	3	4	4	
5	2	0	5	6	7	2	0	2	1	2	2	2	3	2	4	
